G04 DipTrace 2.4.0.2*
%INBoard.gbr*%
%MOMM*%
%ADD11C,0.14*%
%FSLAX53Y53*%
G04*
G71*
G90*
G75*
G01*
%LNBoardPoly*%
%LPD*%
G36*
X10009Y105576D2*
G54D11*
G02X12231Y107799I2170J53D01*
G01*
X105576D1*
G02X107799Y105576I53J-2170D01*
G01*
Y12072D1*
G02X105735Y10009I-2143J79D01*
G01*
X12231D1*
G02X10009Y12231I-53J2170D01*
G01*
Y105576D1*
G37*
M02*
