G04 DipTrace 2.4.0.2*
%INTopSilk.gbr*%
%MOMM*%
%ADD10C,0.25*%
%ADD16C,0.6*%
%ADD31O,0.392X0.391*%
%ADD70C,0.157*%
%ADD71C,0.235*%
%ADD72C,0.471*%
%FSLAX53Y53*%
G04*
G71*
G90*
G75*
G01*
%LNTopSilk*%
%LPD*%
G54D16*
X27940Y13952D3*
X26640Y16403D2*
G54D10*
Y18802D1*
X29240Y16403D2*
Y18802D1*
G54D16*
X33814Y13952D3*
X32514Y16403D2*
G54D10*
Y18802D1*
X35114Y16403D2*
Y18802D1*
X38419Y99074D2*
Y102881D1*
X38425Y99067D2*
G03X38425Y102889I2535J1911D01*
G01*
X31116Y99233D2*
Y103040D1*
X31121Y99225D2*
G03X31121Y103047I2535J1911D01*
G01*
X59539Y100179D2*
X54459D1*
Y92559D1*
X59539D1*
Y100179D1*
X27464Y33660D2*
X35084D1*
Y28580D1*
X27464D1*
Y33660D1*
X81286Y15561D2*
X96525D1*
Y13021D1*
X81286D1*
Y15561D1*
X57312D2*
X72551D1*
Y13021D1*
X57312D1*
Y15561D1*
X14921Y24135D2*
X20001D1*
Y31755D1*
X14921D1*
Y24135D1*
X48425Y58269D2*
X83985D1*
Y55729D1*
X48425D1*
Y58269D1*
Y83669D2*
X83985D1*
Y81129D1*
X48425D1*
Y83669D1*
X86525Y63348D2*
X89065D1*
Y76049D1*
X86525D1*
Y63348D1*
X50965Y86209D2*
X61126D1*
Y83669D1*
X50965D1*
Y86209D1*
X63665Y55729D2*
X81445D1*
Y53189D1*
X63665D1*
Y55729D1*
Y86209D2*
X81445D1*
Y83669D1*
X63665D1*
Y86209D1*
X31750Y42551D2*
X41910D1*
Y37471D1*
X31750D1*
Y42551D1*
X94146Y84307D2*
X101766D1*
Y79227D1*
X94146D1*
Y84307D1*
X102745Y48109D2*
X56972D1*
Y50649D1*
X102745D1*
Y48109D1*
X49532Y94945D2*
X44452D1*
Y97485D1*
X49532D1*
Y94945D1*
X95892Y56682D2*
X100972D1*
Y69382D1*
X95892D1*
Y56682D1*
X26516Y67626D2*
Y68225D1*
X24918Y67626D2*
Y68225D1*
X49204Y42070D2*
X49802D1*
X49204Y43668D2*
X49802D1*
X49204Y39212D2*
X49802D1*
X49204Y40810D2*
X49802D1*
X23976Y60381D2*
Y60979D1*
X22377Y60381D2*
Y60979D1*
X59704Y25886D2*
X59105D1*
X59704Y24288D2*
X59105D1*
X59619Y23029D2*
X59020D1*
X59619Y21430D2*
X59020D1*
X54142Y25235D2*
Y25834D1*
X52543Y25235D2*
Y25834D1*
X37614Y22224D2*
X38212D1*
X37614Y23822D2*
X38212D1*
X38249Y26193D2*
X38847D1*
X38249Y27792D2*
X38847D1*
X51634Y19536D2*
X51035D1*
X51634Y17937D2*
X51035D1*
X100729Y98109D2*
X101328D1*
X100729Y99708D2*
X101328D1*
X37937Y93367D2*
Y92769D1*
X39535Y93367D2*
Y92769D1*
X47140Y100020D2*
X47738D1*
X47140Y101618D2*
X47738D1*
X26516Y60482D2*
Y61080D1*
X24918Y60482D2*
Y61080D1*
X23976Y67626D2*
Y68225D1*
X22377Y67626D2*
Y68225D1*
X64519Y104029D2*
Y101488D1*
Y104029D1*
X79759D1*
X64519D1*
X79759D2*
Y101488D1*
Y104029D1*
X64519Y91329D2*
Y88789D1*
Y91329D1*
Y88789D2*
X79759D1*
X64519D1*
X79759Y91329D2*
Y88789D1*
Y91329D1*
X82299Y104029D2*
Y101488D1*
Y104029D1*
X97539D1*
X82299D1*
X97539D2*
Y101488D1*
Y104029D1*
X82299Y91329D2*
Y88789D1*
Y91329D1*
Y88789D2*
X97539D1*
X82299D1*
X97539Y91329D2*
Y88789D1*
Y91329D1*
X15079Y40805D2*
X25240D1*
Y38265D1*
X15079D1*
Y40805D1*
G54D31*
X48476Y89999D3*
X47303Y90133D2*
G54D10*
Y93133D1*
X46303D1*
Y90133D1*
X47303D1*
X47155Y79859D2*
X85255D1*
Y59539D1*
X47155D1*
Y79859D1*
X103989Y47169D2*
X55729D1*
Y17959D1*
X103989D1*
Y47169D1*
X89036Y33144D2*
Y28144D1*
X91636Y33144D2*
Y28144D1*
X89036D2*
X91636D1*
X89836Y33144D2*
X89036D1*
X90836D2*
X91636D1*
X89836D2*
G03X90836Y33144I500J0D01*
G01*
X67920Y32986D2*
Y27985D1*
X70520Y32986D2*
Y27985D1*
X67920D2*
X70520D1*
X68720Y32986D2*
X67920D1*
X69720D2*
X70520D1*
X68720D2*
G03X69720Y32986I500J0D01*
G01*
X44105Y26794D2*
Y21794D1*
X46705Y26794D2*
Y21794D1*
X44105D2*
X46705D1*
X44905Y26794D2*
X44105D1*
X45905D2*
X46705D1*
X44905D2*
G03X45905Y26794I500J0D01*
G01*
X32432Y36176D2*
G54D70*
X32530Y36225D1*
X32676Y36370D1*
Y35351D1*
X35645Y36225D2*
X35549Y36323D1*
X35403Y36371D1*
X35208D1*
X35062Y36323D1*
X34965Y36225D1*
Y36129D1*
X35014Y36031D1*
X35062Y35983D1*
X35159Y35935D1*
X35451Y35837D1*
X35549Y35789D1*
X35597Y35739D1*
X35645Y35643D1*
Y35497D1*
X35549Y35400D1*
X35403Y35351D1*
X35208D1*
X35062Y35400D1*
X34965Y35497D1*
X35959Y35837D2*
X36397D1*
X36542Y35885D1*
X36591Y35935D1*
X36639Y36031D1*
Y36177D1*
X36591Y36274D1*
X36542Y36323D1*
X36397Y36371D1*
X35959D1*
Y35351D1*
X36953Y36371D2*
Y35351D1*
X38254Y36031D2*
Y35351D1*
Y35837D2*
X38400Y35983D1*
X38498Y36031D1*
X38643D1*
X38741Y35983D1*
X38789Y35837D1*
Y35351D1*
X39103Y35885D2*
X39540D1*
X39686Y35935D1*
X39735Y35983D1*
X39783Y36079D1*
Y36177D1*
X39735Y36274D1*
X39686Y36323D1*
X39540Y36371D1*
X39103D1*
Y35351D1*
X39443Y35885D2*
X39783Y35351D1*
X40729Y36371D2*
X40097D1*
Y35351D1*
Y35885D2*
X40486D1*
X41092Y36128D2*
Y36176D1*
X41141Y36274D1*
X41189Y36322D1*
X41287Y36370D1*
X41481D1*
X41578Y36322D1*
X41626Y36274D1*
X41675Y36176D1*
Y36079D1*
X41626Y35982D1*
X41529Y35837D1*
X41043Y35351D1*
X41724D1*
X42524D2*
Y36370D1*
X42037Y35691D1*
X42766D1*
X44064Y105233D2*
G54D71*
X43917Y105159D1*
X43698Y104942D1*
Y106472D1*
X43153Y105306D2*
Y105233D1*
X43081Y105087D1*
X43008Y105014D1*
X42862Y104942D1*
X42570D1*
X42426Y105014D1*
X42353Y105087D1*
X42279Y105233D1*
Y105378D1*
X42353Y105525D1*
X42498Y105742D1*
X43227Y106472D1*
X42207D1*
X41736Y104940D2*
X41153Y106472D1*
X40570Y104940D1*
X33300Y104942D2*
X34028D1*
X34100Y105597D1*
X34028Y105525D1*
X33809Y105451D1*
X33591D1*
X33372Y105525D1*
X33226Y105670D1*
X33153Y105889D1*
Y106034D1*
X33226Y106253D1*
X33372Y106399D1*
X33591Y106472D1*
X33809D1*
X34028Y106399D1*
X34100Y106325D1*
X34174Y106180D1*
X32683Y104940D2*
X32100Y106472D1*
X31517Y104940D1*
X95197Y77617D2*
G54D70*
X95295Y77666D1*
X95441Y77811D1*
Y76791D1*
X98507D2*
Y77812D1*
X98119Y76791D1*
X97730Y77812D1*
Y76791D1*
X98821Y77277D2*
X99259D1*
X99404Y77326D1*
X99453Y77375D1*
X99501Y77472D1*
Y77618D1*
X99453Y77714D1*
X99404Y77764D1*
X99259Y77812D1*
X98821D1*
Y76791D1*
X99815Y77812D2*
Y77083D1*
X99863Y76937D1*
X99961Y76841D1*
X100107Y76791D1*
X100204D1*
X100350Y76841D1*
X100447Y76937D1*
X100496Y77083D1*
Y77812D1*
X100809Y77301D2*
X101371D1*
X102317Y77472D2*
X102268Y77326D1*
X102171Y77228D1*
X102025Y77180D1*
X101977D1*
X101831Y77228D1*
X101734Y77326D1*
X101685Y77472D1*
Y77520D1*
X101734Y77666D1*
X101831Y77763D1*
X101977Y77811D1*
X102025D1*
X102171Y77763D1*
X102268Y77666D1*
X102317Y77472D1*
Y77228D1*
X102268Y76985D1*
X102171Y76839D1*
X102025Y76791D1*
X101928D1*
X101782Y76839D1*
X101734Y76937D1*
X102631Y77617D2*
X102728Y77666D1*
X102874Y77811D1*
Y76791D1*
X103771Y77811D2*
X103286D1*
X103238Y77374D1*
X103286Y77422D1*
X103432Y77472D1*
X103577D1*
X103723Y77422D1*
X103820Y77326D1*
X103869Y77180D1*
Y77083D1*
X103820Y76937D1*
X103723Y76839D1*
X103577Y76791D1*
X103432D1*
X103286Y76839D1*
X103238Y76889D1*
X103188Y76985D1*
X104474Y77811D2*
X104328Y77763D1*
X104231Y77617D1*
X104182Y77374D1*
Y77228D1*
X104231Y76985D1*
X104328Y76839D1*
X104474Y76791D1*
X104571D1*
X104717Y76839D1*
X104814Y76985D1*
X104863Y77228D1*
Y77374D1*
X104814Y77617D1*
X104717Y77763D1*
X104571Y77811D1*
X104474D1*
X104814Y77617D2*
X104231Y76985D1*
X58308Y12400D2*
Y11379D1*
X58891D1*
X59205Y11768D2*
X59788D1*
Y11866D1*
X59740Y11963D1*
X59691Y12012D1*
X59594Y12060D1*
X59448D1*
X59351Y12012D1*
X59253Y11914D1*
X59205Y11768D1*
Y11671D1*
X59253Y11525D1*
X59351Y11429D1*
X59448Y11379D1*
X59594D1*
X59691Y11429D1*
X59788Y11525D1*
X60490Y12400D2*
X60394D1*
X60296Y12352D1*
X60248Y12206D1*
Y11379D1*
X60102Y12060D2*
X60442D1*
X60950Y12400D2*
Y11574D1*
X60998Y11429D1*
X61096Y11379D1*
X61193D1*
X60804Y12060D2*
X61144D1*
X63271Y11379D2*
Y12400D1*
X62882Y11379D1*
X62494Y12400D1*
Y11379D1*
X63827Y12060D2*
X63731Y12012D1*
X63633Y11914D1*
X63585Y11768D1*
Y11671D1*
X63633Y11525D1*
X63731Y11429D1*
X63827Y11379D1*
X63973D1*
X64071Y11429D1*
X64168Y11525D1*
X64217Y11671D1*
Y11768D1*
X64168Y11914D1*
X64071Y12012D1*
X63973Y12060D1*
X63827D1*
X64677Y12400D2*
Y11574D1*
X64725Y11429D1*
X64823Y11379D1*
X64919D1*
X64531Y12060D2*
X64871D1*
X65476D2*
X65379Y12012D1*
X65281Y11914D1*
X65233Y11768D1*
Y11671D1*
X65281Y11525D1*
X65379Y11429D1*
X65476Y11379D1*
X65622D1*
X65719Y11429D1*
X65816Y11525D1*
X65865Y11671D1*
Y11768D1*
X65816Y11914D1*
X65719Y12012D1*
X65622Y12060D1*
X65476D1*
X66179D2*
Y11379D1*
Y11768D2*
X66229Y11914D1*
X66325Y12012D1*
X66423Y12060D1*
X66569D1*
X68858Y11889D2*
X69419D1*
X71157Y12327D2*
Y11452D1*
X70721Y11889D2*
X71595D1*
X81645Y11755D2*
X82082D1*
X82228Y11805D1*
X82278Y11853D1*
X82326Y11949D1*
Y12047D1*
X82278Y12144D1*
X82228Y12193D1*
X82082Y12241D1*
X81645D1*
Y11221D1*
X81986Y11755D2*
X82326Y11221D1*
X82640Y12241D2*
X82688Y12193D1*
X82737Y12241D1*
X82688Y12291D1*
X82640Y12241D1*
X82688Y11901D2*
Y11221D1*
X83634Y11853D2*
Y11075D1*
X83586Y10930D1*
X83537Y10880D1*
X83440Y10832D1*
X83294D1*
X83197Y10880D1*
X83634Y11707D2*
X83537Y11803D1*
X83440Y11853D1*
X83294D1*
X83197Y11803D1*
X83099Y11707D1*
X83051Y11561D1*
Y11463D1*
X83099Y11318D1*
X83197Y11221D1*
X83294Y11172D1*
X83440D1*
X83537Y11221D1*
X83634Y11318D1*
X83948Y12241D2*
Y11221D1*
Y11707D2*
X84094Y11853D1*
X84191Y11901D1*
X84337D1*
X84434Y11853D1*
X84482Y11707D1*
Y11221D1*
X84942Y12241D2*
Y11415D1*
X84990Y11270D1*
X85088Y11221D1*
X85185D1*
X84796Y11901D2*
X85136D1*
X87263Y11221D2*
Y12241D1*
X86874Y11221D1*
X86486Y12241D1*
Y11221D1*
X87819Y11901D2*
X87723Y11853D1*
X87625Y11755D1*
X87577Y11609D1*
Y11513D1*
X87625Y11367D1*
X87723Y11270D1*
X87819Y11221D1*
X87965D1*
X88063Y11270D1*
X88160Y11367D1*
X88209Y11513D1*
Y11609D1*
X88160Y11755D1*
X88063Y11853D1*
X87965Y11901D1*
X87819D1*
X88669Y12241D2*
Y11415D1*
X88717Y11270D1*
X88815Y11221D1*
X88911D1*
X88523Y11901D2*
X88863D1*
X89468D2*
X89371Y11853D1*
X89273Y11755D1*
X89225Y11609D1*
Y11513D1*
X89273Y11367D1*
X89371Y11270D1*
X89468Y11221D1*
X89614D1*
X89711Y11270D1*
X89808Y11367D1*
X89857Y11513D1*
Y11609D1*
X89808Y11755D1*
X89711Y11853D1*
X89614Y11901D1*
X89468D1*
X90171D2*
Y11221D1*
Y11609D2*
X90221Y11755D1*
X90317Y11853D1*
X90415Y11901D1*
X90561D1*
X92850Y11730D2*
X93411D1*
X95149Y12168D2*
Y11293D1*
X94713Y11730D2*
X95587D1*
X102424Y57680D2*
X102375Y57777D1*
X102230Y57923D1*
X103249D1*
X102229Y60212D2*
X103249D1*
Y60795D1*
X102229Y61109D2*
X102277Y61157D1*
X102229Y61206D1*
X102179Y61157D1*
X102229Y61109D1*
X102569Y61157D2*
X103249D1*
X102569Y61520D2*
X103249D1*
X102763D2*
X102617Y61666D1*
X102569Y61764D1*
Y61909D1*
X102617Y62006D1*
X102763Y62055D1*
X103249D1*
X102861Y62368D2*
Y62951D1*
X102763D1*
X102665Y62903D1*
X102617Y62855D1*
X102569Y62757D1*
Y62611D1*
X102617Y62514D1*
X102715Y62417D1*
X102861Y62368D1*
X102957D1*
X103103Y62417D1*
X103200Y62514D1*
X103249Y62611D1*
Y62757D1*
X103200Y62855D1*
X103103Y62951D1*
X102375Y64933D2*
X102277Y64837D1*
X102229Y64691D1*
Y64496D1*
X102277Y64350D1*
X102375Y64253D1*
X102471D1*
X102569Y64302D1*
X102617Y64350D1*
X102665Y64447D1*
X102763Y64739D1*
X102811Y64837D1*
X102861Y64885D1*
X102957Y64933D1*
X103103D1*
X103200Y64837D1*
X103249Y64691D1*
Y64496D1*
X103200Y64350D1*
X103103Y64253D1*
X102861Y65247D2*
Y65830D1*
X102763D1*
X102665Y65782D1*
X102617Y65733D1*
X102569Y65636D1*
Y65490D1*
X102617Y65393D1*
X102715Y65295D1*
X102861Y65247D1*
X102957D1*
X103103Y65295D1*
X103200Y65393D1*
X103249Y65490D1*
Y65636D1*
X103200Y65733D1*
X103103Y65830D1*
X102569Y66144D2*
X103249D1*
X102763D2*
X102617Y66290D1*
X102569Y66387D1*
Y66532D1*
X102617Y66630D1*
X102763Y66678D1*
X103249D1*
X102715Y67526D2*
X102617Y67478D1*
X102569Y67332D1*
Y67186D1*
X102617Y67040D1*
X102715Y66992D1*
X102811Y67040D1*
X102861Y67138D1*
X102909Y67380D1*
X102957Y67478D1*
X103055Y67526D1*
X103103D1*
X103200Y67478D1*
X103249Y67332D1*
Y67186D1*
X103200Y67040D1*
X103103Y66992D1*
X102569Y68083D2*
X102617Y67986D1*
X102715Y67888D1*
X102861Y67840D1*
X102957D1*
X103103Y67888D1*
X103200Y67986D1*
X103249Y68083D1*
Y68229D1*
X103200Y68326D1*
X103103Y68423D1*
X102957Y68472D1*
X102861D1*
X102715Y68423D1*
X102617Y68326D1*
X102569Y68229D1*
Y68083D1*
Y68786D2*
X103249D1*
X102861D2*
X102715Y68836D1*
X102617Y68932D1*
X102569Y69030D1*
Y69176D1*
X21655Y25127D2*
X21605Y25225D1*
X21461Y25371D1*
X22480D1*
X21459Y26672D2*
X22188D1*
X22334Y26720D1*
X22431Y26818D1*
X22480Y26964D1*
Y27061D1*
X22431Y27207D1*
X22334Y27304D1*
X22188Y27353D1*
X21459D1*
X22480Y28445D2*
X21459Y28055D1*
X22480Y27666D1*
X22140Y27812D2*
Y28299D1*
X21946Y28758D2*
Y29195D1*
X21896Y29341D1*
X21848Y29391D1*
X21751Y29439D1*
X21654D1*
X21557Y29391D1*
X21508Y29341D1*
X21459Y29195D1*
Y28758D1*
X22480D1*
X21946Y29099D2*
X22480Y29439D1*
X21459Y30093D2*
X22480D1*
X21459Y29753D2*
Y30433D1*
X27935Y27073D2*
X28033Y27123D1*
X28179Y27268D1*
Y26248D1*
X29480Y27269D2*
Y26248D1*
X30063D1*
X30377Y27269D2*
X30425Y27220D1*
X30474Y27269D1*
X30425Y27318D1*
X30377Y27269D1*
X30425Y26928D2*
Y26248D1*
X30788Y26928D2*
Y26248D1*
Y26734D2*
X30934Y26880D1*
X31032Y26928D1*
X31177D1*
X31274Y26880D1*
X31323Y26734D1*
Y26248D1*
X31636Y26636D2*
X32219D1*
Y26734D1*
X32171Y26832D1*
X32123Y26880D1*
X32025Y26928D1*
X31879D1*
X31782Y26880D1*
X31685Y26782D1*
X31636Y26636D1*
Y26540D1*
X31685Y26394D1*
X31782Y26297D1*
X31879Y26248D1*
X32025D1*
X32123Y26297D1*
X32219Y26394D1*
X33521Y27269D2*
Y26248D1*
X34104D1*
X35048Y27269D2*
X34417D1*
Y26248D1*
X35048D1*
X34417Y26782D2*
X34806D1*
X35362Y27269D2*
Y26248D1*
X35702D1*
X35848Y26297D1*
X35946Y26394D1*
X35994Y26492D1*
X36043Y26636D1*
Y26880D1*
X35994Y27026D1*
X35946Y27123D1*
X35848Y27220D1*
X35702Y27269D1*
X35362D1*
X13100Y70963D2*
G54D71*
X12956Y70890D1*
X12809Y70744D1*
X12737Y70599D1*
Y70307D1*
X12809Y70161D1*
X12956Y70016D1*
X13100Y69942D1*
X13319Y69869D1*
X13685D1*
X13902Y69942D1*
X14049Y70016D1*
X14194Y70161D1*
X14268Y70307D1*
Y70599D1*
X14194Y70744D1*
X14049Y70890D1*
X13902Y70963D1*
X13685D1*
Y70599D1*
X12737Y72454D2*
X14268D1*
X12737Y71433D1*
X14268D1*
X12737Y72925D2*
X14268D1*
Y73435D1*
X14194Y73654D1*
X14049Y73801D1*
X13902Y73873D1*
X13685Y73946D1*
X13319D1*
X13100Y73873D1*
X12956Y73801D1*
X12809Y73654D1*
X12737Y73435D1*
Y72925D1*
X40700Y80474D2*
X41500D1*
X41064Y79891D1*
X41283D1*
X41427Y79818D1*
X41500Y79746D1*
X41574Y79527D1*
Y79382D1*
X41500Y79163D1*
X41355Y79017D1*
X41136Y78944D1*
X40917D1*
X40700Y79017D1*
X40627Y79091D1*
X40553Y79236D1*
X42117Y79091D2*
X42045Y79017D1*
X42117Y78944D1*
X42191Y79017D1*
X42117Y79091D1*
X42808Y80474D2*
X43608D1*
X43172Y79891D1*
X43391D1*
X43536Y79818D1*
X43608Y79746D1*
X43683Y79527D1*
Y79382D1*
X43608Y79163D1*
X43464Y79017D1*
X43245Y78944D1*
X43026D1*
X42808Y79017D1*
X42736Y79091D1*
X42662Y79236D1*
X44153Y79965D2*
X44591Y78944D1*
X45027Y79965D1*
X24281Y81267D2*
X23553D1*
X23480Y80612D1*
X23553Y80684D1*
X23772Y80759D1*
X23989D1*
X24208Y80684D1*
X24355Y80540D1*
X24427Y80321D1*
Y80176D1*
X24355Y79957D1*
X24208Y79810D1*
X23989Y79738D1*
X23772D1*
X23553Y79810D1*
X23480Y79884D1*
X23406Y80029D1*
X24898Y80759D2*
X25336Y79738D1*
X25772Y80759D1*
X71161Y105598D2*
X70504D1*
X70286Y105525D1*
X70212Y105451D1*
X70140Y105306D1*
Y105087D1*
X70212Y104942D1*
X70286Y104868D1*
X70504Y104796D1*
X71161D1*
Y106327D1*
X69305Y105306D2*
X69450Y105379D1*
X69597Y105525D1*
X69669Y105744D1*
Y105889D1*
X69597Y106108D1*
X69450Y106253D1*
X69305Y106327D1*
X69086D1*
X68940Y106253D1*
X68795Y106108D1*
X68721Y105889D1*
Y105744D1*
X68795Y105525D1*
X68940Y105379D1*
X69086Y105306D1*
X69305D1*
X68250D2*
X67959Y106327D1*
X67667Y105306D1*
X67376Y106327D1*
X67084Y105306D1*
X66614Y105744D2*
X65739D1*
Y105598D1*
X65812Y105451D1*
X65884Y105379D1*
X66031Y105306D1*
X66250D1*
X66395Y105379D1*
X66541Y105525D1*
X66614Y105744D1*
Y105889D1*
X66541Y106108D1*
X66395Y106253D1*
X66250Y106327D1*
X66031D1*
X65884Y106253D1*
X65739Y106108D1*
X65269Y105306D2*
Y106327D1*
Y105744D2*
X65195Y105525D1*
X65050Y105379D1*
X64903Y105306D1*
X64684D1*
X86971Y105015D2*
X87116Y104868D1*
X87335Y104796D1*
X87627D1*
X87846Y104868D1*
X87992Y105015D1*
Y105160D1*
X87918Y105306D1*
X87846Y105379D1*
X87701Y105451D1*
X87263Y105598D1*
X87116Y105670D1*
X87044Y105744D1*
X86971Y105889D1*
Y106108D1*
X87116Y106253D1*
X87335Y106327D1*
X87627D1*
X87846Y106253D1*
X87992Y106108D1*
X86282Y104796D2*
Y106036D1*
X86209Y106253D1*
X86063Y106327D1*
X85918D1*
X86501Y105306D2*
X85990D1*
X84573D2*
Y106327D1*
Y105525D2*
X84718Y105379D1*
X84864Y105306D1*
X85082D1*
X85228Y105379D1*
X85373Y105525D1*
X85447Y105744D1*
Y105889D1*
X85373Y106108D1*
X85228Y106253D1*
X85082Y106327D1*
X84864D1*
X84718Y106253D1*
X84573Y106108D1*
X84102Y105306D2*
Y106327D1*
Y105744D2*
X84028Y105525D1*
X83883Y105379D1*
X83737Y105306D1*
X83518D1*
X82828Y104796D2*
Y106036D1*
X82756Y106253D1*
X82609Y106327D1*
X82464D1*
X83047Y105306D2*
X82537D1*
X14795Y96120D2*
G54D72*
X16106D1*
X16544Y96269D1*
X16692Y96413D1*
X16837Y96703D1*
Y96996D1*
X16692Y97286D1*
X16544Y97434D1*
X16106Y97579D1*
X14795D1*
Y94517D1*
X15816Y96120D2*
X16837Y94517D1*
X17778Y95682D2*
X19527D1*
Y95975D1*
X19382Y96269D1*
X19237Y96413D1*
X18944Y96558D1*
X18506D1*
X18216Y96413D1*
X17923Y96120D1*
X17778Y95682D1*
Y95393D1*
X17923Y94955D1*
X18216Y94665D1*
X18506Y94517D1*
X18944D1*
X19237Y94665D1*
X19527Y94955D1*
X22217Y96413D2*
Y94079D1*
X22072Y93644D1*
X21927Y93496D1*
X21634Y93351D1*
X21196D1*
X20906Y93496D1*
X22217Y95975D2*
X21927Y96265D1*
X21634Y96413D1*
X21196D1*
X20906Y96265D1*
X20613Y95975D1*
X20468Y95537D1*
Y95244D1*
X20613Y94810D1*
X20906Y94517D1*
X21196Y94372D1*
X21634D1*
X21927Y94517D1*
X22217Y94810D1*
X23158Y97579D2*
Y94517D1*
X24472D1*
X24910Y94665D1*
X25055Y94810D1*
X25199Y95099D1*
Y95537D1*
X25055Y95831D1*
X24910Y95975D1*
X24472Y96120D1*
X24910Y96269D1*
X25055Y96413D1*
X25199Y96703D1*
Y96996D1*
X25055Y97286D1*
X24910Y97434D1*
X24472Y97579D1*
X23158D1*
Y96120D2*
X24472D1*
X26868Y96558D2*
X26579Y96413D1*
X26286Y96120D1*
X26141Y95682D1*
Y95393D1*
X26286Y94955D1*
X26579Y94665D1*
X26868Y94517D1*
X27306D1*
X27600Y94665D1*
X27889Y94955D1*
X28038Y95393D1*
Y95682D1*
X27889Y96120D1*
X27600Y96413D1*
X27306Y96558D1*
X26868D1*
X29417Y97579D2*
Y95099D1*
X29562Y94665D1*
X29855Y94517D1*
X30144D1*
X28979Y96558D2*
X30000D1*
X14678Y91746D2*
G54D71*
X15260Y90215D1*
X15843Y91746D1*
X16388Y91381D2*
Y91453D1*
X16460Y91600D1*
X16533Y91672D1*
X16679Y91744D1*
X16971D1*
X17116Y91672D1*
X17188Y91600D1*
X17262Y91453D1*
Y91308D1*
X17188Y91162D1*
X17043Y90944D1*
X16314Y90215D1*
X17335D1*
X17878Y90361D2*
X17805Y90287D1*
X17878Y90215D1*
X17952Y90287D1*
X17878Y90361D1*
X18860Y91744D2*
X18641Y91672D1*
X18495Y91453D1*
X18422Y91089D1*
Y90870D1*
X18495Y90506D1*
X18641Y90287D1*
X18860Y90215D1*
X19005D1*
X19224Y90287D1*
X19369Y90506D1*
X19443Y90870D1*
Y91089D1*
X19369Y91453D1*
X19224Y91672D1*
X19005Y91744D1*
X18860D1*
X19369Y91453D2*
X18495Y90506D1*
X21822Y91017D2*
X22477D1*
X22696Y91091D1*
X22770Y91164D1*
X22843Y91308D1*
Y91455D1*
X22770Y91600D1*
X22696Y91674D1*
X22477Y91746D1*
X21822D1*
Y90215D1*
X22332Y91017D2*
X22843Y90215D1*
X23313Y90798D2*
X24188D1*
Y90945D1*
X24115Y91091D1*
X24043Y91164D1*
X23896Y91236D1*
X23677D1*
X23532Y91164D1*
X23386Y91017D1*
X23313Y90798D1*
Y90653D1*
X23386Y90434D1*
X23532Y90289D1*
X23677Y90215D1*
X23896D1*
X24043Y90289D1*
X24188Y90434D1*
X24658Y91236D2*
X25096Y90215D1*
X25533Y91236D1*
X26076Y90362D2*
X26003Y90288D1*
X26076Y90215D1*
X26150Y90288D1*
X26076Y90362D1*
X28102Y91746D2*
Y90215D1*
X28759D1*
X28978Y90289D1*
X29050Y90362D1*
X29123Y90507D1*
Y90726D1*
X29050Y90872D1*
X28978Y90945D1*
X28759Y91017D1*
X28978Y91091D1*
X29050Y91164D1*
X29123Y91308D1*
Y91455D1*
X29050Y91600D1*
X28978Y91674D1*
X28759Y91746D1*
X28102D1*
Y91017D2*
X28759D1*
X14836Y88061D2*
Y87040D1*
Y87623D2*
X14910Y87842D1*
X15055Y87989D1*
X15202Y88061D1*
X15421D1*
X16693Y87842D2*
X16621Y87989D1*
X16402Y88061D1*
X16183D1*
X15964Y87989D1*
X15891Y87842D1*
X15964Y87697D1*
X16110Y87623D1*
X16474Y87551D1*
X16621Y87478D1*
X16693Y87332D1*
Y87259D1*
X16621Y87114D1*
X16402Y87040D1*
X16183D1*
X15964Y87114D1*
X15891Y87259D1*
X17164Y87623D2*
X18038D1*
Y87770D1*
X17966Y87916D1*
X17893Y87989D1*
X17747Y88061D1*
X17528D1*
X17383Y87989D1*
X17236Y87842D1*
X17164Y87623D1*
Y87478D1*
X17236Y87259D1*
X17383Y87114D1*
X17528Y87040D1*
X17747D1*
X17893Y87114D1*
X18038Y87259D1*
X18509Y88061D2*
X18800Y87040D1*
X19092Y88061D1*
X19383Y87040D1*
X19675Y88061D1*
X20145Y88571D2*
X20218Y88499D1*
X20292Y88571D1*
X20218Y88646D1*
X20145Y88571D1*
X20218Y88061D2*
Y87040D1*
X20762Y88571D2*
Y87040D1*
X21492Y88061D2*
X20762Y87332D1*
X21054Y87623D2*
X21564Y87040D1*
X22035Y88571D2*
X22107Y88499D1*
X22181Y88571D1*
X22107Y88646D1*
X22035Y88571D1*
X22107Y88061D2*
Y87040D1*
X22724Y87187D2*
X22652Y87113D1*
X22724Y87040D1*
X22798Y87113D1*
X22724Y87187D1*
X23269Y87623D2*
X24143D1*
Y87770D1*
X24071Y87916D1*
X23999Y87989D1*
X23852Y88061D1*
X23633D1*
X23488Y87989D1*
X23342Y87842D1*
X23269Y87623D1*
Y87478D1*
X23342Y87259D1*
X23488Y87114D1*
X23633Y87040D1*
X23852D1*
X23999Y87114D1*
X24143Y87259D1*
X24614Y88571D2*
Y87040D1*
X25085Y87623D2*
X25959D1*
Y87770D1*
X25886Y87916D1*
X25814Y87989D1*
X25667Y88061D1*
X25448D1*
X25304Y87989D1*
X25157Y87842D1*
X25085Y87623D1*
Y87478D1*
X25157Y87259D1*
X25304Y87114D1*
X25448Y87040D1*
X25667D1*
X25814Y87114D1*
X25959Y87259D1*
X26429Y88571D2*
Y87040D1*
X27159Y88061D2*
X26429Y87332D1*
X26721Y87623D2*
X27231Y87040D1*
X27921Y88571D2*
Y87332D1*
X27993Y87114D1*
X28140Y87040D1*
X28285D1*
X27702Y88061D2*
X28212D1*
X28755D2*
Y87040D1*
Y87623D2*
X28830Y87842D1*
X28974Y87989D1*
X29121Y88061D1*
X29340D1*
X30174D2*
X30030Y87989D1*
X29883Y87842D1*
X29811Y87623D1*
Y87478D1*
X29883Y87259D1*
X30030Y87114D1*
X30174Y87040D1*
X30393D1*
X30540Y87114D1*
X30685Y87259D1*
X30759Y87478D1*
Y87623D1*
X30685Y87842D1*
X30540Y87989D1*
X30393Y88061D1*
X30174D1*
X31302Y87187D2*
X31230Y87113D1*
X31302Y87040D1*
X31376Y87113D1*
X31302Y87187D1*
X32721Y88571D2*
Y87040D1*
Y87842D2*
X32576Y87989D1*
X32430Y88061D1*
X32211D1*
X32066Y87989D1*
X31919Y87842D1*
X31847Y87623D1*
Y87478D1*
X31919Y87259D1*
X32066Y87114D1*
X32211Y87040D1*
X32430D1*
X32576Y87114D1*
X32721Y87259D1*
X33411Y88571D2*
Y87332D1*
X33483Y87114D1*
X33630Y87040D1*
X33774D1*
X33192Y88061D2*
X33702D1*
X34245D2*
Y87332D1*
X34318Y87114D1*
X34464Y87040D1*
X34683D1*
X34828Y87114D1*
X35047Y87332D1*
Y88061D2*
Y87040D1*
X35590Y87187D2*
X35518Y87113D1*
X35590Y87040D1*
X35664Y87113D1*
X35590Y87187D1*
X37009Y88571D2*
Y87040D1*
Y87842D2*
X36864Y87989D1*
X36718Y88061D1*
X36499D1*
X36354Y87989D1*
X36207Y87842D1*
X36135Y87623D1*
Y87478D1*
X36207Y87259D1*
X36354Y87114D1*
X36499Y87040D1*
X36718D1*
X36864Y87114D1*
X37009Y87259D1*
X37480Y88571D2*
Y87040D1*
X38209Y88061D2*
X37480Y87332D1*
X37771Y87623D2*
X38281Y87040D1*
X43384Y72102D2*
X43237Y72028D1*
X43018Y71811D1*
Y73340D1*
X42473Y72174D2*
Y72102D1*
X42401Y71955D1*
X42328Y71883D1*
X42182Y71811D1*
X41890D1*
X41746Y71883D1*
X41673Y71955D1*
X41599Y72102D1*
Y72247D1*
X41673Y72393D1*
X41818Y72611D1*
X42547Y73340D1*
X41527D1*
X41056Y71809D2*
X40473Y73340D1*
X39890Y71809D1*
X54524Y103201D2*
X54671Y103275D1*
X54890Y103493D1*
Y101963D1*
X58323Y103201D2*
X58470Y103275D1*
X58689Y103493D1*
Y101963D1*
X59233Y103129D2*
Y103201D1*
X59306Y103348D1*
X59378Y103420D1*
X59525Y103493D1*
X59816D1*
X59961Y103420D1*
X60034Y103348D1*
X60108Y103201D1*
Y103056D1*
X60034Y102910D1*
X59889Y102693D1*
X59159Y101963D1*
X60180D1*
X60651Y103494D2*
X61234Y101963D1*
X61816Y103494D1*
M02*
