G04 DipTrace 2.4.0.2*
%INBottom.gbr*%
%MOIN*%
%ADD14C,0.01*%
%ADD15C,0.02*%
%ADD16C,0.025*%
%ADD21R,0.0669X0.0669*%
%ADD22C,0.0669*%
%ADD23C,0.0591*%
%ADD24C,0.1*%
%ADD28C,0.067*%
%FSLAX44Y44*%
G04*
G70*
G90*
G75*
G01*
%LNBottom*%
%LPD*%
X24940Y32440D2*
D14*
Y30440D1*
X16440Y9940D2*
Y12633D1*
X14562Y14511D1*
X31940Y19440D2*
Y17440D1*
X24940Y11375D2*
X24710Y11145D1*
X23940D1*
Y5440D1*
X24940Y17440D2*
Y11375D1*
Y19440D2*
Y17440D1*
Y30440D2*
Y28300D1*
X25405Y27835D1*
Y19905D1*
X24940Y19440D1*
X13440Y33440D2*
X12956Y32956D1*
Y14093D1*
X13236Y13813D1*
X6440Y10940D2*
X11682D1*
X12398Y11656D1*
X13440Y10613D1*
Y8940D1*
X28940Y5440D2*
Y4796D1*
X29120Y4616D1*
X35760D1*
X35940Y4796D1*
Y5440D1*
X22951Y6905D2*
Y13378D1*
X13236Y13813D2*
X12685Y13262D1*
X12398D1*
X12218Y13442D1*
X11640D1*
X15440Y33440D2*
X16440D1*
X11440D2*
X12440D1*
X22940Y32440D2*
Y30440D1*
X12398Y11656D2*
Y13262D1*
X13440Y8940D2*
X12905Y8405D1*
Y5226D1*
X13190Y4940D1*
X13940D1*
X15440Y6440D1*
X16905Y17788D2*
Y7905D1*
X15905Y6905D1*
Y5976D1*
X16440Y5440D1*
X28940Y21440D2*
X29405Y21905D1*
Y26975D1*
X28940Y27440D1*
Y28440D2*
X29405Y28905D1*
Y32975D1*
X28940Y33440D1*
X20530Y28440D2*
Y7381D1*
X20350Y7201D1*
X19085D1*
X18905Y7021D1*
Y6085D1*
X18725Y5905D1*
X16976D1*
X16440Y6440D1*
X32940Y27440D2*
X32405Y26905D1*
Y21975D1*
X32940Y21440D1*
X32405Y20905D1*
Y14420D1*
X28440Y10455D1*
Y4976D1*
X28260Y4796D1*
X18085D1*
X17440Y5440D1*
X20034Y10125D2*
Y8476D1*
X19854Y8296D1*
X17620D1*
X17440Y8116D1*
Y6440D1*
X33940Y27440D2*
X33405Y26905D1*
Y21975D1*
X33940Y21440D1*
X33405Y20905D1*
Y10125D1*
X34940Y27440D2*
X35405Y26975D1*
Y21905D1*
X34940Y21440D1*
X18905Y5026D2*
Y5440D1*
X18440D1*
X34940Y21440D2*
X34405Y20905D1*
Y9719D1*
X34225Y9539D1*
X31450D1*
X31270Y9359D1*
Y6545D1*
X20300Y25185D2*
Y8116D1*
X20120Y7936D1*
X18620D1*
X18440Y7756D1*
Y6440D1*
X34940Y33440D2*
X35405Y32975D1*
Y29185D1*
Y28905D1*
X34940Y28440D1*
X33940D2*
X34405Y28905D1*
Y32975D1*
X33940Y33440D1*
X21005Y25415D2*
Y5620D1*
X20825Y5440D1*
X19440D1*
X32940Y28440D2*
X32405Y28975D1*
Y32905D1*
X32940Y33440D1*
X20775Y26365D2*
Y6620D1*
X20595Y6440D1*
X19440D1*
X30940Y27440D2*
X31405Y26975D1*
Y21905D1*
X30940Y21440D1*
Y20085D1*
X30760Y19905D1*
X28585D1*
X28405Y19725D1*
Y13468D1*
X27315Y12378D1*
Y10878D1*
X35940Y32440D2*
Y30440D1*
X37225D1*
X37405Y30260D1*
Y17093D1*
X36839Y16527D1*
X36152D1*
X35815Y16190D1*
Y10440D1*
X20070Y18760D2*
Y13420D1*
X17440Y10789D1*
Y9940D1*
X28940Y22440D2*
Y23265D1*
Y24440D1*
X22940Y38940D2*
D15*
Y37940D1*
X15440Y5440D2*
Y4796D1*
X15260Y4616D1*
X12265D1*
X11440Y5440D1*
X29940D2*
X30065D1*
X30565Y5940D1*
X31190D1*
X31440Y5690D1*
Y5190D1*
X31690Y4940D1*
X35315D1*
X35440Y5065D1*
Y5940D1*
X35585Y6085D1*
X36296D1*
X36940Y5440D1*
X16440Y8940D2*
X15725Y9656D1*
Y12021D1*
X14190Y13556D1*
Y14690D1*
X14315Y14815D1*
X16366D1*
X16670Y14511D1*
X11440Y6440D2*
Y8296D1*
X11620Y8476D1*
X11976D1*
X12440Y8940D1*
X9440Y18440D2*
Y16792D1*
X30565Y5940D2*
X30570Y5935D1*
Y8373D1*
X19440Y18440D2*
Y16875D1*
X37940Y19440D2*
Y17440D1*
X28940D2*
Y19440D1*
X23940Y17440D2*
Y15267D1*
X23051Y14378D1*
X23940Y19440D2*
Y17440D1*
X22940Y22440D2*
Y21407D1*
X23940Y20407D1*
Y19440D1*
X22940Y24440D2*
Y22440D1*
X23940Y30440D2*
X23405Y29905D1*
Y24905D1*
X22940Y24440D1*
X23940Y32440D2*
Y30440D1*
X22940Y36940D2*
X23440Y36440D1*
Y32940D1*
X23940Y32440D1*
X22940Y37940D2*
Y36940D1*
X11440Y8296D2*
X7085D1*
X6440Y8940D1*
X11440Y5440D2*
Y6440D1*
X16054Y15058D2*
Y15903D1*
X16440Y16290D1*
Y18440D1*
X16366Y14815D2*
X16054D1*
Y15058D1*
X19440Y11874D2*
D14*
Y9940D1*
X36685Y30210D2*
Y28085D1*
X36505Y27905D1*
X32475D1*
X31940Y28440D1*
X32304Y33905D2*
X32280D1*
X31940Y33565D1*
Y33440D1*
X36505Y27905D2*
X36685Y27725D1*
Y23265D1*
X30940Y33440D2*
X31405Y32975D1*
Y28905D1*
X30940Y28440D1*
X30405Y27905D1*
Y20135D1*
X13440Y5440D2*
Y6440D1*
X30940Y30440D2*
Y32440D1*
X13440Y6440D2*
X13905Y6905D1*
Y29686D1*
X14085Y29866D1*
X19941D1*
X20065Y29990D1*
Y31190D1*
X27940Y24440D2*
Y22440D1*
Y19440D2*
Y17440D1*
Y22440D2*
Y19440D1*
X25940Y24440D2*
Y22440D1*
Y19440D2*
Y17440D1*
Y22440D2*
Y19440D1*
X28940Y32440D2*
Y30440D1*
Y29673D1*
X27405Y28138D1*
Y12979D1*
X27000Y12574D1*
Y7753D1*
X27940Y6813D1*
Y5440D1*
X26405Y28670D2*
Y5975D1*
X26940Y5440D1*
X29940Y30440D2*
Y32440D1*
X36455Y31926D2*
X39225D1*
X39405Y31746D1*
Y16975D1*
X39175Y16745D1*
X33940Y32440D2*
Y30440D1*
X30940Y17440D2*
Y19440D1*
X26940Y29440D2*
X26405Y29975D1*
Y32975D1*
X25940Y33440D1*
X20350Y28965D2*
X18085D1*
X17905Y28785D1*
Y16378D1*
X14795Y7135D2*
Y12065D1*
X29192Y8373D2*
Y6825D1*
X29405Y6613D1*
Y4976D1*
X29585Y4796D1*
X30296D1*
X30940Y5440D1*
X17610Y15878D2*
Y12688D1*
X26940Y24440D2*
Y22440D1*
Y19440D2*
Y17440D1*
Y22440D2*
Y19440D1*
X35940Y24440D2*
Y22440D1*
X19804Y9405D2*
X19440D1*
Y8940D1*
X35940Y22440D2*
Y20397D1*
X35405Y19862D1*
Y9405D1*
X34940Y24440D2*
Y22440D1*
X38940Y17440D2*
Y19440D1*
X7574Y8940D2*
X10440D1*
X33940Y17440D2*
Y19440D1*
X9440Y6320D2*
X5976D1*
X5796Y6500D1*
Y9225D1*
X5976Y9405D1*
X10976D1*
X11440Y8940D1*
X24940Y33440D2*
X25405Y32975D1*
Y29975D1*
X25940Y29440D1*
X29940Y21440D2*
X29296Y20796D1*
X28585D1*
X28405Y20976D1*
Y27725D1*
X28585Y27905D1*
X29475D1*
X29940Y27440D1*
X31940Y24955D2*
Y27440D1*
X29940Y28440D2*
Y29246D1*
X30405Y29711D1*
Y32975D1*
X29940Y33440D1*
Y17440D2*
Y19440D1*
X25940Y36972D2*
X23507Y39405D1*
X21530D1*
X21315Y39190D1*
Y34503D1*
X21029Y34216D1*
X9216D1*
X8905Y33905D1*
Y15642D1*
X22940Y17440D2*
Y19440D1*
X33940Y24440D2*
Y22440D1*
X36940Y19440D2*
Y17440D1*
X31940Y22440D2*
Y24440D1*
X34940Y19440D2*
Y17440D1*
X36455Y30905D2*
X38225D1*
X38405Y30725D1*
Y17155D1*
X36190Y14940D1*
Y8813D1*
X34940Y7563D1*
Y5440D1*
X26940Y30440D2*
Y32440D1*
X27940Y30440D2*
Y32440D1*
X34940D2*
Y30440D1*
X39940Y19440D2*
Y17440D1*
X34940Y30440D2*
Y28955D1*
X20120Y27866D2*
X19085D1*
X18905Y27686D1*
Y17415D1*
X18135Y16645D1*
X26940Y33440D2*
X27405Y32975D1*
Y29905D1*
Y29440D1*
X27940D1*
X32940Y22440D2*
Y24440D1*
X35940Y19440D2*
Y17440D1*
X23940Y22440D2*
Y24440D1*
X21440Y31690D2*
Y5940D1*
X21940Y5440D1*
X32940Y30440D2*
Y32440D1*
X31940D2*
Y30440D1*
X22405Y27955D2*
Y5976D1*
X22940Y5440D1*
X31940Y30440D2*
Y29365D1*
X30940Y22440D2*
Y24440D1*
X32940Y19440D2*
Y17440D1*
Y38940D2*
X33750Y38130D1*
Y34067D1*
X33425Y33742D1*
Y28905D1*
X29940Y22440D2*
Y24440D1*
Y26595D1*
X24940Y22440D2*
Y24440D1*
X22190Y30940D2*
Y16626D1*
X22170D1*
X25940Y30440D2*
Y32440D1*
X21940Y38940D2*
D15*
Y37940D1*
X12440Y5440D2*
Y6440D1*
X21940Y12115D2*
Y7526D1*
Y36940D2*
X21815D1*
Y12115D1*
X21940D1*
Y37940D2*
Y36940D1*
X12260Y7173D2*
Y8216D1*
X12440Y6440D2*
Y6753D1*
X12288Y6905D1*
X12260D1*
Y7173D1*
X23940Y33440D2*
D14*
X24405Y32975D1*
Y30035D1*
X23940Y29570D1*
Y29440D1*
X24405Y28975D1*
Y13046D1*
X23281Y11922D1*
Y7756D1*
D15*
X24940Y11375D3*
X14562Y14511D3*
X13236Y13813D3*
X11640Y13442D3*
X22951Y13378D3*
Y6905D3*
X16905Y17788D3*
X20530Y28440D3*
X20034Y10125D3*
X33405D3*
X31270Y6545D3*
X18905Y5026D3*
X20300Y25185D3*
X35405Y29185D3*
X21005Y25415D3*
X20775Y26365D3*
X27315Y10878D3*
X35815Y10440D3*
X20070Y18760D3*
X28940Y23265D3*
X9440Y16792D3*
X16054Y15058D3*
X23051Y14378D3*
X19440Y16875D3*
X16670Y14511D3*
X19440Y11874D3*
X36685Y30210D3*
X32304Y33905D3*
X36685Y23265D3*
X30405Y20135D3*
X20065Y31190D3*
X26405Y28670D3*
X39175Y16745D3*
X36455Y31926D3*
X17905Y16378D3*
X20350Y28965D3*
X14795Y12065D3*
Y7135D3*
X17610Y12688D3*
Y15878D3*
X35405Y9405D3*
X19804D3*
X7574Y8940D3*
X9440Y6320D3*
X31940Y24955D3*
X8905Y15642D3*
X36455Y30905D3*
X34940Y28955D3*
X18135Y16645D3*
X20120Y27866D3*
X27405Y29905D3*
X21440Y31690D3*
X31940Y29365D3*
X22405Y27955D3*
X33425Y28905D3*
X29940Y26595D3*
X22170Y16626D3*
X22190Y30940D3*
X21940Y12115D3*
X12260Y8216D3*
Y7173D3*
X21940Y7526D3*
X23281Y7756D3*
X4411Y41807D2*
D16*
X5283D1*
X5598D2*
X40783D1*
X41098D2*
X41970D1*
X4352Y41558D2*
X4794D1*
X6087D2*
X40294D1*
X41587D2*
X42029D1*
X4352Y41309D2*
X4619D1*
X6258D2*
X40119D1*
X41758D2*
X42029D1*
X4352Y41061D2*
X4546D1*
X6333D2*
X40048D1*
X41833D2*
X42029D1*
X4352Y40812D2*
X4546D1*
X6333D2*
X40048D1*
X41833D2*
X42029D1*
X4352Y40563D2*
X4623D1*
X6255D2*
X40123D1*
X41755D2*
X42029D1*
X4352Y40314D2*
X4802D1*
X6079D2*
X40302D1*
X41579D2*
X42029D1*
X4352Y40066D2*
X5361D1*
X5520D2*
X40861D1*
X41020D2*
X42029D1*
X4352Y39817D2*
X42029D1*
X4352Y39568D2*
X21314D1*
X23723D2*
X32603D1*
X33278D2*
X37525D1*
X38200D2*
X42029D1*
X4352Y39320D2*
X21076D1*
X23973D2*
X32326D1*
X33555D2*
X37248D1*
X38477D2*
X42029D1*
X4352Y39071D2*
X21037D1*
X22485D2*
X23458D1*
X24223D2*
X32224D1*
X33653D2*
X37146D1*
X38575D2*
X42029D1*
X4352Y38822D2*
X21037D1*
X22489D2*
X23708D1*
X24469D2*
X32224D1*
X33657D2*
X37146D1*
X38579D2*
X42029D1*
X4352Y38574D2*
X21037D1*
X22356D2*
X23958D1*
X24719D2*
X32318D1*
X33688D2*
X37240D1*
X38485D2*
X42029D1*
X4352Y38325D2*
X21037D1*
X22340D2*
X24205D1*
X24969D2*
X32580D1*
X33938D2*
X37498D1*
X38223D2*
X42029D1*
X4352Y38076D2*
X21037D1*
X22485D2*
X24455D1*
X25215D2*
X33423D1*
X34028D2*
X42029D1*
X4352Y37828D2*
X21037D1*
X22489D2*
X24705D1*
X25465D2*
X33474D1*
X34028D2*
X42029D1*
X4352Y37579D2*
X21037D1*
X22360D2*
X24951D1*
X26317D2*
X30486D1*
X31239D2*
X32564D1*
X33317D2*
X33474D1*
X34028D2*
X37486D1*
X38239D2*
X42029D1*
X4352Y37330D2*
X21037D1*
X22333D2*
X25201D1*
X26567D2*
X30232D1*
X31489D2*
X32310D1*
X34028D2*
X37232D1*
X38489D2*
X42029D1*
X4352Y37082D2*
X21037D1*
X22481D2*
X25220D1*
X26657D2*
X30142D1*
X31579D2*
X32220D1*
X34028D2*
X37142D1*
X38579D2*
X42029D1*
X4352Y36833D2*
X21037D1*
X22493D2*
X25228D1*
X26653D2*
X30150D1*
X31575D2*
X32228D1*
X34028D2*
X37150D1*
X38575D2*
X42029D1*
X4352Y36584D2*
X21037D1*
X22368D2*
X25330D1*
X26551D2*
X30251D1*
X31473D2*
X32330D1*
X34028D2*
X37251D1*
X38473D2*
X42029D1*
X4352Y36335D2*
X21037D1*
X22141D2*
X25619D1*
X26262D2*
X30540D1*
X31184D2*
X32619D1*
X33262D2*
X33474D1*
X34028D2*
X37540D1*
X38184D2*
X42029D1*
X4352Y36087D2*
X21037D1*
X22141D2*
X33474D1*
X34028D2*
X42029D1*
X4352Y35838D2*
X21037D1*
X22141D2*
X33474D1*
X34028D2*
X42029D1*
X4352Y35589D2*
X21037D1*
X22141D2*
X33474D1*
X34028D2*
X42029D1*
X4352Y35341D2*
X21037D1*
X22141D2*
X33474D1*
X34028D2*
X42029D1*
X4352Y35092D2*
X21037D1*
X22141D2*
X33474D1*
X34028D2*
X42029D1*
X4352Y34843D2*
X21037D1*
X22141D2*
X33474D1*
X34028D2*
X42029D1*
X4352Y34595D2*
X21025D1*
X22141D2*
X33474D1*
X34028D2*
X42029D1*
X4352Y34346D2*
X8966D1*
X22141D2*
X33474D1*
X34028D2*
X42029D1*
X4352Y34097D2*
X8716D1*
X22141D2*
X31751D1*
X32563D2*
X33400D1*
X34028D2*
X42029D1*
X4352Y33849D2*
X5880D1*
X7813D2*
X8068D1*
X22141D2*
X23380D1*
X25313D2*
X25568D1*
X26313D2*
X26568D1*
X27313D2*
X28380D1*
X30313D2*
X30568D1*
X31313D2*
X31568D1*
X34313D2*
X34568D1*
X35313D2*
X42029D1*
X4352Y33600D2*
X5880D1*
X22141D2*
X23380D1*
X27477D2*
X28380D1*
X35477D2*
X42029D1*
X4352Y33351D2*
X5880D1*
X22141D2*
X23380D1*
X27493D2*
X28380D1*
X35493D2*
X42029D1*
X4352Y33102D2*
X5880D1*
X22141D2*
X23380D1*
X27649D2*
X28380D1*
X35649D2*
X42029D1*
X4352Y32854D2*
X5880D1*
X22141D2*
X22380D1*
X23501D2*
X24130D1*
X28305D2*
X28572D1*
X36305D2*
X42029D1*
X4352Y32605D2*
X5880D1*
X22141D2*
X22380D1*
X23501D2*
X24130D1*
X36477D2*
X42029D1*
X4352Y32356D2*
X5880D1*
X22141D2*
X22380D1*
X23501D2*
X24130D1*
X36497D2*
X42029D1*
X4352Y32108D2*
X5880D1*
X22141D2*
X22380D1*
X23501D2*
X24130D1*
X39423D2*
X42029D1*
X4352Y31859D2*
X6146D1*
X6735D2*
X7146D1*
X7735D2*
X8146D1*
X9735D2*
X10146D1*
X10735D2*
X11146D1*
X11735D2*
X12146D1*
X22141D2*
X22662D1*
X23215D2*
X24130D1*
X39657D2*
X42029D1*
X4352Y31610D2*
X5947D1*
X22141D2*
X22662D1*
X23215D2*
X24130D1*
X39680D2*
X42029D1*
X4352Y31362D2*
X5923D1*
X22141D2*
X22662D1*
X23215D2*
X24130D1*
X39680D2*
X42029D1*
X4352Y31113D2*
X6040D1*
X6840D2*
X7040D1*
X7840D2*
X8040D1*
X9840D2*
X10040D1*
X10840D2*
X11040D1*
X11840D2*
X12040D1*
X22462D2*
X22662D1*
X23215D2*
X24130D1*
X39680D2*
X42029D1*
X4352Y30864D2*
X6158D1*
X6723D2*
X7158D1*
X7723D2*
X8158D1*
X9723D2*
X10158D1*
X10723D2*
X11158D1*
X11723D2*
X12158D1*
X23294D2*
X24130D1*
X39680D2*
X42029D1*
X4352Y30616D2*
X5951D1*
X23473D2*
X24130D1*
X39680D2*
X42029D1*
X4352Y30367D2*
X5923D1*
X23497D2*
X24130D1*
X39680D2*
X42029D1*
X4352Y30118D2*
X6037D1*
X6844D2*
X7037D1*
X7844D2*
X8037D1*
X9844D2*
X10037D1*
X10844D2*
X11037D1*
X11844D2*
X12037D1*
X23395D2*
X24107D1*
X39680D2*
X42029D1*
X4352Y29870D2*
X6165D1*
X6715D2*
X7165D1*
X7715D2*
X8165D1*
X9715D2*
X10165D1*
X10715D2*
X11165D1*
X11715D2*
X12165D1*
X22465D2*
X23591D1*
X39680D2*
X42029D1*
X4352Y29621D2*
X5951D1*
X22465D2*
X23412D1*
X39680D2*
X42029D1*
X4352Y29372D2*
X5923D1*
X22465D2*
X23384D1*
X39680D2*
X42029D1*
X4352Y29123D2*
X6033D1*
X6848D2*
X7033D1*
X7848D2*
X8033D1*
X9848D2*
X10033D1*
X10848D2*
X11033D1*
X11848D2*
X12033D1*
X22465D2*
X23482D1*
X39680D2*
X42029D1*
X4352Y28875D2*
X6173D1*
X6708D2*
X7173D1*
X7708D2*
X8173D1*
X9708D2*
X10173D1*
X10708D2*
X11173D1*
X11708D2*
X12173D1*
X22465D2*
X24126D1*
X39680D2*
X42029D1*
X4352Y28626D2*
X5955D1*
X22465D2*
X24130D1*
X39680D2*
X42029D1*
X4352Y28377D2*
X5923D1*
X22465D2*
X24130D1*
X39680D2*
X42029D1*
X4352Y28129D2*
X6029D1*
X6852D2*
X7031D1*
X7852D2*
X8031D1*
X9852D2*
X10031D1*
X10852D2*
X11031D1*
X11852D2*
X12031D1*
X22676D2*
X24130D1*
X39680D2*
X42029D1*
X4352Y27880D2*
X6185D1*
X6696D2*
X7185D1*
X7696D2*
X8185D1*
X9696D2*
X10185D1*
X10696D2*
X11185D1*
X11696D2*
X12185D1*
X22723D2*
X24130D1*
X39680D2*
X42029D1*
X4352Y27631D2*
X5955D1*
X22680D2*
X24130D1*
X39680D2*
X42029D1*
X4352Y27383D2*
X5923D1*
X22680D2*
X24130D1*
X39680D2*
X42029D1*
X4352Y27134D2*
X6025D1*
X6856D2*
X7024D1*
X7856D2*
X8024D1*
X9856D2*
X10024D1*
X10856D2*
X11024D1*
X11856D2*
X12024D1*
X22680D2*
X24130D1*
X39680D2*
X42029D1*
X4352Y26885D2*
X6193D1*
X6688D2*
X7193D1*
X7688D2*
X8193D1*
X9688D2*
X10193D1*
X10688D2*
X11193D1*
X11688D2*
X12193D1*
X22680D2*
X24130D1*
X39680D2*
X42029D1*
X4352Y26637D2*
X5958D1*
X22680D2*
X24130D1*
X39680D2*
X42029D1*
X4352Y26388D2*
X5919D1*
X22680D2*
X24130D1*
X39680D2*
X42029D1*
X4352Y26139D2*
X6021D1*
X6860D2*
X7016D1*
X7860D2*
X8016D1*
X9860D2*
X10016D1*
X10860D2*
X11016D1*
X11860D2*
X12016D1*
X22680D2*
X24130D1*
X39680D2*
X42029D1*
X4352Y25891D2*
X6205D1*
X6676D2*
X7205D1*
X7676D2*
X8205D1*
X9676D2*
X10205D1*
X10676D2*
X11205D1*
X11676D2*
X12205D1*
X22680D2*
X24130D1*
X39680D2*
X42029D1*
X4352Y25642D2*
X5962D1*
X22680D2*
X24130D1*
X39680D2*
X42029D1*
X4352Y25393D2*
X5919D1*
X22680D2*
X24130D1*
X39680D2*
X42029D1*
X4352Y25144D2*
X6017D1*
X6864D2*
X7017D1*
X7864D2*
X8017D1*
X9864D2*
X10017D1*
X10864D2*
X11017D1*
X11864D2*
X12017D1*
X22680D2*
X24130D1*
X39680D2*
X42029D1*
X4352Y24896D2*
X6216D1*
X6665D2*
X7216D1*
X7665D2*
X8216D1*
X9665D2*
X10216D1*
X10665D2*
X11216D1*
X11665D2*
X12216D1*
X22680D2*
X23630D1*
X39680D2*
X42029D1*
X4352Y24647D2*
X5962D1*
X22680D2*
X23419D1*
X39680D2*
X42029D1*
X4352Y24398D2*
X5919D1*
X22680D2*
X23380D1*
X39680D2*
X42029D1*
X4352Y24150D2*
X6013D1*
X6868D2*
X7010D1*
X7868D2*
X8010D1*
X9868D2*
X10010D1*
X10868D2*
X11010D1*
X11868D2*
X12010D1*
X22680D2*
X23462D1*
X39680D2*
X42029D1*
X4352Y23901D2*
X6228D1*
X6653D2*
X7228D1*
X7653D2*
X8228D1*
X9653D2*
X10228D1*
X10653D2*
X11228D1*
X11653D2*
X12228D1*
X22680D2*
X23662D1*
X39680D2*
X42029D1*
X4352Y23652D2*
X5966D1*
X22680D2*
X23662D1*
X39680D2*
X42029D1*
X4352Y23404D2*
X5919D1*
X22680D2*
X23662D1*
X39680D2*
X42029D1*
X4352Y23155D2*
X6009D1*
X6872D2*
X7011D1*
X7872D2*
X8011D1*
X9872D2*
X10011D1*
X10872D2*
X11011D1*
X11872D2*
X12011D1*
X22680D2*
X23662D1*
X39680D2*
X42029D1*
X4352Y22906D2*
X6244D1*
X6637D2*
X7244D1*
X7637D2*
X8244D1*
X9637D2*
X10244D1*
X10637D2*
X11244D1*
X11637D2*
X12244D1*
X22680D2*
X23650D1*
X39680D2*
X42029D1*
X4352Y22658D2*
X5966D1*
X22680D2*
X23423D1*
X39680D2*
X42029D1*
X4352Y22409D2*
X5919D1*
X22680D2*
X23380D1*
X39680D2*
X42029D1*
X4352Y22160D2*
X6005D1*
X6876D2*
X7005D1*
X7876D2*
X8005D1*
X9876D2*
X10005D1*
X10876D2*
X11005D1*
X11876D2*
X12005D1*
X22680D2*
X23458D1*
X39680D2*
X42029D1*
X4352Y21912D2*
X6255D1*
X6622D2*
X7255D1*
X7622D2*
X8255D1*
X9622D2*
X10255D1*
X10622D2*
X11255D1*
X11622D2*
X12255D1*
X22680D2*
X23826D1*
X39680D2*
X42029D1*
X4352Y21663D2*
X5970D1*
X22680D2*
X24130D1*
X39680D2*
X42029D1*
X4352Y21414D2*
X5919D1*
X22680D2*
X24130D1*
X39680D2*
X42029D1*
X4352Y21165D2*
X6001D1*
X22680D2*
X24130D1*
X39680D2*
X42029D1*
X4352Y20917D2*
X6275D1*
X6606D2*
X7275D1*
X7606D2*
X8275D1*
X9606D2*
X10275D1*
X10606D2*
X11275D1*
X11606D2*
X12275D1*
X22680D2*
X24130D1*
X39680D2*
X42029D1*
X4352Y20668D2*
X5974D1*
X22680D2*
X24130D1*
X39680D2*
X42029D1*
X4352Y20419D2*
X5919D1*
X22680D2*
X24130D1*
X39680D2*
X42029D1*
X4352Y20171D2*
X5998D1*
X22680D2*
X24130D1*
X39680D2*
X42029D1*
X4352Y19922D2*
X6294D1*
X6587D2*
X7294D1*
X7587D2*
X8294D1*
X9587D2*
X10294D1*
X10587D2*
X11294D1*
X11587D2*
X12294D1*
X23200D2*
X24130D1*
X40501D2*
X42029D1*
X4352Y19673D2*
X5978D1*
X23450D2*
X24130D1*
X40501D2*
X42029D1*
X4352Y19425D2*
X5919D1*
X23501D2*
X24130D1*
X40501D2*
X42029D1*
X4352Y19176D2*
X5994D1*
X23430D2*
X24130D1*
X40501D2*
X42029D1*
X4352Y18927D2*
X8626D1*
X9180D2*
X12681D1*
X23215D2*
X24130D1*
X40501D2*
X42029D1*
X4352Y18679D2*
X8626D1*
X9180D2*
X12681D1*
X23215D2*
X24130D1*
X40215D2*
X42029D1*
X4352Y18430D2*
X8626D1*
X9180D2*
X12681D1*
X23215D2*
X24130D1*
X40215D2*
X42029D1*
X4352Y18181D2*
X8626D1*
X9180D2*
X12681D1*
X23215D2*
X24130D1*
X40215D2*
X42029D1*
X4352Y17933D2*
X8626D1*
X9180D2*
X12681D1*
X23215D2*
X24130D1*
X40215D2*
X42029D1*
X4352Y17684D2*
X8626D1*
X9180D2*
X12681D1*
X23442D2*
X24130D1*
X40442D2*
X42029D1*
X4352Y17435D2*
X8626D1*
X9180D2*
X12681D1*
X23501D2*
X24130D1*
X40501D2*
X42029D1*
X4352Y17186D2*
X8626D1*
X9180D2*
X12681D1*
X23438D2*
X24130D1*
X40438D2*
X42029D1*
X4352Y16938D2*
X8626D1*
X9180D2*
X12681D1*
X23153D2*
X24130D1*
X38567D2*
X38728D1*
X40153D2*
X42029D1*
X4352Y16689D2*
X8626D1*
X9180D2*
X12681D1*
X22680D2*
X24130D1*
X38321D2*
X38853D1*
X39501D2*
X42029D1*
X4352Y16440D2*
X8626D1*
X9180D2*
X12681D1*
X22680D2*
X24130D1*
X38071D2*
X42029D1*
X4352Y16192D2*
X8626D1*
X9180D2*
X12681D1*
X22680D2*
X24130D1*
X37825D2*
X42029D1*
X4352Y15943D2*
X8626D1*
X9180D2*
X12681D1*
X22680D2*
X24130D1*
X37575D2*
X42029D1*
X4352Y15694D2*
X8583D1*
X9227D2*
X12681D1*
X22680D2*
X24130D1*
X37325D2*
X42029D1*
X4352Y15446D2*
X8650D1*
X9161D2*
X12681D1*
X22680D2*
X24130D1*
X37079D2*
X42029D1*
X4352Y15197D2*
X12681D1*
X22680D2*
X24130D1*
X36829D2*
X42029D1*
X4352Y14948D2*
X12681D1*
X22680D2*
X24130D1*
X36579D2*
X42029D1*
X4352Y14700D2*
X12681D1*
X22680D2*
X24130D1*
X36465D2*
X42029D1*
X4352Y14451D2*
X6251D1*
X6630D2*
X12681D1*
X22680D2*
X24130D1*
X36465D2*
X42029D1*
X4352Y14202D2*
X5947D1*
X6934D2*
X12681D1*
X22680D2*
X24130D1*
X36465D2*
X42029D1*
X4352Y13954D2*
X5880D1*
X7001D2*
X12720D1*
X22680D2*
X24130D1*
X36465D2*
X42029D1*
X4352Y13705D2*
X5935D1*
X6946D2*
X11466D1*
X11813D2*
X12748D1*
X22680D2*
X24130D1*
X36465D2*
X42029D1*
X4352Y13456D2*
X6185D1*
X6696D2*
X11314D1*
X23266D2*
X24130D1*
X36465D2*
X42029D1*
X4352Y13207D2*
X5951D1*
X6930D2*
X11423D1*
X23227D2*
X24130D1*
X36465D2*
X42029D1*
X4352Y12959D2*
X5880D1*
X7001D2*
X12123D1*
X23227D2*
X23935D1*
X36465D2*
X42029D1*
X4352Y12710D2*
X5931D1*
X6950D2*
X12123D1*
X23227D2*
X23689D1*
X24450D2*
X24662D1*
X36465D2*
X42029D1*
X4352Y12461D2*
X6173D1*
X6708D2*
X12123D1*
X23227D2*
X23439D1*
X24200D2*
X24662D1*
X36465D2*
X42029D1*
X4352Y12213D2*
X5955D1*
X6926D2*
X12123D1*
X23954D2*
X24662D1*
X36465D2*
X42029D1*
X4352Y11964D2*
X5880D1*
X7001D2*
X12123D1*
X23704D2*
X24662D1*
X36465D2*
X42029D1*
X4352Y11715D2*
X5927D1*
X6954D2*
X12076D1*
X23559D2*
X24662D1*
X36465D2*
X42029D1*
X4352Y11467D2*
X6162D1*
X6715D2*
X11830D1*
X23559D2*
X24626D1*
X36465D2*
X42029D1*
X4352Y11218D2*
X5955D1*
X6923D2*
X11580D1*
X36465D2*
X42029D1*
X4352Y10969D2*
X5880D1*
X12094D2*
X12705D1*
X36465D2*
X42029D1*
X4352Y10721D2*
X5927D1*
X11829D2*
X12951D1*
X36465D2*
X42029D1*
X4352Y10472D2*
X6154D1*
X6727D2*
X13162D1*
X36465D2*
X42029D1*
X4352Y10223D2*
X5958D1*
X6923D2*
X13162D1*
X36465D2*
X42029D1*
X4352Y9975D2*
X5880D1*
X7001D2*
X13162D1*
X36465D2*
X42029D1*
X4352Y9726D2*
X5923D1*
X6958D2*
X13162D1*
X36465D2*
X42029D1*
X4352Y9477D2*
X5665D1*
X11286D2*
X13162D1*
X36465D2*
X42029D1*
X4352Y9228D2*
X5517D1*
X11919D2*
X12962D1*
X36465D2*
X42029D1*
X4352Y8980D2*
X5517D1*
X6071D2*
X7251D1*
X12001D2*
X12880D1*
X36465D2*
X42029D1*
X4352Y8731D2*
X5517D1*
X6071D2*
X7330D1*
X11958D2*
X12849D1*
X36454D2*
X42029D1*
X4352Y8482D2*
X5517D1*
X6071D2*
X9880D1*
X11001D2*
X11137D1*
X11747D2*
X12095D1*
X12426D2*
X12642D1*
X36243D2*
X42029D1*
X4352Y8234D2*
X5517D1*
X6071D2*
X11935D1*
X35993D2*
X42029D1*
X4352Y7985D2*
X5517D1*
X6071D2*
X11935D1*
X35743D2*
X42029D1*
X4352Y7736D2*
X5517D1*
X6071D2*
X11935D1*
X35497D2*
X42029D1*
X4352Y7488D2*
X5517D1*
X6071D2*
X11935D1*
X23446D2*
X23662D1*
X35247D2*
X42029D1*
X4352Y7239D2*
X5517D1*
X6071D2*
X11935D1*
X23227D2*
X23662D1*
X35215D2*
X42029D1*
X4352Y6990D2*
X5517D1*
X6071D2*
X11935D1*
X23266D2*
X23662D1*
X35215D2*
X42029D1*
X4352Y6742D2*
X5517D1*
X6071D2*
X11970D1*
X23231D2*
X23662D1*
X35215D2*
X42029D1*
X4352Y6493D2*
X5517D1*
X9712D2*
X11880D1*
X22680D2*
X23662D1*
X35215D2*
X42029D1*
X4352Y6244D2*
X5068D1*
X9758D2*
X11915D1*
X22680D2*
X23662D1*
X35215D2*
X40568D1*
X41313D2*
X42029D1*
X4352Y5996D2*
X4736D1*
X6141D2*
X12115D1*
X22766D2*
X23662D1*
X35215D2*
X40236D1*
X41641D2*
X42029D1*
X4352Y5747D2*
X4595D1*
X6286D2*
X11974D1*
X15130D2*
X15751D1*
X36407D2*
X37474D1*
X39407D2*
X40095D1*
X41786D2*
X42029D1*
X4352Y5498D2*
X4539D1*
X6340D2*
X11880D1*
X14880D2*
X15880D1*
X36497D2*
X37380D1*
X39497D2*
X40040D1*
X41840D2*
X42029D1*
X4352Y5249D2*
X4560D1*
X6321D2*
X11915D1*
X14630D2*
X15915D1*
X36465D2*
X37415D1*
X39465D2*
X40060D1*
X41821D2*
X42029D1*
X4352Y5001D2*
X4658D1*
X6223D2*
X12107D1*
X14383D2*
X16107D1*
X16774D2*
X17107D1*
X36274D2*
X37607D1*
X38274D2*
X38607D1*
X39274D2*
X40158D1*
X41723D2*
X42029D1*
X4360Y4752D2*
X4873D1*
X6008D2*
X12998D1*
X14133D2*
X17748D1*
X36212D2*
X40373D1*
X41508D2*
X42025D1*
X4462Y4503D2*
X28853D1*
X36028D2*
X41927D1*
X41808Y40816D2*
X41781Y40694D1*
X41738Y40577D1*
X41678Y40467D1*
X41603Y40367D1*
X41515Y40279D1*
X41415Y40204D1*
X41305Y40144D1*
X41188Y40100D1*
X41066Y40073D1*
X40942Y40064D1*
X40817Y40073D1*
X40695Y40099D1*
X40578Y40142D1*
X40468Y40202D1*
X40368Y40277D1*
X40280Y40365D1*
X40204Y40464D1*
X40144Y40574D1*
X40100Y40691D1*
X40073Y40813D1*
X40064Y40937D1*
X40072Y41062D1*
X40099Y41184D1*
X40142Y41301D1*
X40201Y41411D1*
X40276Y41511D1*
X40363Y41600D1*
X40463Y41675D1*
X40572Y41736D1*
X40689Y41780D1*
X40811Y41807D1*
X40936Y41817D1*
X41060Y41808D1*
X41183Y41782D1*
X41300Y41739D1*
X41410Y41680D1*
X41510Y41606D1*
X41599Y41518D1*
X41674Y41419D1*
X41735Y41309D1*
X41779Y41193D1*
X41807Y41071D1*
X41817Y40940D1*
X41808Y40816D1*
X6308Y5316D2*
X6281Y5194D1*
X6238Y5077D1*
X6178Y4967D1*
X6103Y4867D1*
X6015Y4779D1*
X5915Y4704D1*
X5805Y4644D1*
X5688Y4600D1*
X5566Y4573D1*
X5442Y4564D1*
X5317Y4573D1*
X5195Y4599D1*
X5078Y4642D1*
X4968Y4702D1*
X4868Y4777D1*
X4780Y4865D1*
X4704Y4964D1*
X4644Y5074D1*
X4600Y5191D1*
X4573Y5313D1*
X4564Y5437D1*
X4572Y5562D1*
X4599Y5684D1*
X4642Y5801D1*
X4701Y5911D1*
X4776Y6011D1*
X4863Y6100D1*
X4963Y6175D1*
X5072Y6236D1*
X5189Y6280D1*
X5311Y6307D1*
X5436Y6317D1*
X5560Y6308D1*
X5648Y6290D1*
X5617Y6322D1*
X5554Y6432D1*
X5544Y6500D1*
Y9225D1*
X5577Y9348D1*
X5617Y9403D1*
X5797Y9583D1*
X5908Y9647D1*
X5987Y9657D1*
X5935Y9758D1*
X5907Y9879D1*
Y10004D1*
X5937Y10125D1*
X5993Y10237D1*
X6073Y10332D1*
X6174Y10406D1*
X6249Y10438D1*
X6171Y10476D1*
X6071Y10551D1*
X5991Y10646D1*
X5935Y10758D1*
X5907Y10879D1*
Y11004D1*
X5937Y11125D1*
X5993Y11237D1*
X6073Y11332D1*
X6174Y11406D1*
X6249Y11438D1*
X6171Y11476D1*
X6071Y11551D1*
X5991Y11646D1*
X5935Y11758D1*
X5907Y11879D1*
Y12004D1*
X5937Y12125D1*
X5993Y12237D1*
X6073Y12332D1*
X6174Y12406D1*
X6249Y12438D1*
X6171Y12476D1*
X6071Y12551D1*
X5991Y12646D1*
X5935Y12758D1*
X5907Y12879D1*
Y13004D1*
X5937Y13125D1*
X5993Y13237D1*
X6073Y13332D1*
X6174Y13406D1*
X6249Y13438D1*
X6171Y13476D1*
X6071Y13551D1*
X5991Y13646D1*
X5935Y13758D1*
X5907Y13879D1*
Y14004D1*
X5937Y14125D1*
X5993Y14237D1*
X6073Y14332D1*
X6174Y14406D1*
X6288Y14455D1*
X6411Y14476D1*
X6536Y14468D1*
X6655Y14432D1*
X6763Y14369D1*
X6853Y14283D1*
X6921Y14178D1*
X6963Y14061D1*
X6977Y13940D1*
X6962Y13816D1*
X6920Y13699D1*
X6851Y13595D1*
X6760Y13510D1*
X6634Y13442D1*
X6763Y13369D1*
X6853Y13283D1*
X6921Y13178D1*
X6963Y13061D1*
X6977Y12940D1*
X6962Y12816D1*
X6920Y12699D1*
X6851Y12595D1*
X6760Y12510D1*
X6634Y12442D1*
X6763Y12369D1*
X6853Y12283D1*
X6921Y12178D1*
X6963Y12061D1*
X6977Y11940D1*
X6962Y11816D1*
X6920Y11699D1*
X6851Y11595D1*
X6760Y11510D1*
X6634Y11442D1*
X6763Y11369D1*
X6853Y11283D1*
X6911Y11195D1*
X7940Y11192D1*
X11576D1*
X12148Y11762D1*
X12146Y13159D1*
X12112Y13192D1*
X11808Y13190D1*
X11738Y13156D1*
X11614Y13141D1*
X11495Y13177D1*
X11401Y13257D1*
X11347Y13369D1*
X11342Y13493D1*
X11388Y13609D1*
X11476Y13696D1*
X11592Y13740D1*
X11716Y13734D1*
X11796Y13695D1*
X12218Y13694D1*
X12341Y13661D1*
X12396Y13620D1*
X12504Y13513D1*
X12581Y13514D1*
X12880Y13813D1*
X12778Y13915D1*
X12714Y14025D1*
X12704Y14093D1*
Y19019D1*
X12594Y18967D1*
X12471Y18944D1*
X12347Y18952D1*
X12228Y18990D1*
X12123Y19057D1*
X12038Y19148D1*
X11978Y19257D1*
X11947Y19378D1*
Y19503D1*
X11978Y19624D1*
X12038Y19733D1*
X12124Y19824D1*
X12229Y19890D1*
X12347Y19929D1*
X12472Y19937D1*
X12594Y19913D1*
X12704Y19862D1*
Y20019D1*
X12594Y19967D1*
X12471Y19944D1*
X12347Y19952D1*
X12228Y19990D1*
X12123Y20057D1*
X12038Y20148D1*
X11978Y20257D1*
X11947Y20378D1*
Y20503D1*
X11978Y20624D1*
X12038Y20733D1*
X12124Y20824D1*
X12229Y20890D1*
X12347Y20929D1*
X12472Y20937D1*
X12594Y20913D1*
X12704Y20862D1*
Y21019D1*
X12594Y20967D1*
X12471Y20944D1*
X12347Y20952D1*
X12228Y20990D1*
X12123Y21057D1*
X12038Y21148D1*
X11978Y21257D1*
X11947Y21378D1*
Y21503D1*
X11978Y21624D1*
X12038Y21733D1*
X12124Y21824D1*
X12229Y21890D1*
X12347Y21929D1*
X12472Y21937D1*
X12594Y21913D1*
X12704Y21862D1*
Y22019D1*
X12594Y21967D1*
X12471Y21944D1*
X12347Y21952D1*
X12228Y21990D1*
X12123Y22057D1*
X12038Y22148D1*
X11978Y22257D1*
X11947Y22378D1*
Y22503D1*
X11978Y22624D1*
X12038Y22733D1*
X12124Y22824D1*
X12229Y22890D1*
X12347Y22929D1*
X12472Y22937D1*
X12594Y22913D1*
X12704Y22862D1*
Y23019D1*
X12594Y22967D1*
X12471Y22944D1*
X12347Y22952D1*
X12228Y22990D1*
X12123Y23057D1*
X12038Y23148D1*
X11978Y23257D1*
X11947Y23378D1*
Y23503D1*
X11978Y23624D1*
X12038Y23733D1*
X12124Y23824D1*
X12229Y23890D1*
X12347Y23929D1*
X12472Y23937D1*
X12594Y23913D1*
X12704Y23862D1*
Y24019D1*
X12594Y23967D1*
X12471Y23944D1*
X12347Y23952D1*
X12228Y23990D1*
X12123Y24057D1*
X12038Y24148D1*
X11978Y24257D1*
X11947Y24378D1*
Y24503D1*
X11978Y24624D1*
X12038Y24733D1*
X12124Y24824D1*
X12229Y24890D1*
X12347Y24929D1*
X12472Y24937D1*
X12594Y24913D1*
X12704Y24862D1*
Y25019D1*
X12594Y24967D1*
X12471Y24944D1*
X12347Y24952D1*
X12228Y24990D1*
X12123Y25057D1*
X12038Y25148D1*
X11978Y25257D1*
X11947Y25378D1*
Y25503D1*
X11978Y25624D1*
X12038Y25733D1*
X12124Y25824D1*
X12229Y25890D1*
X12347Y25929D1*
X12472Y25937D1*
X12594Y25913D1*
X12704Y25862D1*
Y26019D1*
X12594Y25967D1*
X12471Y25944D1*
X12347Y25952D1*
X12228Y25990D1*
X12123Y26057D1*
X12038Y26148D1*
X11978Y26257D1*
X11947Y26378D1*
Y26503D1*
X11978Y26624D1*
X12038Y26733D1*
X12124Y26824D1*
X12229Y26890D1*
X12347Y26929D1*
X12472Y26937D1*
X12594Y26913D1*
X12704Y26862D1*
Y27019D1*
X12594Y26967D1*
X12471Y26944D1*
X12347Y26952D1*
X12228Y26990D1*
X12123Y27057D1*
X12038Y27148D1*
X11978Y27257D1*
X11947Y27378D1*
Y27503D1*
X11978Y27624D1*
X12038Y27733D1*
X12124Y27824D1*
X12229Y27890D1*
X12347Y27929D1*
X12472Y27937D1*
X12594Y27913D1*
X12704Y27862D1*
Y28019D1*
X12594Y27967D1*
X12471Y27944D1*
X12347Y27952D1*
X12228Y27990D1*
X12123Y28057D1*
X12038Y28148D1*
X11978Y28257D1*
X11947Y28378D1*
Y28503D1*
X11978Y28624D1*
X12038Y28733D1*
X12124Y28824D1*
X12229Y28890D1*
X12347Y28929D1*
X12472Y28937D1*
X12594Y28913D1*
X12704Y28862D1*
Y29019D1*
X12594Y28967D1*
X12471Y28944D1*
X12347Y28952D1*
X12228Y28990D1*
X12123Y29057D1*
X12038Y29148D1*
X11978Y29257D1*
X11947Y29378D1*
Y29503D1*
X11978Y29624D1*
X12038Y29733D1*
X12124Y29824D1*
X12229Y29890D1*
X12347Y29929D1*
X12472Y29937D1*
X12594Y29913D1*
X12704Y29862D1*
Y30019D1*
X12594Y29967D1*
X12471Y29944D1*
X12347Y29952D1*
X12228Y29990D1*
X12123Y30057D1*
X12038Y30148D1*
X11978Y30257D1*
X11947Y30378D1*
Y30503D1*
X11978Y30624D1*
X12038Y30733D1*
X12124Y30824D1*
X12229Y30890D1*
X12347Y30929D1*
X12472Y30937D1*
X12594Y30913D1*
X12704Y30862D1*
Y31019D1*
X12594Y30967D1*
X12471Y30944D1*
X12347Y30952D1*
X12228Y30990D1*
X12123Y31057D1*
X12038Y31148D1*
X11978Y31257D1*
X11947Y31378D1*
Y31503D1*
X11978Y31624D1*
X12038Y31733D1*
X12124Y31824D1*
X12229Y31890D1*
X12314Y31918D1*
X12171Y31976D1*
X12071Y32051D1*
X11991Y32146D1*
X11941Y32248D1*
X11920Y32199D1*
X11851Y32095D1*
X11760Y32010D1*
X11652Y31947D1*
X11566Y31922D1*
X11707Y31860D1*
X11803Y31780D1*
X11876Y31679D1*
X11922Y31563D1*
X11938Y31440D1*
X11922Y31317D1*
X11876Y31201D1*
X11803Y31100D1*
X11707Y31020D1*
X11594Y30967D1*
X11471Y30944D1*
X11347Y30952D1*
X11228Y30990D1*
X11123Y31057D1*
X11038Y31148D1*
X10978Y31257D1*
X10947Y31378D1*
Y31503D1*
X10978Y31624D1*
X11038Y31733D1*
X11124Y31824D1*
X11229Y31890D1*
X11314Y31918D1*
X11171Y31976D1*
X11071Y32051D1*
X10991Y32146D1*
X10941Y32248D1*
X10920Y32199D1*
X10851Y32095D1*
X10760Y32010D1*
X10652Y31947D1*
X10566Y31922D1*
X10707Y31860D1*
X10803Y31780D1*
X10876Y31679D1*
X10922Y31563D1*
X10938Y31440D1*
X10922Y31317D1*
X10876Y31201D1*
X10803Y31100D1*
X10707Y31020D1*
X10594Y30967D1*
X10471Y30944D1*
X10347Y30952D1*
X10228Y30990D1*
X10123Y31057D1*
X10038Y31148D1*
X9978Y31257D1*
X9947Y31378D1*
Y31503D1*
X9978Y31624D1*
X10038Y31733D1*
X10124Y31824D1*
X10229Y31890D1*
X10314Y31918D1*
X10171Y31976D1*
X10071Y32051D1*
X9991Y32146D1*
X9941Y32248D1*
X9920Y32199D1*
X9851Y32095D1*
X9760Y32010D1*
X9652Y31947D1*
X9566Y31922D1*
X9707Y31860D1*
X9803Y31780D1*
X9876Y31679D1*
X9922Y31563D1*
X9938Y31440D1*
X9922Y31317D1*
X9876Y31201D1*
X9803Y31100D1*
X9707Y31020D1*
X9594Y30967D1*
X9471Y30944D1*
X9347Y30952D1*
X9228Y30990D1*
X9157Y31030D1*
Y30846D1*
X9229Y30890D1*
X9347Y30929D1*
X9472Y30937D1*
X9594Y30913D1*
X9707Y30860D1*
X9803Y30780D1*
X9876Y30679D1*
X9922Y30563D1*
X9938Y30440D1*
X9922Y30317D1*
X9876Y30201D1*
X9803Y30100D1*
X9707Y30020D1*
X9594Y29967D1*
X9471Y29944D1*
X9347Y29952D1*
X9228Y29990D1*
X9157Y30030D1*
Y29846D1*
X9229Y29890D1*
X9347Y29929D1*
X9472Y29937D1*
X9594Y29913D1*
X9707Y29860D1*
X9803Y29780D1*
X9876Y29679D1*
X9922Y29563D1*
X9938Y29440D1*
X9922Y29317D1*
X9876Y29201D1*
X9803Y29100D1*
X9707Y29020D1*
X9594Y28967D1*
X9471Y28944D1*
X9347Y28952D1*
X9228Y28990D1*
X9157Y29030D1*
Y28846D1*
X9229Y28890D1*
X9347Y28929D1*
X9472Y28937D1*
X9594Y28913D1*
X9707Y28860D1*
X9803Y28780D1*
X9876Y28679D1*
X9922Y28563D1*
X9938Y28440D1*
X9922Y28317D1*
X9876Y28201D1*
X9803Y28100D1*
X9707Y28020D1*
X9594Y27967D1*
X9471Y27944D1*
X9347Y27952D1*
X9228Y27990D1*
X9157Y28030D1*
Y27846D1*
X9229Y27890D1*
X9347Y27929D1*
X9472Y27937D1*
X9594Y27913D1*
X9707Y27860D1*
X9803Y27780D1*
X9876Y27679D1*
X9922Y27563D1*
X9938Y27440D1*
X9922Y27317D1*
X9876Y27201D1*
X9803Y27100D1*
X9707Y27020D1*
X9594Y26967D1*
X9471Y26944D1*
X9347Y26952D1*
X9228Y26990D1*
X9157Y27030D1*
Y26846D1*
X9229Y26890D1*
X9347Y26929D1*
X9472Y26937D1*
X9594Y26913D1*
X9707Y26860D1*
X9803Y26780D1*
X9876Y26679D1*
X9922Y26563D1*
X9938Y26440D1*
X9922Y26317D1*
X9876Y26201D1*
X9803Y26100D1*
X9707Y26020D1*
X9594Y25967D1*
X9471Y25944D1*
X9347Y25952D1*
X9228Y25990D1*
X9157Y26030D1*
Y25846D1*
X9229Y25890D1*
X9347Y25929D1*
X9472Y25937D1*
X9594Y25913D1*
X9707Y25860D1*
X9803Y25780D1*
X9876Y25679D1*
X9922Y25563D1*
X9938Y25440D1*
X9922Y25317D1*
X9876Y25201D1*
X9803Y25100D1*
X9707Y25020D1*
X9594Y24967D1*
X9471Y24944D1*
X9347Y24952D1*
X9228Y24990D1*
X9157Y25030D1*
Y24846D1*
X9229Y24890D1*
X9347Y24929D1*
X9472Y24937D1*
X9594Y24913D1*
X9707Y24860D1*
X9803Y24780D1*
X9876Y24679D1*
X9922Y24563D1*
X9938Y24440D1*
X9922Y24317D1*
X9876Y24201D1*
X9803Y24100D1*
X9707Y24020D1*
X9594Y23967D1*
X9471Y23944D1*
X9347Y23952D1*
X9228Y23990D1*
X9157Y24030D1*
Y23846D1*
X9229Y23890D1*
X9347Y23929D1*
X9472Y23937D1*
X9594Y23913D1*
X9707Y23860D1*
X9803Y23780D1*
X9876Y23679D1*
X9922Y23563D1*
X9938Y23440D1*
X9922Y23317D1*
X9876Y23201D1*
X9803Y23100D1*
X9707Y23020D1*
X9594Y22967D1*
X9471Y22944D1*
X9347Y22952D1*
X9228Y22990D1*
X9157Y23030D1*
Y22846D1*
X9229Y22890D1*
X9347Y22929D1*
X9472Y22937D1*
X9594Y22913D1*
X9707Y22860D1*
X9803Y22780D1*
X9876Y22679D1*
X9922Y22563D1*
X9938Y22440D1*
X9922Y22317D1*
X9876Y22201D1*
X9803Y22100D1*
X9707Y22020D1*
X9594Y21967D1*
X9471Y21944D1*
X9347Y21952D1*
X9228Y21990D1*
X9157Y22030D1*
Y21846D1*
X9229Y21890D1*
X9347Y21929D1*
X9472Y21937D1*
X9594Y21913D1*
X9707Y21860D1*
X9803Y21780D1*
X9876Y21679D1*
X9922Y21563D1*
X9938Y21440D1*
X9922Y21317D1*
X9876Y21201D1*
X9803Y21100D1*
X9707Y21020D1*
X9594Y20967D1*
X9471Y20944D1*
X9347Y20952D1*
X9228Y20990D1*
X9157Y21030D1*
Y20846D1*
X9229Y20890D1*
X9347Y20929D1*
X9472Y20937D1*
X9594Y20913D1*
X9707Y20860D1*
X9803Y20780D1*
X9876Y20679D1*
X9922Y20563D1*
X9938Y20440D1*
X9922Y20317D1*
X9876Y20201D1*
X9803Y20100D1*
X9707Y20020D1*
X9594Y19967D1*
X9471Y19944D1*
X9347Y19952D1*
X9228Y19990D1*
X9157Y20030D1*
Y19846D1*
X9229Y19890D1*
X9347Y19929D1*
X9472Y19937D1*
X9594Y19913D1*
X9707Y19860D1*
X9803Y19780D1*
X9876Y19679D1*
X9922Y19563D1*
X9938Y19440D1*
X9922Y19317D1*
X9876Y19201D1*
X9803Y19100D1*
X9707Y19020D1*
X9594Y18967D1*
X9471Y18944D1*
X9347Y18952D1*
X9228Y18990D1*
X9157Y19030D1*
Y15807D1*
X9172Y15784D1*
X9207Y15642D1*
X9181Y15521D1*
X9109Y15420D1*
X9002Y15356D1*
X8879Y15341D1*
X8760Y15377D1*
X8666Y15457D1*
X8612Y15569D1*
X8607Y15693D1*
X8656Y15811D1*
X8653Y17142D1*
Y18990D1*
X8594Y18967D1*
X8471Y18944D1*
X8347Y18952D1*
X8228Y18990D1*
X8123Y19057D1*
X8038Y19148D1*
X7978Y19257D1*
X7947Y19378D1*
Y19503D1*
X7978Y19624D1*
X8038Y19733D1*
X8124Y19824D1*
X8229Y19890D1*
X8347Y19929D1*
X8472Y19937D1*
X8594Y19913D1*
X8654Y19885D1*
X8653Y19990D1*
X8594Y19967D1*
X8471Y19944D1*
X8347Y19952D1*
X8228Y19990D1*
X8123Y20057D1*
X8038Y20148D1*
X7978Y20257D1*
X7947Y20378D1*
Y20503D1*
X7978Y20624D1*
X8038Y20733D1*
X8124Y20824D1*
X8229Y20890D1*
X8347Y20929D1*
X8472Y20937D1*
X8594Y20913D1*
X8654Y20885D1*
X8653Y20990D1*
X8594Y20967D1*
X8471Y20944D1*
X8347Y20952D1*
X8228Y20990D1*
X8123Y21057D1*
X8038Y21148D1*
X7978Y21257D1*
X7947Y21378D1*
Y21503D1*
X7978Y21624D1*
X8038Y21733D1*
X8124Y21824D1*
X8229Y21890D1*
X8347Y21929D1*
X8472Y21937D1*
X8594Y21913D1*
X8654Y21885D1*
X8653Y21990D1*
X8594Y21967D1*
X8471Y21944D1*
X8347Y21952D1*
X8228Y21990D1*
X8123Y22057D1*
X8038Y22148D1*
X7978Y22257D1*
X7947Y22378D1*
Y22503D1*
X7978Y22624D1*
X8038Y22733D1*
X8124Y22824D1*
X8229Y22890D1*
X8347Y22929D1*
X8472Y22937D1*
X8594Y22913D1*
X8654Y22885D1*
X8653Y22990D1*
X8594Y22967D1*
X8471Y22944D1*
X8347Y22952D1*
X8228Y22990D1*
X8123Y23057D1*
X8038Y23148D1*
X7978Y23257D1*
X7947Y23378D1*
Y23503D1*
X7978Y23624D1*
X8038Y23733D1*
X8124Y23824D1*
X8229Y23890D1*
X8347Y23929D1*
X8472Y23937D1*
X8594Y23913D1*
X8654Y23885D1*
X8653Y23990D1*
X8594Y23967D1*
X8471Y23944D1*
X8347Y23952D1*
X8228Y23990D1*
X8123Y24057D1*
X8038Y24148D1*
X7978Y24257D1*
X7947Y24378D1*
Y24503D1*
X7978Y24624D1*
X8038Y24733D1*
X8124Y24824D1*
X8229Y24890D1*
X8347Y24929D1*
X8472Y24937D1*
X8594Y24913D1*
X8654Y24885D1*
X8653Y24990D1*
X8594Y24967D1*
X8471Y24944D1*
X8347Y24952D1*
X8228Y24990D1*
X8123Y25057D1*
X8038Y25148D1*
X7978Y25257D1*
X7947Y25378D1*
Y25503D1*
X7978Y25624D1*
X8038Y25733D1*
X8124Y25824D1*
X8229Y25890D1*
X8347Y25929D1*
X8472Y25937D1*
X8594Y25913D1*
X8654Y25885D1*
X8653Y25990D1*
X8594Y25967D1*
X8471Y25944D1*
X8347Y25952D1*
X8228Y25990D1*
X8123Y26057D1*
X8038Y26148D1*
X7978Y26257D1*
X7947Y26378D1*
Y26503D1*
X7978Y26624D1*
X8038Y26733D1*
X8124Y26824D1*
X8229Y26890D1*
X8347Y26929D1*
X8472Y26937D1*
X8594Y26913D1*
X8654Y26885D1*
X8653Y26990D1*
X8594Y26967D1*
X8471Y26944D1*
X8347Y26952D1*
X8228Y26990D1*
X8123Y27057D1*
X8038Y27148D1*
X7978Y27257D1*
X7947Y27378D1*
Y27503D1*
X7978Y27624D1*
X8038Y27733D1*
X8124Y27824D1*
X8229Y27890D1*
X8347Y27929D1*
X8472Y27937D1*
X8594Y27913D1*
X8654Y27885D1*
X8653Y27990D1*
X8594Y27967D1*
X8471Y27944D1*
X8347Y27952D1*
X8228Y27990D1*
X8123Y28057D1*
X8038Y28148D1*
X7978Y28257D1*
X7947Y28378D1*
Y28503D1*
X7978Y28624D1*
X8038Y28733D1*
X8124Y28824D1*
X8229Y28890D1*
X8347Y28929D1*
X8472Y28937D1*
X8594Y28913D1*
X8654Y28885D1*
X8653Y28990D1*
X8594Y28967D1*
X8471Y28944D1*
X8347Y28952D1*
X8228Y28990D1*
X8123Y29057D1*
X8038Y29148D1*
X7978Y29257D1*
X7947Y29378D1*
Y29503D1*
X7978Y29624D1*
X8038Y29733D1*
X8124Y29824D1*
X8229Y29890D1*
X8347Y29929D1*
X8472Y29937D1*
X8594Y29913D1*
X8654Y29885D1*
X8653Y29990D1*
X8594Y29967D1*
X8471Y29944D1*
X8347Y29952D1*
X8228Y29990D1*
X8123Y30057D1*
X8038Y30148D1*
X7978Y30257D1*
X7947Y30378D1*
Y30503D1*
X7978Y30624D1*
X8038Y30733D1*
X8124Y30824D1*
X8229Y30890D1*
X8347Y30929D1*
X8472Y30937D1*
X8594Y30913D1*
X8654Y30885D1*
X8653Y30990D1*
X8594Y30967D1*
X8471Y30944D1*
X8347Y30952D1*
X8228Y30990D1*
X8123Y31057D1*
X8038Y31148D1*
X7978Y31257D1*
X7947Y31378D1*
Y31503D1*
X7978Y31624D1*
X8038Y31733D1*
X8124Y31824D1*
X8229Y31890D1*
X8314Y31918D1*
X8171Y31976D1*
X8071Y32051D1*
X7991Y32146D1*
X7941Y32248D1*
X7920Y32199D1*
X7851Y32095D1*
X7760Y32010D1*
X7652Y31947D1*
X7566Y31922D1*
X7707Y31860D1*
X7803Y31780D1*
X7876Y31679D1*
X7922Y31563D1*
X7938Y31440D1*
X7922Y31317D1*
X7876Y31201D1*
X7803Y31100D1*
X7707Y31020D1*
X7594Y30967D1*
X7471Y30944D1*
X7347Y30952D1*
X7228Y30990D1*
X7123Y31057D1*
X7038Y31148D1*
X6978Y31257D1*
X6947Y31378D1*
Y31503D1*
X6978Y31624D1*
X7038Y31733D1*
X7124Y31824D1*
X7229Y31890D1*
X7314Y31918D1*
X7171Y31976D1*
X7071Y32051D1*
X6991Y32146D1*
X6976Y32178D1*
X6977Y31904D1*
X6621D1*
X6707Y31860D1*
X6803Y31780D1*
X6876Y31679D1*
X6922Y31563D1*
X6938Y31440D1*
X6922Y31317D1*
X6876Y31201D1*
X6803Y31100D1*
X6707Y31020D1*
X6594Y30967D1*
X6471Y30944D1*
X6347Y30952D1*
X6228Y30990D1*
X6123Y31057D1*
X6038Y31148D1*
X5978Y31257D1*
X5947Y31378D1*
Y31503D1*
X5978Y31624D1*
X6038Y31733D1*
X6124Y31824D1*
X6229Y31890D1*
X6270Y31904D1*
X5904D1*
X5908Y32977D1*
X5904Y33404D1*
Y33977D1*
X6977D1*
Y33707D1*
X7073Y33832D1*
X7174Y33906D1*
X7288Y33955D1*
X7411Y33976D1*
X7536Y33968D1*
X7655Y33932D1*
X7763Y33869D1*
X7853Y33783D1*
X7921Y33678D1*
X7938Y33631D1*
X7993Y33737D1*
X8073Y33832D1*
X8174Y33906D1*
X8288Y33955D1*
X8411Y33976D1*
X8536Y33968D1*
X8655Y33936D1*
X8700Y34051D1*
X9038Y34394D1*
X9148Y34458D1*
X9216Y34468D1*
X20923D1*
X21063Y34607D1*
Y39190D1*
X21096Y39313D1*
X21137Y39368D1*
X21352Y39583D1*
X21462Y39647D1*
X21530Y39657D1*
X23507D1*
X23630Y39624D1*
X23685Y39583D1*
X25655Y37614D1*
X25759Y37650D1*
X25882Y37671D1*
X26007D1*
X26130Y37648D1*
X26247Y37603D1*
X26354Y37539D1*
X26448Y37457D1*
X26525Y37360D1*
X26585Y37250D1*
X26624Y37131D1*
X26642Y36972D1*
X26631Y36847D1*
X26598Y36727D1*
X26544Y36614D1*
X26472Y36513D1*
X26382Y36426D1*
X26278Y36357D1*
X26164Y36306D1*
X26043Y36277D1*
X25918Y36270D1*
X25794Y36285D1*
X25675Y36322D1*
X25564Y36379D1*
X25465Y36455D1*
X25381Y36548D1*
X25315Y36653D1*
X25268Y36769D1*
X25243Y36892D1*
X25240Y37016D1*
X25259Y37140D1*
X25298Y37254D1*
X24083Y38473D1*
X23400Y39155D1*
X22433Y39153D1*
X22463Y39061D1*
X22477Y38940D1*
X22462Y38816D1*
X22420Y38699D1*
X22351Y38595D1*
X22243Y38500D1*
X22242Y38382D1*
X22353Y38283D1*
X22421Y38178D1*
X22463Y38061D1*
X22477Y37940D1*
X22462Y37816D1*
X22420Y37699D1*
X22351Y37595D1*
X22243Y37500D1*
X22242Y37382D1*
X22353Y37283D1*
X22421Y37178D1*
X22463Y37061D1*
X22477Y36940D1*
X22462Y36816D1*
X22420Y36699D1*
X22351Y36595D1*
X22260Y36510D1*
X22152Y36447D1*
X22119Y36437D1*
X22117Y31233D1*
X22266D1*
X22377Y31177D1*
X22457Y31082D1*
X22492Y30940D1*
X22467Y30819D1*
X22442Y30784D1*
X22492Y30736D1*
X22572Y30831D1*
X22690Y30913D1*
X22688Y31905D1*
X22404Y31904D1*
Y32977D1*
X23406D1*
X23404Y33977D1*
X24477D1*
Y33707D1*
X24573Y33832D1*
X24674Y33906D1*
X24788Y33955D1*
X24911Y33976D1*
X25036Y33968D1*
X25155Y33932D1*
X25263Y33869D1*
X25353Y33783D1*
X25421Y33678D1*
X25438Y33631D1*
X25493Y33737D1*
X25573Y33832D1*
X25674Y33906D1*
X25788Y33955D1*
X25911Y33976D1*
X26036Y33968D1*
X26155Y33932D1*
X26263Y33869D1*
X26353Y33783D1*
X26421Y33678D1*
X26438Y33631D1*
X26493Y33737D1*
X26573Y33832D1*
X26674Y33906D1*
X26788Y33955D1*
X26911Y33976D1*
X27036Y33968D1*
X27155Y33932D1*
X27263Y33869D1*
X27353Y33783D1*
X27421Y33678D1*
X27463Y33561D1*
X27477Y33440D1*
X27462Y33316D1*
X27450Y33283D1*
X27583Y33153D1*
X27647Y33043D1*
X27657Y32975D1*
Y32893D1*
X27788Y32955D1*
X27911Y32976D1*
X28036Y32968D1*
X28155Y32932D1*
X28263Y32869D1*
X28353Y32783D1*
X28421Y32678D1*
X28438Y32631D1*
X28493Y32737D1*
X28573Y32832D1*
X28671Y32904D1*
X28404D1*
Y33977D1*
X29477D1*
Y33707D1*
X29573Y33832D1*
X29674Y33906D1*
X29788Y33955D1*
X29911Y33976D1*
X30036Y33968D1*
X30155Y33932D1*
X30263Y33869D1*
X30353Y33783D1*
X30421Y33678D1*
X30438Y33631D1*
X30493Y33737D1*
X30573Y33832D1*
X30674Y33906D1*
X30788Y33955D1*
X30911Y33976D1*
X31036Y33968D1*
X31155Y33932D1*
X31263Y33869D1*
X31353Y33783D1*
X31421Y33678D1*
X31438Y33631D1*
X31493Y33737D1*
X31573Y33832D1*
X31692Y33914D1*
X31709Y34006D1*
X31785Y34104D1*
X31899Y34153D1*
X32140Y34159D1*
X32256Y34203D1*
X32380Y34197D1*
X32491Y34142D1*
X32571Y34047D1*
X32606Y33905D1*
X32594Y33848D1*
X32674Y33906D1*
X32788Y33955D1*
X32911Y33976D1*
X33036Y33968D1*
X33155Y33932D1*
X33226Y33891D1*
X33335Y34009D1*
X33498Y34172D1*
Y36548D1*
X33382Y36426D1*
X33278Y36357D1*
X33164Y36306D1*
X33043Y36277D1*
X32918Y36270D1*
X32794Y36285D1*
X32675Y36322D1*
X32564Y36379D1*
X32465Y36455D1*
X32381Y36548D1*
X32315Y36653D1*
X32268Y36769D1*
X32243Y36892D1*
X32240Y37016D1*
X32259Y37140D1*
X32299Y37258D1*
X32360Y37367D1*
X32439Y37463D1*
X32534Y37544D1*
X32642Y37607D1*
X32759Y37650D1*
X32882Y37671D1*
X33007D1*
X33130Y37648D1*
X33247Y37603D1*
X33354Y37539D1*
X33448Y37457D1*
X33499Y37393D1*
X33498Y38024D1*
X33227Y38297D1*
X33043Y38246D1*
X32918Y38239D1*
X32794Y38254D1*
X32675Y38290D1*
X32564Y38348D1*
X32465Y38424D1*
X32381Y38516D1*
X32315Y38622D1*
X32268Y38738D1*
X32243Y38860D1*
X32240Y38985D1*
X32259Y39108D1*
X32299Y39226D1*
X32360Y39335D1*
X32439Y39432D1*
X32534Y39513D1*
X32642Y39576D1*
X32759Y39619D1*
X32882Y39640D1*
X33007Y39639D1*
X33130Y39616D1*
X33247Y39572D1*
X33354Y39508D1*
X33448Y39426D1*
X33525Y39328D1*
X33585Y39218D1*
X33624Y39100D1*
X33642Y38940D1*
X33631Y38816D1*
X33580Y38657D1*
X33928Y38308D1*
X33992Y38198D1*
X34002Y38130D1*
X33999Y34033D1*
X34036Y33968D1*
X34155Y33932D1*
X34263Y33869D1*
X34353Y33783D1*
X34421Y33678D1*
X34438Y33631D1*
X34493Y33737D1*
X34573Y33832D1*
X34674Y33906D1*
X34788Y33955D1*
X34911Y33976D1*
X35036Y33968D1*
X35155Y33932D1*
X35263Y33869D1*
X35353Y33783D1*
X35421Y33678D1*
X35463Y33561D1*
X35477Y33440D1*
X35462Y33316D1*
X35450Y33283D1*
X35583Y33153D1*
X35647Y33043D1*
X35657Y32975D1*
Y32893D1*
X35788Y32955D1*
X35911Y32976D1*
X36036Y32968D1*
X36155Y32932D1*
X36263Y32869D1*
X36353Y32783D1*
X36421Y32678D1*
X36463Y32561D1*
X36477Y32440D1*
X36462Y32316D1*
X36429Y32225D1*
X36531Y32218D1*
X36611Y32178D1*
X39225D1*
X39348Y32145D1*
X39403Y32104D1*
X39583Y31924D1*
X39647Y31814D1*
X39657Y31746D1*
Y19976D1*
X40477Y19977D1*
Y18904D1*
X40192D1*
Y17913D1*
X40262Y17871D1*
X40352Y17785D1*
X40421Y17680D1*
X40463Y17563D1*
X40477Y17440D1*
X40463Y17316D1*
X40420Y17199D1*
X40352Y17095D1*
X40261Y17009D1*
X40153Y16947D1*
X40033Y16911D1*
X39909Y16904D1*
X39786Y16926D1*
X39656Y16987D1*
X39624Y16852D1*
X39583Y16797D1*
X39470Y16684D1*
X39452Y16624D1*
X39380Y16523D1*
X39273Y16459D1*
X39150Y16444D1*
X39031Y16480D1*
X38936Y16560D1*
X38882Y16672D1*
X38878Y16796D1*
X38919Y16901D1*
X38786Y16926D1*
X38671Y16975D1*
X38618Y17015D1*
X37965Y16358D1*
X36443Y14836D1*
X36442Y8813D1*
X36409Y8690D1*
X36368Y8635D1*
X35195Y7461D1*
X35192Y6188D1*
Y5910D1*
X35263Y5869D1*
X35353Y5783D1*
X35421Y5678D1*
X35438Y5631D1*
X35493Y5737D1*
X35573Y5832D1*
X35674Y5906D1*
X35788Y5955D1*
X35911Y5976D1*
X36036Y5968D1*
X36155Y5932D1*
X36263Y5869D1*
X36353Y5783D1*
X36421Y5678D1*
X36463Y5561D1*
X36477Y5440D1*
X36462Y5316D1*
X36420Y5199D1*
X36351Y5095D1*
X36260Y5010D1*
X36189Y4969D1*
X36192Y4796D1*
X36159Y4673D1*
X36118Y4617D1*
X35938Y4437D1*
X35828Y4374D1*
X35760Y4364D1*
X29120D1*
X28997Y4397D1*
X28942Y4437D1*
X28762Y4617D1*
X28699Y4728D1*
X28688Y4796D1*
Y4932D1*
X28645Y4829D1*
X28438Y4617D1*
X28328Y4554D1*
X28260Y4544D1*
X18085D1*
X17962Y4577D1*
X17907Y4617D1*
X17595Y4930D1*
X17533Y4912D1*
X17408Y4905D1*
X17285Y4926D1*
X17171Y4976D1*
X17071Y5051D1*
X16991Y5146D1*
X16941Y5248D1*
X16920Y5199D1*
X16851Y5095D1*
X16760Y5010D1*
X16652Y4947D1*
X16533Y4912D1*
X16408Y4905D1*
X16285Y4926D1*
X16171Y4976D1*
X16071Y5051D1*
X15991Y5146D1*
X15935Y5258D1*
X15907Y5379D1*
Y5504D1*
X15928Y5591D1*
X15727Y5797D1*
X15663Y5908D1*
X15652Y5947D1*
X15533Y5912D1*
X15408Y5905D1*
X15282Y5928D1*
X14118Y4762D1*
X14008Y4699D1*
X13940Y4688D1*
X13190D1*
X13067Y4721D1*
X13012Y4762D1*
X12760Y5010D1*
X12652Y4947D1*
X12533Y4912D1*
X12408Y4905D1*
X12285Y4926D1*
X12171Y4976D1*
X12071Y5051D1*
X11991Y5146D1*
X11935Y5258D1*
X11907Y5379D1*
Y5504D1*
X11937Y5625D1*
X11993Y5737D1*
X12073Y5832D1*
X12139Y5881D1*
X12138Y5999D1*
X12071Y6051D1*
X11991Y6146D1*
X11935Y6258D1*
X11907Y6379D1*
Y6504D1*
X11937Y6625D1*
X12000Y6746D1*
X11980Y6793D1*
X11958Y6905D1*
Y8216D1*
X11984Y8337D1*
X12056Y8438D1*
X12163Y8501D1*
X12286Y8517D1*
X12405Y8481D1*
X12499Y8400D1*
X12553Y8289D1*
X12562Y8091D1*
Y7182D1*
X12588Y7168D1*
X12653Y7226D1*
Y8405D1*
X12686Y8528D1*
X12727Y8583D1*
X12928Y8785D1*
X12907Y8879D1*
Y9004D1*
X12937Y9125D1*
X12993Y9237D1*
X13073Y9332D1*
X13192Y9414D1*
X13188Y9815D1*
Y10507D1*
X12398Y11299D1*
X11861Y10762D1*
X11750Y10699D1*
X11682Y10688D1*
X6913D1*
X6851Y10595D1*
X6760Y10510D1*
X6634Y10442D1*
X6763Y10369D1*
X6853Y10283D1*
X6921Y10178D1*
X6963Y10061D1*
X6977Y9940D1*
X6962Y9816D1*
X6920Y9699D1*
X6892Y9657D1*
X10976D1*
X11098Y9624D1*
X11154Y9583D1*
X11288Y9455D1*
X11411Y9476D1*
X11536Y9468D1*
X11655Y9432D1*
X11763Y9369D1*
X11853Y9283D1*
X11921Y9178D1*
X11963Y9061D1*
X11977Y8940D1*
X11962Y8816D1*
X11920Y8699D1*
X11851Y8595D1*
X11760Y8510D1*
X11652Y8447D1*
X11533Y8412D1*
X11408Y8405D1*
X11285Y8426D1*
X11171Y8476D1*
X11071Y8551D1*
X10991Y8646D1*
X10976Y8678D1*
X10977Y8404D1*
X9904D1*
Y8689D1*
X7741Y8688D1*
X7671Y8654D1*
X7548Y8639D1*
X7429Y8675D1*
X7335Y8756D1*
X7281Y8867D1*
X7276Y8991D1*
X7322Y9107D1*
X7369Y9153D1*
X6081D1*
X6046Y9119D1*
X6048Y6604D1*
X6082Y6571D1*
X9276Y6572D1*
X9392Y6618D1*
X9516Y6613D1*
X9627Y6557D1*
X9707Y6462D1*
X9742Y6320D1*
X9717Y6199D1*
X9645Y6098D1*
X9538Y6034D1*
X9415Y6019D1*
X9296Y6055D1*
X9281Y6068D1*
X6051D1*
X6174Y5919D1*
X6235Y5809D1*
X6279Y5693D1*
X6307Y5571D1*
X6317Y5440D1*
X6308Y5316D1*
Y40816D2*
X6281Y40694D1*
X6238Y40577D1*
X6178Y40467D1*
X6103Y40367D1*
X6015Y40279D1*
X5915Y40204D1*
X5805Y40144D1*
X5688Y40100D1*
X5566Y40073D1*
X5442Y40064D1*
X5317Y40073D1*
X5195Y40099D1*
X5078Y40142D1*
X4968Y40202D1*
X4868Y40277D1*
X4780Y40365D1*
X4704Y40464D1*
X4644Y40574D1*
X4600Y40691D1*
X4573Y40813D1*
X4564Y40937D1*
X4572Y41062D1*
X4599Y41184D1*
X4642Y41301D1*
X4701Y41411D1*
X4776Y41511D1*
X4863Y41600D1*
X4963Y41675D1*
X5072Y41736D1*
X5189Y41780D1*
X5311Y41807D1*
X5436Y41817D1*
X5560Y41808D1*
X5683Y41782D1*
X5800Y41739D1*
X5910Y41680D1*
X6010Y41606D1*
X6099Y41518D1*
X6174Y41419D1*
X6235Y41309D1*
X6279Y41193D1*
X6307Y41071D1*
X6317Y40940D1*
X6308Y40816D1*
X41808Y5316D2*
X41781Y5194D1*
X41738Y5077D1*
X41678Y4967D1*
X41603Y4867D1*
X41515Y4779D1*
X41415Y4704D1*
X41305Y4644D1*
X41188Y4600D1*
X41066Y4573D1*
X40942Y4564D1*
X40817Y4573D1*
X40695Y4599D1*
X40578Y4642D1*
X40468Y4702D1*
X40368Y4777D1*
X40280Y4865D1*
X40204Y4964D1*
X40144Y5074D1*
X40100Y5191D1*
X40073Y5313D1*
X40064Y5437D1*
X40072Y5562D1*
X40099Y5684D1*
X40142Y5801D1*
X40201Y5911D1*
X40276Y6011D1*
X40363Y6100D1*
X40463Y6175D1*
X40572Y6236D1*
X40689Y6280D1*
X40811Y6307D1*
X40936Y6317D1*
X41060Y6308D1*
X41183Y6282D1*
X41300Y6239D1*
X41410Y6180D1*
X41510Y6106D1*
X41599Y6018D1*
X41674Y5919D1*
X41735Y5809D1*
X41779Y5693D1*
X41807Y5571D1*
X41817Y5440D1*
X41808Y5316D1*
X38440Y5254D2*
X38420Y5199D1*
X38351Y5095D1*
X38260Y5010D1*
X38152Y4947D1*
X38033Y4912D1*
X37908Y4905D1*
X37785Y4926D1*
X37671Y4976D1*
X37571Y5051D1*
X37491Y5146D1*
X37435Y5258D1*
X37407Y5379D1*
Y5504D1*
X37437Y5625D1*
X37493Y5737D1*
X37573Y5832D1*
X37674Y5906D1*
X37788Y5955D1*
X37911Y5976D1*
X38036Y5968D1*
X38155Y5932D1*
X38263Y5869D1*
X38353Y5783D1*
X38421Y5678D1*
X38438Y5631D1*
X38493Y5737D1*
X38573Y5832D1*
X38674Y5906D1*
X38788Y5955D1*
X38911Y5976D1*
X39036Y5968D1*
X39155Y5932D1*
X39263Y5869D1*
X39353Y5783D1*
X39421Y5678D1*
X39463Y5561D1*
X39477Y5440D1*
X39462Y5316D1*
X39420Y5199D1*
X39351Y5095D1*
X39260Y5010D1*
X39152Y4947D1*
X39033Y4912D1*
X38908Y4905D1*
X38785Y4926D1*
X38671Y4976D1*
X38571Y5051D1*
X38491Y5146D1*
X38441Y5248D1*
X24156Y21949D2*
X24033Y21912D1*
X23908Y21905D1*
X23785Y21926D1*
X23671Y21976D1*
X23571Y22051D1*
X23491Y22146D1*
X23435Y22258D1*
X23407Y22379D1*
Y22504D1*
X23437Y22625D1*
X23493Y22737D1*
X23573Y22832D1*
X23692Y22914D1*
X23688Y23315D1*
Y23968D1*
X23571Y24050D1*
X23491Y24145D1*
X23436Y24257D1*
X23407Y24378D1*
Y24503D1*
X23436Y24624D1*
X23492Y24736D1*
X23572Y24831D1*
X23672Y24906D1*
X23787Y24955D1*
X23910Y24976D1*
X24034Y24969D1*
X24150Y24934D1*
X24153Y25921D1*
Y28871D1*
X24097Y28927D1*
X24033Y28911D1*
X23909Y28904D1*
X23786Y28926D1*
X23671Y28975D1*
X23571Y29050D1*
X23491Y29145D1*
X23436Y29257D1*
X23407Y29378D1*
Y29503D1*
X23436Y29624D1*
X23492Y29736D1*
X23572Y29831D1*
X23672Y29906D1*
X23787Y29955D1*
X23910Y29976D1*
X23984Y29972D1*
X24152Y30138D1*
X24153Y32867D1*
X24119Y32905D1*
X23475Y32904D1*
X23477Y31904D1*
X23192D1*
Y30913D1*
X23262Y30871D1*
X23352Y30785D1*
X23421Y30680D1*
X23463Y30563D1*
X23477Y30440D1*
X23463Y30316D1*
X23420Y30199D1*
X23352Y30095D1*
X23261Y30009D1*
X23153Y29947D1*
X23033Y29911D1*
X22909Y29904D1*
X22786Y29926D1*
X22671Y29975D1*
X22571Y30050D1*
X22491Y30145D1*
X22441Y30247D1*
X22442Y28257D1*
X22481Y28248D1*
X22592Y28192D1*
X22672Y28097D1*
X22707Y27955D1*
X22681Y27834D1*
X22657Y27799D1*
Y19897D1*
X22788Y19955D1*
X22911Y19976D1*
X23036Y19968D1*
X23155Y19932D1*
X23263Y19869D1*
X23353Y19783D1*
X23421Y19678D1*
X23463Y19561D1*
X23477Y19440D1*
X23462Y19316D1*
X23420Y19199D1*
X23351Y19095D1*
X23260Y19010D1*
X23189Y18969D1*
X23192Y18190D1*
Y17913D1*
X23262Y17871D1*
X23352Y17785D1*
X23421Y17680D1*
X23463Y17563D1*
X23477Y17440D1*
X23463Y17316D1*
X23420Y17199D1*
X23352Y17095D1*
X23261Y17009D1*
X23153Y16947D1*
X23033Y16911D1*
X22909Y16904D1*
X22786Y16926D1*
X22656Y16987D1*
X22657Y13444D1*
X22699Y13544D1*
X22787Y13632D1*
X22903Y13676D1*
X23027Y13670D1*
X23138Y13615D1*
X23218Y13520D1*
X23253Y13378D1*
X23228Y13256D1*
X23203Y13222D1*
Y12202D1*
X24155Y13153D1*
X24153Y14796D1*
Y21949D1*
X22785Y5953D2*
X22911Y5976D1*
X23036Y5968D1*
X23155Y5932D1*
X23263Y5869D1*
X23353Y5783D1*
X23421Y5678D1*
X23438Y5631D1*
X23493Y5737D1*
X23573Y5832D1*
X23692Y5914D1*
X23688Y6315D1*
Y11145D1*
X23719Y11265D1*
X23802Y11356D1*
X23940Y11397D1*
X24608D1*
X24645Y11436D1*
X24691Y11544D1*
X24688Y12875D1*
Y16965D1*
X24656Y16987D1*
X24657Y13046D1*
X24624Y12924D1*
X24583Y12868D1*
X23531Y11816D1*
X23533Y10172D1*
Y7918D1*
X23548Y7897D1*
X23583Y7756D1*
X23558Y7634D1*
X23486Y7533D1*
X23379Y7470D1*
X23256Y7455D1*
X23200Y7472D1*
X23203Y7069D1*
X23218Y7047D1*
X23253Y6905D1*
X23228Y6783D1*
X23156Y6682D1*
X23049Y6619D1*
X22926Y6604D1*
X22807Y6640D1*
X22712Y6720D1*
X22658Y6832D1*
X22657Y6875D1*
Y6077D1*
X22785Y5952D1*
X6922Y30317D2*
X6876Y30201D1*
X6803Y30100D1*
X6707Y30020D1*
X6594Y29967D1*
X6471Y29944D1*
X6347Y29952D1*
X6228Y29990D1*
X6123Y30057D1*
X6038Y30148D1*
X5978Y30257D1*
X5947Y30378D1*
Y30503D1*
X5978Y30624D1*
X6038Y30733D1*
X6124Y30824D1*
X6229Y30890D1*
X6347Y30929D1*
X6472Y30937D1*
X6594Y30913D1*
X6707Y30860D1*
X6803Y30780D1*
X6876Y30679D1*
X6922Y30563D1*
X6938Y30440D1*
X6922Y30317D1*
X7922D2*
X7876Y30201D1*
X7803Y30100D1*
X7707Y30020D1*
X7594Y29967D1*
X7471Y29944D1*
X7347Y29952D1*
X7228Y29990D1*
X7123Y30057D1*
X7038Y30148D1*
X6978Y30257D1*
X6947Y30378D1*
Y30503D1*
X6978Y30624D1*
X7038Y30733D1*
X7124Y30824D1*
X7229Y30890D1*
X7347Y30929D1*
X7472Y30937D1*
X7594Y30913D1*
X7707Y30860D1*
X7803Y30780D1*
X7876Y30679D1*
X7922Y30563D1*
X7938Y30440D1*
X7922Y30317D1*
X10922D2*
X10876Y30201D1*
X10803Y30100D1*
X10707Y30020D1*
X10594Y29967D1*
X10471Y29944D1*
X10347Y29952D1*
X10228Y29990D1*
X10123Y30057D1*
X10038Y30148D1*
X9978Y30257D1*
X9947Y30378D1*
Y30503D1*
X9978Y30624D1*
X10038Y30733D1*
X10124Y30824D1*
X10229Y30890D1*
X10347Y30929D1*
X10472Y30937D1*
X10594Y30913D1*
X10707Y30860D1*
X10803Y30780D1*
X10876Y30679D1*
X10922Y30563D1*
X10938Y30440D1*
X10922Y30317D1*
X11922D2*
X11876Y30201D1*
X11803Y30100D1*
X11707Y30020D1*
X11594Y29967D1*
X11471Y29944D1*
X11347Y29952D1*
X11228Y29990D1*
X11123Y30057D1*
X11038Y30148D1*
X10978Y30257D1*
X10947Y30378D1*
Y30503D1*
X10978Y30624D1*
X11038Y30733D1*
X11124Y30824D1*
X11229Y30890D1*
X11347Y30929D1*
X11472Y30937D1*
X11594Y30913D1*
X11707Y30860D1*
X11803Y30780D1*
X11876Y30679D1*
X11922Y30563D1*
X11938Y30440D1*
X11922Y30317D1*
X6922Y29317D2*
X6876Y29201D1*
X6803Y29100D1*
X6707Y29020D1*
X6594Y28967D1*
X6471Y28944D1*
X6347Y28952D1*
X6228Y28990D1*
X6123Y29057D1*
X6038Y29148D1*
X5978Y29257D1*
X5947Y29378D1*
Y29503D1*
X5978Y29624D1*
X6038Y29733D1*
X6124Y29824D1*
X6229Y29890D1*
X6347Y29929D1*
X6472Y29937D1*
X6594Y29913D1*
X6707Y29860D1*
X6803Y29780D1*
X6876Y29679D1*
X6922Y29563D1*
X6938Y29440D1*
X6922Y29317D1*
X7922D2*
X7876Y29201D1*
X7803Y29100D1*
X7707Y29020D1*
X7594Y28967D1*
X7471Y28944D1*
X7347Y28952D1*
X7228Y28990D1*
X7123Y29057D1*
X7038Y29148D1*
X6978Y29257D1*
X6947Y29378D1*
Y29503D1*
X6978Y29624D1*
X7038Y29733D1*
X7124Y29824D1*
X7229Y29890D1*
X7347Y29929D1*
X7472Y29937D1*
X7594Y29913D1*
X7707Y29860D1*
X7803Y29780D1*
X7876Y29679D1*
X7922Y29563D1*
X7938Y29440D1*
X7922Y29317D1*
X10922D2*
X10876Y29201D1*
X10803Y29100D1*
X10707Y29020D1*
X10594Y28967D1*
X10471Y28944D1*
X10347Y28952D1*
X10228Y28990D1*
X10123Y29057D1*
X10038Y29148D1*
X9978Y29257D1*
X9947Y29378D1*
Y29503D1*
X9978Y29624D1*
X10038Y29733D1*
X10124Y29824D1*
X10229Y29890D1*
X10347Y29929D1*
X10472Y29937D1*
X10594Y29913D1*
X10707Y29860D1*
X10803Y29780D1*
X10876Y29679D1*
X10922Y29563D1*
X10938Y29440D1*
X10922Y29317D1*
X11922D2*
X11876Y29201D1*
X11803Y29100D1*
X11707Y29020D1*
X11594Y28967D1*
X11471Y28944D1*
X11347Y28952D1*
X11228Y28990D1*
X11123Y29057D1*
X11038Y29148D1*
X10978Y29257D1*
X10947Y29378D1*
Y29503D1*
X10978Y29624D1*
X11038Y29733D1*
X11124Y29824D1*
X11229Y29890D1*
X11347Y29929D1*
X11472Y29937D1*
X11594Y29913D1*
X11707Y29860D1*
X11803Y29780D1*
X11876Y29679D1*
X11922Y29563D1*
X11938Y29440D1*
X11922Y29317D1*
X6922Y28317D2*
X6876Y28201D1*
X6803Y28100D1*
X6707Y28020D1*
X6594Y27967D1*
X6471Y27944D1*
X6347Y27952D1*
X6228Y27990D1*
X6123Y28057D1*
X6038Y28148D1*
X5978Y28257D1*
X5947Y28378D1*
Y28503D1*
X5978Y28624D1*
X6038Y28733D1*
X6124Y28824D1*
X6229Y28890D1*
X6347Y28929D1*
X6472Y28937D1*
X6594Y28913D1*
X6707Y28860D1*
X6803Y28780D1*
X6876Y28679D1*
X6922Y28563D1*
X6938Y28440D1*
X6922Y28317D1*
X7922D2*
X7876Y28201D1*
X7803Y28100D1*
X7707Y28020D1*
X7594Y27967D1*
X7471Y27944D1*
X7347Y27952D1*
X7228Y27990D1*
X7123Y28057D1*
X7038Y28148D1*
X6978Y28257D1*
X6947Y28378D1*
Y28503D1*
X6978Y28624D1*
X7038Y28733D1*
X7124Y28824D1*
X7229Y28890D1*
X7347Y28929D1*
X7472Y28937D1*
X7594Y28913D1*
X7707Y28860D1*
X7803Y28780D1*
X7876Y28679D1*
X7922Y28563D1*
X7938Y28440D1*
X7922Y28317D1*
X10922D2*
X10876Y28201D1*
X10803Y28100D1*
X10707Y28020D1*
X10594Y27967D1*
X10471Y27944D1*
X10347Y27952D1*
X10228Y27990D1*
X10123Y28057D1*
X10038Y28148D1*
X9978Y28257D1*
X9947Y28378D1*
Y28503D1*
X9978Y28624D1*
X10038Y28733D1*
X10124Y28824D1*
X10229Y28890D1*
X10347Y28929D1*
X10472Y28937D1*
X10594Y28913D1*
X10707Y28860D1*
X10803Y28780D1*
X10876Y28679D1*
X10922Y28563D1*
X10938Y28440D1*
X10922Y28317D1*
X11922D2*
X11876Y28201D1*
X11803Y28100D1*
X11707Y28020D1*
X11594Y27967D1*
X11471Y27944D1*
X11347Y27952D1*
X11228Y27990D1*
X11123Y28057D1*
X11038Y28148D1*
X10978Y28257D1*
X10947Y28378D1*
Y28503D1*
X10978Y28624D1*
X11038Y28733D1*
X11124Y28824D1*
X11229Y28890D1*
X11347Y28929D1*
X11472Y28937D1*
X11594Y28913D1*
X11707Y28860D1*
X11803Y28780D1*
X11876Y28679D1*
X11922Y28563D1*
X11938Y28440D1*
X11922Y28317D1*
X6922Y27317D2*
X6876Y27201D1*
X6803Y27100D1*
X6707Y27020D1*
X6594Y26967D1*
X6471Y26944D1*
X6347Y26952D1*
X6228Y26990D1*
X6123Y27057D1*
X6038Y27148D1*
X5978Y27257D1*
X5947Y27378D1*
Y27503D1*
X5978Y27624D1*
X6038Y27733D1*
X6124Y27824D1*
X6229Y27890D1*
X6347Y27929D1*
X6472Y27937D1*
X6594Y27913D1*
X6707Y27860D1*
X6803Y27780D1*
X6876Y27679D1*
X6922Y27563D1*
X6938Y27440D1*
X6922Y27317D1*
X7922D2*
X7876Y27201D1*
X7803Y27100D1*
X7707Y27020D1*
X7594Y26967D1*
X7471Y26944D1*
X7347Y26952D1*
X7228Y26990D1*
X7123Y27057D1*
X7038Y27148D1*
X6978Y27257D1*
X6947Y27378D1*
Y27503D1*
X6978Y27624D1*
X7038Y27733D1*
X7124Y27824D1*
X7229Y27890D1*
X7347Y27929D1*
X7472Y27937D1*
X7594Y27913D1*
X7707Y27860D1*
X7803Y27780D1*
X7876Y27679D1*
X7922Y27563D1*
X7938Y27440D1*
X7922Y27317D1*
X10922D2*
X10876Y27201D1*
X10803Y27100D1*
X10707Y27020D1*
X10594Y26967D1*
X10471Y26944D1*
X10347Y26952D1*
X10228Y26990D1*
X10123Y27057D1*
X10038Y27148D1*
X9978Y27257D1*
X9947Y27378D1*
Y27503D1*
X9978Y27624D1*
X10038Y27733D1*
X10124Y27824D1*
X10229Y27890D1*
X10347Y27929D1*
X10472Y27937D1*
X10594Y27913D1*
X10707Y27860D1*
X10803Y27780D1*
X10876Y27679D1*
X10922Y27563D1*
X10938Y27440D1*
X10922Y27317D1*
X11922D2*
X11876Y27201D1*
X11803Y27100D1*
X11707Y27020D1*
X11594Y26967D1*
X11471Y26944D1*
X11347Y26952D1*
X11228Y26990D1*
X11123Y27057D1*
X11038Y27148D1*
X10978Y27257D1*
X10947Y27378D1*
Y27503D1*
X10978Y27624D1*
X11038Y27733D1*
X11124Y27824D1*
X11229Y27890D1*
X11347Y27929D1*
X11472Y27937D1*
X11594Y27913D1*
X11707Y27860D1*
X11803Y27780D1*
X11876Y27679D1*
X11922Y27563D1*
X11938Y27440D1*
X11922Y27317D1*
X6922Y26317D2*
X6876Y26201D1*
X6803Y26100D1*
X6707Y26020D1*
X6594Y25967D1*
X6471Y25944D1*
X6347Y25952D1*
X6228Y25990D1*
X6123Y26057D1*
X6038Y26148D1*
X5978Y26257D1*
X5947Y26378D1*
Y26503D1*
X5978Y26624D1*
X6038Y26733D1*
X6124Y26824D1*
X6229Y26890D1*
X6347Y26929D1*
X6472Y26937D1*
X6594Y26913D1*
X6707Y26860D1*
X6803Y26780D1*
X6876Y26679D1*
X6922Y26563D1*
X6938Y26440D1*
X6922Y26317D1*
X7922D2*
X7876Y26201D1*
X7803Y26100D1*
X7707Y26020D1*
X7594Y25967D1*
X7471Y25944D1*
X7347Y25952D1*
X7228Y25990D1*
X7123Y26057D1*
X7038Y26148D1*
X6978Y26257D1*
X6947Y26378D1*
Y26503D1*
X6978Y26624D1*
X7038Y26733D1*
X7124Y26824D1*
X7229Y26890D1*
X7347Y26929D1*
X7472Y26937D1*
X7594Y26913D1*
X7707Y26860D1*
X7803Y26780D1*
X7876Y26679D1*
X7922Y26563D1*
X7938Y26440D1*
X7922Y26317D1*
X10922D2*
X10876Y26201D1*
X10803Y26100D1*
X10707Y26020D1*
X10594Y25967D1*
X10471Y25944D1*
X10347Y25952D1*
X10228Y25990D1*
X10123Y26057D1*
X10038Y26148D1*
X9978Y26257D1*
X9947Y26378D1*
Y26503D1*
X9978Y26624D1*
X10038Y26733D1*
X10124Y26824D1*
X10229Y26890D1*
X10347Y26929D1*
X10472Y26937D1*
X10594Y26913D1*
X10707Y26860D1*
X10803Y26780D1*
X10876Y26679D1*
X10922Y26563D1*
X10938Y26440D1*
X10922Y26317D1*
X11922D2*
X11876Y26201D1*
X11803Y26100D1*
X11707Y26020D1*
X11594Y25967D1*
X11471Y25944D1*
X11347Y25952D1*
X11228Y25990D1*
X11123Y26057D1*
X11038Y26148D1*
X10978Y26257D1*
X10947Y26378D1*
Y26503D1*
X10978Y26624D1*
X11038Y26733D1*
X11124Y26824D1*
X11229Y26890D1*
X11347Y26929D1*
X11472Y26937D1*
X11594Y26913D1*
X11707Y26860D1*
X11803Y26780D1*
X11876Y26679D1*
X11922Y26563D1*
X11938Y26440D1*
X11922Y26317D1*
X6922Y25317D2*
X6876Y25201D1*
X6803Y25100D1*
X6707Y25020D1*
X6594Y24967D1*
X6471Y24944D1*
X6347Y24952D1*
X6228Y24990D1*
X6123Y25057D1*
X6038Y25148D1*
X5978Y25257D1*
X5947Y25378D1*
Y25503D1*
X5978Y25624D1*
X6038Y25733D1*
X6124Y25824D1*
X6229Y25890D1*
X6347Y25929D1*
X6472Y25937D1*
X6594Y25913D1*
X6707Y25860D1*
X6803Y25780D1*
X6876Y25679D1*
X6922Y25563D1*
X6938Y25440D1*
X6922Y25317D1*
X7922D2*
X7876Y25201D1*
X7803Y25100D1*
X7707Y25020D1*
X7594Y24967D1*
X7471Y24944D1*
X7347Y24952D1*
X7228Y24990D1*
X7123Y25057D1*
X7038Y25148D1*
X6978Y25257D1*
X6947Y25378D1*
Y25503D1*
X6978Y25624D1*
X7038Y25733D1*
X7124Y25824D1*
X7229Y25890D1*
X7347Y25929D1*
X7472Y25937D1*
X7594Y25913D1*
X7707Y25860D1*
X7803Y25780D1*
X7876Y25679D1*
X7922Y25563D1*
X7938Y25440D1*
X7922Y25317D1*
X10922D2*
X10876Y25201D1*
X10803Y25100D1*
X10707Y25020D1*
X10594Y24967D1*
X10471Y24944D1*
X10347Y24952D1*
X10228Y24990D1*
X10123Y25057D1*
X10038Y25148D1*
X9978Y25257D1*
X9947Y25378D1*
Y25503D1*
X9978Y25624D1*
X10038Y25733D1*
X10124Y25824D1*
X10229Y25890D1*
X10347Y25929D1*
X10472Y25937D1*
X10594Y25913D1*
X10707Y25860D1*
X10803Y25780D1*
X10876Y25679D1*
X10922Y25563D1*
X10938Y25440D1*
X10922Y25317D1*
X11922D2*
X11876Y25201D1*
X11803Y25100D1*
X11707Y25020D1*
X11594Y24967D1*
X11471Y24944D1*
X11347Y24952D1*
X11228Y24990D1*
X11123Y25057D1*
X11038Y25148D1*
X10978Y25257D1*
X10947Y25378D1*
Y25503D1*
X10978Y25624D1*
X11038Y25733D1*
X11124Y25824D1*
X11229Y25890D1*
X11347Y25929D1*
X11472Y25937D1*
X11594Y25913D1*
X11707Y25860D1*
X11803Y25780D1*
X11876Y25679D1*
X11922Y25563D1*
X11938Y25440D1*
X11922Y25317D1*
X6922Y24317D2*
X6876Y24201D1*
X6803Y24100D1*
X6707Y24020D1*
X6594Y23967D1*
X6471Y23944D1*
X6347Y23952D1*
X6228Y23990D1*
X6123Y24057D1*
X6038Y24148D1*
X5978Y24257D1*
X5947Y24378D1*
Y24503D1*
X5978Y24624D1*
X6038Y24733D1*
X6124Y24824D1*
X6229Y24890D1*
X6347Y24929D1*
X6472Y24937D1*
X6594Y24913D1*
X6707Y24860D1*
X6803Y24780D1*
X6876Y24679D1*
X6922Y24563D1*
X6938Y24440D1*
X6922Y24317D1*
X7922D2*
X7876Y24201D1*
X7803Y24100D1*
X7707Y24020D1*
X7594Y23967D1*
X7471Y23944D1*
X7347Y23952D1*
X7228Y23990D1*
X7123Y24057D1*
X7038Y24148D1*
X6978Y24257D1*
X6947Y24378D1*
Y24503D1*
X6978Y24624D1*
X7038Y24733D1*
X7124Y24824D1*
X7229Y24890D1*
X7347Y24929D1*
X7472Y24937D1*
X7594Y24913D1*
X7707Y24860D1*
X7803Y24780D1*
X7876Y24679D1*
X7922Y24563D1*
X7938Y24440D1*
X7922Y24317D1*
X10922D2*
X10876Y24201D1*
X10803Y24100D1*
X10707Y24020D1*
X10594Y23967D1*
X10471Y23944D1*
X10347Y23952D1*
X10228Y23990D1*
X10123Y24057D1*
X10038Y24148D1*
X9978Y24257D1*
X9947Y24378D1*
Y24503D1*
X9978Y24624D1*
X10038Y24733D1*
X10124Y24824D1*
X10229Y24890D1*
X10347Y24929D1*
X10472Y24937D1*
X10594Y24913D1*
X10707Y24860D1*
X10803Y24780D1*
X10876Y24679D1*
X10922Y24563D1*
X10938Y24440D1*
X10922Y24317D1*
X11922D2*
X11876Y24201D1*
X11803Y24100D1*
X11707Y24020D1*
X11594Y23967D1*
X11471Y23944D1*
X11347Y23952D1*
X11228Y23990D1*
X11123Y24057D1*
X11038Y24148D1*
X10978Y24257D1*
X10947Y24378D1*
Y24503D1*
X10978Y24624D1*
X11038Y24733D1*
X11124Y24824D1*
X11229Y24890D1*
X11347Y24929D1*
X11472Y24937D1*
X11594Y24913D1*
X11707Y24860D1*
X11803Y24780D1*
X11876Y24679D1*
X11922Y24563D1*
X11938Y24440D1*
X11922Y24317D1*
X6922Y23317D2*
X6876Y23201D1*
X6803Y23100D1*
X6707Y23020D1*
X6594Y22967D1*
X6471Y22944D1*
X6347Y22952D1*
X6228Y22990D1*
X6123Y23057D1*
X6038Y23148D1*
X5978Y23257D1*
X5947Y23378D1*
Y23503D1*
X5978Y23624D1*
X6038Y23733D1*
X6124Y23824D1*
X6229Y23890D1*
X6347Y23929D1*
X6472Y23937D1*
X6594Y23913D1*
X6707Y23860D1*
X6803Y23780D1*
X6876Y23679D1*
X6922Y23563D1*
X6938Y23440D1*
X6922Y23317D1*
X7922D2*
X7876Y23201D1*
X7803Y23100D1*
X7707Y23020D1*
X7594Y22967D1*
X7471Y22944D1*
X7347Y22952D1*
X7228Y22990D1*
X7123Y23057D1*
X7038Y23148D1*
X6978Y23257D1*
X6947Y23378D1*
Y23503D1*
X6978Y23624D1*
X7038Y23733D1*
X7124Y23824D1*
X7229Y23890D1*
X7347Y23929D1*
X7472Y23937D1*
X7594Y23913D1*
X7707Y23860D1*
X7803Y23780D1*
X7876Y23679D1*
X7922Y23563D1*
X7938Y23440D1*
X7922Y23317D1*
X10922D2*
X10876Y23201D1*
X10803Y23100D1*
X10707Y23020D1*
X10594Y22967D1*
X10471Y22944D1*
X10347Y22952D1*
X10228Y22990D1*
X10123Y23057D1*
X10038Y23148D1*
X9978Y23257D1*
X9947Y23378D1*
Y23503D1*
X9978Y23624D1*
X10038Y23733D1*
X10124Y23824D1*
X10229Y23890D1*
X10347Y23929D1*
X10472Y23937D1*
X10594Y23913D1*
X10707Y23860D1*
X10803Y23780D1*
X10876Y23679D1*
X10922Y23563D1*
X10938Y23440D1*
X10922Y23317D1*
X11922D2*
X11876Y23201D1*
X11803Y23100D1*
X11707Y23020D1*
X11594Y22967D1*
X11471Y22944D1*
X11347Y22952D1*
X11228Y22990D1*
X11123Y23057D1*
X11038Y23148D1*
X10978Y23257D1*
X10947Y23378D1*
Y23503D1*
X10978Y23624D1*
X11038Y23733D1*
X11124Y23824D1*
X11229Y23890D1*
X11347Y23929D1*
X11472Y23937D1*
X11594Y23913D1*
X11707Y23860D1*
X11803Y23780D1*
X11876Y23679D1*
X11922Y23563D1*
X11938Y23440D1*
X11922Y23317D1*
X6922Y22317D2*
X6876Y22201D1*
X6803Y22100D1*
X6707Y22020D1*
X6594Y21967D1*
X6471Y21944D1*
X6347Y21952D1*
X6228Y21990D1*
X6123Y22057D1*
X6038Y22148D1*
X5978Y22257D1*
X5947Y22378D1*
Y22503D1*
X5978Y22624D1*
X6038Y22733D1*
X6124Y22824D1*
X6229Y22890D1*
X6347Y22929D1*
X6472Y22937D1*
X6594Y22913D1*
X6707Y22860D1*
X6803Y22780D1*
X6876Y22679D1*
X6922Y22563D1*
X6938Y22440D1*
X6922Y22317D1*
X7922D2*
X7876Y22201D1*
X7803Y22100D1*
X7707Y22020D1*
X7594Y21967D1*
X7471Y21944D1*
X7347Y21952D1*
X7228Y21990D1*
X7123Y22057D1*
X7038Y22148D1*
X6978Y22257D1*
X6947Y22378D1*
Y22503D1*
X6978Y22624D1*
X7038Y22733D1*
X7124Y22824D1*
X7229Y22890D1*
X7347Y22929D1*
X7472Y22937D1*
X7594Y22913D1*
X7707Y22860D1*
X7803Y22780D1*
X7876Y22679D1*
X7922Y22563D1*
X7938Y22440D1*
X7922Y22317D1*
X10922D2*
X10876Y22201D1*
X10803Y22100D1*
X10707Y22020D1*
X10594Y21967D1*
X10471Y21944D1*
X10347Y21952D1*
X10228Y21990D1*
X10123Y22057D1*
X10038Y22148D1*
X9978Y22257D1*
X9947Y22378D1*
Y22503D1*
X9978Y22624D1*
X10038Y22733D1*
X10124Y22824D1*
X10229Y22890D1*
X10347Y22929D1*
X10472Y22937D1*
X10594Y22913D1*
X10707Y22860D1*
X10803Y22780D1*
X10876Y22679D1*
X10922Y22563D1*
X10938Y22440D1*
X10922Y22317D1*
X11922D2*
X11876Y22201D1*
X11803Y22100D1*
X11707Y22020D1*
X11594Y21967D1*
X11471Y21944D1*
X11347Y21952D1*
X11228Y21990D1*
X11123Y22057D1*
X11038Y22148D1*
X10978Y22257D1*
X10947Y22378D1*
Y22503D1*
X10978Y22624D1*
X11038Y22733D1*
X11124Y22824D1*
X11229Y22890D1*
X11347Y22929D1*
X11472Y22937D1*
X11594Y22913D1*
X11707Y22860D1*
X11803Y22780D1*
X11876Y22679D1*
X11922Y22563D1*
X11938Y22440D1*
X11922Y22317D1*
X6922Y21317D2*
X6876Y21201D1*
X6803Y21100D1*
X6707Y21020D1*
X6594Y20967D1*
X6471Y20944D1*
X6347Y20952D1*
X6228Y20990D1*
X6123Y21057D1*
X6038Y21148D1*
X5978Y21257D1*
X5947Y21378D1*
Y21503D1*
X5978Y21624D1*
X6038Y21733D1*
X6124Y21824D1*
X6229Y21890D1*
X6347Y21929D1*
X6472Y21937D1*
X6594Y21913D1*
X6707Y21860D1*
X6803Y21780D1*
X6876Y21679D1*
X6922Y21563D1*
X6938Y21440D1*
X6922Y21317D1*
X7922D2*
X7876Y21201D1*
X7803Y21100D1*
X7707Y21020D1*
X7594Y20967D1*
X7471Y20944D1*
X7347Y20952D1*
X7228Y20990D1*
X7123Y21057D1*
X7038Y21148D1*
X6978Y21257D1*
X6947Y21378D1*
Y21503D1*
X6978Y21624D1*
X7038Y21733D1*
X7124Y21824D1*
X7229Y21890D1*
X7347Y21929D1*
X7472Y21937D1*
X7594Y21913D1*
X7707Y21860D1*
X7803Y21780D1*
X7876Y21679D1*
X7922Y21563D1*
X7938Y21440D1*
X7922Y21317D1*
X10922D2*
X10876Y21201D1*
X10803Y21100D1*
X10707Y21020D1*
X10594Y20967D1*
X10471Y20944D1*
X10347Y20952D1*
X10228Y20990D1*
X10123Y21057D1*
X10038Y21148D1*
X9978Y21257D1*
X9947Y21378D1*
Y21503D1*
X9978Y21624D1*
X10038Y21733D1*
X10124Y21824D1*
X10229Y21890D1*
X10347Y21929D1*
X10472Y21937D1*
X10594Y21913D1*
X10707Y21860D1*
X10803Y21780D1*
X10876Y21679D1*
X10922Y21563D1*
X10938Y21440D1*
X10922Y21317D1*
X11922D2*
X11876Y21201D1*
X11803Y21100D1*
X11707Y21020D1*
X11594Y20967D1*
X11471Y20944D1*
X11347Y20952D1*
X11228Y20990D1*
X11123Y21057D1*
X11038Y21148D1*
X10978Y21257D1*
X10947Y21378D1*
Y21503D1*
X10978Y21624D1*
X11038Y21733D1*
X11124Y21824D1*
X11229Y21890D1*
X11347Y21929D1*
X11472Y21937D1*
X11594Y21913D1*
X11707Y21860D1*
X11803Y21780D1*
X11876Y21679D1*
X11922Y21563D1*
X11938Y21440D1*
X11922Y21317D1*
X6922Y20317D2*
X6876Y20201D1*
X6803Y20100D1*
X6707Y20020D1*
X6594Y19967D1*
X6471Y19944D1*
X6347Y19952D1*
X6228Y19990D1*
X6123Y20057D1*
X6038Y20148D1*
X5978Y20257D1*
X5947Y20378D1*
Y20503D1*
X5978Y20624D1*
X6038Y20733D1*
X6124Y20824D1*
X6229Y20890D1*
X6347Y20929D1*
X6472Y20937D1*
X6594Y20913D1*
X6707Y20860D1*
X6803Y20780D1*
X6876Y20679D1*
X6922Y20563D1*
X6938Y20440D1*
X6922Y20317D1*
X7922D2*
X7876Y20201D1*
X7803Y20100D1*
X7707Y20020D1*
X7594Y19967D1*
X7471Y19944D1*
X7347Y19952D1*
X7228Y19990D1*
X7123Y20057D1*
X7038Y20148D1*
X6978Y20257D1*
X6947Y20378D1*
Y20503D1*
X6978Y20624D1*
X7038Y20733D1*
X7124Y20824D1*
X7229Y20890D1*
X7347Y20929D1*
X7472Y20937D1*
X7594Y20913D1*
X7707Y20860D1*
X7803Y20780D1*
X7876Y20679D1*
X7922Y20563D1*
X7938Y20440D1*
X7922Y20317D1*
X10922D2*
X10876Y20201D1*
X10803Y20100D1*
X10707Y20020D1*
X10594Y19967D1*
X10471Y19944D1*
X10347Y19952D1*
X10228Y19990D1*
X10123Y20057D1*
X10038Y20148D1*
X9978Y20257D1*
X9947Y20378D1*
Y20503D1*
X9978Y20624D1*
X10038Y20733D1*
X10124Y20824D1*
X10229Y20890D1*
X10347Y20929D1*
X10472Y20937D1*
X10594Y20913D1*
X10707Y20860D1*
X10803Y20780D1*
X10876Y20679D1*
X10922Y20563D1*
X10938Y20440D1*
X10922Y20317D1*
X11922D2*
X11876Y20201D1*
X11803Y20100D1*
X11707Y20020D1*
X11594Y19967D1*
X11471Y19944D1*
X11347Y19952D1*
X11228Y19990D1*
X11123Y20057D1*
X11038Y20148D1*
X10978Y20257D1*
X10947Y20378D1*
Y20503D1*
X10978Y20624D1*
X11038Y20733D1*
X11124Y20824D1*
X11229Y20890D1*
X11347Y20929D1*
X11472Y20937D1*
X11594Y20913D1*
X11707Y20860D1*
X11803Y20780D1*
X11876Y20679D1*
X11922Y20563D1*
X11938Y20440D1*
X11922Y20317D1*
X6922Y19317D2*
X6876Y19201D1*
X6803Y19100D1*
X6707Y19020D1*
X6594Y18967D1*
X6471Y18944D1*
X6347Y18952D1*
X6228Y18990D1*
X6123Y19057D1*
X6038Y19148D1*
X5978Y19257D1*
X5947Y19378D1*
Y19503D1*
X5978Y19624D1*
X6038Y19733D1*
X6124Y19824D1*
X6229Y19890D1*
X6347Y19929D1*
X6472Y19937D1*
X6594Y19913D1*
X6707Y19860D1*
X6803Y19780D1*
X6876Y19679D1*
X6922Y19563D1*
X6938Y19440D1*
X6922Y19317D1*
X7922D2*
X7876Y19201D1*
X7803Y19100D1*
X7707Y19020D1*
X7594Y18967D1*
X7471Y18944D1*
X7347Y18952D1*
X7228Y18990D1*
X7123Y19057D1*
X7038Y19148D1*
X6978Y19257D1*
X6947Y19378D1*
Y19503D1*
X6978Y19624D1*
X7038Y19733D1*
X7124Y19824D1*
X7229Y19890D1*
X7347Y19929D1*
X7472Y19937D1*
X7594Y19913D1*
X7707Y19860D1*
X7803Y19780D1*
X7876Y19679D1*
X7922Y19563D1*
X7938Y19440D1*
X7922Y19317D1*
X10922D2*
X10876Y19201D1*
X10803Y19100D1*
X10707Y19020D1*
X10594Y18967D1*
X10471Y18944D1*
X10347Y18952D1*
X10228Y18990D1*
X10123Y19057D1*
X10038Y19148D1*
X9978Y19257D1*
X9947Y19378D1*
Y19503D1*
X9978Y19624D1*
X10038Y19733D1*
X10124Y19824D1*
X10229Y19890D1*
X10347Y19929D1*
X10472Y19937D1*
X10594Y19913D1*
X10707Y19860D1*
X10803Y19780D1*
X10876Y19679D1*
X10922Y19563D1*
X10938Y19440D1*
X10922Y19317D1*
X11922D2*
X11876Y19201D1*
X11803Y19100D1*
X11707Y19020D1*
X11594Y18967D1*
X11471Y18944D1*
X11347Y18952D1*
X11228Y18990D1*
X11123Y19057D1*
X11038Y19148D1*
X10978Y19257D1*
X10947Y19378D1*
Y19503D1*
X10978Y19624D1*
X11038Y19733D1*
X11124Y19824D1*
X11229Y19890D1*
X11347Y19929D1*
X11472Y19937D1*
X11594Y19913D1*
X11707Y19860D1*
X11803Y19780D1*
X11876Y19679D1*
X11922Y19563D1*
X11938Y19440D1*
X11922Y19317D1*
X31552Y36847D2*
X31519Y36727D1*
X31466Y36614D1*
X31393Y36513D1*
X31303Y36426D1*
X31200Y36357D1*
X31085Y36306D1*
X30964Y36277D1*
X30839Y36270D1*
X30715Y36285D1*
X30596Y36322D1*
X30485Y36379D1*
X30386Y36455D1*
X30302Y36548D1*
X30236Y36653D1*
X30189Y36769D1*
X30164Y36892D1*
X30161Y37016D1*
X30180Y37140D1*
X30220Y37258D1*
X30281Y37367D1*
X30360Y37463D1*
X30455Y37544D1*
X30563Y37607D1*
X30680Y37650D1*
X30803Y37671D1*
X30928D1*
X31051Y37648D1*
X31168Y37603D1*
X31275Y37539D1*
X31369Y37457D1*
X31447Y37360D1*
X31506Y37250D1*
X31545Y37131D1*
X31564Y36972D1*
X31552Y36847D1*
X38552Y38816D2*
X38519Y38696D1*
X38466Y38583D1*
X38393Y38481D1*
X38303Y38395D1*
X38200Y38325D1*
X38085Y38275D1*
X37964Y38246D1*
X37839Y38239D1*
X37715Y38254D1*
X37596Y38290D1*
X37485Y38348D1*
X37386Y38424D1*
X37302Y38516D1*
X37236Y38622D1*
X37189Y38738D1*
X37164Y38860D1*
X37161Y38985D1*
X37180Y39108D1*
X37220Y39226D1*
X37281Y39335D1*
X37360Y39432D1*
X37455Y39513D1*
X37563Y39576D1*
X37680Y39619D1*
X37803Y39640D1*
X37928Y39639D1*
X38051Y39616D1*
X38168Y39572D1*
X38275Y39508D1*
X38369Y39426D1*
X38447Y39328D1*
X38506Y39218D1*
X38545Y39100D1*
X38564Y38940D1*
X38552Y38816D1*
Y36847D2*
X38519Y36727D1*
X38466Y36614D1*
X38393Y36513D1*
X38303Y36426D1*
X38200Y36357D1*
X38085Y36306D1*
X37964Y36277D1*
X37839Y36270D1*
X37715Y36285D1*
X37596Y36322D1*
X37485Y36379D1*
X37386Y36455D1*
X37302Y36548D1*
X37236Y36653D1*
X37189Y36769D1*
X37164Y36892D1*
X37161Y37016D1*
X37180Y37140D1*
X37220Y37258D1*
X37281Y37367D1*
X37360Y37463D1*
X37455Y37544D1*
X37563Y37607D1*
X37680Y37650D1*
X37803Y37671D1*
X37928D1*
X38051Y37648D1*
X38168Y37603D1*
X38275Y37539D1*
X38369Y37457D1*
X38447Y37360D1*
X38506Y37250D1*
X38545Y37131D1*
X38564Y36972D1*
X38552Y36847D1*
X22701Y13218D2*
X22658Y13305D1*
X22657Y9955D1*
Y6975D1*
X22702Y7074D1*
X22699Y8405D1*
Y13213D1*
X4342Y41698D2*
X4325Y41543D1*
Y4833D1*
X4343Y4681D1*
X4390Y4563D1*
X4466Y4463D1*
X4566Y4388D1*
X4683Y4342D1*
X4838Y4325D1*
X41597D1*
X41726Y4346D1*
X41829Y4391D1*
X41918Y4461D1*
X41988Y4550D1*
X42034Y4654D1*
X42056Y4786D1*
X42055Y41545D1*
X42038Y41699D1*
X41991Y41818D1*
X41914Y41917D1*
X41814Y41993D1*
X41697Y42039D1*
X41543Y42055D1*
X4833D1*
X4681Y42038D1*
X4563Y41991D1*
X4463Y41914D1*
X4388Y41814D1*
X4342Y41697D1*
D21*
X22940Y36940D3*
D22*
X21940D3*
X22940Y37940D3*
X21940D3*
X22940Y38940D3*
X21940D3*
D21*
X11440Y5440D3*
D22*
Y6440D3*
X12440Y5440D3*
Y6440D3*
X13440Y5440D3*
Y6440D3*
D21*
X33940Y5440D3*
D22*
X34940D3*
X35940D3*
X36940D3*
X37940D3*
X38940D3*
D21*
X26940D3*
D22*
X27940D3*
X28940D3*
X29940D3*
X30940D3*
X31940D3*
D21*
X6440Y8940D3*
D22*
Y9940D3*
Y10940D3*
Y11940D3*
Y12940D3*
Y13940D3*
D21*
X22940Y22440D3*
D22*
X23940D3*
X24940D3*
X25940D3*
X26940D3*
X27940D3*
X28940D3*
X29940D3*
X30940D3*
X31940D3*
X32940D3*
X33940D3*
X34940D3*
X35940D3*
D21*
X22940Y32440D3*
D22*
X23940D3*
X24940D3*
X25940D3*
X26940D3*
X27940D3*
X28940D3*
X29940D3*
X30940D3*
X31940D3*
X32940D3*
X33940D3*
X34940D3*
X35940D3*
D21*
X37940Y25440D3*
D22*
Y26440D3*
Y27440D3*
Y28440D3*
Y29440D3*
D21*
X23940Y33440D3*
D22*
X24940D3*
X25940D3*
X26940D3*
D21*
X28940Y21440D3*
D22*
X29940D3*
X30940D3*
X31940D3*
X32940D3*
X33940D3*
X34940D3*
D21*
X28940Y33440D3*
D22*
X29940D3*
X30940D3*
X31940D3*
X32940D3*
X33940D3*
X34940D3*
D21*
X16440Y8940D3*
D22*
Y9940D3*
X17440Y8940D3*
Y9940D3*
X18440Y8940D3*
Y9940D3*
X19440Y8940D3*
Y9940D3*
D21*
X21940Y5440D3*
D22*
X22940D3*
X23940D3*
X24940D3*
D21*
X39940Y19440D3*
D22*
X38940D3*
X37940D3*
X36940D3*
X35940D3*
X34940D3*
X33940D3*
X32940D3*
X31940D3*
X30940D3*
X29940D3*
X28940D3*
X27940D3*
X26940D3*
X25940D3*
X24940D3*
X23940D3*
X22940D3*
D21*
X6440Y33440D3*
D22*
X7440D3*
X8440D3*
X9440D3*
X10440D3*
X11440D3*
X12440D3*
X13440D3*
X14440D3*
X15440D3*
X16440D3*
X17440D3*
X18440D3*
X19440D3*
D21*
X6440Y32440D3*
D22*
X7440D3*
X8440D3*
X9440D3*
X10440D3*
X11440D3*
X12440D3*
X13440D3*
X14440D3*
X15440D3*
X16440D3*
X17440D3*
X18440D3*
X19440D3*
D21*
X6440Y18440D3*
D22*
X7440D3*
X8440D3*
X9440D3*
X10440D3*
X11440D3*
X12440D3*
X13440D3*
X14440D3*
X15440D3*
X16440D3*
X17440D3*
X18440D3*
X19440D3*
D21*
X15440Y5440D3*
D22*
Y6440D3*
X16440Y5440D3*
Y6440D3*
X17440Y5440D3*
Y6440D3*
X18440Y5440D3*
Y6440D3*
X19440Y5440D3*
Y6440D3*
D23*
X6440Y31440D3*
X7440D3*
X8440D3*
X9440D3*
X10440D3*
X11440D3*
X12440D3*
X13440D3*
X15440D3*
X14440D3*
X16440D3*
X17440D3*
X18440D3*
X19440D3*
X6440Y30440D3*
X7440D3*
X8440D3*
X9440D3*
X10440D3*
X11440D3*
X12440D3*
X13440D3*
X15440D3*
X14440D3*
X16440D3*
X17440D3*
X18440D3*
X19440D3*
X6440Y29440D3*
X7440D3*
X8440D3*
X9440D3*
X10440D3*
X11440D3*
X12440D3*
X13440D3*
X15440D3*
X14440D3*
X16440D3*
X17440D3*
X18440D3*
X19440D3*
X6440Y28440D3*
X7440D3*
X8440D3*
X9440D3*
X10440D3*
X11440D3*
X12440D3*
X13440D3*
X15440D3*
X14440D3*
X16440D3*
X17440D3*
X18440D3*
X19440D3*
X6440Y27440D3*
X7440D3*
X8440D3*
X9440D3*
X10440D3*
X11440D3*
X12440D3*
X13440D3*
X15440D3*
X14440D3*
X16440D3*
X17440D3*
X18440D3*
X19440D3*
X6440Y26440D3*
X7440D3*
X8440D3*
X9440D3*
X10440D3*
X11440D3*
X12440D3*
X13440D3*
X15440D3*
X14440D3*
X16440D3*
X17440D3*
X18440D3*
X19440D3*
X6440Y25440D3*
X7440D3*
X8440D3*
X9440D3*
X10440D3*
X11440D3*
X12440D3*
X13440D3*
X15440D3*
X14440D3*
X16440D3*
X17440D3*
X18440D3*
X19440D3*
X6440Y24440D3*
X7440D3*
X8440D3*
X9440D3*
X10440D3*
X11440D3*
X12440D3*
X13440D3*
X15440D3*
X14440D3*
X16440D3*
X17440D3*
X18440D3*
X19440D3*
X6440Y23440D3*
X7440D3*
X8440D3*
X9440D3*
X10440D3*
X11440D3*
X12440D3*
X13440D3*
X15440D3*
X14440D3*
X16440D3*
X17440D3*
X18440D3*
X19440D3*
X6440Y22440D3*
X7440D3*
X8440D3*
X9440D3*
X10440D3*
X12440D3*
X11440D3*
X13440D3*
X14440D3*
X15440D3*
X16440D3*
X17440D3*
X18440D3*
X19440D3*
X6440Y21440D3*
X7440D3*
X8440D3*
X9440D3*
X10440D3*
X12440D3*
X11440D3*
X13440D3*
X14440D3*
X15440D3*
X16440D3*
X17440D3*
X18440D3*
X19440D3*
X6440Y20440D3*
X7440D3*
X8440D3*
X9440D3*
X10440D3*
X12440D3*
X11440D3*
X13440D3*
X14440D3*
X15440D3*
X16440D3*
X17440D3*
X18440D3*
X19440D3*
X6440Y19440D3*
X7440D3*
X8440D3*
X9440D3*
X10440D3*
X12440D3*
X11440D3*
X13440D3*
X14440D3*
X15440D3*
X16440D3*
X17440D3*
X18440D3*
X19440D3*
D24*
X25940Y38940D3*
X30862D3*
X25940Y36972D3*
X30862D3*
X32940Y38940D3*
X37862D3*
X32940Y36972D3*
X37862D3*
D21*
X10440Y8940D3*
D22*
X11440D3*
X12440D3*
X13440D3*
D28*
X22940Y30440D3*
X23940D3*
X24940D3*
X25940D3*
X26940D3*
X27940D3*
X28940D3*
X29940D3*
X30940D3*
X31940D3*
X32940D3*
X33940D3*
X34940D3*
X35940D3*
D21*
X22940Y24440D3*
D28*
X23940D3*
X24940D3*
X25940D3*
X26940D3*
X27940D3*
X28940D3*
X29940D3*
X30940D3*
X31940D3*
X32940D3*
X33940D3*
X34940D3*
X35940D3*
Y29440D3*
Y28440D3*
Y27440D3*
Y26440D3*
Y25440D3*
X23940Y29440D3*
X25940D3*
X26940D3*
X27940D3*
X28940Y28440D3*
Y27440D3*
X30940D3*
X29940D3*
Y28440D3*
X30940D3*
X31940D3*
X32940D3*
X33940D3*
X34940D3*
Y27440D3*
X33940D3*
X32940D3*
X31940D3*
X39940Y17440D3*
X38940D3*
X37940D3*
X36940D3*
X35940D3*
X34940D3*
X33940D3*
X32940D3*
X31940D3*
X30940D3*
X29940D3*
X28940D3*
X27940D3*
X26940D3*
X25940D3*
X24940D3*
X23940D3*
X22940D3*
D24*
X34704Y8373D3*
X33326D3*
X31950Y8370D3*
X30570Y8373D3*
X29192D3*
X27810Y8370D3*
M02*
