%  1    time 0.000 sec
%  2    mission (0) state 2
%  3  4 Motor velocity ref left, right: 2.00 2.00
%  5  6 Motor voltage [V] left, right: 2.0 2.0
%  7 10 Motor current left, right [A]: 0.002 -0.002 656 667% 11 12 Encoder left, right: 1 4
% 13 14 Wheel velocity [r/s] left, right: 0.0000 0.0033
% 15    Battery voltage [V]: 3.18
0.001 2 2.00 2.00 2.0 2.0 0.002 -0.002 663 674 1 4 0.0000 0.0033 3.18 
0.002 2 2.00 2.00 2.0 2.0 0.002 -0.002 653 661 1 4 0.0000 0.0033 3.18 
0.003 2 2.00 2.00 2.0 2.0 0.002 -0.002 655 671 1 4 0.0000 0.0033 3.18 
0.004 2 2.00 2.00 2.0 2.0 0.002 -0.002 662 675 1 4 0.0000 0.0033 3.18 
0.005 2 2.00 2.00 2.0 2.0 0.002 -0.002 657 676 1 4 0.0000 0.0033 3.18 
0.006 2 2.00 2.00 2.0 2.0 0.002 -0.002 659 674 1 4 0.0000 0.0033 3.18 
0.007 2 2.00 2.00 2.0 2.0 0.002 -0.002 660 674 1 4 0.0000 0.0033 3.18 
0.008 2 2.00 2.00 2.0 2.0 0.002 -0.004 657 665 1 4 0.0000 0.0033 3.13 
0.009 2 2.00 2.00 2.0 2.0 0.002 -0.002 663 666 1 4 0.0000 0.0033 3.13 
0.010 2 2.00 2.00 2.0 2.0 0.002 -0.002 654 665 1 4 0.0000 0.0033 3.13 
0.011 2 2.00 2.00 2.0 2.0 0.002 -0.002 665 679 1 4 0.0000 0.0033 3.13 
0.012 2 2.00 2.00 2.0 2.0 0.002 -0.002 666 676 1 4 0.0000 0.0033 3.13 
0.013 2 2.00 2.00 2.0 2.0 0.002 -0.002 646 672 1 4 0.0000 0.0033 3.18 
0.014 2 2.00 2.00 2.0 2.0 0.002 -0.002 654 682 1 4 0.0000 0.0033 3.18 
0.015 2 2.00 2.00 2.0 2.0 0.002 -0.002 657 676 1 4 0.0000 0.0033 3.18 
0.016 2 2.00 2.00 2.0 2.0 0.002 -0.002 654 666 1 4 0.0000 0.0033 3.18 
0.017 2 2.00 2.00 2.0 2.0 0.002 -0.002 654 665 1 4 0.0000 0.0033 3.18 
0.018 2 2.00 2.00 2.0 2.0 0.002 -0.002 648 679 1 4 0.0000 0.0033 3.15 
0.019 2 2.00 2.00 2.0 2.0 0.002 -0.002 649 676 1 4 0.0000 0.0033 3.15 
0.020 2 2.00 2.00 2.0 2.0 0.002 -0.002 650 661 1 4 0.0000 0.0033 3.15 
0.021 2 2.00 2.00 2.0 2.0 0.002 -0.002 651 679 1 4 0.0000 0.0033 3.15 
0.022 2 2.00 2.00 2.0 2.0 0.002 -0.002 666 678 1 4 0.0000 0.0033 3.15 
0.023 2 2.00 2.00 2.0 2.0 0.002 -0.002 658 683 1 4 0.0000 0.0033 3.15 
0.024 2 2.00 2.00 2.0 2.0 0.002 -0.002 665 671 1 4 0.0000 0.0033 3.15 
0.025 2 2.00 2.00 2.0 2.0 0.002 -0.002 656 677 1 4 0.0000 0.0033 3.15 
0.026 2 2.00 2.00 2.0 2.0 0.002 -0.002 657 673 1 4 0.0000 0.0033 3.15 
0.027 2 2.00 2.00 2.0 2.0 0.002 -0.002 665 658 1 4 0.0000 0.0033 3.15 
0.028 2 2.00 2.00 2.0 2.0 0.002 -0.002 659 668 1 4 0.0000 0.0033 3.20 
0.029 2 2.00 2.00 2.0 2.0 0.002 -0.002 662 664 1 4 0.0000 0.0033 3.20 
0.030 2 2.00 2.00 2.0 2.0 0.002 -0.002 661 669 1 4 0.0000 0.0033 3.20 
0.031 2 2.00 2.00 2.0 2.0 0.002 -0.002 645 678 1 4 0.0000 0.0033 3.20 
0.032 2 2.00 2.00 2.0 2.0 0.002 -0.002 646 671 1 4 0.0000 0.0033 3.20 
0.033 2 2.00 2.00 2.0 2.0 0.002 -0.002 666 681 1 4 0.0000 0.0033 3.15 
0.034 2 2.00 2.00 2.0 2.0 0.002 -0.002 657 666 1 4 0.0000 0.0033 3.15 
0.035 2 2.00 2.00 2.0 2.0 0.002 -0.002 666 674 1 4 0.0000 0.0033 3.15 
0.036 2 2.00 2.00 2.0 2.0 0.002 -0.002 673 676 1 4 0.0000 0.0033 3.15 
0.037 2 2.00 2.00 2.0 2.0 0.002 -0.002 667 671 1 4 0.0000 0.0033 3.15 
0.038 2 2.00 2.00 2.0 2.0 0.002 -0.002 657 676 1 4 0.0000 0.0033 3.16 
0.039 2 2.00 2.00 2.0 2.0 0.002 -0.002 638 674 1 4 0.0000 0.0033 3.16 
0.040 2 2.00 2.00 2.0 2.0 0.002 -0.002 663 677 1 4 0.0000 0.0033 3.16 
0.041 2 2.00 2.00 2.0 2.0 0.002 -0.002 670 669 1 4 0.0000 0.0033 3.16 
0.042 2 2.00 2.00 2.0 2.0 0.002 -0.002 660 670 1 4 0.0000 0.0033 3.16 
0.043 2 2.00 2.00 2.0 2.0 0.002 -0.002 654 676 1 4 0.0000 0.0033 3.16 
0.044 2 2.00 2.00 2.0 2.0 0.002 -0.002 654 678 1 4 0.0000 0.0033 3.16 
0.045 2 2.00 2.00 2.0 2.0 0.002 -0.002 655 663 1 4 0.0000 0.0033 3.16 
0.046 2 2.00 2.00 2.0 2.0 0.002 -0.002 653 673 1 4 0.0000 0.0033 3.16 
0.047 2 2.00 2.00 2.0 2.0 0.002 -0.002 665 664 1 4 0.0000 0.0032 3.16 
0.048 2 2.00 2.00 2.0 2.0 0.002 -0.002 668 655 1 4 0.0000 0.0032 3.18 
0.049 2 2.00 2.00 2.0 2.0 0.002 -0.002 676 670 1 4 0.0000 0.0032 3.18 
0.050 2 2.00 2.00 2.0 2.0 0.002 -0.002 665 674 1 4 0.0000 0.0032 3.18 
0.051 2 2.00 2.00 2.0 2.0 0.002 -0.002 667 672 1 4 0.0000 0.0032 3.18 
0.052 2 2.00 2.00 2.0 2.0 0.002 -0.002 646 679 1 4 0.0000 0.0032 3.18 
0.053 2 2.00 2.00 2.0 2.0 0.002 -0.002 662 673 1 4 0.0000 0.0032 3.21 
0.054 2 2.00 2.00 2.0 2.0 0.002 -0.002 649 676 1 4 0.0000 0.0032 3.21 
0.055 2 2.00 2.00 2.0 2.0 0.002 -0.002 657 674 1 4 0.0000 0.0032 3.21 
0.056 2 2.00 2.00 2.0 2.0 0.002 -0.002 662 665 1 4 0.0000 0.0032 3.21 
0.057 2 2.00 2.00 2.0 2.0 0.002 -0.002 668 675 1 4 0.0000 0.0032 3.21 
0.058 2 2.00 2.00 2.0 2.0 0.002 -0.002 659 676 1 4 0.0000 0.0032 3.15 
0.059 2 2.00 2.00 2.0 2.0 0.002 -0.002 658 668 1 4 0.0000 0.0032 3.15 
0.060 2 2.00 2.00 2.0 2.0 0.002 -0.002 651 664 1 4 0.0000 0.0032 3.15 
0.061 2 2.00 2.00 2.0 2.0 0.002 -0.002 661 679 1 4 0.0000 0.0032 3.15 
0.062 2 2.00 2.00 2.0 2.0 0.002 -0.002 655 672 1 4 0.0000 0.0032 3.15 
0.063 2 2.00 2.00 2.0 2.0 0.002 -0.002 659 662 1 4 0.0000 0.0032 3.16 
0.064 2 2.00 2.00 2.0 2.0 0.002 -0.002 647 684 1 4 0.0000 0.0032 3.16 
0.065 2 2.00 2.00 2.0 2.0 0.002 -0.002 665 685 1 4 0.0000 0.0032 3.16 
0.066 2 2.00 2.00 2.0 2.0 0.002 -0.002 648 675 1 4 0.0000 0.0032 3.16 
0.067 2 2.00 2.00 2.0 2.0 0.002 -0.002 669 677 1 4 0.0000 0.0032 3.16 
0.068 2 2.00 2.00 2.0 2.0 0.002 -0.002 669 673 1 4 0.0000 0.0032 3.13 
0.069 2 2.00 2.00 2.0 2.0 0.002 -0.002 656 668 1 4 0.0000 0.0032 3.13 
0.070 2 2.00 2.00 2.0 2.0 0.002 -0.002 657 667 1 4 0.0000 0.0032 3.13 
0.071 2 2.00 2.00 2.0 2.0 0.002 -0.002 650 675 1 4 0.0000 0.0032 3.13 
0.072 2 2.00 2.00 2.0 2.0 0.002 -0.002 657 671 1 4 0.0000 0.0032 3.13 
0.073 2 2.00 2.00 2.0 2.0 0.002 -0.002 644 663 1 4 0.0000 0.0032 3.20 
0.074 2 2.00 2.00 2.0 2.0 0.002 -0.002 665 665 1 4 0.0000 0.0032 3.20 
0.075 2 2.00 2.00 2.0 2.0 0.002 -0.002 640 675 1 4 0.0000 0.0032 3.20 
0.076 2 2.00 2.00 2.0 2.0 0.002 -0.002 649 677 1 4 0.0000 0.0032 3.20 
0.077 2 2.00 2.00 2.0 2.0 0.002 -0.002 657 681 1 4 0.0000 0.0032 3.20 
0.078 2 2.00 2.00 2.0 2.0 0.002 -0.002 660 669 1 4 0.0000 0.0032 3.18 
0.079 2 2.00 2.00 2.0 2.0 0.002 -0.002 664 662 1 4 0.0000 0.0032 3.18 
0.080 2 2.00 2.00 2.0 2.0 0.002 -0.002 665 669 1 4 0.0000 0.0032 3.18 
0.081 2 2.00 2.00 2.0 2.0 0.002 -0.002 661 672 1 4 0.0000 0.0032 3.18 
0.082 2 2.00 2.00 2.0 2.0 0.002 -0.002 666 671 1 4 0.0000 0.0032 3.18 
0.083 2 2.00 2.00 2.0 2.0 0.002 -0.002 655 675 1 4 0.0000 0.0032 3.23 
0.084 2 2.00 2.00 2.0 2.0 0.002 -0.002 651 672 1 4 0.0000 0.0032 3.23 
0.085 2 2.00 2.00 2.0 2.0 0.002 -0.002 660 676 1 4 0.0000 0.0032 3.23 
0.086 2 2.00 2.00 2.0 2.0 0.002 -0.002 664 669 1 4 0.0000 0.0032 3.23 
0.087 2 2.00 2.00 2.0 2.0 0.002 -0.002 658 681 1 4 0.0000 0.0032 3.23 
0.088 2 2.00 2.00 2.0 2.0 0.002 -0.002 655 671 1 4 0.0000 0.0032 3.20 
0.089 2 2.00 2.00 2.0 2.0 0.002 -0.002 649 673 1 4 0.0000 0.0032 3.20 
0.090 2 2.00 2.00 2.0 2.0 0.002 -0.002 666 670 1 4 0.0000 0.0032 3.20 
0.091 2 2.00 2.00 2.0 2.0 0.002 -0.002 653 670 1 4 0.0000 0.0032 3.20 
0.092 2 2.00 2.00 2.0 2.0 0.002 -0.002 654 656 1 4 0.0000 0.0032 3.20 
0.093 2 2.00 2.00 2.0 2.0 0.002 -0.002 648 672 1 4 0.0000 0.0032 3.18 
0.094 2 2.00 2.00 2.0 2.0 0.002 -0.002 667 669 1 4 0.0000 0.0032 3.18 
0.095 2 2.00 2.00 2.0 2.0 0.002 -0.002 658 672 1 4 0.0000 0.0032 3.18 
0.096 2 2.00 2.00 2.0 2.0 0.002 -0.002 661 673 1 4 0.0000 0.0032 3.18 
0.097 2 2.00 2.00 2.0 2.0 0.002 -0.002 656 670 1 4 0.0000 0.0032 3.18 
0.098 2 2.00 2.00 2.0 2.0 0.002 -0.002 647 676 1 4 0.0000 0.0032 3.13 
0.099 2 2.00 2.00 2.0 2.0 0.002 -0.002 667 677 1 4 0.0000 0.0032 3.13 
0.100 2 2.00 2.00 2.0 2.0 0.002 -0.002 658 659 1 4 0.0000 0.0032 3.13 
0.101 2 2.00 2.00 2.0 2.0 0.002 -0.002 667 675 1 4 0.0000 0.0032 3.13 
0.102 2 2.00 2.00 2.0 2.0 0.002 -0.002 648 675 1 4 0.0000 0.0032 3.13 
0.103 2 2.00 2.00 2.0 2.0 0.002 -0.002 650 663 1 4 0.0000 0.0032 3.18 
0.104 2 2.00 2.00 2.0 2.0 0.002 -0.002 657 655 1 4 0.0000 0.0032 3.18 
0.105 2 2.00 2.00 2.0 2.0 0.002 -0.002 666 662 1 4 0.0000 0.0032 3.18 
0.106 2 2.00 2.00 2.0 2.0 0.002 -0.002 649 669 1 4 0.0000 0.0032 3.18 
0.107 2 2.00 2.00 2.0 2.0 0.002 -0.002 650 670 1 4 0.0000 0.0032 3.18 
0.108 2 2.00 2.00 2.0 2.0 0.002 -0.002 648 666 1 4 0.0000 0.0032 3.20 
0.109 2 2.00 2.00 2.0 2.0 0.002 -0.002 657 666 1 4 0.0000 0.0032 3.20 
0.110 2 2.00 2.00 2.0 2.0 0.002 -0.002 668 657 1 4 0.0000 0.0032 3.20 
0.111 2 2.00 2.00 2.0 2.0 0.002 -0.002 655 675 1 4 0.0000 0.0032 3.20 
0.112 2 2.00 2.00 2.0 2.0 0.002 -0.002 651 654 1 4 0.0000 0.0032 3.20 
0.113 2 2.00 2.00 2.0 2.0 0.002 -0.002 657 659 1 4 0.0000 0.0032 3.12 
0.114 2 2.00 2.00 2.0 2.0 0.002 -0.002 657 668 1 4 0.0000 0.0032 3.12 
0.115 2 2.00 2.00 2.0 2.0 0.002 -0.002 649 667 1 4 0.0000 0.0032 3.12 
0.116 2 2.00 2.00 2.0 2.0 0.002 -0.002 650 674 1 4 0.0000 0.0032 3.12 
0.117 2 2.00 2.00 2.0 2.0 0.002 -0.002 657 667 1 4 0.0000 0.0032 3.12 
0.118 2 2.00 2.00 2.0 2.0 0.002 -0.002 652 677 1 4 0.0000 0.0032 3.21 
0.119 2 2.00 2.00 2.0 2.0 0.002 -0.002 658 672 1 4 0.0000 0.0032 3.21 
0.120 2 2.00 2.00 2.0 2.0 0.002 -0.002 650 666 1 4 0.0000 0.0032 3.21 
0.123 2 2.00 2.00 2.0 2.0 0.002 -0.002 661 679 1 4 0.0000 0.0032 3.21 
0.123 2 2.00 2.00 2.0 2.0 0.002 -0.002 654 671 1 4 0.0000 0.0032 3.21 
0.124 2 2.00 2.00 2.0 2.0 0.002 -0.002 654 663 1 4 0.0000 0.0032 3.16 
0.125 2 2.00 2.00 2.0 2.0 0.002 -0.002 655 656 1 4 0.0000 0.0032 3.16 
0.126 2 2.00 2.00 2.0 2.0 0.002 -0.002 658 666 1 4 0.0000 0.0032 3.16 
0.127 2 2.00 2.00 2.0 2.0 0.002 -0.002 645 668 1 4 0.0000 0.0032 3.16 
0.128 2 2.00 2.00 2.0 2.0 0.002 -0.002 652 662 1 4 0.0000 0.0032 3.16 
0.129 2 2.00 2.00 2.0 2.0 0.002 -0.002 664 669 1 4 0.0000 0.0032 3.20 
0.130 2 2.00 2.00 2.0 2.0 0.002 -0.002 663 667 1 4 0.0000 0.0032 3.20 
0.131 2 2.00 2.00 2.0 2.0 0.002 -0.002 653 664 1 4 0.0000 0.0032 3.20 
0.132 2 2.00 2.00 2.0 2.0 0.002 -0.002 658 671 1 4 0.0000 0.0032 3.20 
0.133 2 2.00 2.00 2.0 2.0 0.002 -0.002 658 675 1 4 0.0000 0.0032 3.20 
0.134 2 2.00 2.00 2.0 2.0 0.002 -0.002 665 673 1 4 0.0000 0.0032 3.18 
0.135 2 2.00 2.00 2.0 2.0 0.002 -0.002 647 662 1 4 0.0000 0.0032 3.18 
0.136 2 2.00 2.00 2.0 2.0 0.002 -0.002 657 680 1 4 0.0000 0.0032 3.18 
0.137 2 2.00 2.00 2.0 2.0 0.002 -0.002 673 675 1 4 0.0000 0.0032 3.18 
0.138 2 2.00 2.00 2.0 2.0 0.002 -0.002 655 673 1 4 0.0000 0.0032 3.18 
0.139 2 2.00 2.00 2.0 2.0 0.002 -0.002 662 666 1 4 0.0000 0.0032 3.20 
0.140 2 2.00 2.00 2.0 2.0 0.002 -0.002 673 679 1 4 0.0000 0.0032 3.20 
0.141 2 2.00 2.00 2.0 2.0 0.002 -0.002 651 670 1 4 0.0000 0.0032 3.20 
0.142 2 2.00 2.00 2.0 2.0 0.002 -0.002 659 669 1 4 0.0000 0.0032 3.20 
0.143 2 2.00 2.00 2.0 2.0 0.002 -0.002 664 653 1 4 0.0000 0.0032 3.20 
0.144 2 2.00 2.00 2.0 2.0 0.002 -0.002 664 666 1 4 0.0000 0.0032 3.18 
0.145 2 2.00 2.00 2.0 2.0 0.002 -0.002 658 672 1 4 0.0000 0.0032 3.18 
0.146 2 2.00 2.00 2.0 2.0 0.002 -0.002 650 663 1 4 0.0000 0.0032 3.18 
0.147 2 2.00 2.00 2.0 2.0 0.002 -0.002 646 671 1 4 0.0000 0.0032 3.18 
0.148 2 2.00 2.00 2.0 2.0 0.002 -0.002 654 675 1 4 0.0000 0.0032 3.18 
0.149 2 2.00 2.00 2.0 2.0 0.002 -0.002 671 670 1 4 0.0000 0.0032 3.18 
0.150 2 2.00 2.00 2.0 2.0 0.002 -0.002 656 675 1 4 0.0000 0.0032 3.18 
0.151 2 2.00 2.00 2.0 2.0 0.002 -0.002 657 661 1 4 0.0000 0.0032 3.18 
0.152 2 2.00 2.00 2.0 2.0 0.002 -0.002 659 657 1 4 0.0000 0.0032 3.18 
0.153 2 2.00 2.00 2.0 2.0 0.002 -0.002 652 665 1 4 0.0000 0.0032 3.18 
0.154 2 2.00 2.00 2.0 2.0 0.002 -0.002 650 674 1 4 0.0000 0.0032 3.16 
0.155 2 2.00 2.00 2.0 2.0 0.002 -0.002 652 670 1 4 0.0000 0.0032 3.16 
0.156 2 2.00 2.00 2.0 2.0 0.002 -0.002 648 675 1 4 0.0000 0.0032 3.16 
0.157 2 2.00 2.00 2.0 2.0 0.002 -0.002 666 674 1 4 0.0000 0.0032 3.16 
0.158 2 2.00 2.00 2.0 2.0 0.002 -0.002 662 678 1 4 0.0000 0.0032 3.16 
0.159 2 2.00 2.00 2.0 2.0 0.002 -0.002 660 669 1 4 0.0000 0.0032 3.18 
0.160 2 2.00 2.00 2.0 2.0 0.002 -0.002 664 679 1 4 0.0000 0.0032 3.18 
0.161 2 2.00 2.00 2.0 2.0 0.002 -0.002 670 664 1 4 0.0000 0.0032 3.18 
0.162 2 2.00 2.00 2.0 2.0 0.002 -0.002 655 685 1 4 0.0000 0.0032 3.18 
0.163 2 2.00 2.00 2.0 2.0 0.002 -0.002 670 672 1 4 0.0000 0.0032 3.18 
0.164 2 2.00 2.00 2.0 2.0 0.002 -0.002 659 668 1 4 0.0000 0.0032 3.16 
0.165 2 2.00 2.00 2.0 2.0 0.002 -0.002 653 666 1 4 0.0000 0.0032 3.16 
0.166 2 2.00 2.00 2.0 2.0 0.002 -0.002 656 664 1 4 0.0000 0.0032 3.16 
0.167 2 2.00 2.00 2.0 2.0 0.002 -0.002 654 689 1 4 0.0000 0.0032 3.16 
0.168 2 2.00 2.00 2.0 2.0 0.002 -0.002 650 658 1 4 0.0000 0.0032 3.16 
0.169 2 2.00 2.00 2.0 2.0 0.002 -0.002 658 673 1 4 0.0000 0.0032 3.18 
0.170 2 2.00 2.00 2.0 2.0 0.002 -0.002 648 656 1 4 0.0000 0.0032 3.18 
0.171 2 2.00 2.00 2.0 2.0 0.002 -0.002 657 675 1 4 0.0000 0.0032 3.18 
0.172 2 2.00 2.00 2.0 2.0 0.002 -0.002 657 670 1 4 0.0000 0.0032 3.18 
0.173 2 2.00 2.00 2.0 2.0 0.002 -0.002 656 677 1 4 0.0000 0.0032 3.18 
0.174 2 2.00 2.00 2.0 2.0 0.002 -0.002 651 664 1 4 0.0000 0.0032 3.18 
0.175 2 2.00 2.00 2.0 2.0 0.002 -0.002 658 667 1 4 0.0000 0.0032 3.18 
0.176 2 2.00 2.00 2.0 2.0 0.002 -0.002 666 676 1 4 0.0000 0.0032 3.18 
0.177 2 2.00 2.00 2.0 2.0 0.002 -0.002 660 658 1 4 0.0000 0.0032 3.18 
0.178 2 2.00 2.00 2.0 2.0 0.002 -0.002 658 665 1 4 0.0000 0.0032 3.18 
0.179 2 2.00 2.00 2.0 2.0 0.002 -0.002 653 664 1 4 0.0000 0.0031 3.18 
0.180 2 2.00 2.00 2.0 2.0 0.002 -0.002 656 670 1 4 0.0000 0.0031 3.18 
0.181 2 2.00 2.00 2.0 2.0 0.002 -0.002 669 669 1 4 0.0000 0.0031 3.18 
0.182 2 2.00 2.00 2.0 2.0 0.002 -0.002 661 667 1 4 0.0000 0.0031 3.18 
0.183 2 2.00 2.00 2.0 2.0 0.002 -0.002 665 677 1 4 0.0000 0.0031 3.18 
0.184 2 2.00 2.00 2.0 2.0 0.002 -0.002 654 671 1 4 0.0000 0.0031 3.18 
0.185 2 2.00 2.00 2.0 2.0 0.002 -0.002 659 675 1 4 0.0000 0.0031 3.18 
0.186 2 2.00 2.00 2.0 2.0 0.002 -0.002 661 665 1 4 0.0000 0.0031 3.18 
0.187 2 2.00 2.00 2.0 2.0 0.002 -0.002 654 682 1 4 0.0000 0.0031 3.18 
0.188 2 2.00 2.00 2.0 2.0 0.002 -0.002 654 669 1 4 0.0000 0.0031 3.18 
0.189 2 2.00 2.00 2.0 2.0 0.002 -0.002 651 666 1 4 0.0000 0.0031 3.16 
0.190 2 2.00 2.00 2.0 2.0 0.002 -0.002 650 670 1 4 0.0000 0.0031 3.16 
0.191 2 2.00 2.00 2.0 2.0 0.002 -0.002 652 666 1 4 0.0000 0.0031 3.16 
0.192 2 2.00 2.00 2.0 2.0 0.002 -0.002 658 674 1 4 0.0000 0.0031 3.16 
0.193 2 2.00 2.00 2.0 2.0 0.002 -0.002 644 675 1 4 0.0000 0.0031 3.16 
0.194 2 2.00 2.00 2.0 2.0 0.002 -0.002 654 664 1 4 0.0000 0.0031 3.18 
0.195 2 2.00 2.00 2.0 2.0 0.002 -0.002 647 677 1 4 0.0000 0.0031 3.18 
0.196 2 2.00 2.00 2.0 2.0 0.002 -0.002 647 669 1 4 0.0000 0.0031 3.18 
0.197 2 2.00 2.00 2.0 2.0 0.002 -0.002 665 650 1 4 0.0000 0.0031 3.18 
0.198 2 2.00 2.00 2.0 2.0 0.002 -0.002 656 667 1 4 0.0000 0.0031 3.18 
0.199 2 2.00 2.00 2.0 2.0 0.002 -0.002 660 666 1 4 0.0000 0.0031 3.18 
0.200 2 2.00 2.00 2.0 2.0 0.002 -0.002 664 678 1 4 0.0000 0.0031 3.18 
0.201 2 2.00 2.00 2.0 2.0 0.002 -0.002 660 671 1 4 0.0000 0.0031 3.18 
0.202 2 2.00 2.00 2.0 2.0 0.002 -0.002 662 668 1 4 0.0000 0.0031 3.18 
0.203 2 2.00 2.00 2.0 2.0 0.002 -0.002 647 671 1 4 0.0000 0.0031 3.18 
0.204 2 2.00 2.00 2.0 2.0 0.002 -0.002 662 681 1 4 0.0000 0.0031 3.18 
0.205 2 2.00 2.00 2.0 2.0 0.002 -0.002 653 675 1 4 0.0000 0.0031 3.18 
0.206 2 2.00 2.00 2.0 2.0 0.002 -0.002 665 680 1 4 0.0000 0.0031 3.18 
0.207 2 2.00 2.00 2.0 2.0 0.002 -0.002 661 675 1 4 0.0000 0.0031 3.18 
0.208 2 2.00 2.00 2.0 2.0 0.002 -0.002 650 663 1 4 0.0000 0.0031 3.18 
0.209 2 2.00 2.00 2.0 2.0 0.002 -0.002 654 673 1 4 0.0000 0.0031 3.16 
0.210 2 2.00 2.00 2.0 2.0 0.002 -0.002 649 660 1 4 0.0000 0.0031 3.16 
0.211 2 2.00 2.00 2.0 2.0 0.002 -0.002 655 672 1 4 0.0000 0.0031 3.16 
0.212 2 2.00 2.00 2.0 2.0 0.002 -0.002 647 669 1 4 0.0000 0.0031 3.16 
0.213 2 2.00 2.00 2.0 2.0 0.002 -0.002 649 673 1 4 0.0000 0.0031 3.16 
0.214 2 2.00 2.00 2.0 2.0 0.002 -0.002 662 673 1 4 0.0000 0.0031 3.18 
0.215 2 2.00 2.00 2.0 2.0 0.002 -0.002 645 677 1 4 0.0000 0.0031 3.18 
0.216 2 2.00 2.00 2.0 2.0 0.002 -0.002 652 677 1 4 0.0000 0.0031 3.18 
0.217 2 2.00 2.00 2.0 2.0 0.002 -0.002 665 671 1 4 0.0000 0.0031 3.18 
0.218 2 2.00 2.00 2.0 2.0 0.002 -0.002 650 671 1 4 0.0000 0.0031 3.18 
0.219 2 2.00 2.00 2.0 2.0 0.002 -0.002 666 660 1 4 0.0000 0.0031 3.18 
0.220 2 2.00 2.00 2.0 2.0 0.002 -0.002 644 671 1 4 0.0000 0.0031 3.18 
0.221 2 2.00 2.00 2.0 2.0 0.002 -0.002 654 662 1 4 0.0000 0.0031 3.18 
0.222 2 2.00 2.00 2.0 2.0 0.002 -0.002 668 665 1 4 0.0000 0.0031 3.18 
0.223 2 2.00 2.00 2.0 2.0 0.002 -0.002 649 677 1 4 0.0000 0.0031 3.18 
0.224 2 2.00 2.00 2.0 2.0 0.002 -0.002 662 667 1 4 0.0000 0.0031 3.18 
0.225 2 2.00 2.00 2.0 2.0 0.002 -0.002 650 672 1 4 0.0000 0.0031 3.18 
0.226 2 2.00 2.00 2.0 2.0 0.002 -0.002 657 678 1 4 0.0000 0.0031 3.18 
0.227 2 2.00 2.00 2.0 2.0 0.002 -0.002 650 671 1 4 0.0000 0.0031 3.18 
0.228 2 2.00 2.00 2.0 2.0 0.002 -0.002 653 662 1 4 0.0000 0.0031 3.18 
0.229 2 2.00 2.00 2.0 2.0 0.002 -0.002 653 665 1 4 0.0000 0.0031 3.18 
0.230 2 2.00 2.00 2.0 2.0 0.002 -0.002 666 659 1 4 0.0000 0.0031 3.18 
0.231 2 2.00 2.00 2.0 2.0 0.002 -0.002 665 662 1 4 0.0000 0.0031 3.18 
0.232 2 2.00 2.00 2.0 2.0 0.002 -0.002 659 668 1 4 0.0000 0.0031 3.18 
0.233 2 2.00 2.00 2.0 2.0 0.002 -0.002 655 675 1 4 0.0000 0.0031 3.18 
0.234 2 2.00 2.00 2.0 2.0 0.002 -0.002 669 670 1 4 0.0000 0.0031 3.16 
0.235 2 2.00 2.00 2.0 2.0 0.002 -0.002 665 690 1 4 0.0000 0.0031 3.16 
0.236 2 2.00 2.00 2.0 2.0 0.002 -0.002 649 668 1 4 0.0000 0.0031 3.16 
0.237 2 2.00 2.00 2.0 2.0 0.002 -0.002 652 662 1 4 0.0000 0.0031 3.16 
0.238 2 2.00 2.00 2.0 2.0 0.002 -0.002 661 670 1 4 0.0000 0.0031 3.16 
0.239 2 2.00 2.00 2.0 2.0 0.002 -0.002 654 666 1 4 0.0000 0.0031 3.18 
0.240 2 2.00 2.00 2.0 2.0 0.002 -0.002 645 672 1 4 0.0000 0.0031 3.18 
0.241 2 2.00 2.00 2.0 2.0 0.002 -0.002 652 674 1 4 0.0000 0.0031 3.18 
0.242 2 2.00 2.00 2.0 2.0 0.002 -0.002 659 676 1 4 0.0000 0.0031 3.18 
0.243 2 2.00 2.00 2.0 2.0 0.002 -0.002 648 675 1 4 0.0000 0.0031 3.18 
0.244 2 2.00 2.00 2.0 2.0 0.002 -0.002 667 677 1 4 0.0000 0.0031 3.16 
0.245 2 2.00 2.00 2.0 2.0 0.002 -0.002 651 676 1 4 0.0000 0.0031 3.16 
0.246 2 2.00 2.00 2.0 2.0 0.002 -0.002 656 667 1 4 0.0000 0.0031 3.16 
0.247 2 2.00 2.00 2.0 2.0 0.002 -0.002 657 673 1 4 0.0000 0.0031 3.16 
0.248 2 2.00 2.00 2.0 2.0 0.002 -0.002 664 666 1 4 0.0000 0.0031 3.16 
0.249 2 2.00 2.00 2.0 2.0 0.002 -0.002 644 661 1 4 0.0000 0.0031 3.18 
0.250 2 2.00 2.00 2.0 2.0 0.002 -0.002 648 666 1 4 0.0000 0.0031 3.18 
0.251 2 2.00 2.00 2.0 2.0 0.002 -0.002 656 672 1 4 0.0000 0.0031 3.18 
0.252 2 2.00 2.00 2.0 2.0 0.002 -0.002 659 675 1 4 0.0000 0.0031 3.18 
0.253 2 2.00 2.00 2.0 2.0 0.002 -0.002 666 661 1 4 0.0000 0.0031 3.18 
0.254 2 2.00 2.00 2.0 2.0 0.002 -0.002 657 676 1 4 0.0000 0.0031 3.16 
0.255 2 2.00 2.00 2.0 2.0 0.002 -0.002 648 657 1 4 0.0000 0.0031 3.16 
0.256 2 2.00 2.00 2.0 2.0 0.002 -0.002 646 672 1 4 0.0000 0.0031 3.16 
0.257 2 2.00 2.00 2.0 2.0 0.002 -0.002 659 677 1 4 0.0000 0.0031 3.16 
0.258 2 2.00 2.00 2.0 2.0 0.002 -0.002 652 668 1 4 0.0000 0.0031 3.16 
0.259 2 2.00 2.00 2.0 2.0 0.002 -0.002 655 672 1 4 0.0000 0.0031 3.18 
0.260 2 2.00 2.00 2.0 2.0 0.002 -0.002 652 673 1 4 0.0000 0.0031 3.18 
0.261 2 2.00 2.00 2.0 2.0 0.002 -0.002 651 673 1 4 0.0000 0.0031 3.18 
0.262 2 2.00 2.00 2.0 2.0 0.002 -0.002 665 675 1 4 0.0000 0.0031 3.18 
0.263 2 2.00 2.00 2.0 2.0 0.002 -0.002 654 667 1 4 0.0000 0.0031 3.18 
0.264 2 2.00 2.00 2.0 2.0 0.002 -0.002 659 660 1 4 0.0000 0.0031 3.18 
0.265 2 2.00 2.00 2.0 2.0 0.002 -0.002 644 665 1 4 0.0000 0.0031 3.18 
0.266 2 2.00 2.00 2.0 2.0 0.002 -0.002 645 670 1 4 0.0000 0.0031 3.18 
0.267 2 2.00 2.00 2.0 2.0 0.002 -0.002 664 671 1 4 0.0000 0.0031 3.18 
0.268 2 2.00 2.00 2.0 2.0 0.002 -0.002 668 673 1 4 0.0000 0.0031 3.18 
0.269 2 2.00 2.00 2.0 2.0 0.002 -0.002 656 672 1 4 0.0000 0.0031 3.18 
0.270 2 2.00 2.00 2.0 2.0 0.002 -0.002 669 673 1 4 0.0000 0.0031 3.18 
0.271 2 2.00 2.00 2.0 2.0 0.002 -0.002 667 660 1 4 0.0000 0.0031 3.18 
0.272 2 2.00 2.00 2.0 2.0 0.002 -0.002 658 657 1 4 0.0000 0.0031 3.18 
0.273 2 2.00 2.00 2.0 2.0 0.002 -0.002 660 672 1 4 0.0000 0.0031 3.18 
0.274 2 2.00 2.00 2.0 2.0 0.002 -0.002 656 673 1 4 0.0000 0.0031 3.16 
0.275 2 2.00 2.00 2.0 2.0 0.002 -0.002 663 664 1 4 0.0000 0.0031 3.16 
0.276 2 2.00 2.00 2.0 2.0 0.002 -0.002 651 672 1 4 0.0000 0.0031 3.16 
0.277 2 2.00 2.00 2.0 2.0 0.002 -0.002 652 674 1 4 0.0000 0.0031 3.16 
0.278 2 2.00 2.00 2.0 2.0 0.002 -0.002 654 675 1 4 0.0000 0.0031 3.16 
0.279 2 2.00 2.00 2.0 2.0 0.002 -0.002 661 659 1 4 0.0000 0.0031 3.16 
0.280 2 2.00 2.00 2.0 2.0 0.002 -0.002 657 679 1 4 0.0000 0.0031 3.16 
0.281 2 2.00 2.00 2.0 2.0 0.002 -0.002 664 669 1 4 0.0000 0.0031 3.16 
0.282 2 2.00 2.00 2.0 2.0 0.002 -0.002 658 670 1 4 0.0000 0.0031 3.16 
0.283 2 2.00 2.00 2.0 2.0 0.002 -0.002 650 662 1 4 0.0000 0.0031 3.16 
0.284 2 2.00 2.00 2.0 2.0 0.002 -0.002 655 673 1 4 0.0000 0.0031 3.18 
0.285 2 2.00 2.00 2.0 2.0 0.002 -0.002 665 676 1 4 0.0000 0.0031 3.18 
0.286 2 2.00 2.00 2.0 2.0 0.002 -0.002 647 669 1 4 0.0000 0.0031 3.18 
0.287 2 2.00 2.00 2.0 2.0 0.002 -0.002 653 666 1 4 0.0000 0.0031 3.18 
0.288 2 2.00 2.00 2.0 2.0 0.002 -0.002 660 674 1 4 0.0000 0.0031 3.18 
0.289 2 2.00 2.00 2.0 2.0 0.002 -0.002 671 662 1 4 0.0000 0.0031 3.18 
0.290 2 2.00 2.00 2.0 2.0 0.002 -0.002 655 675 1 4 0.0000 0.0031 3.18 
0.291 2 2.00 2.00 2.0 2.0 0.002 -0.002 647 662 1 4 0.0000 0.0031 3.18 
0.292 2 2.00 2.00 2.0 2.0 0.002 -0.002 659 674 1 4 0.0000 0.0031 3.18 
0.293 2 2.00 2.00 2.0 2.0 0.002 -0.002 667 672 1 4 0.0000 0.0031 3.18 
0.294 2 2.00 2.00 2.0 2.0 0.002 -0.002 652 671 1 4 0.0000 0.0031 3.18 
0.295 2 2.00 2.00 2.0 2.0 0.002 -0.002 652 675 1 4 0.0000 0.0031 3.18 
0.296 2 2.00 2.00 2.0 2.0 0.002 -0.002 649 657 1 4 0.0000 0.0031 3.18 
0.297 2 2.00 2.00 2.0 2.0 0.002 -0.002 667 675 1 4 0.0000 0.0031 3.18 
0.298 2 2.00 2.00 2.0 2.0 0.002 -0.002 650 677 1 4 0.0000 0.0031 3.18 
0.299 2 2.00 2.00 2.0 2.0 0.002 -0.002 664 684 1 4 0.0000 0.0031 3.18 
0.300 2 2.00 2.00 2.0 2.0 0.002 -0.002 643 666 1 4 0.0000 0.0031 3.18 
0.301 2 2.00 2.00 2.0 2.0 0.002 -0.002 649 673 1 4 0.0000 0.0031 3.18 
0.302 2 2.00 2.00 2.0 2.0 0.002 -0.002 654 668 1 4 0.0000 0.0031 3.18 
0.303 2 2.00 2.00 2.0 2.0 0.002 -0.002 659 680 1 4 0.0000 0.0031 3.18 
0.304 2 2.00 2.00 2.0 2.0 0.002 -0.002 656 676 1 4 0.0000 0.0031 3.16 
0.305 2 2.00 2.00 2.0 2.0 0.002 -0.002 655 674 1 4 0.0000 0.0031 3.16 
0.306 2 2.00 2.00 2.0 2.0 0.002 -0.002 672 674 1 4 0.0000 0.0031 3.16 
0.307 2 2.00 2.00 2.0 2.0 0.002 -0.002 658 676 1 4 0.0000 0.0031 3.16 
0.308 2 2.00 2.00 2.0 2.0 0.002 -0.002 661 665 1 4 0.0000 0.0031 3.16 
0.309 2 2.00 2.00 2.0 2.0 0.002 -0.002 661 662 1 4 0.0000 0.0031 3.18 
0.310 2 2.00 2.00 2.0 2.0 0.002 -0.002 655 660 1 4 0.0000 0.0031 3.18 
0.311 2 2.00 2.00 2.0 2.0 0.002 -0.002 647 666 1 4 0.0000 0.0031 3.18 
0.312 2 2.00 2.00 2.0 2.0 0.002 -0.002 668 670 1 4 0.0000 0.0031 3.18 
0.313 2 2.00 2.00 2.0 2.0 0.002 -0.002 657 665 1 4 0.0000 0.0031 3.18 
0.314 2 2.00 2.00 2.0 2.0 0.002 -0.002 652 670 1 4 0.0000 0.0031 3.18 
0.315 2 2.00 2.00 2.0 2.0 0.002 -0.002 663 667 1 4 0.0000 0.0031 3.18 
0.316 2 2.00 2.00 2.0 2.0 0.002 -0.002 660 663 1 4 0.0000 0.0031 3.18 
0.317 2 2.00 2.00 2.0 2.0 0.002 -0.002 657 662 1 4 0.0000 0.0031 3.18 
0.318 2 2.00 2.00 2.0 2.0 0.002 -0.002 654 675 1 4 0.0000 0.0031 3.18 
0.319 2 2.00 2.00 2.0 2.0 0.002 -0.002 651 663 1 4 0.0000 0.0031 3.18 
0.320 2 2.00 2.00 2.0 2.0 0.002 -0.002 653 666 1 4 0.0000 0.0030 3.18 
0.321 2 2.00 2.00 2.0 2.0 0.002 -0.002 667 673 1 4 0.0000 0.0030 3.18 
0.322 2 2.00 2.00 2.0 2.0 0.002 -0.002 657 674 1 4 0.0000 0.0030 3.18 
0.323 2 2.00 2.00 2.0 2.0 0.002 -0.002 666 673 1 4 0.0000 0.0030 3.18 
0.324 2 2.00 2.00 2.0 2.0 0.002 -0.002 662 664 1 4 0.0000 0.0030 3.18 
0.325 2 2.00 2.00 2.0 2.0 0.002 -0.002 648 677 1 4 0.0000 0.0030 3.18 
0.326 2 2.00 2.00 2.0 2.0 0.002 -0.002 656 666 1 4 0.0000 0.0030 3.18 
0.327 2 2.00 2.00 2.0 2.0 0.002 -0.002 643 673 1 4 0.0000 0.0030 3.18 
0.328 2 2.00 2.00 2.0 2.0 0.002 -0.002 654 661 1 4 0.0000 0.0030 3.18 
0.329 2 2.00 2.00 2.0 2.0 0.002 -0.002 654 654 1 4 0.0000 0.0030 3.18 
0.330 2 2.00 2.00 2.0 2.0 0.002 -0.002 658 666 1 4 0.0000 0.0030 3.18 
0.331 2 2.00 2.00 2.0 2.0 0.002 -0.002 661 674 1 4 0.0000 0.0030 3.18 
0.332 2 2.00 2.00 2.0 2.0 0.002 -0.002 674 674 1 4 0.0000 0.0030 3.18 
0.333 2 2.00 2.00 2.0 2.0 0.002 -0.002 656 660 1 4 0.0000 0.0030 3.18 
0.334 2 2.00 2.00 2.0 2.0 0.002 -0.002 662 666 1 4 0.0000 0.0030 3.18 
0.335 2 2.00 2.00 2.0 2.0 0.002 -0.002 655 678 1 4 0.0000 0.0030 3.18 
0.336 2 2.00 2.00 2.0 2.0 0.002 -0.002 660 676 1 4 0.0000 0.0030 3.18 
0.337 2 2.00 2.00 2.0 2.0 0.002 -0.002 654 670 1 4 0.0000 0.0030 3.18 
0.338 2 2.00 2.00 2.0 2.0 0.002 -0.002 645 668 1 4 0.0000 0.0030 3.18 
0.339 2 2.00 2.00 2.0 2.0 0.002 -0.002 665 678 1 4 0.0000 0.0030 3.18 
0.340 2 2.00 2.00 2.0 2.0 0.002 -0.002 653 667 1 4 0.0000 0.0030 3.18 
0.341 2 2.00 2.00 2.0 2.0 0.002 -0.002 654 671 1 4 0.0000 0.0030 3.18 
0.342 2 2.00 2.00 2.0 2.0 0.002 -0.002 644 665 1 4 0.0000 0.0030 3.18 
0.343 2 2.00 2.00 2.0 2.0 0.002 -0.002 652 674 1 4 0.0000 0.0030 3.18 
0.344 2 2.00 2.00 2.0 2.0 0.002 -0.002 657 662 1 4 0.0000 0.0030 3.18 
0.345 2 2.00 2.00 2.0 2.0 0.002 -0.002 648 679 1 4 0.0000 0.0030 3.18 
0.346 2 2.00 2.00 2.0 2.0 0.002 -0.002 664 672 1 4 0.0000 0.0030 3.18 
0.347 2 2.00 2.00 2.0 2.0 0.002 -0.002 641 678 1 4 0.0000 0.0030 3.18 
0.348 2 2.00 2.00 2.0 2.0 0.002 -0.002 643 684 1 4 0.0000 0.0030 3.18 
0.349 2 2.00 2.00 2.0 2.0 0.002 -0.002 645 667 1 4 0.0000 0.0030 3.18 
0.350 2 2.00 2.00 2.0 2.0 0.002 -0.002 662 663 1 4 0.0000 0.0030 3.18 
0.351 2 2.00 2.00 2.0 2.0 0.002 -0.002 663 670 1 4 0.0000 0.0030 3.18 
0.352 2 2.00 2.00 2.0 2.0 0.002 -0.002 657 681 1 4 0.0000 0.0030 3.18 
0.353 2 2.00 2.00 2.0 2.0 0.002 -0.002 662 674 1 4 0.0000 0.0030 3.18 
0.354 2 2.00 2.00 2.0 2.0 0.002 -0.002 649 665 1 4 0.0000 0.0030 3.18 
0.355 2 2.00 2.00 2.0 2.0 0.002 -0.002 661 656 1 4 0.0000 0.0030 3.18 
0.356 2 2.00 2.00 2.0 2.0 0.002 -0.002 652 671 1 4 0.0000 0.0030 3.18 
0.357 2 2.00 2.00 2.0 2.0 0.002 -0.002 652 662 1 4 0.0000 0.0030 3.18 
0.358 2 2.00 2.00 2.0 2.0 0.002 -0.002 649 673 1 4 0.0000 0.0030 3.18 
0.359 2 2.00 2.00 2.0 2.0 0.002 -0.002 644 665 1 4 0.0000 0.0030 3.16 
0.360 2 2.00 2.00 2.0 2.0 0.002 -0.002 654 680 1 4 0.0000 0.0030 3.16 
0.361 2 2.00 2.00 2.0 2.0 0.002 -0.002 652 676 1 4 0.0000 0.0030 3.16 
0.362 2 2.00 2.00 2.0 2.0 0.002 -0.002 653 673 1 4 0.0000 0.0030 3.16 
0.363 2 2.00 2.00 2.0 2.0 0.002 -0.002 654 664 1 4 0.0000 0.0030 3.16 
0.364 2 2.00 2.00 2.0 2.0 0.002 -0.002 655 671 1 4 0.0000 0.0030 3.18 
0.365 2 2.00 2.00 2.0 2.0 0.002 -0.002 649 674 1 4 0.0000 0.0030 3.18 
0.366 2 2.00 2.00 2.0 2.0 0.002 -0.002 655 670 1 4 0.0000 0.0030 3.18 
0.367 2 2.00 2.00 2.0 2.0 0.002 -0.002 670 671 1 4 0.0000 0.0030 3.18 
0.368 2 2.00 2.00 2.0 2.0 0.002 -0.002 657 675 1 4 0.0000 0.0030 3.18 
0.369 2 2.00 2.00 2.0 2.0 0.002 -0.002 642 671 1 4 0.0000 0.0030 3.18 
0.370 2 2.00 2.00 2.0 2.0 0.002 -0.002 653 666 1 4 0.0000 0.0030 3.18 
0.371 2 2.00 2.00 2.0 2.0 0.002 -0.002 650 676 1 4 0.0000 0.0030 3.18 
0.372 2 2.00 2.00 2.0 2.0 0.002 -0.002 651 667 1 4 0.0000 0.0030 3.18 
0.373 2 2.00 2.00 2.0 2.0 0.002 -0.002 656 677 1 4 0.0000 0.0030 3.18 
0.374 2 2.00 2.00 2.0 2.0 0.002 -0.002 660 665 1 4 0.0000 0.0030 3.18 
0.375 2 2.00 2.00 2.0 2.0 0.002 -0.002 670 687 1 4 0.0000 0.0030 3.18 
0.376 2 2.00 2.00 2.0 2.0 0.002 -0.002 666 680 1 4 0.0000 0.0030 3.18 
0.377 2 2.00 2.00 2.0 2.0 0.002 -0.002 660 666 1 4 0.0000 0.0030 3.18 
0.378 2 2.00 2.00 2.0 2.0 0.002 -0.002 653 667 1 4 0.0000 0.0030 3.18 
0.379 2 2.00 2.00 2.0 2.0 0.002 -0.002 648 670 1 4 0.0000 0.0030 3.18 
0.380 2 2.00 2.00 2.0 2.0 0.002 -0.002 656 658 1 4 0.0000 0.0030 3.18 
0.381 2 2.00 2.00 2.0 2.0 0.002 -0.002 653 668 1 4 0.0000 0.0030 3.18 
0.382 2 2.00 2.00 2.0 2.0 0.002 -0.002 658 669 1 4 0.0000 0.0030 3.18 
0.383 2 2.00 2.00 2.0 2.0 0.002 -0.002 664 669 1 4 0.0000 0.0030 3.18 
0.384 2 2.00 2.00 2.0 2.0 0.002 -0.002 650 673 1 4 0.0000 0.0030 3.18 
0.385 2 2.00 2.00 2.0 2.0 0.002 -0.002 665 663 1 4 0.0000 0.0030 3.18 
0.386 2 2.00 2.00 2.0 2.0 0.002 -0.002 651 670 1 4 0.0000 0.0030 3.18 
0.387 2 2.00 2.00 2.0 2.0 0.002 -0.002 665 680 1 4 0.0000 0.0030 3.18 
0.388 2 2.00 2.00 2.0 2.0 0.002 -0.002 649 668 1 4 0.0000 0.0030 3.18 
0.389 2 2.00 2.00 2.0 2.0 0.002 -0.002 641 676 1 4 0.0000 0.0030 3.18 
0.390 2 2.00 2.00 2.0 2.0 0.002 -0.002 662 673 1 4 0.0000 0.0030 3.18 
0.391 2 2.00 2.00 2.0 2.0 0.002 -0.002 662 661 1 4 0.0000 0.0030 3.18 
0.392 2 2.00 2.00 2.0 2.0 0.002 -0.002 653 668 1 4 0.0000 0.0030 3.18 
0.393 2 2.00 2.00 2.0 2.0 0.002 -0.002 655 674 1 4 0.0000 0.0030 3.18 
0.394 2 2.00 2.00 2.0 2.0 0.002 -0.002 648 691 1 4 0.0000 0.0030 3.18 
0.395 2 2.00 2.00 2.0 2.0 0.002 -0.002 653 668 1 4 0.0000 0.0030 3.18 
0.396 2 2.00 2.00 2.0 2.0 0.002 -0.002 649 673 1 4 0.0000 0.0030 3.18 
0.397 2 2.00 2.00 2.0 2.0 0.002 -0.002 667 669 1 4 0.0000 0.0030 3.18 
0.398 2 2.00 2.00 2.0 2.0 0.002 -0.002 654 663 1 4 0.0000 0.0030 3.18 
0.399 2 2.00 2.00 2.0 2.0 0.002 -0.002 658 660 1 4 0.0000 0.0030 3.18 
0.400 2 2.00 2.00 2.0 2.0 0.002 -0.002 650 674 1 4 0.0000 0.0030 3.18 
0.401 4 3.00 3.00 3.0 3.0 0.002 -0.002 655 658 1 4 0.0000 0.0030 3.18 
0.402 4 3.00 3.00 3.0 3.0 0.002 -0.002 656 668 1 4 0.0000 0.0030 3.18 
0.403 4 3.00 3.00 3.0 3.0 0.002 -0.002 670 673 1 4 0.0000 0.0030 3.18 
0.404 4 3.00 3.00 3.0 3.0 0.002 -0.002 648 664 1 4 0.0000 0.0030 3.18 
0.405 4 3.00 3.00 3.0 3.0 0.002 -0.002 647 676 1 4 0.0000 0.0030 3.18 
0.406 4 3.00 3.00 3.0 3.0 0.002 -0.002 651 676 1 4 0.0000 0.0030 3.18 
0.407 4 3.00 3.00 3.0 3.0 0.002 -0.002 644 673 1 4 0.0000 0.0030 3.18 
0.408 4 3.00 3.00 3.0 3.0 0.002 -0.002 650 680 1 4 0.0000 0.0030 3.18 
0.409 4 3.00 3.00 3.0 3.0 0.002 -0.002 650 666 1 4 0.0000 0.0030 3.18 
0.410 4 3.00 3.00 3.0 3.0 0.002 -0.002 666 673 1 4 0.0000 0.0030 3.18 
0.411 4 3.00 3.00 3.0 3.0 0.002 -0.002 655 677 1 4 0.0000 0.0030 3.18 
0.412 4 3.00 3.00 3.0 3.0 0.002 -0.002 649 680 1 4 0.0000 0.0030 3.18 
0.413 4 3.00 3.00 3.0 3.0 0.002 -0.002 659 659 1 4 0.0000 0.0030 3.18 
0.414 4 3.00 3.00 3.0 3.0 0.002 -0.002 653 680 1 4 0.0000 0.0030 3.18 
0.415 4 3.00 3.00 3.0 3.0 0.002 -0.002 652 675 1 4 0.0000 0.0030 3.18 
0.416 4 3.00 3.00 3.0 3.0 0.002 -0.002 651 668 1 4 0.0000 0.0030 3.18 
0.417 4 3.00 3.00 3.0 3.0 0.002 -0.002 645 684 1 4 0.0000 0.0030 3.18 
0.418 4 3.00 3.00 3.0 3.0 0.002 -0.002 665 674 1 4 0.0000 0.0030 3.18 
0.419 4 3.00 3.00 3.0 3.0 0.002 -0.002 646 670 1 4 0.0000 0.0030 3.18 
0.420 4 3.00 3.00 3.0 3.0 0.002 -0.002 653 679 1 4 0.0000 0.0030 3.18 
0.421 4 3.00 3.00 3.0 3.0 0.002 -0.002 641 669 1 4 0.0000 0.0030 3.18 
0.422 4 3.00 3.00 3.0 3.0 0.002 -0.002 646 666 1 4 0.0000 0.0030 3.18 
0.423 4 3.00 3.00 3.0 3.0 0.002 -0.002 649 671 1 4 0.0000 0.0030 3.18 
0.424 4 3.00 3.00 3.0 3.0 0.002 -0.002 660 669 1 4 0.0000 0.0030 3.18 
0.425 4 3.00 3.00 3.0 3.0 0.002 -0.002 660 670 1 4 0.0000 0.0030 3.18 
0.426 4 3.00 3.00 3.0 3.0 0.002 -0.002 655 680 1 4 0.0000 0.0030 3.18 
0.427 4 3.00 3.00 3.0 3.0 0.002 -0.002 668 670 1 4 0.0000 0.0030 3.18 
0.428 4 3.00 3.00 3.0 3.0 0.002 -0.002 652 669 1 4 0.0000 0.0030 3.18 
0.429 4 3.00 3.00 3.0 3.0 0.002 -0.002 652 676 1 4 0.0000 0.0030 3.18 
0.430 4 3.00 3.00 3.0 3.0 0.002 -0.002 652 676 1 4 0.0000 0.0030 3.18 
0.431 4 3.00 3.00 3.0 3.0 0.002 -0.002 667 676 1 4 0.0000 0.0030 3.18 
0.432 4 3.00 3.00 3.0 3.0 0.002 -0.002 664 675 1 4 0.0000 0.0030 3.18 
0.433 4 3.00 3.00 3.0 3.0 0.002 -0.002 665 674 1 4 0.0000 0.0030 3.18 
0.434 4 3.00 3.00 3.0 3.0 0.002 -0.002 654 681 1 4 0.0000 0.0030 3.18 
0.435 4 3.00 3.00 3.0 3.0 0.002 -0.002 656 665 1 4 0.0000 0.0030 3.18 
0.436 4 3.00 3.00 3.0 3.0 0.002 -0.002 650 672 1 4 0.0000 0.0030 3.18 
0.437 4 3.00 3.00 3.0 3.0 0.002 -0.002 657 661 1 4 0.0000 0.0030 3.18 
0.438 4 3.00 3.00 3.0 3.0 0.002 -0.002 649 676 1 4 0.0000 0.0030 3.18 
0.439 4 3.00 3.00 3.0 3.0 0.002 -0.002 652 674 1 4 0.0000 0.0030 3.18 
0.440 4 3.00 3.00 3.0 3.0 0.002 -0.002 660 665 1 4 0.0000 0.0030 3.18 
0.441 4 3.00 3.00 3.0 3.0 0.002 -0.002 652 665 1 4 0.0000 0.0030 3.18 
0.442 4 3.00 3.00 3.0 3.0 0.002 -0.002 663 670 1 4 0.0000 0.0030 3.18 
0.443 4 3.00 3.00 3.0 3.0 0.002 -0.002 651 678 1 4 0.0000 0.0030 3.18 
0.444 4 3.00 3.00 3.0 3.0 0.002 -0.002 661 675 1 4 0.0000 0.0030 3.18 
0.445 4 3.00 3.00 3.0 3.0 0.002 -0.002 652 671 1 4 0.0000 0.0030 3.18 
0.446 4 3.00 3.00 3.0 3.0 0.002 -0.002 656 672 1 4 0.0000 0.0030 3.18 
0.447 4 3.00 3.00 3.0 3.0 0.002 -0.002 660 675 1 4 0.0000 0.0030 3.18 
0.448 4 3.00 3.00 3.0 3.0 0.002 -0.002 663 676 1 4 0.0000 0.0030 3.18 
0.449 4 3.00 3.00 3.0 3.0 0.002 -0.002 656 666 1 4 0.0000 0.0030 3.18 
0.450 4 3.00 3.00 3.0 3.0 0.002 -0.002 657 677 1 4 0.0000 0.0030 3.18 
0.451 4 3.00 3.00 3.0 3.0 0.002 -0.002 649 678 1 4 0.0000 0.0030 3.18 
0.452 4 3.00 3.00 3.0 3.0 0.002 -0.002 651 663 1 4 0.0000 0.0030 3.18 
0.453 4 3.00 3.00 3.0 3.0 0.002 -0.002 653 674 1 4 0.0000 0.0030 3.18 
0.454 4 3.00 3.00 3.0 3.0 0.002 -0.002 656 667 1 4 0.0000 0.0030 3.18 
0.455 4 3.00 3.00 3.0 3.0 0.002 -0.002 667 661 1 4 0.0000 0.0030 3.18 
0.456 4 3.00 3.00 3.0 3.0 0.002 -0.002 659 667 1 4 0.0000 0.0030 3.18 
0.457 4 3.00 3.00 3.0 3.0 0.002 -0.002 652 674 1 4 0.0000 0.0030 3.18 
0.458 4 3.00 3.00 3.0 3.0 0.002 -0.002 646 677 1 4 0.0000 0.0030 3.18 
0.459 4 3.00 3.00 3.0 3.0 0.002 -0.002 651 670 1 4 0.0000 0.0030 3.18 
0.460 4 3.00 3.00 3.0 3.0 0.002 -0.002 666 675 1 4 0.0000 0.0030 3.18 
0.461 4 3.00 3.00 3.0 3.0 0.002 -0.002 651 661 1 4 0.0000 0.0030 3.18 
0.462 4 3.00 3.00 3.0 3.0 0.002 -0.002 654 668 1 4 0.0000 0.0030 3.18 
0.463 4 3.00 3.00 3.0 3.0 0.002 -0.002 648 663 1 4 0.0000 0.0030 3.18 
0.464 4 3.00 3.00 3.0 3.0 0.002 -0.002 659 673 1 4 0.0000 0.0030 3.18 
0.465 4 3.00 3.00 3.0 3.0 0.002 -0.002 650 679 1 4 0.0000 0.0030 3.18 
0.466 4 3.00 3.00 3.0 3.0 0.002 -0.002 659 681 1 4 0.0000 0.0030 3.18 
0.467 4 3.00 3.00 3.0 3.0 0.002 -0.002 666 668 1 4 0.0000 0.0030 3.18 
0.468 4 3.00 3.00 3.0 3.0 0.002 -0.002 664 683 1 4 0.0000 0.0030 3.18 
0.469 4 3.00 3.00 3.0 3.0 0.002 -0.002 653 677 1 4 0.0000 0.0030 3.18 
0.470 4 3.00 3.00 3.0 3.0 0.002 -0.002 648 674 1 4 0.0000 0.0029 3.18 
0.471 4 3.00 3.00 3.0 3.0 0.002 -0.002 665 680 1 4 0.0000 0.0029 3.18 
0.472 4 3.00 3.00 3.0 3.0 0.002 -0.002 658 664 1 4 0.0000 0.0029 3.18 
0.473 4 3.00 3.00 3.0 3.0 0.002 -0.002 656 666 1 4 0.0000 0.0029 3.18 
0.474 4 3.00 3.00 3.0 3.0 0.002 -0.002 644 676 1 4 0.0000 0.0029 3.18 
0.475 4 3.00 3.00 3.0 3.0 0.002 -0.002 654 675 1 4 0.0000 0.0029 3.18 
0.476 4 3.00 3.00 3.0 3.0 0.002 -0.002 672 663 1 4 0.0000 0.0029 3.18 
0.477 4 3.00 3.00 3.0 3.0 0.002 -0.002 664 673 1 4 0.0000 0.0029 3.18 
0.478 4 3.00 3.00 3.0 3.0 0.002 -0.002 659 666 1 4 0.0000 0.0029 3.18 
0.479 4 3.00 3.00 3.0 3.0 0.002 -0.002 663 662 1 4 0.0000 0.0029 3.18 
0.480 4 3.00 3.00 3.0 3.0 0.002 -0.002 658 674 1 4 0.0000 0.0029 3.18 
0.481 4 3.00 3.00 3.0 3.0 0.002 -0.002 658 669 1 4 0.0000 0.0029 3.18 
0.482 4 3.00 3.00 3.0 3.0 0.002 -0.002 660 679 1 4 0.0000 0.0029 3.18 
0.483 4 3.00 3.00 3.0 3.0 0.002 -0.002 652 672 1 4 0.0000 0.0029 3.18 
0.484 4 3.00 3.00 3.0 3.0 0.002 -0.002 666 664 1 4 0.0000 0.0029 3.16 
0.485 4 3.00 3.00 3.0 3.0 0.002 -0.002 654 674 1 4 0.0000 0.0029 3.16 
0.486 4 3.00 3.00 3.0 3.0 0.002 -0.002 649 664 1 4 0.0000 0.0029 3.16 
0.487 4 3.00 3.00 3.0 3.0 0.002 -0.002 655 677 1 4 0.0000 0.0029 3.16 
0.488 4 3.00 3.00 3.0 3.0 0.002 -0.002 658 668 1 4 0.0000 0.0029 3.16 
0.489 4 3.00 3.00 3.0 3.0 0.002 -0.002 654 669 1 4 0.0000 0.0029 3.18 
0.490 4 3.00 3.00 3.0 3.0 0.002 -0.002 671 656 1 4 0.0000 0.0029 3.18 
0.491 4 3.00 3.00 3.0 3.0 0.002 -0.002 660 668 1 4 0.0000 0.0029 3.18 
0.492 4 3.00 3.00 3.0 3.0 0.002 -0.002 644 670 1 4 0.0000 0.0029 3.18 
0.493 4 3.00 3.00 3.0 3.0 0.002 -0.002 654 675 1 4 0.0000 0.0029 3.18 
0.494 4 3.00 3.00 3.0 3.0 0.002 -0.002 648 670 1 4 0.0000 0.0029 3.18 
0.495 4 3.00 3.00 3.0 3.0 0.002 -0.002 654 664 1 4 0.0000 0.0029 3.18 
0.496 4 3.00 3.00 3.0 3.0 0.002 -0.002 658 666 1 4 0.0000 0.0029 3.18 
0.497 4 3.00 3.00 3.0 3.0 0.002 -0.002 664 668 1 4 0.0000 0.0029 3.18 
0.498 4 3.00 3.00 3.0 3.0 0.002 -0.002 655 666 1 4 0.0000 0.0029 3.18 
0.499 4 3.00 3.00 3.0 3.0 0.002 -0.002 661 664 1 4 0.0000 0.0029 3.18 
0.500 4 3.00 3.00 3.0 3.0 0.002 -0.002 665 668 1 4 0.0000 0.0029 3.18 
0.501 4 3.00 3.00 3.0 3.0 0.002 -0.002 651 671 1 4 0.0000 0.0029 3.18 
0.502 4 3.00 3.00 3.0 3.0 0.002 -0.002 655 673 1 4 0.0000 0.0029 3.18 
0.503 4 3.00 3.00 3.0 3.0 0.002 -0.002 662 660 1 4 0.0000 0.0029 3.18 
0.504 4 3.00 3.00 3.0 3.0 0.002 -0.002 661 671 1 4 0.0000 0.0029 3.18 
0.505 4 3.00 3.00 3.0 3.0 0.002 -0.002 652 666 1 4 0.0000 0.0029 3.18 
0.506 4 3.00 3.00 3.0 3.0 0.002 -0.002 655 666 1 4 0.0000 0.0029 3.18 
0.507 4 3.00 3.00 3.0 3.0 0.002 -0.002 666 653 1 4 0.0000 0.0029 3.18 
0.508 4 3.00 3.00 3.0 3.0 0.002 -0.002 659 669 1 4 0.0000 0.0029 3.18 
0.509 4 3.00 3.00 3.0 3.0 0.002 -0.002 659 679 1 4 0.0000 0.0029 3.18 
0.510 4 3.00 3.00 3.0 3.0 0.002 -0.002 658 671 1 4 0.0000 0.0029 3.18 
0.511 4 3.00 3.00 3.0 3.0 0.002 -0.002 670 675 1 4 0.0000 0.0029 3.18 
0.512 4 3.00 3.00 3.0 3.0 0.002 -0.002 654 663 1 4 0.0000 0.0029 3.18 
0.513 4 3.00 3.00 3.0 3.0 0.002 -0.002 658 679 1 4 0.0000 0.0029 3.18 
0.514 4 3.00 3.00 3.0 3.0 0.002 -0.002 665 675 1 4 0.0000 0.0029 3.20 
0.515 4 3.00 3.00 3.0 3.0 0.002 -0.002 660 671 1 4 0.0000 0.0029 3.20 
0.516 4 3.00 3.00 3.0 3.0 0.002 -0.002 668 679 1 4 0.0000 0.0029 3.20 
0.517 4 3.00 3.00 3.0 3.0 0.002 -0.002 650 673 1 4 0.0000 0.0029 3.20 
0.518 4 3.00 3.00 3.0 3.0 0.002 -0.002 645 673 1 4 0.0000 0.0029 3.20 
0.519 4 3.00 3.00 3.0 3.0 0.002 -0.004 652 676 1 4 0.0000 0.0029 3.18 
0.520 4 3.00 3.00 3.0 3.0 0.002 -0.002 655 662 1 4 0.0000 0.0029 3.18 
0.523 4 3.00 3.00 3.0 3.0 0.002 -0.002 660 654 1 4 0.0000 0.0029 3.18 
0.523 4 3.00 3.00 3.0 3.0 0.002 -0.002 658 670 1 4 0.0000 0.0029 3.18 
0.524 4 3.00 3.00 3.0 3.0 0.002 -0.002 647 674 1 4 0.0000 0.0029 3.18 
0.525 4 3.00 3.00 3.0 3.0 0.002 -0.002 654 664 1 4 0.0000 0.0029 3.18 
0.526 4 3.00 3.00 3.0 3.0 0.002 -0.002 648 667 1 4 0.0000 0.0029 3.18 
0.527 4 3.00 3.00 3.0 3.0 0.002 -0.002 668 668 1 4 0.0000 0.0029 3.18 
0.528 4 3.00 3.00 3.0 3.0 0.002 -0.002 659 683 1 4 0.0000 0.0029 3.18 
0.529 4 3.00 3.00 3.0 3.0 0.002 -0.002 655 673 1 4 0.0000 0.0029 3.18 
0.530 4 3.00 3.00 3.0 3.0 0.002 -0.002 663 676 1 4 0.0000 0.0029 3.18 
0.531 4 3.00 3.00 3.0 3.0 0.002 -0.002 659 674 1 4 0.0000 0.0029 3.18 
0.532 4 3.00 3.00 3.0 3.0 0.002 -0.002 660 671 1 4 0.0000 0.0029 3.18 
0.533 4 3.00 3.00 3.0 3.0 0.002 -0.002 652 683 1 4 0.0000 0.0029 3.18 
0.534 4 3.00 3.00 3.0 3.0 0.002 -0.002 650 678 1 4 0.0000 0.0029 3.18 
0.535 4 3.00 3.00 3.0 3.0 0.002 -0.002 654 676 1 4 0.0000 0.0029 3.18 
0.536 4 3.00 3.00 3.0 3.0 0.002 -0.002 665 658 1 4 0.0000 0.0029 3.18 
0.537 4 3.00 3.00 3.0 3.0 0.002 -0.002 653 670 1 4 0.0000 0.0029 3.18 
0.538 4 3.00 3.00 3.0 3.0 0.002 -0.002 661 672 1 4 0.0000 0.0029 3.18 
0.539 4 3.00 3.00 3.0 3.0 0.002 -0.002 657 655 1 4 0.0000 0.0029 3.18 
0.540 4 3.00 3.00 3.0 3.0 0.002 -0.002 659 670 1 4 0.0000 0.0029 3.18 
0.541 4 3.00 3.00 3.0 3.0 0.002 -0.002 660 662 1 4 0.0000 0.0029 3.18 
0.542 4 3.00 3.00 3.0 3.0 0.002 -0.002 656 688 1 4 0.0000 0.0029 3.18 
0.543 4 3.00 3.00 3.0 3.0 0.002 -0.002 676 683 1 4 0.0000 0.0029 3.18 
0.544 4 3.00 3.00 3.0 3.0 0.002 -0.002 654 671 1 4 0.0000 0.0029 3.18 
0.545 4 3.00 3.00 3.0 3.0 0.002 -0.002 651 672 1 4 0.0000 0.0029 3.20 
0.546 4 3.00 3.00 3.0 3.0 0.002 -0.002 664 663 1 4 0.0000 0.0029 3.20 
0.547 4 3.00 3.00 3.0 3.0 0.002 -0.002 649 669 1 4 0.0000 0.0029 3.20 
0.548 4 3.00 3.00 3.0 3.0 0.002 -0.002 654 672 1 4 0.0000 0.0029 3.20 
0.549 4 3.00 3.00 3.0 3.0 0.002 -0.002 666 663 1 4 0.0000 0.0029 3.20 
0.550 4 3.00 3.00 3.0 3.0 0.002 -0.002 658 679 1 4 0.0000 0.0029 3.18 
0.551 4 3.00 3.00 3.0 3.0 0.002 -0.002 666 665 1 4 0.0000 0.0029 3.18 
0.552 4 3.00 3.00 3.0 3.0 0.002 -0.002 651 667 1 4 0.0000 0.0029 3.18 
0.553 4 3.00 3.00 3.0 3.0 0.002 -0.002 673 673 1 4 0.0000 0.0029 3.18 
0.554 4 3.00 3.00 3.0 3.0 0.002 -0.002 650 665 1 4 0.0000 0.0029 3.18 
0.555 4 3.00 3.00 3.0 3.0 0.002 -0.002 668 665 1 4 0.0000 0.0029 3.16 
0.556 4 3.00 3.00 3.0 3.0 0.002 -0.002 667 677 1 4 0.0000 0.0029 3.16 
0.557 4 3.00 3.00 3.0 3.0 0.002 -0.002 656 676 1 4 0.0000 0.0029 3.16 
0.558 4 3.00 3.00 3.0 3.0 0.002 -0.002 664 663 1 4 0.0000 0.0029 3.16 
0.559 4 3.00 3.00 3.0 3.0 0.002 -0.002 650 667 1 4 0.0000 0.0029 3.16 
0.560 4 3.00 3.00 3.0 3.0 0.002 -0.002 657 669 1 4 0.0000 0.0029 3.18 
0.561 4 3.00 3.00 3.0 3.0 0.002 -0.002 656 673 1 4 0.0000 0.0029 3.18 
0.562 4 3.00 3.00 3.0 3.0 0.002 -0.002 661 671 1 4 0.0000 0.0029 3.18 
0.563 4 3.00 3.00 3.0 3.0 0.002 -0.002 667 668 1 4 0.0000 0.0029 3.18 
0.564 4 3.00 3.00 3.0 3.0 0.002 -0.002 651 667 1 4 0.0000 0.0029 3.18 
0.565 4 3.00 3.00 3.0 3.0 0.002 -0.002 652 678 1 4 0.0000 0.0029 3.20 
0.566 4 3.00 3.00 3.0 3.0 0.002 -0.002 652 679 1 4 0.0000 0.0029 3.20 
0.567 4 3.00 3.00 3.0 3.0 0.002 -0.002 660 675 1 4 0.0000 0.0029 3.20 
0.568 4 3.00 3.00 3.0 3.0 0.002 -0.002 656 670 1 4 0.0000 0.0029 3.20 
0.569 4 3.00 3.00 3.0 3.0 0.002 -0.002 668 679 1 4 0.0000 0.0029 3.20 
0.570 4 3.00 3.00 3.0 3.0 0.002 -0.002 663 666 1 4 0.0000 0.0029 3.20 
0.571 4 3.00 3.00 3.0 3.0 0.002 -0.002 652 667 1 4 0.0000 0.0029 3.20 
0.572 4 3.00 3.00 3.0 3.0 0.002 -0.002 668 675 1 4 0.0000 0.0029 3.20 
0.573 4 3.00 3.00 3.0 3.0 0.002 -0.002 661 682 1 4 0.0000 0.0029 3.20 
0.574 4 3.00 3.00 3.0 3.0 0.002 -0.002 669 675 1 4 0.0000 0.0029 3.20 
0.575 4 3.00 3.00 3.0 3.0 0.002 -0.002 657 670 1 4 0.0000 0.0029 3.18 
0.576 4 3.00 3.00 3.0 3.0 0.002 -0.002 666 666 1 4 0.0000 0.0029 3.18 
0.577 4 3.00 3.00 3.0 3.0 0.002 -0.002 649 658 1 4 0.0000 0.0029 3.18 
0.578 4 3.00 3.00 3.0 3.0 0.002 -0.002 652 667 1 4 0.0000 0.0029 3.18 
0.579 4 3.00 3.00 3.0 3.0 0.002 -0.002 647 672 1 4 0.0000 0.0029 3.18 
0.580 4 3.00 3.00 3.0 3.0 0.002 -0.002 646 669 1 4 0.0000 0.0029 3.16 
0.581 4 3.00 3.00 3.0 3.0 0.002 -0.002 669 668 1 4 0.0000 0.0029 3.16 
0.582 4 3.00 3.00 3.0 3.0 0.002 -0.002 659 678 1 4 0.0000 0.0029 3.16 
0.583 4 3.00 3.00 3.0 3.0 0.002 -0.002 659 672 1 4 0.0000 0.0029 3.16 
0.584 4 3.00 3.00 3.0 3.0 0.002 -0.002 654 685 1 4 0.0000 0.0029 3.16 
0.585 4 3.00 3.00 3.0 3.0 0.002 -0.002 672 669 1 4 0.0000 0.0029 3.18 
0.586 4 3.00 3.00 3.0 3.0 0.002 -0.002 651 671 1 4 0.0000 0.0029 3.18 
0.587 4 3.00 3.00 3.0 3.0 0.002 -0.002 652 672 1 4 0.0000 0.0029 3.18 
0.588 4 3.00 3.00 3.0 3.0 0.002 -0.002 666 668 1 4 0.0000 0.0029 3.18 
0.589 4 3.00 3.00 3.0 3.0 0.002 -0.002 655 655 1 4 0.0000 0.0029 3.18 
0.590 4 3.00 3.00 3.0 3.0 0.002 -0.002 652 670 1 4 0.0000 0.0029 3.16 
0.591 4 3.00 3.00 3.0 3.0 0.002 -0.002 658 669 1 4 0.0000 0.0029 3.16 
0.592 4 3.00 3.00 3.0 3.0 0.002 -0.002 664 672 1 4 0.0000 0.0029 3.16 
0.593 4 3.00 3.00 3.0 3.0 0.002 -0.002 667 667 1 4 0.0000 0.0029 3.16 
0.594 4 3.00 3.00 3.0 3.0 0.002 -0.002 665 670 1 4 0.0000 0.0029 3.16 
0.595 4 3.00 3.00 3.0 3.0 0.002 -0.002 659 674 1 4 0.0000 0.0029 3.18 
0.596 4 3.00 3.00 3.0 3.0 0.002 -0.002 658 660 1 4 0.0000 0.0029 3.18 
0.597 4 3.00 3.00 3.0 3.0 0.002 -0.004 655 667 1 4 0.0000 0.0029 3.18 
0.598 4 3.00 3.00 3.0 3.0 0.002 -0.002 653 666 1 4 0.0000 0.0029 3.18 
0.599 4 3.00 3.00 3.0 3.0 0.002 -0.002 650 675 1 4 0.0000 0.0029 3.18 
0.600 4 3.00 3.00 3.0 3.0 0.002 -0.002 657 667 1 4 0.0000 0.0029 3.16 
0.601 4 3.00 3.00 3.0 3.0 0.002 -0.002 662 672 1 4 0.0000 0.0029 3.16 
0.602 4 3.00 3.00 3.0 3.0 0.002 -0.002 653 675 1 4 0.0000 0.0029 3.16 
0.603 4 3.00 3.00 3.0 3.0 0.002 -0.002 653 677 1 4 0.0000 0.0029 3.16 
0.604 4 3.00 3.00 3.0 3.0 0.002 -0.002 669 669 1 4 0.0000 0.0029 3.16 
0.605 4 3.00 3.00 3.0 3.0 0.002 -0.002 651 672 1 4 0.0000 0.0029 3.18 
0.606 4 3.00 3.00 3.0 3.0 0.002 -0.002 657 677 1 4 0.0000 0.0029 3.18 
0.607 4 3.00 3.00 3.0 3.0 0.002 -0.002 652 672 1 4 0.0000 0.0029 3.18 
0.608 4 3.00 3.00 3.0 3.0 0.002 -0.002 659 675 1 4 0.0000 0.0029 3.18 
0.609 4 3.00 3.00 3.0 3.0 0.002 -0.002 651 673 1 4 0.0000 0.0029 3.18 
0.610 4 3.00 3.00 3.0 3.0 0.002 -0.002 651 681 1 4 0.0000 0.0029 3.20 
0.611 4 3.00 3.00 3.0 3.0 0.002 -0.002 655 679 1 4 0.0000 0.0029 3.20 
0.612 4 3.00 3.00 3.0 3.0 0.002 -0.002 664 665 1 4 0.0000 0.0029 3.20 
0.613 4 3.00 3.00 3.0 3.0 0.002 -0.002 647 663 1 4 0.0000 0.0029 3.20 
0.614 4 3.00 3.00 3.0 3.0 0.002 -0.002 648 663 1 4 0.0000 0.0029 3.20 
0.615 4 3.00 3.00 3.0 3.0 0.002 -0.002 650 672 1 4 0.0000 0.0029 3.23 
0.616 4 3.00 3.00 3.0 3.0 0.002 -0.002 668 667 1 4 0.0000 0.0029 3.23 
0.617 4 3.00 3.00 3.0 3.0 0.002 -0.002 648 666 1 4 0.0000 0.0029 3.23 
0.618 4 3.00 3.00 3.0 3.0 0.002 -0.002 668 656 1 4 0.0000 0.0029 3.23 
0.619 4 3.00 3.00 3.0 3.0 0.002 -0.002 647 667 1 4 0.0000 0.0029 3.23 
0.620 4 3.00 3.00 3.0 3.0 0.002 -0.002 655 672 1 4 0.0000 0.0029 3.21 
0.621 4 3.00 3.00 3.0 3.0 0.002 -0.002 664 659 1 4 0.0000 0.0029 3.21 
0.622 4 3.00 3.00 3.0 3.0 0.002 -0.002 651 671 1 4 0.0000 0.0029 3.21 
0.623 4 3.00 3.00 3.0 3.0 0.002 -0.002 673 680 1 4 0.0000 0.0029 3.21 
0.624 4 3.00 3.00 3.0 3.0 0.002 -0.002 647 680 1 4 0.0000 0.0029 3.21 
0.625 4 3.00 3.00 3.0 3.0 0.002 -0.002 652 661 1 4 0.0000 0.0029 3.15 
0.626 4 3.00 3.00 3.0 3.0 0.002 -0.002 652 671 1 4 0.0000 0.0029 3.15 
0.627 4 3.00 3.00 3.0 3.0 0.002 -0.002 656 666 1 4 0.0000 0.0029 3.15 
0.628 4 3.00 3.00 3.0 3.0 0.002 -0.002 651 668 1 4 0.0000 0.0029 3.15 
0.629 4 3.00 3.00 3.0 3.0 0.002 -0.002 663 668 1 4 0.0000 0.0029 3.15 
0.630 4 3.00 3.00 3.0 3.0 0.002 -0.002 650 668 1 4 0.0000 0.0029 3.15 
0.631 4 3.00 3.00 3.0 3.0 0.002 -0.002 651 666 1 4 0.0000 0.0028 3.15 
0.632 4 3.00 3.00 3.0 3.0 0.002 -0.002 649 664 1 4 0.0000 0.0028 3.15 
0.633 4 3.00 3.00 3.0 3.0 0.002 -0.002 655 677 1 4 0.0000 0.0028 3.15 
0.634 4 3.00 3.00 3.0 3.0 0.002 -0.002 652 676 1 4 0.0000 0.0028 3.15 
0.635 4 3.00 3.00 3.0 3.0 0.002 -0.002 656 668 1 4 0.0000 0.0028 3.16 
0.636 4 3.00 3.00 3.0 3.0 0.002 -0.002 664 669 1 4 0.0000 0.0028 3.16 
0.637 4 3.00 3.00 3.0 3.0 0.002 -0.002 650 674 1 4 0.0000 0.0028 3.16 
0.638 4 3.00 3.00 3.0 3.0 0.002 -0.002 665 662 1 4 0.0000 0.0028 3.16 
0.639 4 3.00 3.00 3.0 3.0 0.002 -0.002 666 662 1 4 0.0000 0.0028 3.16 
0.640 4 3.00 3.00 3.0 3.0 0.002 -0.002 666 665 1 4 0.0000 0.0028 3.18 
0.641 4 3.00 3.00 3.0 3.0 0.002 -0.002 644 659 1 4 0.0000 0.0028 3.18 
0.642 4 3.00 3.00 3.0 3.0 0.002 -0.002 644 674 1 4 0.0000 0.0028 3.18 
0.643 4 3.00 3.00 3.0 3.0 0.002 -0.002 649 664 1 4 0.0000 0.0028 3.18 
0.644 4 3.00 3.00 3.0 3.0 0.002 -0.002 647 669 1 4 0.0000 0.0028 3.18 
0.645 4 3.00 3.00 3.0 3.0 0.002 -0.002 664 673 1 4 0.0000 0.0028 3.15 
0.646 4 3.00 3.00 3.0 3.0 0.002 -0.002 653 672 1 4 0.0000 0.0028 3.15 
0.647 4 3.00 3.00 3.0 3.0 0.002 -0.002 670 673 1 4 0.0000 0.0028 3.15 
0.648 4 3.00 3.00 3.0 3.0 0.002 -0.002 647 671 1 4 0.0000 0.0028 3.15 
0.649 4 3.00 3.00 3.0 3.0 0.002 -0.002 657 673 1 4 0.0000 0.0028 3.15 
0.650 4 3.00 3.00 3.0 3.0 0.002 -0.002 646 667 1 4 0.0000 0.0028 3.18 
0.651 4 3.00 3.00 3.0 3.0 0.002 -0.002 661 675 1 4 0.0000 0.0028 3.18 
0.652 4 3.00 3.00 3.0 3.0 0.002 -0.002 651 676 1 4 0.0000 0.0028 3.18 
0.653 4 3.00 3.00 3.0 3.0 0.002 -0.002 665 667 1 4 0.0000 0.0028 3.18 
0.654 4 3.00 3.00 3.0 3.0 0.002 -0.002 657 669 1 4 0.0000 0.0028 3.18 
0.655 4 3.00 3.00 3.0 3.0 0.002 -0.002 671 671 1 4 0.0000 0.0028 3.21 
0.656 4 3.00 3.00 3.0 3.0 0.002 -0.002 666 670 1 4 0.0000 0.0028 3.21 
0.657 4 3.00 3.00 3.0 3.0 0.002 -0.002 659 675 1 4 0.0000 0.0028 3.21 
0.658 4 3.00 3.00 3.0 3.0 0.002 -0.002 654 680 1 4 0.0000 0.0028 3.21 
0.659 4 3.00 3.00 3.0 3.0 0.002 -0.002 660 672 1 4 0.0000 0.0028 3.21 
0.660 4 3.00 3.00 3.0 3.0 0.002 -0.002 654 668 1 4 0.0000 0.0028 3.21 
0.661 4 3.00 3.00 3.0 3.0 0.002 -0.002 659 670 1 4 0.0000 0.0028 3.21 
0.662 4 3.00 3.00 3.0 3.0 0.002 -0.002 664 673 1 4 0.0000 0.0028 3.21 
0.663 4 3.00 3.00 3.0 3.0 0.002 -0.002 648 659 1 4 0.0000 0.0028 3.21 
0.664 4 3.00 3.00 3.0 3.0 0.002 -0.002 669 672 1 4 0.0000 0.0028 3.21 
0.665 4 3.00 3.00 3.0 3.0 0.002 -0.002 660 649 1 4 0.0000 0.0028 3.26 
0.666 4 3.00 3.00 3.0 3.0 0.002 -0.002 664 680 1 4 0.0000 0.0028 3.26 
0.667 4 3.00 3.00 3.0 3.0 0.002 -0.002 666 664 1 4 0.0000 0.0028 3.26 
0.668 4 3.00 3.00 3.0 3.0 0.002 -0.002 658 666 1 4 0.0000 0.0028 3.26 
0.669 4 3.00 3.00 3.0 3.0 0.002 -0.002 645 664 1 4 0.0000 0.0028 3.26 
0.670 4 3.00 3.00 3.0 3.0 0.002 -0.002 658 653 1 4 0.0000 0.0028 3.20 
0.671 4 3.00 3.00 3.0 3.0 0.002 -0.002 663 665 1 4 0.0000 0.0028 3.20 
0.672 4 3.00 3.00 3.0 3.0 0.002 -0.002 667 672 1 4 0.0000 0.0028 3.20 
0.673 4 3.00 3.00 3.0 3.0 0.002 -0.002 663 678 1 4 0.0000 0.0028 3.20 
0.674 4 3.00 3.00 3.0 3.0 0.002 -0.002 648 665 1 4 0.0000 0.0028 3.20 
0.675 4 3.00 3.00 3.0 3.0 0.002 -0.002 657 667 1 4 0.0000 0.0028 3.18 
0.676 4 3.00 3.00 3.0 3.0 0.002 -0.002 657 664 1 4 0.0000 0.0028 3.18 
0.677 4 3.00 3.00 3.0 3.0 0.002 -0.002 661 668 1 4 0.0000 0.0028 3.18 
0.678 4 3.00 3.00 3.0 3.0 0.002 -0.002 657 673 1 4 0.0000 0.0028 3.18 
0.679 4 3.00 3.00 3.0 3.0 0.002 -0.002 656 669 1 4 0.0000 0.0028 3.18 
0.680 4 3.00 3.00 3.0 3.0 0.002 -0.002 662 677 1 4 0.0000 0.0028 3.18 
0.681 4 3.00 3.00 3.0 3.0 0.002 -0.002 654 666 1 4 0.0000 0.0028 3.18 
0.682 4 3.00 3.00 3.0 3.0 0.002 -0.002 645 672 1 4 0.0000 0.0028 3.18 
0.683 4 3.00 3.00 3.0 3.0 0.002 -0.002 660 671 1 4 0.0000 0.0028 3.18 
0.684 4 3.00 3.00 3.0 3.0 0.002 -0.002 652 677 1 4 0.0000 0.0028 3.18 
0.685 4 3.00 3.00 3.0 3.0 0.002 -0.002 656 667 1 4 0.0000 0.0028 3.16 
0.686 4 3.00 3.00 3.0 3.0 0.002 -0.002 661 670 1 4 0.0000 0.0028 3.16 
0.687 4 3.00 3.00 3.0 3.0 0.002 -0.002 656 662 1 4 0.0000 0.0028 3.16 
0.688 4 3.00 3.00 3.0 3.0 0.002 -0.002 668 668 1 4 0.0000 0.0028 3.16 
0.689 4 3.00 3.00 3.0 3.0 0.002 -0.002 656 679 1 4 0.0000 0.0028 3.16 
0.690 4 3.00 3.00 3.0 3.0 0.002 -0.002 655 672 1 4 0.0000 0.0028 3.16 
0.691 4 3.00 3.00 3.0 3.0 0.002 -0.002 647 677 1 4 0.0000 0.0028 3.16 
0.692 4 3.00 3.00 3.0 3.0 0.002 -0.002 655 662 1 4 0.0000 0.0028 3.16 
0.693 4 3.00 3.00 3.0 3.0 0.002 -0.002 663 678 1 4 0.0000 0.0028 3.16 
0.694 4 3.00 3.00 3.0 3.0 0.002 -0.002 669 662 1 4 0.0000 0.0028 3.16 
0.695 4 3.00 3.00 3.0 3.0 0.002 -0.002 649 669 1 4 0.0000 0.0028 3.18 
0.696 4 3.00 3.00 3.0 3.0 0.002 -0.002 655 670 1 4 0.0000 0.0028 3.18 
0.697 4 3.00 3.00 3.0 3.0 0.002 -0.002 649 667 1 4 0.0000 0.0028 3.18 
0.698 4 3.00 3.00 3.0 3.0 0.002 -0.002 661 663 1 4 0.0000 0.0028 3.18 
0.699 4 3.00 3.00 3.0 3.0 0.002 -0.002 667 678 1 4 0.0000 0.0028 3.18 
0.700 4 3.00 3.00 3.0 3.0 0.002 -0.002 654 676 1 4 0.0000 0.0028 3.15 
0.701 4 3.00 3.00 3.0 3.0 0.002 -0.002 668 672 1 4 0.0000 0.0028 3.15 
0.702 4 3.00 3.00 3.0 3.0 0.002 -0.002 658 657 1 4 0.0000 0.0028 3.15 
0.703 4 3.00 3.00 3.0 3.0 0.002 -0.002 657 673 1 4 0.0000 0.0028 3.15 
0.704 4 3.00 3.00 3.0 3.0 0.002 -0.002 645 672 1 4 0.0000 0.0028 3.15 
0.705 4 3.00 3.00 3.0 3.0 0.002 -0.002 648 667 1 4 0.0000 0.0028 3.18 
0.706 4 3.00 3.00 3.0 3.0 0.002 -0.002 653 670 1 4 0.0000 0.0028 3.18 
0.707 4 3.00 3.00 3.0 3.0 0.002 -0.002 656 671 1 4 0.0000 0.0028 3.18 
0.708 4 3.00 3.00 3.0 3.0 0.002 -0.002 654 663 1 4 0.0000 0.0028 3.18 
0.709 4 3.00 3.00 3.0 3.0 0.002 -0.002 665 671 1 4 0.0000 0.0028 3.18 
0.710 4 3.00 3.00 3.0 3.0 0.002 -0.002 656 663 1 4 0.0000 0.0028 3.20 
0.711 4 3.00 3.00 3.0 3.0 0.002 -0.002 650 664 1 4 0.0000 0.0028 3.20 
0.712 4 3.00 3.00 3.0 3.0 0.002 -0.002 660 672 1 4 0.0000 0.0028 3.20 
0.713 4 3.00 3.00 3.0 3.0 0.002 -0.002 652 656 1 4 0.0000 0.0028 3.20 
0.714 4 3.00 3.00 3.0 3.0 0.002 -0.002 655 663 1 4 0.0000 0.0028 3.20 
0.715 4 3.00 3.00 3.0 3.0 0.002 -0.002 660 669 1 4 0.0000 0.0028 3.18 
0.716 4 3.00 3.00 3.0 3.0 0.002 -0.002 666 675 1 4 0.0000 0.0028 3.18 
0.717 4 3.00 3.00 3.0 3.0 0.002 -0.002 659 662 1 4 0.0000 0.0028 3.18 
0.718 4 3.00 3.00 3.0 3.0 0.002 -0.002 649 659 1 4 0.0000 0.0028 3.18 
0.719 4 3.00 3.00 3.0 3.0 0.002 -0.002 653 661 1 4 0.0000 0.0028 3.18 
0.720 4 3.00 3.00 3.0 3.0 0.002 -0.002 654 677 1 4 0.0000 0.0028 3.18 
0.722 4 3.00 3.00 3.0 3.0 0.002 -0.002 646 671 1 4 0.0000 0.0028 3.18 
0.722 4 3.00 3.00 3.0 3.0 0.002 -0.002 652 670 1 4 0.0000 0.0028 3.18 
0.723 4 3.00 3.00 3.0 3.0 0.002 -0.002 644 672 1 4 0.0000 0.0028 3.18 
0.724 4 3.00 3.00 3.0 3.0 0.002 -0.002 649 659 1 4 0.0000 0.0028 3.18 
0.725 4 3.00 3.00 3.0 3.0 0.002 -0.002 656 672 1 4 0.0000 0.0028 3.18 
0.726 4 3.00 3.00 3.0 3.0 0.002 -0.002 646 668 1 4 0.0000 0.0028 3.18 
0.727 4 3.00 3.00 3.0 3.0 0.002 -0.002 666 671 1 4 0.0000 0.0028 3.18 
0.728 4 3.00 3.00 3.0 3.0 0.002 -0.002 663 654 1 4 0.0000 0.0028 3.18 
0.729 4 3.00 3.00 3.0 3.0 0.002 -0.002 649 664 1 4 0.0000 0.0028 3.18 
0.730 4 3.00 3.00 3.0 3.0 0.002 -0.002 665 667 1 4 0.0000 0.0028 3.16 
0.731 4 3.00 3.00 3.0 3.0 0.002 -0.002 669 668 1 4 0.0000 0.0028 3.16 
0.732 4 3.00 3.00 3.0 3.0 0.002 -0.002 665 658 1 4 0.0000 0.0028 3.16 
0.733 4 3.00 3.00 3.0 3.0 0.002 -0.002 655 667 1 4 0.0000 0.0028 3.16 
0.734 4 3.00 3.00 3.0 3.0 0.002 -0.002 660 654 1 4 0.0000 0.0028 3.16 
0.735 4 3.00 3.00 3.0 3.0 0.002 -0.002 659 670 1 4 0.0000 0.0028 3.15 
0.736 4 3.00 3.00 3.0 3.0 0.002 -0.002 654 670 1 4 0.0000 0.0028 3.15 
0.737 4 3.00 3.00 3.0 3.0 0.002 -0.002 658 661 1 4 0.0000 0.0028 3.15 
0.738 4 3.00 3.00 3.0 3.0 0.002 -0.002 660 665 1 4 0.0000 0.0028 3.15 
0.739 4 3.00 3.00 3.0 3.0 0.002 -0.002 649 659 1 4 0.0000 0.0028 3.15 
0.740 4 3.00 3.00 3.0 3.0 0.002 -0.002 649 672 1 4 0.0000 0.0028 3.18 
0.741 4 3.00 3.00 3.0 3.0 0.002 -0.002 655 683 1 4 0.0000 0.0028 3.18 
0.742 4 3.00 3.00 3.0 3.0 0.002 -0.002 666 684 1 4 0.0000 0.0028 3.18 
0.743 4 3.00 3.00 3.0 3.0 0.002 -0.002 668 666 1 4 0.0000 0.0028 3.18 
0.744 4 3.00 3.00 3.0 3.0 0.002 -0.002 664 678 1 4 0.0000 0.0028 3.18 
0.745 4 3.00 3.00 3.0 3.0 0.002 -0.002 653 675 1 4 0.0000 0.0028 3.16 
0.746 4 3.00 3.00 3.0 3.0 0.002 -0.002 657 664 1 4 0.0000 0.0028 3.16 
0.747 4 3.00 3.00 3.0 3.0 0.002 -0.002 669 680 1 4 0.0000 0.0028 3.16 
0.748 4 3.00 3.00 3.0 3.0 0.002 -0.002 666 670 1 4 0.0000 0.0028 3.16 
0.749 4 3.00 3.00 3.0 3.0 0.002 -0.002 656 677 1 4 0.0000 0.0028 3.16 
0.750 4 3.00 3.00 3.0 3.0 0.002 -0.002 661 669 1 4 0.0000 0.0028 3.16 
0.751 4 3.00 3.00 3.0 3.0 0.002 -0.002 659 652 1 4 0.0000 0.0028 3.16 
0.752 4 3.00 3.00 3.0 3.0 0.002 -0.002 654 672 1 4 0.0000 0.0028 3.16 
0.753 4 3.00 3.00 3.0 3.0 0.002 -0.002 664 667 1 4 0.0000 0.0028 3.16 
0.754 4 3.00 3.00 3.0 3.0 0.002 -0.002 645 673 1 4 0.0000 0.0028 3.16 
0.755 4 3.00 3.00 3.0 3.0 0.002 -0.002 658 664 1 4 0.0000 0.0028 3.18 
0.756 4 3.00 3.00 3.0 3.0 0.002 -0.002 648 673 1 4 0.0000 0.0028 3.18 
0.757 4 3.00 3.00 3.0 3.0 0.002 -0.002 657 653 1 4 0.0000 0.0028 3.18 
0.758 4 3.00 3.00 3.0 3.0 0.002 -0.002 652 678 1 4 0.0000 0.0028 3.18 
0.759 4 3.00 3.00 3.0 3.0 0.002 -0.002 668 673 1 4 0.0000 0.0028 3.18 
0.760 4 3.00 3.00 3.0 3.0 0.002 -0.002 650 662 1 4 0.0000 0.0028 3.16 
0.761 4 3.00 3.00 3.0 3.0 0.002 -0.002 655 673 1 4 0.0000 0.0028 3.16 
0.762 4 3.00 3.00 3.0 3.0 0.002 -0.002 641 669 1 4 0.0000 0.0028 3.16 
0.763 4 3.00 3.00 3.0 3.0 0.002 -0.002 650 677 1 4 0.0000 0.0028 3.16 
0.764 4 3.00 3.00 3.0 3.0 0.002 -0.002 653 674 1 4 0.0000 0.0028 3.16 
0.765 4 3.00 3.00 3.0 3.0 0.002 -0.002 659 672 1 4 0.0000 0.0028 3.18 
0.766 4 3.00 3.00 3.0 3.0 0.002 -0.002 649 674 1 4 0.0000 0.0028 3.18 
0.767 4 3.00 3.00 3.0 3.0 0.002 -0.002 652 676 1 4 0.0000 0.0028 3.18 
0.768 4 3.00 3.00 3.0 3.0 0.002 -0.002 655 657 1 4 0.0000 0.0028 3.18 
0.769 4 3.00 3.00 3.0 3.0 0.002 -0.002 655 669 1 4 0.0000 0.0028 3.18 
0.770 4 3.00 3.00 3.0 3.0 0.002 -0.002 653 669 1 4 0.0000 0.0028 3.18 
0.771 4 3.00 3.00 3.0 3.0 0.002 -0.002 660 673 1 4 0.0000 0.0028 3.18 
0.772 4 3.00 3.00 3.0 3.0 0.002 -0.002 657 666 1 4 0.0000 0.0028 3.18 
0.773 4 3.00 3.00 3.0 3.0 0.002 -0.002 659 668 1 4 0.0000 0.0028 3.18 
0.774 4 3.00 3.00 3.0 3.0 0.002 -0.002 656 673 1 4 0.0000 0.0028 3.18 
0.775 4 3.00 3.00 3.0 3.0 0.002 -0.002 651 673 1 4 0.0000 0.0028 3.18 
0.776 4 3.00 3.00 3.0 3.0 0.002 -0.002 655 675 1 4 0.0000 0.0028 3.18 
0.777 4 3.00 3.00 3.0 3.0 0.002 -0.002 659 675 1 4 0.0000 0.0028 3.18 
0.778 4 3.00 3.00 3.0 3.0 0.002 -0.002 654 666 1 4 0.0000 0.0028 3.18 
0.779 4 3.00 3.00 3.0 3.0 0.002 -0.002 650 667 1 4 0.0000 0.0028 3.18 
0.780 4 3.00 3.00 3.0 3.0 0.002 -0.002 654 667 1 4 0.0000 0.0028 3.16 
0.781 4 3.00 3.00 3.0 3.0 0.002 -0.002 663 671 1 4 0.0000 0.0028 3.16 
0.782 4 3.00 3.00 3.0 3.0 0.002 -0.002 668 666 1 4 0.0000 0.0028 3.16 
0.783 4 3.00 3.00 3.0 3.0 0.002 -0.002 655 679 1 4 0.0000 0.0028 3.16 
0.784 4 3.00 3.00 3.0 3.0 0.002 -0.002 663 662 1 4 0.0000 0.0028 3.16 
0.785 4 3.00 3.00 3.0 3.0 0.002 -0.002 652 669 1 4 0.0000 0.0028 3.18 
0.786 4 3.00 3.00 3.0 3.0 0.002 -0.002 670 684 1 4 0.0000 0.0028 3.18 
0.787 4 3.00 3.00 3.0 3.0 0.002 -0.002 647 677 1 4 0.0000 0.0028 3.18 
0.788 4 3.00 3.00 3.0 3.0 0.002 -0.002 649 657 1 4 0.0000 0.0028 3.18 
0.789 4 3.00 3.00 3.0 3.0 0.002 -0.002 656 665 1 4 0.0000 0.0028 3.18 
0.790 4 3.00 3.00 3.0 3.0 0.002 -0.002 646 685 1 4 0.0000 0.0028 3.16 
0.791 4 3.00 3.00 3.0 3.0 0.002 -0.002 652 670 1 4 0.0000 0.0028 3.16 
0.792 4 3.00 3.00 3.0 3.0 0.002 -0.002 646 666 1 4 0.0000 0.0028 3.16 
0.793 4 3.00 3.00 3.0 3.0 0.002 -0.002 663 673 1 4 0.0000 0.0028 3.16 
0.794 4 3.00 3.00 3.0 3.0 0.002 -0.002 653 664 1 4 0.0000 0.0028 3.16 
0.795 4 3.00 3.00 3.0 3.0 0.002 -0.002 637 670 1 4 0.0000 0.0028 3.18 
