%  1    time 0.000 sec
%  2    mission (0) state 2
%  3  4 Motor velocity ref left, right: 2.00 2.00
%  5  6 Motor voltage [V] left, right: 2.0 2.0
%  7 10 Motor current left, right [A]: 0.002 -0.002 673 679
% 11 12 Encoder left, right: 3960 3343
% 13 14 Wheel velocity [r/s] left, right: 0.0000 0.0000
% 15    Battery voltage [V]: 12.02
0.001 2 2.00 2.00 2.0 2.0 0.011 -0.042 705 656 3960 3343 0.0000 0.0000 12.02 
0.002 2 2.00 2.00 2.0 2.0 0.112 -0.069 732 627 3960 3343 0.0000 0.0000 12.02 
0.003 2 2.00 2.00 2.0 2.0 0.201 -0.080 743 615 3960 3343 0.0000 0.0000 12.02 
0.004 2 2.00 2.00 2.0 2.0 0.254 -0.087 755 611 3960 3343 0.0000 0.0000 12.02 
0.005 2 2.00 2.00 2.0 2.0 0.283 -0.087 759 609 3960 3343 0.0000 0.0000 11.96 
0.006 2 2.00 2.00 2.0 2.0 0.308 -0.085 761 612 3960 3343 0.0000 0.0000 11.96 
0.007 2 2.00 2.00 2.0 2.0 0.317 -0.087 763 615 3960 3343 0.0000 0.0000 11.96 
0.008 2 2.00 2.00 2.0 2.0 0.319 -0.085 761 617 3960 3343 0.0000 0.0000 11.96 
0.009 2 2.00 2.00 2.0 2.0 0.317 -0.080 762 620 3961 3344 0.0000 0.0000 11.96 
0.010 2 2.00 2.00 2.0 2.0 0.310 -0.080 759 619 3961 3344 0.0000 0.0000 11.94 
0.011 2 2.00 2.00 2.0 2.0 0.297 -0.080 756 618 3961 3344 0.0000 0.0000 11.94 
0.012 2 2.00 2.00 2.0 2.0 0.210 -0.078 738 618 3961 3345 0.0000 3.8526 11.94 
0.013 2 2.00 2.00 2.0 2.0 0.205 -0.078 744 614 3962 3345 3.9540 3.8526 11.94 
0.014 2 2.00 2.00 2.0 2.0 0.210 -0.080 742 613 3962 3345 3.9540 3.8526 11.94 
0.015 2 2.00 2.00 2.0 2.0 0.212 -0.080 744 621 3963 3346 3.9540 5.0084 11.96 
0.016 2 2.00 2.00 2.0 2.0 0.212 -0.078 743 624 3963 3346 5.1029 5.0084 11.96 
0.017 2 2.00 2.00 2.0 2.0 0.210 -0.076 743 624 3963 3347 5.1029 5.0084 11.96 
0.018 2 2.00 2.00 2.0 2.0 0.190 -0.074 738 627 3964 3347 6.0640 5.3875 11.96 
0.019 2 2.00 2.00 2.0 2.0 0.174 -0.074 737 626 3964 3347 6.0640 5.3875 11.96 
0.020 2 2.00 2.00 2.0 2.0 0.158 -0.069 734 627 3965 3348 6.7953 6.5964 11.96 
0.021 2 2.00 2.00 2.0 2.0 0.145 -0.071 732 626 3966 3349 6.7953 7.9080 11.96 
0.022 2 2.00 2.00 2.0 2.0 0.138 -0.071 729 623 3966 3349 7.3096 7.9080 11.96 
0.023 2 2.00 2.00 2.0 2.0 0.134 -0.067 732 627 3967 3350 7.9545 7.6399 11.96 
0.024 2 2.00 2.00 2.0 2.0 0.132 -0.067 732 631 3967 3350 7.9545 7.6399 11.96 
0.025 2 2.00 2.00 2.0 2.0 0.123 -0.065 728 636 3968 3351 8.4517 7.0066 11.98 
0.026 2 2.00 2.00 2.0 2.0 0.125 -0.067 732 634 3969 3351 8.8965 7.0066 11.98 
0.027 2 2.00 2.00 2.0 2.0 0.134 -0.065 729 636 3969 3352 8.8965 8.2961 11.98 
0.028 2 2.00 2.00 2.0 2.0 0.058 -0.065 713 636 3970 3353 9.5906 8.7243 11.98 
0.029 2 2.00 2.00 2.0 2.0 0.065 -0.065 713 632 3971 3353 9.5906 8.7243 11.98 
0.030 2 2.00 2.00 2.0 2.0 0.058 -0.062 717 630 3972 3354 9.5906 9.2621 11.98 
0.031 2 2.00 2.00 2.0 2.0 0.062 -0.060 711 629 3972 3355 9.7286 10.0168 11.98 
0.032 2 2.00 2.00 2.0 2.0 0.060 -0.062 717 635 3973 3356 10.2445 10.0168 11.98 
0.033 2 2.00 2.00 2.0 2.0 0.047 -0.058 716 642 3974 3356 10.4021 9.4564 11.98 
0.034 2 2.00 2.00 2.0 2.0 0.049 -0.062 713 643 3975 3357 10.4021 9.5230 11.98 
0.035 2 2.00 2.00 2.0 2.0 0.058 -0.058 717 643 3975 3358 10.7323 9.9432 11.99 
0.036 2 2.00 2.00 2.0 2.0 0.069 -0.056 716 643 3976 3358 11.9670 9.9432 11.99 
0.037 2 2.00 2.00 2.0 2.0 0.092 -0.058 725 645 3977 3359 11.1758 9.8706 11.99 
0.038 2 2.00 2.00 2.0 2.0 0.022 -0.056 702 642 3978 3360 10.7323 10.1674 11.99 
0.039 2 2.00 2.00 2.0 2.0 0.027 -0.056 713 641 3979 3361 11.5579 10.6478 11.99 
0.040 2 2.00 2.00 2.0 2.0 0.029 -0.056 708 639 3980 3362 12.6380 10.6478 11.98 
0.041 2 2.00 2.00 2.0 2.0 0.029 -0.058 710 644 3981 3362 12.6380 10.8182 11.98 
0.042 2 2.00 2.00 2.0 2.0 0.025 -0.056 706 646 3981 3363 12.1826 10.0916 11.98 
0.043 2 2.00 2.00 2.0 2.0 0.027 -0.056 710 646 3982 3364 10.9941 10.9941 11.98 
0.044 2 2.00 2.00 2.0 2.0 0.027 -0.058 707 645 3983 3365 12.2934 12.0738 11.98 
0.045 2 2.00 2.00 2.0 2.0 0.009 -0.056 706 646 3984 3366 12.6380 11.5579 11.99 
0.046 2 2.00 2.00 2.0 2.0 0.025 -0.056 708 645 3985 3367 12.6380 11.5579 11.99 
0.047 2 2.00 2.00 2.0 2.0 0.009 -0.054 701 642 3986 3367 13.3888 10.9941 11.99 
0.048 2 2.00 2.00 2.0 2.0 0.009 -0.054 704 639 3987 3368 12.8788 11.3636 11.99 
0.049 2 2.00 2.00 2.0 2.0 0.009 -0.056 704 647 3988 3369 13.3888 11.6575 11.99 
0.050 2 2.00 2.00 2.0 2.0 0.004 -0.054 704 646 3989 3370 13.2575 12.0738 11.99 
0.051 2 2.00 2.00 2.0 2.0 0.004 -0.051 704 654 3990 3371 12.8788 11.5579 11.99 
0.052 2 2.00 2.00 2.0 2.0 0.004 -0.049 707 651 3991 3372 13.2575 11.9670 11.99 
0.053 2 2.00 2.00 2.0 2.0 0.009 -0.056 708 649 3992 3373 13.3888 11.9670 11.99 
0.054 2 2.00 2.00 2.0 2.0 0.031 -0.056 713 647 3993 3374 13.6593 11.7589 11.99 
0.055 2 2.00 2.00 2.0 2.0 0.009 -0.049 700 647 3994 3375 13.9409 12.5210 11.99 
0.056 2 2.00 2.00 2.0 2.0 0.007 -0.051 701 646 3995 3375 13.9409 13.3888 11.99 
0.057 2 2.00 2.00 2.0 2.0 0.002 -0.051 699 645 3996 3376 13.3888 12.4061 11.99 
0.058 2 2.00 2.00 2.0 2.0 0.011 -0.051 704 643 3997 3377 13.7987 12.4061 11.99 
0.059 2 2.00 2.00 2.0 2.0 0.007 -0.049 700 643 3998 3378 13.9409 13.0026 11.99 
0.060 2 2.00 2.00 2.0 2.0 0.004 -0.049 701 648 3999 3379 14.0861 13.0026 11.98 
0.061 2 2.00 2.00 2.0 2.0 0.011 -0.049 703 648 4000 3380 14.2344 12.7573 11.98 
0.062 2 2.00 2.00 2.0 2.0 0.004 -0.054 705 647 4001 3381 14.5405 12.0738 11.98 
0.063 2 2.00 2.00 2.0 2.0 0.007 -0.049 696 650 4003 3382 14.5405 13.2575 11.98 
0.064 2 2.00 2.00 2.0 2.0 0.004 -0.049 696 653 4004 3383 14.5405 13.3888 11.98 
0.065 2 2.00 2.00 2.0 2.0 0.007 -0.049 702 651 4005 3384 14.8601 12.8788 12.02 
0.066 2 2.00 2.00 2.0 2.0 0.011 -0.047 696 655 4006 3385 15.0252 12.5210 12.02 
0.067 2 2.00 2.00 2.0 2.0 0.004 -0.047 702 656 4007 3386 15.0252 13.2575 12.02 
0.068 2 2.00 2.00 2.0 2.0 0.009 -0.047 700 655 4008 3387 14.8601 13.0026 12.02 
0.069 2 2.00 2.00 2.0 2.0 0.007 -0.049 711 654 4009 3388 15.0252 13.1288 12.02 
0.070 2 2.00 2.00 2.0 2.0 0.004 -0.051 698 651 4010 3389 14.8601 13.2575 11.99 
0.071 2 2.00 2.00 2.0 2.0 0.009 -0.049 698 653 4011 3390 15.0252 13.5227 11.99 
0.072 2 2.00 2.00 2.0 2.0 0.004 -0.047 698 650 4013 3391 15.1940 13.1288 11.99 
0.073 2 2.00 2.00 2.0 2.0 0.007 -0.047 699 651 4014 3392 15.3667 13.3888 11.99 
0.074 2 2.00 2.00 2.0 2.0 0.007 -0.045 698 652 4015 3393 15.3667 13.6593 11.99 
0.075 2 2.00 2.00 2.0 2.0 0.002 -0.049 696 648 4016 3394 15.3667 13.7987 11.99 
0.076 2 2.00 2.00 2.0 2.0 0.004 -0.045 700 649 4017 3395 15.7241 12.6380 11.99 
0.077 2 2.00 2.00 2.0 2.0 0.009 -0.047 696 651 4018 3396 15.9091 13.1288 11.99 
0.078 2 2.00 2.00 2.0 2.0 0.009 -0.047 690 650 4019 3397 15.9091 14.2344 11.99 
0.079 2 2.00 2.00 2.0 2.0 0.009 -0.051 695 653 4021 3398 15.7241 14.2344 11.99 
0.080 2 2.00 2.00 2.0 2.0 0.009 -0.047 693 653 4022 3399 15.7241 12.2934 12.01 
0.081 2 2.00 2.00 2.0 2.0 0.009 -0.049 697 656 4023 3400 15.7241 13.0026 12.01 
0.082 2 2.00 2.00 2.0 2.0 0.007 -0.049 694 655 4024 3401 16.2924 13.5227 12.01 
0.083 2 2.00 2.00 2.0 2.0 0.007 -0.047 701 655 4025 3402 16.0984 13.9409 12.01 
0.084 2 2.00 2.00 2.0 2.0 0.007 -0.047 693 657 4026 3403 15.5433 14.5405 12.01 
0.085 2 2.00 2.00 2.0 2.0 0.004 -0.045 693 660 4028 3404 15.7241 14.3858 11.99 
0.086 2 2.00 2.00 2.0 2.0 0.009 -0.045 694 659 4029 3405 16.2924 14.2344 11.99 
0.087 2 2.00 2.00 2.0 2.0 0.004 -0.045 693 659 4030 3406 15.3667 14.3858 11.99 
0.088 2 2.00 2.00 2.0 2.0 0.004 -0.047 693 654 4031 3407 15.7241 14.2344 11.99 
0.089 2 2.00 2.00 2.0 2.0 0.007 -0.047 695 654 4032 3408 16.0984 14.2344 11.99 
0.090 2 2.00 2.00 2.0 2.0 0.004 -0.045 696 652 4034 3409 16.2924 14.3858 11.99 
0.091 2 2.00 2.00 2.0 2.0 0.011 -0.049 693 651 4035 3410 16.4911 14.5405 11.99 
0.092 2 2.00 2.00 2.0 2.0 0.009 -0.047 694 650 4036 3411 16.9034 13.3888 11.99 
0.093 2 2.00 2.00 2.0 2.0 0.009 -0.047 689 652 4037 3413 16.9034 13.7987 11.99 
0.094 2 2.00 2.00 2.0 2.0 0.009 -0.049 695 657 4038 3414 16.2924 14.5405 11.99 
0.095 2 2.00 2.00 2.0 2.0 0.011 -0.049 695 656 4040 3415 16.2924 14.3858 11.99 
0.096 2 2.00 2.00 2.0 2.0 0.007 -0.051 701 659 4041 3416 16.4911 14.2344 11.99 
0.097 2 2.00 2.00 2.0 2.0 0.007 -0.045 690 657 4042 3417 16.6947 14.3858 11.99 
0.098 2 2.00 2.00 2.0 2.0 0.007 -0.047 692 657 4043 3418 16.6947 14.5405 11.99 
0.099 2 2.00 2.00 2.0 2.0 0.009 -0.045 687 660 4045 3419 16.2924 14.2344 11.99 
0.100 2 2.00 2.00 2.0 2.0 0.009 -0.047 689 661 4046 3420 16.4911 14.3858 12.01 
0.101 2 2.00 2.00 2.0 2.0 0.009 -0.047 687 655 4047 3421 16.4911 14.2344 12.01 
0.102 2 2.00 2.00 2.0 2.0 0.009 -0.047 691 654 4048 3422 16.4911 14.5405 12.01 
0.103 2 2.00 2.00 2.0 2.0 0.009 -0.047 691 653 4049 3423 16.6947 15.0252 12.01 
0.104 2 2.00 2.00 2.0 2.0 0.011 -0.045 688 650 4051 3424 16.6947 14.8601 12.01 
0.105 2 2.00 2.00 2.0 2.0 0.011 -0.045 690 651 4052 3425 16.9034 14.6986 11.99 
0.106 2 2.00 2.00 2.0 2.0 0.013 -0.045 686 652 4053 3427 16.9034 14.8601 11.99 
0.107 2 2.00 2.00 2.0 2.0 0.007 -0.047 691 656 4054 3428 16.9034 15.0252 11.99 
0.108 2 2.00 2.00 2.0 2.0 0.009 -0.045 690 656 4056 3429 16.9034 14.8601 11.99 
0.109 2 2.00 2.00 2.0 2.0 0.007 -0.047 701 658 4057 3430 16.9034 14.2344 11.99 
0.110 2 2.00 2.00 2.0 2.0 0.004 -0.045 693 657 4058 3431 16.6947 14.8601 11.99 
0.111 2 2.00 2.00 2.0 2.0 0.007 -0.047 695 660 4059 3432 16.9034 14.6986 11.99 
0.112 2 2.00 2.00 2.0 2.0 0.011 -0.045 689 662 4061 3433 17.1173 14.3858 11.99 
0.113 2 2.00 2.00 2.0 2.0 0.011 -0.042 695 660 4062 3434 17.1173 14.6986 11.99 
0.114 2 2.00 2.00 2.0 2.0 0.009 -0.045 693 662 4063 3435 17.1173 14.6986 11.99 
0.115 2 2.00 2.00 2.0 2.0 0.007 -0.045 692 660 4064 3436 17.1173 14.6986 11.99 
0.116 2 2.00 2.00 2.0 2.0 0.009 -0.047 691 655 4066 3437 17.3368 14.8601 11.99 
0.117 2 2.00 2.00 2.0 2.0 0.009 -0.045 688 659 4067 3438 17.3368 15.0252 11.99 
0.118 2 2.00 2.00 2.0 2.0 0.011 -0.045 685 656 4068 3439 16.9034 14.6986 11.99 
0.119 2 2.00 2.00 2.0 2.0 0.009 -0.045 687 657 4070 3441 17.1173 14.8601 11.99 
0.120 2 2.00 2.00 2.0 2.0 0.018 -0.045 694 656 4071 3442 16.9034 15.1940 11.99 
0.121 2 2.00 2.00 2.0 2.0 0.009 -0.049 692 655 4072 3443 17.7930 14.3858 11.99 
0.122 2 2.00 2.00 2.0 2.0 0.004 -0.045 701 650 4073 3444 17.5619 14.6986 11.99 
0.123 2 2.00 2.00 2.0 2.0 0.013 -0.045 691 653 4075 3445 16.9034 15.7241 11.99 
0.124 2 2.00 2.00 2.0 2.0 0.013 -0.045 690 659 4076 3446 17.7930 15.5433 11.99 
0.125 2 2.00 2.00 2.0 2.0 0.009 -0.047 692 656 4077 3447 17.5619 13.2575 11.99 
0.126 2 2.00 2.00 2.0 2.0 0.011 -0.047 693 657 4078 3448 16.4911 14.0861 11.99 
0.127 2 2.00 2.00 2.0 2.0 0.016 -0.045 693 656 4080 3449 16.9034 14.5405 11.99 
0.128 2 2.00 2.00 2.0 2.0 0.011 -0.045 695 659 4081 3451 17.3368 15.0252 11.99 
0.129 2 2.00 2.00 2.0 2.0 0.009 -0.047 689 659 4082 3452 17.7930 15.1940 11.99 
0.130 2 2.00 2.00 2.0 2.0 0.011 -0.042 689 662 4084 3453 17.5619 15.1940 11.99 
0.131 2 2.00 2.00 2.0 2.0 0.011 -0.047 688 661 4085 3454 17.7930 15.1940 11.99 
0.132 2 2.00 2.00 2.0 2.0 0.011 -0.045 689 658 4086 3455 17.3368 15.0252 11.99 
0.133 2 2.00 2.00 2.0 2.0 0.009 -0.047 692 659 4087 3456 17.3368 14.8601 11.99 
0.136 2 2.00 2.00 2.0 2.0 0.007 -0.045 699 656 4091 3459 17.1173 14.8601 11.99 
0.137 2 2.00 2.00 2.0 2.0 0.007 -0.040 687 663 4092 3460 16.9034 14.6986 11.98 
0.138 2 2.00 2.00 2.0 2.0 0.011 -0.042 691 659 4093 3461 17.3368 15.3667 11.98 
0.139 2 2.00 2.00 2.0 2.0 0.009 -0.042 690 652 4094 3462 17.3368 15.3667 11.98 
0.139 2 2.00 2.00 2.0 2.0 0.013 -0.042 685 652 4095 3463 17.3368 14.8601 11.98 
0.140 2 2.00 2.00 2.0 2.0 0.011 -0.045 692 658 4096 3464 17.3368 14.8601 11.98 
0.141 2 2.00 2.00 2.0 2.0 0.009 -0.045 692 659 4098 3465 17.3368 15.0252 11.99 
0.142 2 2.00 2.00 2.0 2.0 0.016 -0.047 687 663 4099 3466 17.3368 15.1940 11.99 
0.143 2 2.00 2.00 2.0 2.0 0.016 -0.045 690 662 4100 3467 17.3368 14.8601 11.99 
0.144 2 2.00 2.00 2.0 2.0 0.013 -0.047 689 658 4101 3468 17.5619 14.8601 11.99 
0.145 2 2.00 2.00 2.0 2.0 0.013 -0.047 687 658 4103 3469 17.5619 14.8601 11.99 
0.146 2 2.00 2.00 2.0 2.0 0.011 -0.045 690 660 4104 3471 17.1173 15.1940 12.01 
0.147 2 2.00 2.00 2.0 2.0 0.007 -0.045 696 655 4105 3472 17.3368 15.7241 12.01 
0.148 2 2.00 2.00 2.0 2.0 0.009 -0.045 687 655 4106 3473 17.1173 15.3667 12.01 
0.149 2 2.00 2.00 2.0 2.0 0.007 -0.045 690 654 4108 3474 17.1173 15.3667 12.01 
0.150 2 2.00 2.00 2.0 2.0 0.011 -0.047 690 652 4109 3475 17.3368 15.5433 12.01 
0.151 2 2.00 2.00 2.0 2.0 0.009 -0.042 686 656 4110 3476 17.1173 15.3667 11.99 
0.152 2 2.00 2.00 2.0 2.0 0.009 -0.045 686 657 4112 3477 17.3368 14.8601 11.99 
0.153 2 2.00 2.00 2.0 2.0 0.011 -0.045 692 661 4113 3478 17.3368 15.1940 11.99 
0.154 2 2.00 2.00 2.0 2.0 0.007 -0.045 684 660 4114 3480 17.7930 15.5433 11.99 
0.155 2 2.00 2.00 2.0 2.0 0.011 -0.042 688 660 4115 3481 17.5619 15.3667 11.99 
0.156 2 2.00 2.00 2.0 2.0 0.011 -0.045 686 664 4117 3482 17.3368 15.3667 12.01 
0.157 2 2.00 2.00 2.0 2.0 0.013 -0.045 690 665 4118 3483 17.3368 15.3667 12.01 
0.158 2 2.00 2.00 2.0 2.0 0.013 -0.045 684 662 4119 3484 17.3368 15.3667 12.01 
0.159 2 2.00 2.00 2.0 2.0 0.013 -0.045 693 661 4121 3485 18.0303 15.3667 12.01 
0.160 2 2.00 2.00 2.0 2.0 0.007 -0.047 686 657 4122 3486 17.1173 15.5433 12.01 
0.161 2 2.00 2.00 2.0 2.0 0.016 -0.045 688 654 4123 3487 17.3368 15.3667 12.01 
0.162 2 2.00 2.00 2.0 2.0 0.013 -0.045 687 658 4125 3489 18.0303 15.3667 12.01 
0.163 2 2.00 2.00 2.0 2.0 0.011 -0.042 683 658 4126 3490 16.9034 15.5433 12.01 
0.164 2 2.00 2.00 2.0 2.0 0.013 -0.045 687 656 4127 3491 17.3368 14.6986 12.01 
0.165 2 2.00 2.00 2.0 2.0 0.013 -0.045 687 652 4128 3492 17.5619 14.8601 12.01 
0.166 2 2.00 2.00 2.0 2.0 0.011 -0.047 692 658 4130 3493 17.7930 15.9091 11.99 
0.167 2 2.00 2.00 2.0 2.0 0.013 -0.047 690 659 4131 3494 18.0303 15.5433 11.99 
0.168 2 2.00 2.00 2.0 2.0 0.013 -0.045 688 658 4132 3495 18.5242 13.3888 11.99 
0.169 2 2.00 2.00 2.0 2.0 0.013 -0.045 687 657 4134 3496 18.2739 14.2344 11.99 
0.170 2 2.00 2.00 2.0 2.0 0.016 -0.047 687 659 4135 3497 17.5619 14.6986 11.99 
0.171 2 2.00 2.00 2.0 2.0 0.007 -0.045 687 663 4136 3499 17.5619 15.0252 11.99 
0.172 2 2.00 2.00 2.0 2.0 0.004 -0.045 698 662 4138 3500 17.7930 15.7241 11.99 
0.173 2 2.00 2.00 2.0 2.0 0.011 -0.042 691 654 4139 3501 17.7930 15.1940 11.99 
0.174 2 2.00 2.00 2.0 2.0 0.013 -0.042 692 656 4140 3502 17.3368 15.3667 11.99 
0.175 2 2.00 2.00 2.0 2.0 0.016 -0.047 689 652 4141 3503 17.5619 15.1940 11.99 
0.176 2 2.00 2.00 2.0 2.0 0.016 -0.045 688 651 4143 3504 17.5619 15.1940 11.99 
0.177 2 2.00 2.00 2.0 2.0 0.013 -0.042 690 658 4144 3505 17.5619 15.3667 11.99 
0.178 2 2.00 2.00 2.0 2.0 0.011 -0.045 694 663 4145 3506 17.5619 15.5433 11.99 
0.179 2 2.00 2.00 2.0 2.0 0.013 -0.042 688 660 4147 3507 17.5619 14.8601 11.99 
0.180 2 2.00 2.00 2.0 2.0 0.009 -0.045 692 662 4148 3509 17.5619 15.0252 11.99 
0.181 2 2.00 2.00 2.0 2.0 0.016 -0.045 686 662 4149 3510 17.5619 15.7241 12.01 
0.182 2 2.00 2.00 2.0 2.0 0.011 -0.047 690 661 4150 3511 17.5619 15.1940 12.01 
0.183 2 2.00 2.00 2.0 2.0 0.011 -0.045 691 657 4152 3512 17.5619 15.3667 12.01 
0.184 2 2.00 2.00 2.0 2.0 0.007 -0.045 698 655 4153 3513 17.5619 15.3667 12.01 
0.185 2 2.00 2.00 2.0 2.0 0.011 -0.042 694 653 4154 3514 17.5619 15.5433 12.01 
0.186 2 2.00 2.00 2.0 2.0 0.011 -0.045 694 656 4156 3515 17.5619 15.1940 11.99 
0.187 2 2.00 2.00 2.0 2.0 0.007 -0.047 692 660 4157 3517 17.5619 15.1940 11.99 
0.188 2 2.00 2.00 2.0 2.0 0.011 -0.045 691 656 4158 3518 17.3368 15.0252 11.99 
0.189 2 2.00 2.00 2.0 2.0 0.009 -0.042 689 659 4159 3519 17.5619 15.9091 11.99 
0.190 2 2.00 2.00 2.0 2.0 0.009 -0.045 696 658 4161 3520 17.5619 15.7241 11.99 
0.191 2 2.00 2.00 2.0 2.0 0.007 -0.045 690 660 4162 3521 18.0303 15.5433 11.99 
0.192 2 2.00 2.00 2.0 2.0 0.011 -0.042 686 660 4163 3522 17.7930 15.5433 11.99 
0.193 2 2.00 2.00 2.0 2.0 0.013 -0.045 688 659 4165 3523 17.5619 15.5433 11.99 
0.194 2 2.00 2.00 2.0 2.0 0.013 -0.045 687 660 4166 3524 17.5619 15.3667 11.99 
0.195 2 2.00 2.00 2.0 2.0 0.011 -0.047 687 651 4167 3526 17.5619 14.6986 11.99 
0.196 2 2.00 2.00 2.0 2.0 0.009 -0.047 692 656 4169 3527 18.2739 15.3667 11.99 
0.197 2 2.00 2.00 2.0 2.0 0.011 -0.045 691 651 4170 3528 17.3368 15.1940 11.99 
0.198 2 2.00 2.00 2.0 2.0 0.009 -0.042 686 659 4171 3529 17.5619 14.8601 11.99 
0.199 2 2.00 2.00 2.0 2.0 0.009 -0.042 691 660 4173 3530 18.2739 15.1940 11.99 
0.200 2 2.00 2.00 2.0 2.0 0.011 -0.045 687 663 4174 3531 16.2924 15.1940 11.99 
0.201 2 2.00 2.00 2.0 2.0 0.011 -0.042 688 658 4175 3532 17.3368 15.1940 11.99 
0.202 2 2.00 2.00 2.0 2.0 0.011 -0.047 687 657 4176 3533 17.5619 15.1940 11.99 
0.203 2 2.00 2.00 2.0 2.0 0.016 -0.049 692 660 4178 3535 17.7930 15.3667 11.99 
0.204 2 2.00 2.00 2.0 2.0 0.016 -0.045 687 655 4179 3536 18.0303 15.1940 11.99 
0.205 2 2.00 2.00 2.0 2.0 0.016 -0.042 691 659 4180 3537 18.5242 15.3667 11.99 
0.206 2 2.00 2.00 2.0 2.0 0.011 -0.045 686 655 4182 3538 17.3368 15.5433 11.99 
0.207 2 2.00 2.00 2.0 2.0 0.011 -0.042 688 658 4183 3539 17.7930 14.8601 11.99 
0.208 2 2.00 2.00 2.0 2.0 0.009 -0.045 690 658 4184 3540 17.7930 15.0252 11.99 
0.209 2 2.00 2.00 2.0 2.0 0.009 -0.045 695 659 4186 3541 17.7930 16.0984 11.99 
0.210 2 2.00 2.00 2.0 2.0 0.011 -0.045 687 660 4187 3542 17.7930 15.9091 11.99 
0.211 2 2.00 2.00 2.0 2.0 0.011 -0.045 690 661 4188 3544 17.5619 13.5227 11.99 
0.212 2 2.00 2.00 2.0 2.0 0.018 -0.047 689 655 4190 3545 17.7930 14.3858 11.99 
0.213 2 2.00 2.00 2.0 2.0 0.016 -0.045 687 657 4191 3546 17.7930 15.3667 11.99 
0.214 2 2.00 2.00 2.0 2.0 0.011 -0.042 686 654 4192 3547 17.7930 16.0984 11.99 
0.215 2 2.00 2.00 2.0 2.0 0.013 -0.045 692 654 4193 3548 17.7930 15.7241 11.99 
0.216 2 2.00 2.00 2.0 2.0 0.011 -0.045 686 655 4195 3549 17.7930 15.5433 11.96 
0.217 2 2.00 2.00 2.0 2.0 0.013 -0.045 691 658 4196 3550 17.7930 15.7241 11.96 
0.218 2 2.00 2.00 2.0 2.0 0.011 -0.045 690 659 4197 3552 17.7930 15.5433 11.96 
0.219 2 2.00 2.00 2.0 2.0 0.011 -0.045 686 664 4199 3553 17.5619 15.5433 11.96 
0.220 2 2.00 2.00 2.0 2.0 0.009 -0.042 693 668 4200 3554 17.1173 15.7241 11.96 
0.221 2 2.00 2.00 2.0 2.0 0.004 -0.042 695 664 4201 3555 17.3368 15.0252 11.99 
0.222 2 2.00 2.00 2.0 2.0 0.009 -0.042 690 658 4202 3556 17.3368 15.1940 11.99 
0.223 2 2.00 2.00 2.0 2.0 0.007 -0.045 688 657 4204 3557 17.3368 15.9091 11.99 
0.224 2 2.00 2.00 2.0 2.0 0.011 -0.045 691 651 4205 3558 17.5619 15.9091 11.99 
0.225 2 2.00 2.00 2.0 2.0 0.013 -0.045 686 650 4206 3560 17.3368 15.3667 11.99 
0.226 2 2.00 2.00 2.0 2.0 0.011 -0.042 683 658 4208 3561 17.5619 15.1940 11.99 
0.227 2 2.00 2.00 2.0 2.0 0.011 -0.042 692 661 4209 3562 17.7930 15.5433 11.99 
0.228 2 2.00 2.00 2.0 2.0 0.011 -0.042 686 660 4210 3563 18.0303 15.1940 11.99 
0.229 2 2.00 2.00 2.0 2.0 0.016 -0.045 686 660 4212 3564 18.0303 15.1940 11.99 
0.230 2 2.00 2.00 2.0 2.0 0.009 -0.045 683 656 4213 3565 17.7930 15.0252 11.99 
0.231 2 2.00 2.00 2.0 2.0 0.013 -0.045 686 659 4214 3566 17.7930 15.3667 11.99 
0.232 2 2.00 2.00 2.0 2.0 0.011 -0.045 687 658 4216 3568 17.7930 15.9091 11.99 
0.233 2 2.00 2.00 2.0 2.0 0.009 -0.045 687 660 4217 3569 18.2739 15.5433 11.99 
0.234 2 2.00 2.00 2.0 2.0 0.009 -0.045 690 653 4218 3570 17.5619 15.5433 11.99 
0.235 2 2.00 2.00 2.0 2.0 0.011 -0.047 685 654 4220 3571 17.7930 15.7241 11.99 
0.236 2 2.00 2.00 2.0 2.0 0.011 -0.045 688 656 4221 3572 18.2739 15.5433 11.99 
0.237 2 2.00 2.00 2.0 2.0 0.011 -0.045 689 652 4222 3573 17.1173 15.0252 11.99 
0.238 2 2.00 2.00 2.0 2.0 0.011 -0.047 688 655 4223 3574 17.5619 15.3667 11.99 
0.239 2 2.00 2.00 2.0 2.0 0.009 -0.045 691 657 4225 3575 17.7930 15.7241 11.99 
0.240 2 2.00 2.00 2.0 2.0 0.013 -0.042 691 662 4226 3577 18.5242 15.5433 11.99 
0.241 2 2.00 2.00 2.0 2.0 0.009 -0.040 688 661 4228 3578 18.2739 15.1940 11.98 
0.242 2 2.00 2.00 2.0 2.0 0.013 -0.045 688 663 4229 3579 18.5242 15.3667 11.98 
0.243 2 2.00 2.00 2.0 2.0 0.011 -0.042 683 663 4230 3580 18.0303 15.3667 11.98 
0.244 2 2.00 2.00 2.0 2.0 0.007 -0.047 688 661 4231 3581 18.0303 15.3667 11.98 
0.245 2 2.00 2.00 2.0 2.0 0.009 -0.047 698 660 4233 3582 17.7930 15.5433 11.98 
0.246 2 2.00 2.00 2.0 2.0 0.016 -0.045 692 654 4234 3583 18.0303 15.3667 11.99 
0.247 2 2.00 2.00 2.0 2.0 0.011 -0.042 692 655 4235 3585 17.7930 15.3667 11.99 
0.248 2 2.00 2.00 2.0 2.0 0.016 -0.042 689 657 4237 3586 17.3368 15.7241 11.99 
0.249 2 2.00 2.00 2.0 2.0 0.013 -0.042 688 654 4238 3587 17.5619 15.0252 11.99 
0.250 2 2.00 2.00 2.0 2.0 0.013 -0.040 689 661 4239 3588 17.5619 15.3667 11.99 
0.251 2 2.00 2.00 2.0 2.0 0.009 -0.045 691 658 4241 3589 17.5619 16.2924 11.99 
0.252 2 2.00 2.00 2.0 2.0 0.016 -0.047 688 659 4242 3590 17.5619 16.0984 11.99 
0.253 2 2.00 2.00 2.0 2.0 0.011 -0.042 692 658 4243 3591 17.5619 14.8601 11.99 
0.254 2 2.00 2.00 2.0 2.0 0.011 -0.045 687 662 4244 3592 17.5619 15.1940 11.99 
0.255 2 2.00 2.00 2.0 2.0 0.009 -0.040 688 663 4246 3594 17.7930 15.3667 11.99 
0.256 2 2.00 2.00 2.0 2.0 0.011 -0.042 688 660 4247 3595 17.7930 16.2924 12.01 
0.257 2 2.00 2.00 2.0 2.0 0.016 -0.045 689 658 4248 3596 17.5619 15.9091 12.01 
0.258 2 2.00 2.00 2.0 2.0 0.007 -0.045 696 655 4250 3597 17.7930 15.7241 12.01 
0.259 2 2.00 2.00 2.0 2.0 0.013 -0.047 686 650 4251 3598 17.5619 15.7241 12.01 
0.260 2 2.00 2.00 2.0 2.0 0.013 -0.045 692 649 4252 3599 17.7930 15.5433 12.01 
0.261 2 2.00 2.00 2.0 2.0 0.011 -0.045 685 660 4254 3601 17.7930 15.3667 12.01 
0.262 2 2.00 2.00 2.0 2.0 0.018 -0.042 684 664 4255 3602 17.7930 15.5433 12.01 
0.263 2 2.00 2.00 2.0 2.0 0.013 -0.042 689 660 4256 3603 17.7930 15.0252 12.01 
0.264 2 2.00 2.00 2.0 2.0 0.009 -0.042 690 664 4257 3604 18.0303 15.1940 12.01 
0.265 2 2.00 2.00 2.0 2.0 0.016 -0.045 686 662 4259 3605 18.0303 15.9091 12.01 
0.266 2 2.00 2.00 2.0 2.0 0.013 -0.042 682 663 4260 3606 17.7930 15.7241 11.99 
0.267 2 2.00 2.00 2.0 2.0 0.011 -0.045 686 660 4261 3607 18.0303 15.1940 11.99 
0.268 2 2.00 2.00 2.0 2.0 0.013 -0.042 685 661 4263 3608 17.7930 15.3667 11.99 
0.269 2 2.00 2.00 2.0 2.0 0.011 -0.045 693 658 4264 3610 18.5242 15.3667 11.99 
0.270 2 2.00 2.00 2.0 2.0 0.009 -0.042 694 658 4265 3611 18.2739 14.8601 11.99 
0.271 2 2.00 2.00 2.0 2.0 0.018 -0.045 691 653 4267 3612 17.5619 15.1940 11.99 
0.272 2 2.00 2.00 2.0 2.0 0.013 -0.042 691 654 4268 3613 18.5242 15.0252 11.99 
0.273 2 2.00 2.00 2.0 2.0 0.018 -0.045 687 655 4269 3614 18.2739 15.3667 11.99 
0.274 2 2.00 2.00 2.0 2.0 0.011 -0.045 691 656 4271 3615 17.1173 15.9091 11.99 
0.275 2 2.00 2.00 2.0 2.0 0.013 -0.045 688 657 4272 3616 18.0303 15.7241 11.99 
0.276 2 2.00 2.00 2.0 2.0 0.009 -0.045 696 660 4273 3618 18.2739 15.5433 11.99 
0.277 2 2.00 2.00 2.0 2.0 0.011 -0.042 690 663 4275 3619 18.5242 15.7241 11.99 
0.278 2 2.00 2.00 2.0 2.0 0.011 -0.045 687 663 4276 3620 18.7815 15.5433 11.99 
0.279 2 2.00 2.00 2.0 2.0 0.016 -0.045 690 661 4277 3621 18.5242 15.0252 11.99 
0.280 2 2.00 2.00 2.0 2.0 0.013 -0.045 688 659 4279 3622 17.7930 15.3667 11.99 
0.281 2 2.00 2.00 2.0 2.0 0.011 -0.042 690 657 4280 3623 17.7930 15.5433 11.99 
0.282 2 2.00 2.00 2.0 2.0 0.009 -0.045 697 654 4281 3624 17.7930 15.5433 11.99 
0.283 2 2.00 2.00 2.0 2.0 0.009 -0.047 690 657 4283 3626 18.0303 15.1940 11.99 
0.284 2 2.00 2.00 2.0 2.0 0.007 -0.045 684 650 4284 3627 17.5619 15.3667 11.99 
0.285 2 2.00 2.00 2.0 2.0 0.013 -0.049 685 656 4285 3628 17.7930 15.3667 11.99 
0.286 2 2.00 2.00 2.0 2.0 0.013 -0.042 685 650 4287 3629 17.7930 15.3667 11.99 
0.287 2 2.00 2.00 2.0 2.0 0.018 -0.045 686 657 4288 3630 17.7930 15.5433 11.99 
0.288 2 2.00 2.00 2.0 2.0 0.009 -0.045 688 653 4289 3631 18.0303 15.3667 11.99 
0.289 2 2.00 2.00 2.0 2.0 0.011 -0.042 685 660 4291 3632 18.0303 15.3667 11.99 
0.290 2 2.00 2.00 2.0 2.0 0.016 -0.045 691 661 4292 3634 17.7930 15.5433 11.99 
0.291 2 2.00 2.00 2.0 2.0 0.013 -0.045 684 663 4293 3635 18.0303 15.5433 11.99 
0.292 2 2.00 2.00 2.0 2.0 0.013 -0.045 683 662 4294 3636 18.0303 14.8601 11.99 
0.293 2 2.00 2.00 2.0 2.0 0.016 -0.045 688 663 4296 3637 17.7930 16.2924 11.99 
0.294 2 2.00 2.00 2.0 2.0 0.007 -0.047 692 660 4297 3638 17.7930 16.0984 11.99 
0.295 2 2.00 2.00 2.0 2.0 0.011 -0.049 688 660 4298 3639 17.5619 14.8601 11.99 
0.296 2 2.00 2.00 2.0 2.0 0.009 -0.047 688 659 4300 3640 17.7930 15.1940 11.99 
0.297 2 2.00 2.00 2.0 2.0 0.013 -0.042 690 656 4301 3641 18.0303 15.3667 11.99 
0.298 2 2.00 2.00 2.0 2.0 0.013 -0.045 685 654 4302 3643 17.7930 15.5433 11.99 
0.299 2 2.00 2.00 2.0 2.0 0.011 -0.040 689 655 4304 3644 17.7930 15.9091 11.99 
0.300 2 2.00 2.00 2.0 2.0 0.009 -0.047 692 657 4305 3645 18.0303 15.7241 11.99 
0.301 2 2.00 2.00 2.0 2.0 0.011 -0.042 688 656 4306 3646 18.2739 15.9091 11.99 
0.302 2 2.00 2.00 2.0 2.0 0.011 -0.047 687 661 4308 3647 18.0303 15.5433 11.99 
0.303 2 2.00 2.00 2.0 2.0 0.013 -0.045 688 661 4309 3648 18.0303 15.5433 11.99 
0.304 2 2.00 2.00 2.0 2.0 0.013 -0.045 684 663 4310 3650 17.7930 15.5433 11.99 
0.305 2 2.00 2.00 2.0 2.0 0.013 -0.045 690 662 4312 3651 17.7930 15.7241 11.99 
0.306 2 2.00 2.00 2.0 2.0 0.013 -0.045 695 668 4313 3652 18.2739 15.3667 11.99 
0.307 2 2.00 2.00 2.0 2.0 0.009 -0.045 690 663 4314 3653 17.5619 15.9091 11.99 
0.308 2 2.00 2.00 2.0 2.0 0.009 -0.045 690 658 4316 3654 17.7930 15.9091 11.99 
0.309 2 2.00 2.00 2.0 2.0 0.011 -0.042 690 659 4317 3655 18.2739 15.3667 11.99 
0.310 2 2.00 2.00 2.0 2.0 0.013 -0.045 687 658 4318 3656 17.3368 15.3667 11.99 
0.311 2 2.00 2.00 2.0 2.0 0.011 -0.042 691 653 4320 3658 17.5619 15.3667 12.01 
0.312 2 2.00 2.00 2.0 2.0 0.011 -0.042 692 656 4321 3659 18.0303 15.5433 12.01 
0.313 2 2.00 2.00 2.0 2.0 0.013 -0.045 691 653 4322 3660 18.5242 15.1940 12.01 
0.314 2 2.00 2.00 2.0 2.0 0.011 -0.045 686 651 4324 3661 18.2739 15.1940 12.01 
0.315 2 2.00 2.00 2.0 2.0 0.016 -0.047 691 657 4325 3662 18.5242 15.3667 12.01 
0.316 2 2.00 2.00 2.0 2.0 0.013 -0.047 686 657 4326 3663 18.0303 16.0984 11.99 
0.317 2 2.00 2.00 2.0 2.0 0.011 -0.042 691 659 4327 3664 18.0303 15.7241 11.99 
0.318 2 2.00 2.00 2.0 2.0 0.009 -0.045 694 661 4329 3665 18.0303 15.5433 11.99 
0.319 2 2.00 2.00 2.0 2.0 0.011 -0.042 693 662 4330 3667 18.2739 15.7241 11.99 
0.320 2 2.00 2.00 2.0 2.0 0.011 -0.045 690 661 4331 3668 18.0303 15.5433 11.99 
0.321 2 2.00 2.00 2.0 2.0 0.011 -0.045 691 662 4333 3669 17.5619 15.0252 11.99 
0.322 2 2.00 2.00 2.0 2.0 0.013 -0.047 686 666 4334 3670 17.7930 15.3667 11.99 
0.323 2 2.00 2.00 2.0 2.0 0.016 -0.045 688 662 4335 3671 17.7930 15.7241 11.99 
0.324 2 2.00 2.00 2.0 2.0 0.011 -0.045 687 659 4337 3672 17.7930 15.5433 11.99 
0.325 2 2.00 2.00 2.0 2.0 0.016 -0.045 690 658 4338 3673 18.0303 15.1940 11.99 
0.326 2 2.00 2.00 2.0 2.0 0.011 -0.042 690 658 4339 3675 18.0303 15.5433 11.99 
0.327 2 2.00 2.00 2.0 2.0 0.013 -0.042 689 651 4341 3676 18.0303 15.5433 11.99 
0.328 2 2.00 2.00 2.0 2.0 0.016 -0.045 683 652 4342 3677 18.0303 15.5433 11.99 
0.329 2 2.00 2.00 2.0 2.0 0.013 -0.045 689 653 4343 3678 18.0303 15.7241 11.99 
0.330 2 2.00 2.00 2.0 2.0 0.009 -0.045 694 655 4345 3679 17.5619 15.5433 11.99 
0.331 2 2.00 2.00 2.0 2.0 0.007 -0.042 692 662 4346 3680 17.7930 15.5433 12.01 
0.332 2 2.00 2.00 2.0 2.0 0.009 -0.045 689 661 4347 3681 17.7930 15.7241 12.01 
0.333 2 2.00 2.00 2.0 2.0 0.018 -0.045 689 663 4349 3683 18.0303 15.7241 12.01 
0.336 2 2.00 2.00 2.0 2.0 0.013 -0.042 687 665 4352 3686 17.7930 15.0252 12.01 
0.337 2 2.00 2.00 2.0 2.0 0.009 -0.045 690 658 4353 3686 18.0303 16.2924 12.01 
0.337 2 2.00 2.00 2.0 2.0 0.013 -0.040 687 659 4354 3687 18.2739 15.0252 11.98 
0.338 2 2.00 2.00 2.0 2.0 0.013 -0.042 688 652 4355 3688 18.0303 15.3667 11.98 
0.339 2 2.00 2.00 2.0 2.0 0.016 -0.047 691 656 4357 3689 17.7930 15.5433 11.98 
0.340 2 2.00 2.00 2.0 2.0 0.013 -0.040 689 655 4358 3691 17.7930 15.9091 11.98 
0.341 2 2.00 2.00 2.0 2.0 0.009 -0.042 687 658 4359 3692 17.7930 16.0984 11.98 
0.342 2 2.00 2.00 2.0 2.0 0.009 -0.042 695 661 4361 3693 18.5242 15.9091 11.99 
0.343 2 2.00 2.00 2.0 2.0 0.009 -0.045 691 659 4362 3694 17.5619 15.9091 11.99 
0.344 2 2.00 2.00 2.0 2.0 0.013 -0.045 691 658 4363 3695 17.7930 15.5433 11.99 
0.345 2 2.00 2.00 2.0 2.0 0.013 -0.045 691 664 4365 3696 18.5242 15.3667 11.99 
0.346 2 2.00 2.00 2.0 2.0 0.018 -0.042 690 666 4366 3698 16.6947 15.5433 11.99 
0.347 2 2.00 2.00 2.0 2.0 0.016 -0.042 689 663 4367 3699 17.5619 15.1940 12.01 
0.348 2 2.00 2.00 2.0 2.0 0.011 -0.045 693 660 4368 3700 18.0303 15.1940 12.01 
0.349 2 2.00 2.00 2.0 2.0 0.007 -0.045 693 657 4370 3701 18.5242 15.9091 12.01 
0.350 2 2.00 2.00 2.0 2.0 0.013 -0.045 689 654 4371 3702 18.2739 15.9091 12.01 
0.351 2 2.00 2.00 2.0 2.0 0.016 -0.045 689 651 4373 3703 18.7815 15.3667 12.01 
0.352 2 2.00 2.00 2.0 2.0 0.016 -0.042 686 654 4374 3704 18.0303 15.3667 12.01 
0.353 2 2.00 2.00 2.0 2.0 0.011 -0.042 689 660 4375 3706 18.0303 15.5433 12.01 
0.354 2 2.00 2.00 2.0 2.0 0.013 -0.045 690 664 4376 3707 17.7930 15.7241 12.01 
0.355 2 2.00 2.00 2.0 2.0 0.009 -0.040 693 659 4378 3708 18.2739 15.3667 12.01 
0.356 2 2.00 2.00 2.0 2.0 0.013 -0.042 686 661 4379 3709 18.0303 15.1940 12.01 
0.357 2 2.00 2.00 2.0 2.0 0.011 -0.042 686 662 4380 3710 17.7930 15.5433 12.01 
0.358 2 2.00 2.00 2.0 2.0 0.013 -0.045 685 660 4382 3711 18.0303 16.0984 12.01 
0.359 2 2.00 2.00 2.0 2.0 0.018 -0.047 686 656 4383 3712 18.0303 15.7241 12.01 
0.360 2 2.00 2.00 2.0 2.0 0.009 -0.042 686 656 4384 3714 18.0303 15.5433 12.01 
0.361 2 2.00 2.00 2.0 2.0 0.011 -0.045 690 655 4386 3715 18.2739 15.7241 12.01 
0.362 2 2.00 2.00 2.0 2.0 0.018 -0.042 683 652 4387 3716 18.0303 15.7241 11.99 
0.363 2 2.00 2.00 2.0 2.0 0.016 -0.042 686 657 4388 3717 18.0303 15.0252 11.99 
0.364 2 2.00 2.00 2.0 2.0 0.013 -0.045 687 660 4390 3718 18.2739 15.3667 11.99 
0.365 2 2.00 2.00 2.0 2.0 0.009 -0.045 687 661 4391 3719 18.2739 15.7241 11.99 
0.366 2 2.00 2.00 2.0 2.0 0.009 -0.045 689 661 4392 3720 17.7930 15.5433 11.99 
0.367 2 2.00 2.00 2.0 2.0 0.007 -0.045 692 661 4394 3722 18.0303 15.1940 12.01 
0.368 2 2.00 2.00 2.0 2.0 0.016 -0.042 691 663 4395 3723 18.0303 15.5433 12.01 
0.369 2 2.00 2.00 2.0 2.0 0.013 -0.042 688 666 4396 3724 18.0303 15.5433 12.01 
0.370 2 2.00 2.00 2.0 2.0 0.020 -0.047 685 661 4398 3725 18.2739 15.5433 12.01 
0.371 2 2.00 2.00 2.0 2.0 0.013 -0.045 683 658 4399 3726 18.0303 15.7241 12.01 
0.372 2 2.00 2.00 2.0 2.0 0.016 -0.045 688 661 4400 3727 18.0303 15.5433 12.01 
0.373 2 2.00 2.00 2.0 2.0 0.009 -0.042 688 658 4402 3728 18.2739 15.7241 12.01 
0.374 2 2.00 2.00 2.0 2.0 0.011 -0.040 688 656 4403 3730 18.2739 15.9091 12.01 
0.375 2 2.00 2.00 2.0 2.0 0.016 -0.045 683 655 4404 3731 18.0303 14.6986 12.01 
0.376 2 2.00 2.00 2.0 2.0 0.013 -0.042 684 661 4406 3732 18.0303 15.3667 12.01 
0.377 2 2.00 2.00 2.0 2.0 0.018 -0.042 681 663 4407 3733 18.0303 16.4911 11.99 
0.378 2 2.00 2.00 2.0 2.0 0.011 -0.047 689 660 4408 3734 18.7815 16.2924 11.99 
0.379 2 2.00 2.00 2.0 2.0 0.009 -0.045 686 661 4410 3735 18.5242 14.8601 11.99 
0.380 2 2.00 2.00 2.0 2.0 0.009 -0.047 689 659 4411 3736 17.7930 15.0252 11.99 
0.381 2 2.00 2.00 2.0 2.0 0.009 -0.045 688 660 4412 3738 18.5242 15.1940 11.99 
0.382 2 2.00 2.00 2.0 2.0 0.018 -0.047 686 654 4414 3739 18.2739 16.0984 11.96 
0.383 2 2.00 2.00 2.0 2.0 0.013 -0.045 684 653 4415 3740 17.3368 15.7241 11.96 
0.384 2 2.00 2.00 2.0 2.0 0.011 -0.042 688 651 4416 3741 17.7930 15.5433 11.96 
0.385 2 2.00 2.00 2.0 2.0 0.013 -0.045 693 652 4418 3742 18.0303 15.5433 11.96 
0.386 2 2.00 2.00 2.0 2.0 0.011 -0.045 687 656 4419 3743 18.2739 15.3667 11.96 
0.387 2 2.00 2.00 2.0 2.0 0.013 -0.045 686 661 4420 3745 18.7815 15.3667 12.01 
0.388 2 2.00 2.00 2.0 2.0 0.018 -0.045 687 660 4422 3746 18.5242 15.5433 12.01 
0.389 2 2.00 2.00 2.0 2.0 0.011 -0.045 686 664 4423 3747 17.7930 14.6986 12.01 
0.390 2 2.00 2.00 2.0 2.0 0.009 -0.045 690 663 4424 3748 17.7930 15.1940 12.01 
0.391 2 2.00 2.00 2.0 2.0 0.011 -0.045 693 658 4426 3749 18.0303 15.9091 12.01 
0.392 2 2.00 2.00 2.0 2.0 0.013 -0.042 684 662 4427 3750 18.0303 15.9091 11.99 
0.393 2 2.00 2.00 2.0 2.0 0.011 -0.042 685 662 4428 3751 17.5619 15.3667 11.99 
0.394 2 2.00 2.00 2.0 2.0 0.011 -0.045 684 660 4429 3752 17.7930 15.3667 11.99 
0.395 2 2.00 2.00 2.0 2.0 0.013 -0.045 683 661 4431 3754 17.7930 15.5433 11.99 
0.396 2 2.00 2.00 2.0 2.0 0.013 -0.042 687 664 4432 3755 17.7930 15.3667 11.99 
0.397 2 2.00 2.00 2.0 2.0 0.016 -0.045 689 654 4433 3756 18.0303 15.5433 12.01 
0.398 2 2.00 2.00 2.0 2.0 0.013 -0.045 687 649 4435 3757 18.0303 15.1940 12.01 
0.399 2 2.00 2.00 2.0 2.0 0.013 -0.047 685 650 4436 3758 18.0303 15.5433 12.01 
0.400 2 2.00 2.00 2.0 2.0 0.013 -0.045 687 653 4437 3759 18.2739 16.0984 12.01 
0.401 4 3.00 3.00 3.0 3.0 0.016 -0.042 682 659 4439 3761 18.2739 15.9091 12.01 
0.402 4 3.00 3.00 3.0 3.0 0.011 -0.058 706 647 4440 3762 18.0303 15.7241 11.96 
0.403 4 3.00 3.00 3.0 3.0 0.109 -0.076 731 638 4441 3763 18.2739 16.0984 11.96 
0.404 4 3.00 3.00 3.0 3.0 0.089 -0.089 724 626 4443 3764 18.2739 16.0984 11.96 
0.405 4 3.00 3.00 3.0 3.0 0.114 -0.094 731 623 4444 3765 18.5242 15.7241 11.96 
0.406 4 3.00 3.00 3.0 3.0 0.109 -0.085 728 629 4446 3767 18.7815 16.2924 11.96 
0.407 4 3.00 3.00 3.0 3.0 0.103 -0.087 728 627 4447 3768 19.0460 16.9034 11.96 
0.408 4 3.00 3.00 3.0 3.0 0.121 -0.085 729 627 4448 3769 19.3181 16.6947 11.96 
0.409 4 3.00 3.00 3.0 3.0 0.100 -0.085 722 625 4450 3770 19.8863 17.1173 11.96 
0.410 4 3.00 3.00 3.0 3.0 0.071 -0.085 717 624 4451 3772 19.8863 17.3368 11.96 
0.411 4 3.00 3.00 3.0 3.0 0.085 -0.089 721 620 4453 3773 19.5981 17.3368 11.96 
0.412 4 3.00 3.00 3.0 3.0 0.080 -0.087 719 623 4454 3774 19.5981 17.5619 12.01 
0.413 4 3.00 3.00 3.0 3.0 0.100 -0.085 726 627 4456 3775 19.8863 17.5619 12.01 
0.414 4 3.00 3.00 3.0 3.0 0.141 -0.080 730 631 4457 3777 20.4889 18.0303 12.01 
0.415 4 3.00 3.00 3.0 3.0 0.062 -0.080 712 628 4459 3778 19.8863 18.2739 12.01 
0.416 4 3.00 3.00 3.0 3.0 0.065 -0.080 717 633 4460 3779 21.1292 17.5619 12.01 
0.417 4 3.00 3.00 3.0 3.0 0.062 -0.083 717 631 4462 3781 20.1831 19.5981 11.98 
0.418 4 3.00 3.00 3.0 3.0 0.065 -0.078 717 632 4463 3782 20.8041 19.3181 11.98 
0.419 4 3.00 3.00 3.0 3.0 0.076 -0.078 721 636 4465 3784 21.4646 18.0303 11.98 
0.420 4 3.00 3.00 3.0 3.0 0.038 -0.078 710 631 4467 3785 22.1684 18.7815 11.98 
0.421 4 3.00 3.00 3.0 3.0 0.029 -0.076 713 632 4468 3787 22.5378 19.3181 11.98 
0.422 4 3.00 3.00 3.0 3.0 0.027 -0.074 712 634 4470 3788 21.8108 19.8863 11.94 
0.423 4 3.00 3.00 3.0 3.0 0.042 -0.080 713 631 4471 3790 21.8108 19.8863 11.94 
0.424 4 3.00 3.00 3.0 3.0 0.080 -0.071 729 634 4473 3791 22.1684 20.1831 11.94 
0.425 4 3.00 3.00 3.0 3.0 0.033 -0.071 709 635 4475 3792 22.5378 20.1831 11.94 
0.426 4 3.00 3.00 3.0 3.0 0.027 -0.069 716 638 4476 3794 22.1684 20.4889 11.94 
0.427 4 3.00 3.00 3.0 3.0 0.018 -0.069 708 640 4478 3795 22.5378 19.8863 11.98 
0.428 4 3.00 3.00 3.0 3.0 0.013 -0.071 712 638 4480 3797 22.5378 21.1292 11.98 
0.429 4 3.00 3.00 3.0 3.0 0.038 -0.069 713 638 4481 3798 22.9198 21.1292 11.98 
0.430 4 3.00 3.00 3.0 3.0 0.007 -0.069 707 638 4483 3800 22.9198 20.4889 11.98 
0.431 4 3.00 3.00 3.0 3.0 0.011 -0.069 706 637 4485 3801 23.3150 20.4889 11.98 
0.432 4 3.00 3.00 3.0 3.0 0.007 -0.067 707 640 4487 3803 23.3150 20.4889 11.99 
0.433 4 3.00 3.00 3.0 3.0 0.027 -0.069 715 635 4488 3804 22.5378 20.8041 11.99 
0.434 4 3.00 3.00 3.0 3.0 0.042 -0.069 712 636 4490 3806 22.9198 20.8041 11.99 
0.435 4 3.00 3.00 3.0 3.0 0.020 -0.067 711 638 4492 3808 22.9198 21.8108 11.99 
0.436 4 3.00 3.00 3.0 3.0 0.011 -0.067 706 643 4493 3809 23.3150 21.4646 11.99 
0.437 4 3.00 3.00 3.0 3.0 0.007 -0.065 704 641 4495 3811 23.3150 21.8108 11.94 
0.438 4 3.00 3.00 3.0 3.0 0.022 -0.067 710 642 4497 3812 23.3150 21.8108 11.94 
0.439 4 3.00 3.00 3.0 3.0 0.013 -0.067 704 641 4499 3814 24.1477 21.4646 11.94 
0.440 4 3.00 3.00 3.0 3.0 0.004 -0.060 704 640 4500 3816 23.7240 21.8108 11.94 
0.441 4 3.00 3.00 3.0 3.0 0.009 -0.060 705 643 4502 3817 24.1477 21.4646 11.94 
0.442 4 3.00 3.00 3.0 3.0 0.009 -0.058 705 643 4504 3819 25.0420 22.1684 11.94 
0.443 4 3.00 3.00 3.0 3.0 0.036 -0.065 711 641 4506 3820 24.5867 22.1684 11.94 
0.444 4 3.00 3.00 3.0 3.0 0.007 -0.065 701 639 4507 3822 24.1477 22.5378 11.94 
0.445 4 3.00 3.00 3.0 3.0 0.009 -0.062 703 640 4509 3824 24.5867 22.1684 11.94 
0.446 4 3.00 3.00 3.0 3.0 0.009 -0.060 702 645 4511 3825 24.1477 22.5378 11.94 
0.447 4 3.00 3.00 3.0 3.0 0.009 -0.058 703 646 4513 3827 25.0420 21.8108 11.98 
0.448 4 3.00 3.00 3.0 3.0 0.011 -0.060 703 646 4515 3829 25.5145 22.1684 11.98 
0.449 4 3.00 3.00 3.0 3.0 0.011 -0.056 698 645 4517 3830 26.0052 23.3150 11.98 
0.450 4 3.00 3.00 3.0 3.0 0.004 -0.060 701 644 4518 3832 24.5867 22.1684 11.98 
0.451 4 3.00 3.00 3.0 3.0 0.007 -0.060 705 644 4520 3834 24.5867 22.1684 11.98 
0.452 4 3.00 3.00 3.0 3.0 0.013 -0.060 704 646 4522 3835 25.5145 23.7240 11.98 
0.453 4 3.00 3.00 3.0 3.0 0.007 -0.058 700 643 4524 3837 24.5867 22.9198 11.98 
0.454 4 3.00 3.00 3.0 3.0 0.009 -0.058 697 643 4526 3839 25.0420 22.9198 11.98 
0.455 4 3.00 3.00 3.0 3.0 0.004 -0.058 702 644 4528 3840 25.0420 22.9198 11.98 
0.456 4 3.00 3.00 3.0 3.0 0.009 -0.056 702 648 4529 3842 25.5145 22.9198 11.98 
0.457 4 3.00 3.00 3.0 3.0 0.009 -0.056 699 647 4531 3844 25.5145 21.8108 11.98 
0.458 4 3.00 3.00 3.0 3.0 0.007 -0.060 701 645 4533 3845 25.5145 23.3150 11.98 
0.459 4 3.00 3.00 3.0 3.0 0.007 -0.056 700 647 4535 3847 25.5145 22.5378 11.98 
0.460 4 3.00 3.00 3.0 3.0 0.009 -0.056 705 646 4537 3849 25.5145 22.5378 11.98 
0.461 4 3.00 3.00 3.0 3.0 0.007 -0.054 700 644 4539 3850 25.0420 22.9198 11.98 
0.462 4 3.00 3.00 3.0 3.0 0.009 -0.056 704 644 4541 3852 25.5145 22.5378 11.98 
0.463 4 3.00 3.00 3.0 3.0 0.004 -0.058 700 638 4543 3854 25.5145 22.5378 11.98 
0.464 4 3.00 3.00 3.0 3.0 0.007 -0.058 701 643 4544 3856 25.5145 23.7240 11.98 
0.465 4 3.00 3.00 3.0 3.0 0.007 -0.058 702 644 4546 3857 26.0052 22.9198 11.98 
0.466 4 3.00 3.00 3.0 3.0 0.007 -0.054 696 649 4548 3859 25.5145 23.7240 11.98 
0.467 4 3.00 3.00 3.0 3.0 0.007 -0.054 698 649 4550 3861 25.5145 23.3150 11.96 
0.468 4 3.00 3.00 3.0 3.0 0.011 -0.056 696 649 4552 3862 26.0052 23.3150 11.96 
0.469 4 3.00 3.00 3.0 3.0 0.013 -0.056 707 646 4554 3864 24.5867 23.7240 11.96 
0.470 4 3.00 3.00 3.0 3.0 0.007 -0.051 702 645 4556 3866 25.5145 23.7240 11.96 
0.471 4 3.00 3.00 3.0 3.0 0.002 -0.054 699 645 4558 3868 26.0052 23.7240 11.96 
0.472 4 3.00 3.00 3.0 3.0 0.004 -0.056 700 643 4560 3869 25.0420 23.7240 11.98 
0.473 4 3.00 3.00 3.0 3.0 0.007 -0.054 705 647 4561 3871 26.0052 23.7240 11.98 
0.474 4 3.00 3.00 3.0 3.0 0.004 -0.054 698 648 4563 3873 26.0052 23.7240 11.98 
0.475 4 3.00 3.00 3.0 3.0 0.004 -0.051 698 650 4565 3875 26.5151 24.1477 11.98 
0.476 4 3.00 3.00 3.0 3.0 0.004 -0.051 697 653 4567 3876 26.0052 23.3150 11.98 
0.477 4 3.00 3.00 3.0 3.0 0.004 -0.054 704 648 4569 3878 26.5151 24.5867 11.96 
0.478 4 3.00 3.00 3.0 3.0 0.007 -0.058 697 645 4571 3880 26.5151 22.9198 11.96 
0.479 4 3.00 3.00 3.0 3.0 0.004 -0.056 696 645 4573 3881 26.5151 23.3150 11.96 
0.480 4 3.00 3.00 3.0 3.0 0.009 -0.054 696 647 4575 3883 26.5151 25.0420 11.96 
0.481 4 3.00 3.00 3.0 3.0 0.007 -0.056 698 646 4577 3885 26.5151 23.7240 11.96 
0.482 4 3.00 3.00 3.0 3.0 0.007 -0.049 696 646 4579 3887 26.5151 23.7240 11.96 
0.483 4 3.00 3.00 3.0 3.0 0.004 -0.054 698 648 4581 3889 26.5151 23.7240 11.96 
0.484 4 3.00 3.00 3.0 3.0 0.009 -0.049 694 651 4583 3890 26.5151 24.1477 11.96 
0.485 4 3.00 3.00 3.0 3.0 0.004 -0.051 707 650 4585 3892 26.0052 23.7240 11.96 
0.486 4 3.00 3.00 3.0 3.0 0.009 -0.056 700 645 4587 3894 26.5151 24.5867 11.96 
0.487 4 3.00 3.00 3.0 3.0 0.009 -0.051 697 650 4589 3896 26.5151 23.7240 12.01 
0.488 4 3.00 3.00 3.0 3.0 0.009 -0.054 698 648 4591 3897 26.5151 23.7240 12.01 
0.489 4 3.00 3.00 3.0 3.0 0.004 -0.051 695 647 4592 3899 26.5151 23.7240 12.01 
0.490 4 3.00 3.00 3.0 3.0 0.009 -0.054 694 645 4594 3901 27.0454 23.7240 12.01 
0.491 4 3.00 3.00 3.0 3.0 0.007 -0.054 694 646 4596 3903 26.5151 23.7240 12.01 
0.492 4 3.00 3.00 3.0 3.0 0.013 -0.051 694 649 4598 3904 26.5151 24.1477 11.98 
0.493 4 3.00 3.00 3.0 3.0 0.007 -0.054 697 650 4600 3906 27.0454 24.1477 11.98 
0.494 4 3.00 3.00 3.0 3.0 0.009 -0.051 696 650 4602 3908 26.0052 24.1477 11.98 
0.495 4 3.00 3.00 3.0 3.0 0.004 -0.054 698 647 4604 3910 26.5151 23.3150 11.98 
0.496 4 3.00 3.00 3.0 3.0 0.004 -0.051 695 647 4606 3911 25.5145 24.5867 11.98 
0.497 4 3.00 3.00 3.0 3.0 0.007 -0.049 694 649 4608 3913 26.5151 23.7240 11.99 
0.498 4 3.00 3.00 3.0 3.0 0.004 -0.049 698 651 4610 3915 27.5973 24.1477 11.99 
0.499 4 3.00 3.00 3.0 3.0 0.009 -0.051 697 645 4612 3917 27.5973 24.1477 11.99 
0.500 4 3.00 3.00 3.0 3.0 0.009 -0.054 693 648 4614 3918 26.5151 24.5867 11.99 
0.501 4 3.00 3.00 3.0 3.0 0.004 -0.051 698 649 4616 3920 26.5151 24.1477 11.99 
0.502 4 3.00 3.00 3.0 3.0 0.007 -0.049 699 651 4618 3922 27.0454 24.5867 11.98 
0.503 4 3.00 3.00 3.0 3.0 0.011 -0.047 699 654 4620 3924 26.5151 23.7240 11.98 
0.504 4 3.00 3.00 3.0 3.0 0.007 -0.051 695 649 4622 3926 26.5151 25.5145 11.98 
0.505 4 3.00 3.00 3.0 3.0 0.009 -0.049 694 650 4624 3927 26.5151 23.3150 11.98 
0.506 4 3.00 3.00 3.0 3.0 0.007 -0.051 693 649 4626 3929 26.5151 24.1477 11.98 
0.507 4 3.00 3.00 3.0 3.0 0.009 -0.049 694 648 4628 3931 27.0454 25.5145 11.94 
0.508 4 3.00 3.00 3.0 3.0 0.011 -0.049 694 649 4630 3933 27.0454 24.1477 11.94 
0.509 4 3.00 3.00 3.0 3.0 0.007 -0.051 697 649 4632 3935 27.0454 25.0420 11.94 
0.510 4 3.00 3.00 3.0 3.0 0.004 -0.049 704 649 4634 3936 27.0454 24.5867 11.94 
0.511 4 3.00 3.00 3.0 3.0 0.004 -0.049 700 650 4636 3938 27.0454 24.5867 11.94 
0.512 4 3.00 3.00 3.0 3.0 0.007 -0.049 696 653 4638 3940 27.0454 24.1477 11.96 
0.513 4 3.00 3.00 3.0 3.0 0.009 -0.051 692 652 4640 3942 27.0454 25.0420 11.96 
0.514 4 3.00 3.00 3.0 3.0 0.004 -0.049 699 651 4642 3944 27.5973 24.5867 11.96 
0.515 4 3.00 3.00 3.0 3.0 0.007 -0.049 699 651 4644 3945 27.5973 24.5867 11.96 
0.516 4 3.00 3.00 3.0 3.0 0.007 -0.051 693 648 4646 3947 27.5973 24.1477 11.96 
0.517 4 3.00 3.00 3.0 3.0 0.007 -0.054 697 646 4648 3949 27.0454 23.7240 11.98 
0.518 4 3.00 3.00 3.0 3.0 0.004 -0.054 701 647 4650 3951 27.5973 25.0420 11.98 
0.519 4 3.00 3.00 3.0 3.0 0.007 -0.054 696 647 4652 3953 27.0454 24.5867 11.98 
0.520 4 3.00 3.00 3.0 3.0 0.007 -0.051 696 649 4654 3954 27.5973 24.5867 11.98 
0.521 4 3.00 3.00 3.0 3.0 0.007 -0.047 694 651 4656 3956 26.5151 24.5867 11.98 
0.522 4 3.00 3.00 3.0 3.0 0.007 -0.051 700 649 4658 3958 27.5973 24.1477 11.96 
0.523 4 3.00 3.00 3.0 3.0 0.013 -0.051 695 649 4660 3960 27.5973 24.5867 11.96 
0.524 4 3.00 3.00 3.0 3.0 0.007 -0.051 698 653 4662 3962 27.0454 24.1477 11.96 
0.525 4 3.00 3.00 3.0 3.0 0.007 -0.047 699 653 4664 3963 27.0454 24.5867 11.96 
0.526 4 3.00 3.00 3.0 3.0 0.004 -0.054 705 651 4666 3965 27.0454 24.5867 11.96 
0.527 4 3.00 3.00 3.0 3.0 0.011 -0.051 697 649 4668 3967 27.0454 24.5867 11.98 
0.528 4 3.00 3.00 3.0 3.0 0.009 -0.047 695 650 4670 3969 27.0454 24.5867 11.98 
0.529 4 3.00 3.00 3.0 3.0 0.009 -0.047 689 652 4672 3971 27.0454 25.0420 11.98 
0.530 4 3.00 3.00 3.0 3.0 0.007 -0.047 698 651 4674 3972 27.0454 24.1477 11.98 
0.531 4 3.00 3.00 3.0 3.0 0.009 -0.049 693 648 4676 3974 27.0454 25.0420 11.98 
0.532 4 3.00 3.00 3.0 3.0 0.009 -0.056 693 647 4678 3976 27.0454 23.7240 11.98 
0.533 4 3.00 3.00 3.0 3.0 0.007 -0.051 698 647 4680 3978 27.0454 24.1477 11.98 
0.536 4 3.00 3.00 3.0 3.0 0.004 -0.049 703 651 4685 3983 27.0454 26.0052 11.98 
0.537 4 3.00 3.00 3.0 3.0 0.009 -0.045 697 654 4687 3985 27.0454 24.5867 11.98 
0.538 4 3.00 3.00 3.0 3.0 0.007 -0.047 696 651 4689 3986 27.0454 25.0420 11.98 
0.539 4 3.00 3.00 3.0 3.0 0.007 -0.045 697 651 4690 3987 27.5973 24.1477 11.96 
0.539 4 3.00 3.00 3.0 3.0 0.009 -0.042 688 652 4692 3989 27.5973 25.5145 11.96 
0.540 4 3.00 3.00 3.0 3.0 0.009 -0.051 691 652 4694 3991 27.5973 25.5145 11.96 
0.541 4 3.00 3.00 3.0 3.0 0.007 -0.047 690 652 4696 3992 27.5973 24.5867 11.96 
0.542 4 3.00 3.00 3.0 3.0 0.007 -0.051 699 655 4698 3994 27.5973 25.0420 11.96 
0.543 4 3.00 3.00 3.0 3.0 0.004 -0.051 696 651 4700 3996 27.0454 24.5867 12.01 
0.544 4 3.00 3.00 3.0 3.0 0.007 -0.054 692 647 4702 3998 27.5973 25.0420 12.01 
0.545 4 3.00 3.00 3.0 3.0 0.009 -0.049 692 647 4704 4000 26.5151 26.0052 12.01 
0.546 4 3.00 3.00 3.0 3.0 0.007 -0.049 697 649 4706 4002 27.5973 25.0420 12.01 
0.547 4 3.00 3.00 3.0 3.0 0.004 -0.047 691 650 4708 4003 27.5973 25.0420 12.01 
0.548 4 3.00 3.00 3.0 3.0 0.009 -0.051 691 653 4710 4005 27.5973 23.7240 11.98 
0.549 4 3.00 3.00 3.0 3.0 0.009 -0.049 694 655 4712 4007 27.5973 25.0420 11.98 
0.550 4 3.00 3.00 3.0 3.0 0.007 -0.047 700 649 4714 4009 28.1723 24.5867 11.98 
0.551 4 3.00 3.00 3.0 3.0 0.007 -0.047 692 651 4716 4011 26.5151 24.5867 11.98 
0.552 4 3.00 3.00 3.0 3.0 0.007 -0.049 694 650 4718 4012 27.5973 24.5867 11.98 
0.553 4 3.00 3.00 3.0 3.0 0.009 -0.051 694 645 4720 4014 27.0454 25.0420 12.02 
0.554 4 3.00 3.00 3.0 3.0 0.011 -0.051 692 648 4722 4016 27.0454 24.5867 12.02 
0.555 4 3.00 3.00 3.0 3.0 0.009 -0.045 688 650 4724 4018 27.0454 25.0420 12.02 
0.556 4 3.00 3.00 3.0 3.0 0.016 -0.049 693 651 4726 4019 27.0454 23.7240 12.02 
0.557 4 3.00 3.00 3.0 3.0 0.007 -0.049 692 649 4728 4021 27.5973 25.5145 12.02 
0.558 4 3.00 3.00 3.0 3.0 0.009 -0.051 696 649 4730 4023 27.0454 23.7240 11.96 
0.559 4 3.00 3.00 3.0 3.0 0.009 -0.051 697 650 4732 4025 27.0454 24.1477 11.96 
0.560 4 3.00 3.00 3.0 3.0 0.009 -0.049 692 654 4734 4027 27.5973 26.0052 11.96 
0.561 4 3.00 3.00 3.0 3.0 0.013 -0.049 695 653 4736 4029 27.0454 25.0420 11.96 
0.562 4 3.00 3.00 3.0 3.0 0.007 -0.049 699 650 4738 4030 27.0454 25.0420 11.96 
0.563 4 3.00 3.00 3.0 3.0 0.007 -0.047 693 649 4740 4032 26.5151 24.5867 12.01 
0.564 4 3.00 3.00 3.0 3.0 0.011 -0.047 689 653 4742 4034 27.5973 25.0420 12.01 
0.565 4 3.00 3.00 3.0 3.0 0.007 -0.045 696 658 4744 4036 28.1723 24.5867 12.01 
0.566 4 3.00 3.00 3.0 3.0 0.004 -0.049 696 651 4746 4038 27.0454 25.5145 12.01 
0.567 4 3.00 3.00 3.0 3.0 0.007 -0.049 693 651 4748 4040 27.5973 25.0420 12.01 
0.568 4 3.00 3.00 3.0 3.0 0.011 -0.051 693 651 4750 4041 26.5151 25.0420 11.98 
0.569 4 3.00 3.00 3.0 3.0 0.009 -0.047 694 650 4752 4043 27.5973 24.5867 11.98 
0.570 4 3.00 3.00 3.0 3.0 0.009 -0.051 697 648 4754 4045 28.1723 24.1477 11.98 
0.571 4 3.00 3.00 3.0 3.0 0.007 -0.051 688 645 4756 4047 28.1723 25.5145 11.98 
0.572 4 3.00 3.00 3.0 3.0 0.007 -0.051 691 647 4758 4049 27.5973 25.0420 11.98 
0.573 4 3.00 3.00 3.0 3.0 0.007 -0.049 693 652 4760 4051 27.5973 25.0420 12.02 
0.574 4 3.00 3.00 3.0 3.0 0.007 -0.047 697 654 4762 4052 28.1723 25.0420 12.02 
0.575 4 3.00 3.00 3.0 3.0 0.007 -0.049 692 653 4764 4054 27.0454 24.5867 12.02 
0.576 4 3.00 3.00 3.0 3.0 0.007 -0.049 688 653 4766 4056 27.5973 25.0420 12.02 
0.577 4 3.00 3.00 3.0 3.0 0.011 -0.045 689 653 4768 4058 27.5973 24.5867 12.02 
0.578 4 3.00 3.00 3.0 3.0 0.009 -0.047 692 654 4770 4060 27.5973 25.0420 11.96 
0.579 4 3.00 3.00 3.0 3.0 0.007 -0.054 687 650 4772 4061 27.5973 24.5867 11.96 
0.580 4 3.00 3.00 3.0 3.0 0.009 -0.051 690 649 4774 4063 27.5973 24.5867 11.96 
0.581 4 3.00 3.00 3.0 3.0 0.009 -0.049 691 651 4776 4065 27.0454 24.5867 11.96 
0.582 4 3.00 3.00 3.0 3.0 0.007 -0.049 698 651 4778 4067 27.5973 24.1477 11.96 
0.583 4 3.00 3.00 3.0 3.0 0.007 -0.049 695 651 4780 4069 27.5973 24.1477 11.96 
0.584 4 3.00 3.00 3.0 3.0 0.007 -0.051 694 647 4782 4070 27.5973 25.5145 11.96 
0.585 4 3.00 3.00 3.0 3.0 0.007 -0.054 691 646 4784 4072 27.5973 24.1477 11.96 
0.586 4 3.00 3.00 3.0 3.0 0.007 -0.049 693 653 4786 4074 28.1723 24.5867 11.96 
0.587 4 3.00 3.00 3.0 3.0 0.009 -0.047 690 651 4788 4076 27.5973 25.0420 11.96 
0.588 4 3.00 3.00 3.0 3.0 0.009 -0.054 688 649 4790 4078 27.5973 24.5867 11.96 
0.589 4 3.00 3.00 3.0 3.0 0.004 -0.054 697 652 4792 4079 28.1723 25.0420 11.96 
0.590 4 3.00 3.00 3.0 3.0 0.013 -0.049 698 653 4794 4081 27.5973 25.0420 11.96 
0.591 4 3.00 3.00 3.0 3.0 0.009 -0.047 697 652 4797 4083 28.1723 24.1477 11.96 
0.592 4 3.00 3.00 3.0 3.0 0.009 -0.047 689 652 4798 4085 26.5151 25.5145 11.96 
0.593 4 3.00 3.00 3.0 3.0 0.007 -0.047 697 650 4801 4087 27.5973 24.5867 11.99 
0.594 4 3.00 3.00 3.0 3.0 0.011 -0.051 695 649 4803 4089 28.1723 24.5867 11.99 
0.595 4 3.00 3.00 3.0 3.0 0.011 -0.051 694 648 4805 4090 28.1723 25.0420 11.99 
0.596 4 3.00 3.00 3.0 3.0 0.007 -0.049 691 652 4807 4092 27.5973 24.5867 11.99 
0.597 4 3.00 3.00 3.0 3.0 0.004 -0.054 698 651 4809 4094 27.5973 24.5867 11.99 
0.598 4 3.00 3.00 3.0 3.0 0.007 -0.051 695 652 4811 4096 27.5973 25.5145 11.93 
0.599 4 3.00 3.00 3.0 3.0 0.009 -0.049 691 653 4813 4098 27.0454 25.0420 11.93 
0.600 4 3.00 3.00 3.0 3.0 0.011 -0.047 686 653 4815 4100 27.5973 25.5145 11.93 
0.601 4 3.00 3.00 3.0 3.0 0.009 -0.051 694 650 4817 4101 27.5973 24.1477 11.93 
0.602 4 3.00 3.00 3.0 3.0 0.009 -0.047 694 651 4819 4103 27.5973 25.0420 11.93 
0.603 4 3.00 3.00 3.0 3.0 0.007 -0.047 694 652 4821 4105 27.5973 24.5867 12.01 
0.604 4 3.00 3.00 3.0 3.0 0.011 -0.047 692 654 4823 4107 27.5973 25.0420 12.01 
0.605 4 3.00 3.00 3.0 3.0 0.004 -0.049 697 652 4825 4109 27.0454 25.0420 12.01 
0.606 4 3.00 3.00 3.0 3.0 0.007 -0.051 696 650 4827 4111 27.0454 25.0420 12.01 
0.607 4 3.00 3.00 3.0 3.0 0.007 -0.047 693 649 4829 4112 27.5973 25.0420 12.01 
0.608 4 3.00 3.00 3.0 3.0 0.011 -0.047 693 651 4831 4114 27.5973 25.5145 11.98 
0.609 4 3.00 3.00 3.0 3.0 0.011 -0.047 697 654 4833 4116 27.5973 24.5867 11.98 
0.610 4 3.00 3.00 3.0 3.0 0.011 -0.051 695 652 4835 4118 28.1723 25.5145 11.98 
0.611 4 3.00 3.00 3.0 3.0 0.009 -0.051 690 653 4837 4120 27.5973 23.7240 11.98 
0.612 4 3.00 3.00 3.0 3.0 0.011 -0.049 693 647 4839 4122 27.5973 24.5867 11.98 
0.613 4 3.00 3.00 3.0 3.0 0.011 -0.049 698 652 4841 4123 28.1723 26.0052 11.98 
0.614 4 3.00 3.00 3.0 3.0 0.007 -0.049 697 650 4843 4125 27.5973 25.0420 11.98 
0.615 4 3.00 3.00 3.0 3.0 0.007 -0.049 694 651 4845 4127 28.1723 25.0420 11.98 
0.616 4 3.00 3.00 3.0 3.0 0.009 -0.047 694 652 4847 4129 27.0454 25.0420 11.98 
0.617 4 3.00 3.00 3.0 3.0 0.011 -0.045 696 654 4849 4131 28.1723 24.5867 11.98 
0.618 4 3.00 3.00 3.0 3.0 0.009 -0.047 695 650 4851 4133 28.7717 24.5867 11.99 
0.619 4 3.00 3.00 3.0 3.0 0.016 -0.049 692 650 4853 4134 29.3972 25.5145 11.99 
0.620 4 3.00 3.00 3.0 3.0 0.009 -0.049 692 652 4855 4136 27.5973 25.0420 11.99 
0.621 4 3.00 3.00 3.0 3.0 0.004 -0.049 700 654 4857 4138 28.1723 25.0420 11.99 
0.622 4 3.00 3.00 3.0 3.0 0.009 -0.047 691 654 4859 4140 28.1723 24.5867 11.99 
0.623 4 3.00 3.00 3.0 3.0 0.009 -0.056 692 647 4862 4142 27.5973 24.1477 11.98 
0.624 4 3.00 3.00 3.0 3.0 0.013 -0.054 686 649 4863 4144 27.5973 26.0052 11.98 
0.625 4 3.00 3.00 3.0 3.0 0.009 -0.051 697 650 4866 4145 27.5973 25.0420 11.98 
0.626 4 3.00 3.00 3.0 3.0 0.009 -0.047 693 650 4868 4147 27.5973 25.5145 11.98 
0.627 4 3.00 3.00 3.0 3.0 0.009 -0.049 689 651 4870 4149 27.5973 24.1477 11.98 
0.628 4 3.00 3.00 3.0 3.0 0.011 -0.049 691 653 4872 4151 27.5973 25.0420 11.94 
0.629 4 3.00 3.00 3.0 3.0 0.007 -0.047 703 648 4874 4153 27.5973 25.0420 11.94 
0.630 4 3.00 3.00 3.0 3.0 0.007 -0.045 696 652 4876 4155 27.5973 25.0420 11.94 
0.631 4 3.00 3.00 3.0 3.0 0.009 -0.047 692 649 4878 4156 27.5973 25.0420 11.94 
0.632 4 3.00 3.00 3.0 3.0 0.007 -0.049 692 647 4880 4158 27.5973 25.0420 11.94 
0.633 4 3.00 3.00 3.0 3.0 0.011 -0.049 693 651 4882 4160 28.1723 25.0420 11.99 
0.634 4 3.00 3.00 3.0 3.0 0.011 -0.047 692 654 4884 4162 28.1723 25.5145 11.99 
0.635 4 3.00 3.00 3.0 3.0 0.007 -0.045 686 655 4886 4164 27.5973 24.1477 11.99 
0.636 4 3.00 3.00 3.0 3.0 0.011 -0.051 694 649 4888 4166 28.1723 25.5145 11.99 
0.637 4 3.00 3.00 3.0 3.0 0.004 -0.051 695 648 4890 4167 27.0454 23.7240 11.99 
0.638 4 3.00 3.00 3.0 3.0 0.009 -0.049 693 650 4892 4169 28.1723 24.5867 12.01 
0.639 4 3.00 3.00 3.0 3.0 0.009 -0.047 688 652 4894 4171 26.5151 26.0052 12.01 
0.640 4 3.00 3.00 3.0 3.0 0.009 -0.047 696 647 4896 4173 27.5973 25.0420 12.01 
0.641 4 3.00 3.00 3.0 3.0 0.007 -0.049 697 649 4898 4175 28.1723 25.5145 12.01 
0.642 4 3.00 3.00 3.0 3.0 0.009 -0.047 692 652 4900 4177 28.1723 25.0420 12.01 
0.643 4 3.00 3.00 3.0 3.0 0.009 -0.047 693 651 4902 4178 27.5973 25.5145 11.96 
0.644 4 3.00 3.00 3.0 3.0 0.007 -0.047 698 658 4904 4180 27.5973 25.0420 11.96 
0.645 4 3.00 3.00 3.0 3.0 0.007 -0.047 695 657 4906 4182 28.1723 26.0052 11.96 
0.646 4 3.00 3.00 3.0 3.0 0.009 -0.049 693 654 4908 4184 27.0454 25.0420 11.96 
0.647 4 3.00 3.00 3.0 3.0 0.011 -0.049 688 653 4910 4186 27.5973 25.5145 11.96 
0.648 4 3.00 3.00 3.0 3.0 0.009 -0.047 693 652 4912 4188 27.5973 25.0420 11.96 
0.649 4 3.00 3.00 3.0 3.0 0.009 -0.051 694 649 4914 4190 27.5973 24.5867 11.96 
0.650 4 3.00 3.00 3.0 3.0 0.009 -0.049 693 649 4916 4191 27.5973 26.0052 11.96 
0.651 4 3.00 3.00 3.0 3.0 0.009 -0.051 692 652 4918 4193 27.5973 25.0420 11.96 
0.652 4 3.00 3.00 3.0 3.0 0.011 -0.047 696 653 4920 4195 27.0454 25.5145 11.96 
0.653 4 3.00 3.00 3.0 3.0 0.011 -0.049 699 650 4922 4197 27.5973 24.1477 11.96 
0.654 4 3.00 3.00 3.0 3.0 0.011 -0.049 699 651 4924 4199 27.5973 25.5145 11.96 
0.655 4 3.00 3.00 3.0 3.0 0.007 -0.049 688 652 4926 4201 27.5973 25.0420 11.96 
0.656 4 3.00 3.00 3.0 3.0 0.009 -0.047 694 650 4928 4203 27.5973 25.0420 11.96 
0.657 4 3.00 3.00 3.0 3.0 0.007 -0.047 693 652 4930 4204 28.1723 25.0420 11.96 
0.658 4 3.00 3.00 3.0 3.0 0.007 -0.054 694 648 4933 4206 27.5973 25.0420 11.96 
0.659 4 3.00 3.00 3.0 3.0 0.018 -0.051 689 650 4935 4208 28.1723 24.5867 11.96 
0.660 4 3.00 3.00 3.0 3.0 0.007 -0.047 696 655 4937 4210 28.7717 25.0420 11.96 
0.661 4 3.00 3.00 3.0 3.0 0.007 -0.045 695 652 4939 4212 27.5973 24.1477 11.96 
0.662 4 3.00 3.00 3.0 3.0 0.007 -0.051 691 651 4941 4214 28.1723 25.5145 11.96 
0.663 4 3.00 3.00 3.0 3.0 0.013 -0.051 690 649 4943 4215 26.5151 23.7240 11.99 
0.664 4 3.00 3.00 3.0 3.0 0.013 -0.054 696 647 4945 4217 27.5973 24.1477 11.99 
0.665 4 3.00 3.00 3.0 3.0 0.009 -0.047 691 638 4947 4219 28.1723 26.0052 11.99 
0.666 4 3.00 3.00 3.0 3.0 0.009 -0.049 694 649 4949 4221 28.7717 25.0420 11.99 
0.667 4 3.00 3.00 3.0 3.0 0.009 -0.049 692 653 4951 4223 28.1723 25.5145 11.99 
0.668 4 3.00 3.00 3.0 3.0 0.007 -0.047 698 654 4953 4225 28.1723 25.0420 11.94 
0.669 4 3.00 3.00 3.0 3.0 0.011 -0.049 692 655 4955 4226 28.1723 25.5145 11.94 
0.670 4 3.00 3.00 3.0 3.0 0.013 -0.047 693 655 4957 4228 27.5973 25.0420 11.94 
0.671 4 3.00 3.00 3.0 3.0 0.013 -0.049 693 654 4959 4230 27.5973 26.0052 11.94 
0.672 4 3.00 3.00 3.0 3.0 0.009 -0.049 694 651 4961 4232 27.5973 25.5145 11.94 
0.673 4 3.00 3.00 3.0 3.0 0.009 -0.045 692 652 4963 4234 27.5973 25.5145 11.96 
0.674 4 3.00 3.00 3.0 3.0 0.013 -0.047 693 656 4965 4236 27.5973 25.0420 11.96 
0.675 4 3.00 3.00 3.0 3.0 0.009 -0.049 692 646 4967 4237 28.1723 24.5867 11.96 
0.676 4 3.00 3.00 3.0 3.0 0.004 -0.051 698 652 4969 4239 27.5973 26.0052 11.96 
0.677 4 3.00 3.00 3.0 3.0 0.009 -0.049 698 648 4971 4241 27.5973 24.5867 11.96 
0.678 4 3.00 3.00 3.0 3.0 0.009 -0.049 694 652 4973 4243 27.5973 25.0420 11.99 
0.679 4 3.00 3.00 3.0 3.0 0.009 -0.049 692 652 4975 4245 27.5973 24.5867 11.99 
0.680 4 3.00 3.00 3.0 3.0 0.011 -0.051 695 651 4977 4247 27.5973 24.5867 11.99 
0.681 4 3.00 3.00 3.0 3.0 0.007 -0.051 692 651 4979 4248 27.5973 24.5867 11.99 
0.682 4 3.00 3.00 3.0 3.0 0.007 -0.049 690 651 4981 4250 27.5973 24.5867 11.99 
0.683 4 3.00 3.00 3.0 3.0 0.007 -0.047 689 650 4984 4252 27.5973 24.5867 11.99 
0.684 4 3.00 3.00 3.0 3.0 0.004 -0.054 698 646 4986 4254 28.1723 25.0420 11.99 
0.685 4 3.00 3.00 3.0 3.0 0.007 -0.051 697 648 4988 4256 27.5973 24.5867 11.99 
0.686 4 3.00 3.00 3.0 3.0 0.007 -0.047 693 655 4990 4258 28.1723 25.0420 11.99 
0.687 4 3.00 3.00 3.0 3.0 0.009 -0.045 694 654 4992 4259 27.0454 24.1477 11.99 
0.688 4 3.00 3.00 3.0 3.0 0.004 -0.049 699 652 4994 4261 27.5973 25.5145 12.01 
0.689 4 3.00 3.00 3.0 3.0 0.009 -0.047 692 652 4996 4263 28.1723 23.7240 12.01 
0.690 4 3.00 3.00 3.0 3.0 0.009 -0.047 691 652 4998 4265 28.1723 24.1477 12.01 
0.691 4 3.00 3.00 3.0 3.0 0.011 -0.047 691 652 5000 4267 27.5973 25.0420 12.01 
0.692 4 3.00 3.00 3.0 3.0 0.007 -0.047 696 649 5002 4269 28.1723 25.5145 12.01 
0.693 4 3.00 3.00 3.0 3.0 0.007 -0.045 694 649 5004 4271 27.0454 25.5145 11.99 
0.694 4 3.00 3.00 3.0 3.0 0.011 -0.049 689 651 5006 4272 27.5973 25.0420 11.99 
0.695 4 3.00 3.00 3.0 3.0 0.016 -0.047 689 655 5008 4274 27.5973 25.5145 11.99 
0.696 4 3.00 3.00 3.0 3.0 0.009 -0.045 698 650 5010 4276 28.1723 24.1477 11.99 
0.697 4 3.00 3.00 3.0 3.0 0.009 -0.051 693 650 5012 4278 28.1723 25.0420 11.99 
0.698 4 3.00 3.00 3.0 3.0 0.016 -0.051 692 651 5014 4280 28.1723 24.5867 11.99 
0.699 4 3.00 3.00 3.0 3.0 0.007 -0.051 694 652 5016 4281 27.5973 24.5867 11.99 
0.700 4 3.00 3.00 3.0 3.0 0.004 -0.047 699 657 5018 4283 27.5973 24.1477 11.99 
0.701 4 3.00 3.00 3.0 3.0 0.011 -0.051 695 651 5020 4285 27.5973 24.1477 11.99 
0.702 4 3.00 3.00 3.0 3.0 0.011 -0.054 693 650 5022 4287 27.5973 25.0420 11.99 
0.703 4 3.00 3.00 3.0 3.0 0.009 -0.054 697 650 5024 4289 27.5973 25.0420 11.99 
0.704 4 3.00 3.00 3.0 3.0 0.009 -0.049 697 650 5026 4290 28.7717 25.0420 11.99 
0.705 4 3.00 3.00 3.0 3.0 0.011 -0.047 696 654 5028 4292 28.1723 25.0420 11.99 
0.706 4 3.00 3.00 3.0 3.0 0.013 -0.049 693 647 5030 4294 28.1723 24.5867 11.99 
0.707 4 3.00 3.00 3.0 3.0 0.007 -0.049 694 650 5033 4296 28.7717 25.0420 11.99 
0.708 4 3.00 3.00 3.0 3.0 0.007 -0.047 694 652 5035 4298 27.0454 24.5867 12.02 
0.709 4 3.00 3.00 3.0 3.0 0.009 -0.045 692 659 5037 4300 27.5973 25.0420 12.02 
0.710 4 3.00 3.00 3.0 3.0 0.009 -0.051 693 650 5039 4301 26.0052 25.0420 12.02 
0.711 4 3.00 3.00 3.0 3.0 0.007 -0.049 690 649 5041 4303 27.0454 24.5867 12.02 
0.712 4 3.00 3.00 3.0 3.0 0.011 -0.049 692 651 5043 4305 28.1723 25.0420 12.02 
0.713 4 3.00 3.00 3.0 3.0 0.011 -0.045 692 655 5045 4307 28.1723 24.1477 12.02 
0.714 4 3.00 3.00 3.0 3.0 0.009 -0.047 693 652 5047 4309 27.5973 24.5867 12.02 
0.715 4 3.00 3.00 3.0 3.0 0.007 -0.047 694 656 5049 4310 27.0454 25.5145 12.02 
0.716 4 3.00 3.00 3.0 3.0 0.011 -0.051 697 647 5051 4312 28.1723 24.1477 12.02 
0.717 4 3.00 3.00 3.0 3.0 0.007 -0.049 692 650 5053 4314 27.0454 25.0420 12.02 
0.718 4 3.00 3.00 3.0 3.0 0.011 -0.047 691 651 5055 4316 27.5973 25.5145 11.96 
0.719 4 3.00 3.00 3.0 3.0 0.009 -0.051 692 649 5057 4318 27.5973 25.0420 11.96 
0.720 4 3.00 3.00 3.0 3.0 0.009 -0.049 691 645 5059 4320 27.5973 25.0420 11.96 
0.721 4 3.00 3.00 3.0 3.0 0.011 -0.049 694 654 5061 4322 27.5973 25.0420 11.96 
0.722 4 3.00 3.00 3.0 3.0 0.009 -0.047 690 656 5063 4323 27.5973 24.1477 11.96 
0.723 4 3.00 3.00 3.0 3.0 0.007 -0.049 699 655 5065 4325 27.5973 25.5145 12.01 
0.724 4 3.00 3.00 3.0 3.0 0.007 -0.047 692 654 5067 4327 27.5973 24.5867 12.01 
0.725 4 3.00 3.00 3.0 3.0 0.009 -0.049 692 652 5069 4329 27.5973 24.5867 12.01 
0.726 4 3.00 3.00 3.0 3.0 0.013 -0.047 691 651 5071 4331 27.5973 25.0420 12.01 
0.727 4 3.00 3.00 3.0 3.0 0.007 -0.051 693 652 5073 4332 28.1723 24.5867 12.01 
0.728 4 3.00 3.00 3.0 3.0 0.009 -0.051 695 645 5075 4334 28.7717 24.5867 11.94 
0.729 4 3.00 3.00 3.0 3.0 0.009 -0.051 687 646 5077 4336 28.1723 25.5145 11.94 
0.730 4 3.00 3.00 3.0 3.0 0.009 -0.049 691 648 5079 4338 28.1723 25.0420 11.94 
0.731 4 3.00 3.00 3.0 3.0 0.004 -0.047 698 651 5081 4340 28.7717 25.0420 11.94 
0.732 4 3.00 3.00 3.0 3.0 0.007 -0.051 695 651 5083 4342 27.5973 24.1477 11.94 
0.733 4 3.00 3.00 3.0 3.0 0.009 -0.049 691 655 5085 4343 28.1723 25.5145 12.01 
0.734 4 3.00 3.00 3.0 3.0 0.004 -0.047 694 650 5087 4345 27.0454 24.5867 12.01 
0.735 4 3.00 3.00 3.0 3.0 0.004 -0.045 700 657 5089 4347 27.5973 25.0420 12.01 
0.736 4 3.00 3.00 3.0 3.0 0.007 -0.047 694 654 5092 4349 28.1723 25.0420 12.01 
0.737 4 3.00 3.00 3.0 3.0 0.007 -0.051 695 650 5094 4351 28.7717 25.0420 12.01 
0.738 4 3.00 3.00 3.0 3.0 0.007 -0.049 695 652 5096 4353 27.5973 25.0420 11.99 
0.739 4 3.00 3.00 3.0 3.0 0.004 -0.047 706 655 5098 4354 27.5973 25.5145 11.99 
0.740 4 3.00 3.00 3.0 3.0 0.007 -0.047 699 657 5100 4356 27.5973 24.5867 11.99 
0.741 4 3.00 3.00 3.0 3.0 0.009 -0.051 692 652 5102 4358 27.5973 25.5145 11.99 
0.742 4 3.00 3.00 3.0 3.0 0.007 -0.051 692 649 5104 4360 27.5973 24.5867 11.99 
0.743 4 3.00 3.00 3.0 3.0 0.004 -0.051 697 649 5106 4362 27.5973 24.5867 12.01 
0.744 4 3.00 3.00 3.0 3.0 0.007 -0.049 696 650 5108 4364 27.5973 26.0052 12.01 
0.745 4 3.00 3.00 3.0 3.0 0.009 -0.049 694 648 5110 4365 27.5973 25.0420 12.01 
0.746 4 3.00 3.00 3.0 3.0 0.009 -0.049 695 652 5112 4367 27.5973 25.0420 12.01 
0.747 4 3.00 3.00 3.0 3.0 0.007 -0.047 701 657 5114 4369 27.5973 25.5145 12.01 
0.748 4 3.00 3.00 3.0 3.0 0.007 -0.049 695 654 5116 4371 27.5973 24.5867 11.98 
0.749 4 3.00 3.00 3.0 3.0 0.009 -0.045 695 654 5118 4373 28.1723 26.0052 11.98 
0.750 4 3.00 3.00 3.0 3.0 0.009 -0.049 692 654 5120 4375 27.5973 25.5145 11.98 
0.751 4 3.00 3.00 3.0 3.0 0.004 -0.049 696 652 5122 4377 27.5973 25.0420 11.98 
0.752 4 3.00 3.00 3.0 3.0 0.009 -0.047 692 654 5124 4378 28.1723 25.5145 11.98 
0.753 4 3.00 3.00 3.0 3.0 0.011 -0.047 690 652 5126 4380 27.5973 25.0420 11.99 
0.754 4 3.00 3.00 3.0 3.0 0.009 -0.051 691 646 5128 4382 28.1723 25.0420 11.99 
0.755 4 3.00 3.00 3.0 3.0 0.007 -0.051 697 648 5130 4384 27.0454 25.5145 11.99 
0.756 4 3.00 3.00 3.0 3.0 0.007 -0.047 694 650 5132 4386 28.1723 25.0420 11.99 
0.757 4 3.00 3.00 3.0 3.0 0.013 -0.049 694 651 5134 4388 26.5151 25.5145 11.99 
0.758 4 3.00 3.00 3.0 3.0 0.009 -0.049 693 649 5136 4389 27.5973 24.1477 11.96 
0.759 4 3.00 3.00 3.0 3.0 0.007 -0.049 696 652 5138 4391 28.7717 25.0420 11.96 
0.760 4 3.00 3.00 3.0 3.0 0.009 -0.049 691 651 5140 4393 29.3972 24.5867 11.96 
0.761 4 3.00 3.00 3.0 3.0 0.009 -0.047 694 655 5142 4395 28.1723 25.0420 11.96 
0.762 4 3.00 3.00 3.0 3.0 0.009 -0.051 693 650 5144 4397 27.5973 25.0420 11.96 
0.763 4 3.00 3.00 3.0 3.0 0.007 -0.051 701 650 5146 4399 28.1723 25.0420 12.02 
0.764 4 3.00 3.00 3.0 3.0 0.004 -0.051 695 649 5148 4400 26.5151 25.0420 12.02 
0.765 4 3.00 3.00 3.0 3.0 0.009 -0.045 692 652 5150 4402 27.0454 25.5145 12.02 
0.766 4 3.00 3.00 3.0 3.0 0.013 -0.047 693 653 5152 4404 27.0454 24.5867 12.02 
0.767 4 3.00 3.00 3.0 3.0 0.016 -0.049 693 648 5154 4406 27.5973 25.5145 12.02 
0.768 4 3.00 3.00 3.0 3.0 0.009 -0.051 697 646 5156 4408 27.5973 23.7240 11.99 
0.769 4 3.00 3.00 3.0 3.0 0.007 -0.049 691 650 5158 4409 27.5973 24.5867 11.99 
0.770 4 3.00 3.00 3.0 3.0 0.004 -0.047 695 653 5160 4411 27.0454 26.0052 11.99 
0.771 4 3.00 3.00 3.0 3.0 0.011 -0.049 698 652 5162 4413 27.5973 25.0420 11.99 
0.772 4 3.00 3.00 3.0 3.0 0.004 -0.051 697 652 5164 4415 27.5973 25.0420 11.99 
0.773 4 3.00 3.00 3.0 3.0 0.007 -0.047 695 650 5166 4417 27.5973 25.0420 12.01 
0.774 4 3.00 3.00 3.0 3.0 0.007 -0.047 697 653 5168 4419 27.5973 25.5145 12.01 
0.775 4 3.00 3.00 3.0 3.0 0.013 -0.047 697 654 5170 4421 28.7717 24.5867 12.01 
0.776 4 3.00 3.00 3.0 3.0 0.013 -0.051 689 649 5172 4422 28.1723 25.5145 12.01 
0.777 4 3.00 3.00 3.0 3.0 0.011 -0.049 694 653 5175 4424 28.1723 25.0420 12.01 
0.778 4 3.00 3.00 3.0 3.0 0.011 -0.047 693 653 5177 4426 28.7717 25.5145 12.01 
0.779 4 3.00 3.00 3.0 3.0 0.007 -0.047 693 654 5179 4428 27.5973 25.0420 12.01 
0.780 4 3.00 3.00 3.0 3.0 0.009 -0.054 694 649 5181 4430 28.1723 24.5867 12.01 
0.781 4 3.00 3.00 3.0 3.0 0.009 -0.051 686 651 5183 4432 26.5151 26.0052 12.01 
0.782 4 3.00 3.00 3.0 3.0 0.009 -0.049 693 652 5185 4433 27.5973 25.0420 12.01 
0.783 4 3.00 3.00 3.0 3.0 0.011 -0.047 695 650 5187 4435 28.7717 25.5145 11.96 
0.784 4 3.00 3.00 3.0 3.0 0.009 -0.047 693 650 5189 4437 29.3972 24.1477 11.96 
0.785 4 3.00 3.00 3.0 3.0 0.009 -0.047 689 650 5191 4439 27.5973 25.0420 11.96 
0.786 4 3.00 3.00 3.0 3.0 0.007 -0.047 700 652 5193 4441 28.1723 24.5867 11.96 
0.787 4 3.00 3.00 3.0 3.0 0.009 -0.045 692 656 5195 4443 28.1723 25.0420 11.96 
0.788 4 3.00 3.00 3.0 3.0 0.009 -0.049 695 653 5197 4445 27.5973 25.0420 11.99 
0.789 4 3.00 3.00 3.0 3.0 0.009 -0.051 689 649 5199 4446 27.5973 25.5145 11.99 
0.790 4 3.00 3.00 3.0 3.0 0.009 -0.049 692 651 5201 4448 27.5973 25.0420 11.99 
0.791 4 3.00 3.00 3.0 3.0 0.007 -0.047 690 650 5203 4450 27.5973 25.5145 11.99 
0.792 4 3.00 3.00 3.0 3.0 0.007 -0.047 692 653 5205 4452 27.5973 24.1477 11.99 
0.793 4 3.00 3.00 3.0 3.0 0.009 -0.049 692 647 5207 4454 27.5973 25.5145 11.98 
0.794 4 3.00 3.00 3.0 3.0 0.004 -0.051 698 650 5209 4455 27.5973 23.7240 11.98 
0.795 4 3.00 3.00 3.0 3.0 0.011 -0.051 699 651 5211 4457 27.0454 24.5867 11.98 
0.796 4 3.00 3.00 3.0 3.0 0.009 -0.049 691 651 5213 4459 27.5973 26.0052 11.98 
