%  1    time 0.000 sec
%  2    mission (0) state 2
%  3  4 Motor velocity ref left, right: 2.00 2.00
%  5  6 Motor voltage [V] left, right: 2.0 2.0
%  7  8 Motor current left, right [A]: -0.006 0.000
%  9 10 Encoder left, right: 6109 5772
% 11 12 Wheel velocity [r/s] left, right: -0.0072 0.0128
% 13    Battery voltage [V]: 12.02
0.001 2 2.00 2.00 2.0 2.0 0.158 -0.146 6109 5772 -0.0072 0.0128 12.02 
0.002 2 2.00 2.00 2.0 2.0 0.399 -0.329 6109 5772 -0.0072 0.0128 12.02 
0.005 2 2.00 2.00 2.0 2.0 0.513 -0.393 6109 5773 -0.0072 0.0128 11.93 
0.006 2 2.00 2.00 2.0 2.0 0.576 -0.418 6110 5773 -0.0072 0.0128 11.93 
0.007 2 2.00 2.00 2.0 2.0 0.576 -0.412 6110 5773 0.0072 0.0128 11.93 
0.007 2 2.00 2.00 2.0 2.0 0.570 -0.412 6110 5773 0.0072 0.0128 11.93 
0.008 2 2.00 2.00 2.0 2.0 0.576 -0.399 6110 5773 0.0072 0.0128 11.93 
0.009 2 2.00 2.00 2.0 2.0 0.545 -0.399 6110 5774 0.0072 2.1096 11.96 
0.010 2 2.00 2.00 2.0 2.0 0.519 -0.355 6111 5774 3.3807 2.1096 11.96 
0.011 2 2.00 2.00 2.0 2.0 0.513 -0.355 6111 5774 3.3807 2.1096 11.96 
0.012 2 2.00 2.00 2.0 2.0 0.519 -0.348 6112 5774 3.3807 2.1096 11.96 
0.013 2 2.00 2.00 2.0 2.0 0.475 -0.367 6112 5775 5.1222 4.0609 11.96 
0.014 2 2.00 2.00 2.0 2.0 0.462 -0.367 6112 5775 5.1222 4.0609 11.94 
0.015 2 2.00 2.00 2.0 2.0 0.443 -0.355 6113 5775 5.3875 4.0609 11.94 
0.016 2 2.00 2.00 2.0 2.0 0.462 -0.380 6113 5776 5.3875 4.4483 11.94 
0.017 2 2.00 2.00 2.0 2.0 0.462 -0.361 6113 5776 5.3875 4.4483 11.94 
0.018 2 2.00 2.00 2.0 2.0 0.494 -0.386 6114 5776 4.4629 4.4483 11.94 
0.019 2 2.00 2.00 2.0 2.0 0.450 -0.399 6114 5776 4.4629 3.6548 11.94 
0.020 2 2.00 2.00 2.0 2.0 0.513 -0.481 6114 5776 4.4629 2.8895 11.94 
0.021 2 2.00 2.00 2.0 2.0 0.526 -0.507 6114 5776 4.1866 2.3808 11.94 
0.022 2 2.00 2.00 2.0 2.0 0.526 -0.507 6114 5776 3.1969 2.0244 11.94 
0.023 2 2.00 2.00 2.0 2.0 0.545 -0.532 6114 5776 2.5856 1.7608 11.94 
0.024 2 2.00 2.00 2.0 2.0 0.564 -0.488 6114 5776 2.1602 1.5543 11.94 
0.025 2 2.00 2.00 2.0 2.0 0.564 -0.494 6114 5776 1.8704 1.3970 11.94 
0.026 2 2.00 2.00 2.0 2.0 0.583 -0.481 6114 5776 1.6431 1.2662 11.94 
0.027 2 2.00 2.00 2.0 2.0 0.583 -0.450 6114 5776 1.4651 1.1578 11.94 
0.028 2 2.00 2.00 2.0 2.0 0.595 -0.443 6114 5776 1.3219 1.0665 11.94 
0.029 2 2.00 2.00 2.0 2.0 0.602 -0.443 6114 5776 1.2009 0.9871 11.94 
0.030 2 2.00 2.00 2.0 2.0 0.576 -0.456 6114 5776 1.1057 0.9212 11.94 
0.031 2 2.00 2.00 2.0 2.0 0.621 -0.443 6114 5776 1.0221 0.8624 11.94 
0.032 2 2.00 2.00 2.0 2.0 0.614 -0.456 6114 5777 0.9503 0.8107 11.94 
0.033 2 2.00 2.00 2.0 2.0 0.608 -0.443 6114 5777 0.8879 0.7983 11.94 
0.034 2 2.00 2.00 2.0 2.0 0.614 -0.456 6114 5777 0.8317 0.7983 11.94 
0.035 2 2.00 2.00 2.0 2.0 0.614 -0.450 6114 5777 0.7848 0.7983 11.94 
0.036 2 2.00 2.00 2.0 2.0 0.614 -0.456 6114 5777 0.7418 0.7983 11.94 
0.037 2 2.00 2.00 2.0 2.0 0.538 -0.462 6114 5777 0.7032 0.7983 11.94 
0.038 2 2.00 2.00 2.0 2.0 0.507 -0.475 6115 5777 0.6782 0.7983 11.94 
0.039 2 2.00 2.00 2.0 2.0 0.469 -0.526 6115 5777 0.6782 0.7983 11.94 
0.040 2 2.00 2.00 2.0 2.0 0.532 -0.538 6115 5777 0.6782 0.7983 11.94 
0.041 2 2.00 2.00 2.0 2.0 0.570 -0.532 6115 5777 0.6782 0.7983 11.94 
0.042 2 2.00 2.00 2.0 2.0 0.589 -0.532 6115 5777 0.6782 0.7983 11.94 
0.043 2 2.00 2.00 2.0 2.0 0.608 -0.532 6115 5777 0.6782 0.7983 11.94 
0.044 2 2.00 2.00 2.0 2.0 0.583 -0.500 6115 5777 0.6782 0.7983 11.94 
0.045 2 2.00 2.00 2.0 2.0 0.608 -0.481 6115 5778 0.6782 1.0681 11.94 
0.046 2 2.00 2.00 2.0 2.0 0.583 -0.469 6115 5778 0.6782 1.0681 11.94 
0.047 2 2.00 2.00 2.0 2.0 0.583 -0.469 6115 5778 0.6782 1.0681 11.94 
0.048 2 2.00 2.00 2.0 2.0 0.614 -0.462 6115 5778 0.6782 1.0681 11.94 
0.049 2 2.00 2.00 2.0 2.0 0.583 -0.437 6116 5778 1.1978 1.0681 11.94 
0.050 2 2.00 2.00 2.0 2.0 0.621 -0.450 6116 5778 1.1978 1.0681 11.94 
0.051 2 2.00 2.00 2.0 2.0 0.621 -0.456 6116 5778 1.1978 1.0681 11.94 
0.052 2 2.00 2.00 2.0 2.0 0.602 -0.494 6116 5778 1.1978 1.0681 11.94 
0.053 2 2.00 2.00 2.0 2.0 0.576 -0.500 6116 5778 1.1978 1.0681 11.94 
0.054 2 2.00 2.00 2.0 2.0 0.507 -0.507 6116 5779 1.1978 1.5384 11.94 
0.055 2 2.00 2.00 2.0 2.0 0.519 -0.488 6116 5779 1.1978 1.5384 11.94 
0.056 2 2.00 2.00 2.0 2.0 0.538 -0.462 6116 5779 1.1978 1.5384 11.94 
0.057 2 2.00 2.00 2.0 2.0 0.513 -0.424 6117 5779 1.8176 1.5384 11.94 
0.058 2 2.00 2.00 2.0 2.0 0.519 -0.418 6117 5779 1.8176 1.5384 11.94 
0.059 2 2.00 2.00 2.0 2.0 0.532 -0.424 6117 5779 1.8176 1.5384 11.94 
0.060 2 2.00 2.00 2.0 2.0 0.538 -0.399 6117 5779 1.8176 1.5384 11.94 
0.061 2 2.00 2.00 2.0 2.0 0.551 -0.399 6117 5779 1.8176 1.5384 11.94 
0.062 2 2.00 2.00 2.0 2.0 0.519 -0.443 6117 5780 1.8176 1.6967 11.94 
0.063 2 2.00 2.00 2.0 2.0 0.551 -0.462 6117 5780 1.8176 1.6967 11.94 
0.064 2 2.00 2.00 2.0 2.0 0.545 -0.431 6117 5780 1.7816 1.6967 11.96 
0.065 2 2.00 2.00 2.0 2.0 0.545 -0.418 6118 5780 1.6654 1.6967 11.96 
0.066 2 2.00 2.00 2.0 2.0 0.545 -0.412 6118 5780 1.6654 1.6967 11.96 
0.067 2 2.00 2.00 2.0 2.0 0.564 -0.412 6118 5780 1.6654 1.6967 11.96 
0.068 2 2.00 2.00 2.0 2.0 0.545 -0.367 6118 5780 1.6654 1.6967 11.96 
0.069 2 2.00 2.00 2.0 2.0 0.532 -0.393 6118 5781 1.6654 1.6967 11.94 
0.070 2 2.00 2.00 2.0 2.0 0.551 -0.399 6118 5781 1.6654 1.7864 11.94 
0.071 2 2.00 2.00 2.0 2.0 0.538 -0.393 6118 5781 1.6654 1.7864 11.94 
0.072 2 2.00 2.00 2.0 2.0 0.564 -0.412 6118 5781 1.6654 1.7864 11.94 
0.073 2 2.00 2.00 2.0 2.0 0.564 -0.431 6119 5781 1.7031 1.7864 11.94 
0.074 2 2.00 2.00 2.0 2.0 0.551 -0.431 6119 5781 1.7031 1.7864 11.93 
0.075 2 2.00 2.00 2.0 2.0 0.551 -0.431 6119 5781 1.7031 1.7864 11.93 
0.076 2 2.00 2.00 2.0 2.0 0.545 -0.456 6119 5782 1.7031 2.0520 11.93 
0.077 2 2.00 2.00 2.0 2.0 0.545 -0.437 6119 5782 1.7031 2.0520 11.93 
0.078 2 2.00 2.00 2.0 2.0 0.538 -0.431 6119 5782 1.7031 2.0520 11.93 
0.079 2 2.00 2.00 2.0 2.0 0.545 -0.418 6120 5782 1.7031 2.0520 11.93 
0.080 2 2.00 2.00 2.0 2.0 0.551 -0.418 6120 5782 2.0153 2.0520 11.93 
0.081 2 2.00 2.00 2.0 2.0 0.526 -0.393 6120 5782 2.0153 2.0520 11.93 
0.082 2 2.00 2.00 2.0 2.0 0.545 -0.424 6120 5782 2.0153 2.0520 11.93 
0.083 2 2.00 2.00 2.0 2.0 0.532 -0.443 6120 5783 2.0153 2.0458 11.93 
0.084 2 2.00 2.00 2.0 2.0 0.519 -0.469 6120 5783 2.0153 2.0458 11.94 
0.085 2 2.00 2.00 2.0 2.0 0.538 -0.443 6121 5783 2.3355 2.0458 11.94 
0.086 2 2.00 2.00 2.0 2.0 0.526 -0.456 6121 5783 2.3355 2.0458 11.94 
0.087 2 2.00 2.00 2.0 2.0 0.545 -0.469 6121 5783 2.3355 2.0458 11.94 
0.088 2 2.00 2.00 2.0 2.0 0.545 -0.450 6121 5783 2.3355 2.0458 11.94 
0.089 2 2.00 2.00 2.0 2.0 0.538 -0.431 6121 5784 2.3355 2.2463 11.93 
0.090 2 2.00 2.00 2.0 2.0 0.532 -0.424 6121 5784 2.3355 2.2463 11.93 
0.091 2 2.00 2.00 2.0 2.0 0.545 -0.431 6122 5784 2.4321 2.2463 11.93 
0.092 2 2.00 2.00 2.0 2.0 0.551 -0.431 6122 5784 2.4321 2.2463 11.93 
0.093 2 2.00 2.00 2.0 2.0 0.551 -0.469 6122 5784 2.4321 2.2463 11.93 
0.094 2 2.00 2.00 2.0 2.0 0.557 -0.462 6122 5784 2.4321 2.2463 11.93 
0.095 2 2.00 2.00 2.0 2.0 0.595 -0.469 6122 5785 2.4321 2.3155 11.93 
0.096 2 2.00 2.00 2.0 2.0 0.583 -0.450 6123 5785 2.4321 2.3155 11.93 
0.097 2 2.00 2.00 2.0 2.0 0.564 -0.469 6123 5785 2.4105 2.3155 11.93 
0.098 2 2.00 2.00 2.0 2.0 0.564 -0.519 6123 5785 2.4105 2.3155 11.93 
0.099 2 2.00 2.00 2.0 2.0 0.570 -0.469 6123 5785 2.4105 2.3155 11.93 
0.100 2 2.00 2.00 2.0 2.0 0.564 -0.399 6123 5786 2.4105 2.3155 11.93 
0.101 2 2.00 2.00 2.0 2.0 0.564 -0.405 6123 5786 2.4105 2.3477 11.93 
0.102 2 2.00 2.00 2.0 2.0 0.570 -0.424 6123 5786 2.3195 2.3477 11.93 
0.103 2 2.00 2.00 2.0 2.0 0.602 -0.437 6124 5786 2.1881 2.3477 11.93 
0.104 2 2.00 2.00 2.0 2.0 0.608 -0.450 6124 5786 2.1881 2.3477 11.94 
0.105 2 2.00 2.00 2.0 2.0 0.614 -0.443 6124 5786 2.1881 2.3477 11.94 
0.106 2 2.00 2.00 2.0 2.0 0.500 -0.431 6124 5787 2.1881 2.3934 11.94 
0.107 2 2.00 2.00 2.0 2.0 0.494 -0.424 6124 5787 2.1881 2.3934 11.94 
0.108 2 2.00 2.00 2.0 2.0 0.513 -0.443 6125 5787 2.4062 2.3934 11.94 
0.109 2 2.00 2.00 2.0 2.0 0.513 -0.424 6125 5787 2.4062 2.3934 11.94 
0.110 2 2.00 2.00 2.0 2.0 0.488 -0.431 6125 5788 2.4062 2.3934 11.94 
0.111 2 2.00 2.00 2.0 2.0 0.500 -0.412 6125 5788 2.4062 2.9851 11.94 
0.112 2 2.00 2.00 2.0 2.0 0.513 -0.418 6125 5788 2.4062 2.9851 11.94 
0.113 2 2.00 2.00 2.0 2.0 0.519 -0.424 6126 5788 2.9461 2.9851 11.94 
0.114 2 2.00 2.00 2.0 2.0 0.532 -0.456 6126 5788 2.9461 2.9851 11.94 
0.115 2 2.00 2.00 2.0 2.0 0.532 -0.450 6126 5788 2.9461 2.8469 11.94 
0.116 2 2.00 2.00 2.0 2.0 0.526 -0.437 6126 5789 2.9461 2.5419 11.94 
0.117 2 2.00 2.00 2.0 2.0 0.551 -0.450 6127 5789 3.1015 2.5419 11.94 
0.118 2 2.00 2.00 2.0 2.0 0.557 -0.437 6127 5789 3.1015 2.5419 11.94 
0.119 2 2.00 2.00 2.0 2.0 0.557 -0.405 6127 5789 3.1015 2.5419 11.94 
0.120 2 2.00 2.00 2.0 2.0 0.564 -0.386 6127 5790 3.1015 2.5419 11.94 
0.121 2 2.00 2.00 2.0 2.0 0.564 -0.386 6127 5790 3.1015 3.0117 11.94 
0.122 2 2.00 2.00 2.0 2.0 0.557 -0.399 6127 5790 2.6619 3.0117 11.94 
0.123 2 2.00 2.00 2.0 2.0 0.570 -0.393 6128 5790 2.4996 3.0117 11.94 
0.124 2 2.00 2.00 2.0 2.0 0.570 -0.412 6128 5791 2.4996 3.5215 11.94 
0.125 2 2.00 2.00 2.0 2.0 0.538 -0.437 6128 5791 2.4996 3.5215 11.94 
0.126 2 2.00 2.00 2.0 2.0 0.526 -0.424 6128 5791 2.4996 3.5215 11.94 
0.127 2 2.00 2.00 2.0 2.0 0.538 -0.405 6128 5791 2.4996 3.5215 11.94 
0.128 2 2.00 2.00 2.0 2.0 0.545 -0.437 6129 5792 2.4234 3.2982 11.94 
0.129 2 2.00 2.00 2.0 2.0 0.545 -0.399 6129 5792 2.4234 3.1743 11.94 
0.130 2 2.00 2.00 2.0 2.0 0.532 -0.431 6129 5792 2.4234 3.1743 11.94 
0.131 2 2.00 2.00 2.0 2.0 0.519 -0.418 6129 5792 2.4234 3.1743 11.94 
0.132 2 2.00 2.00 2.0 2.0 0.519 -0.424 6130 5792 2.4234 3.1743 11.94 
0.133 2 2.00 2.00 2.0 2.0 0.513 -0.431 6130 5793 3.1595 2.7939 11.94 
0.134 2 2.00 2.00 2.0 2.0 0.494 -0.437 6130 5793 3.1595 2.7100 11.94 
0.135 2 2.00 2.00 2.0 2.0 0.481 -0.475 6130 5793 3.1595 2.7100 11.94 
0.136 2 2.00 2.00 2.0 2.0 0.500 -0.500 6130 5793 3.1595 2.7100 11.94 
0.137 2 2.00 2.00 2.0 2.0 0.469 -0.507 6131 5793 3.0664 2.7100 11.94 
0.138 2 2.00 2.00 2.0 2.0 0.462 -0.469 6131 5793 3.0664 2.7100 11.94 
0.139 2 2.00 2.00 2.0 2.0 0.519 -0.380 6131 5794 3.0664 2.6005 11.94 
0.140 2 2.00 2.00 2.0 2.0 0.532 -0.386 6131 5794 3.0664 2.6005 11.94 
0.141 2 2.00 2.00 2.0 2.0 0.551 -0.393 6131 5794 3.0664 2.6005 11.94 
0.142 2 2.00 2.00 2.0 2.0 0.589 -0.386 6132 5794 2.7710 2.6005 11.94 
0.143 2 2.00 2.00 2.0 2.0 0.621 -0.399 6132 5795 2.7710 2.6005 11.94 
0.144 2 2.00 2.00 2.0 2.0 0.627 -0.399 6132 5795 2.7710 2.9019 11.93 
0.145 2 2.00 2.00 2.0 2.0 0.507 -0.437 6132 5795 2.7710 2.9019 11.93 
0.146 2 2.00 2.00 2.0 2.0 0.513 -0.405 6133 5795 3.0874 2.9019 11.93 
0.147 2 2.00 2.00 2.0 2.0 0.545 -0.412 6133 5795 3.0874 2.9019 11.93 
0.148 2 2.00 2.00 2.0 2.0 0.526 -0.399 6133 5796 3.0874 3.1448 11.93 
0.149 2 2.00 2.00 2.0 2.0 0.526 -0.393 6133 5796 3.0874 3.1448 11.93 
0.150 2 2.00 2.00 2.0 2.0 0.545 -0.393 6134 5796 3.2743 3.1448 11.93 
0.151 2 2.00 2.00 2.0 2.0 0.545 -0.380 6134 5796 3.2743 3.1448 11.93 
0.152 2 2.00 2.00 2.0 2.0 0.538 -0.386 6134 5797 3.2743 3.3807 11.93 
0.153 2 2.00 2.00 2.0 2.0 0.545 -0.399 6134 5797 3.2743 3.3807 11.93 
0.154 2 2.00 2.00 2.0 2.0 0.519 -0.405 6135 5797 3.5774 3.3807 11.94 
0.155 2 2.00 2.00 2.0 2.0 0.519 -0.386 6135 5798 3.5774 3.3807 11.94 
0.156 2 2.00 2.00 2.0 2.0 0.519 -0.418 6135 5798 3.5774 3.5774 11.94 
0.157 2 2.00 2.00 2.0 2.0 0.538 -0.424 6135 5798 3.5774 3.5774 11.94 
0.158 2 2.00 2.00 2.0 2.0 0.532 -0.412 6136 5798 3.3722 3.5774 11.94 
0.159 2 2.00 2.00 2.0 2.0 0.519 -0.386 6136 5799 3.3722 3.5400 11.94 
0.160 2 2.00 2.00 2.0 2.0 0.513 -0.386 6136 5799 3.3722 3.5400 11.94 
0.161 2 2.00 2.00 2.0 2.0 0.513 -0.386 6136 5799 3.3722 3.5400 11.94 
0.162 2 2.00 2.00 2.0 2.0 0.519 -0.374 6137 5799 3.2044 3.5400 11.94 
0.163 2 2.00 2.00 2.0 2.0 0.513 -0.380 6137 5800 3.1669 3.5869 11.94 
0.164 2 2.00 2.00 2.0 2.0 0.526 -0.393 6137 5800 3.1669 3.5869 11.94 
0.165 2 2.00 2.00 2.0 2.0 0.500 -0.393 6137 5800 3.1669 3.5869 11.94 
0.166 2 2.00 2.00 2.0 2.0 0.526 -0.418 6138 5800 3.7563 3.5869 11.94 
0.167 2 2.00 2.00 2.0 2.0 0.519 -0.393 6138 5801 3.7563 3.3389 11.94 
0.168 2 2.00 2.00 2.0 2.0 0.532 -0.399 6138 5801 3.7563 3.3389 11.94 
0.169 2 2.00 2.00 2.0 2.0 0.526 -0.424 6139 5801 3.7563 3.3389 11.94 
0.170 2 2.00 2.00 2.0 2.0 0.507 -0.456 6139 5801 3.9773 3.3389 11.94 
0.171 2 2.00 2.00 2.0 2.0 0.526 -0.399 6139 5802 3.9773 3.1595 11.94 
0.172 2 2.00 2.00 2.0 2.0 0.519 -0.393 6139 5802 3.9773 3.0803 11.94 
0.173 2 2.00 2.00 2.0 2.0 0.532 -0.412 6140 5802 3.9310 3.0803 11.94 
0.174 2 2.00 2.00 2.0 2.0 0.545 -0.405 6140 5802 3.9310 3.0803 11.93 
0.175 2 2.00 2.00 2.0 2.0 0.500 -0.412 6140 5803 3.9310 3.0803 11.93 
0.176 2 2.00 2.00 2.0 2.0 0.456 -0.450 6141 5803 3.8417 3.3555 11.93 
0.177 2 2.00 2.00 2.0 2.0 0.469 -0.424 6141 5803 3.7459 3.3555 11.93 
0.178 2 2.00 2.00 2.0 2.0 0.500 -0.431 6141 5803 3.7459 3.3555 11.93 
0.179 2 2.00 2.00 2.0 2.0 0.519 -0.418 6141 5804 3.7459 3.6254 11.94 
0.180 2 2.00 2.00 2.0 2.0 0.519 -0.418 6142 5804 3.5774 3.6254 11.94 
0.181 2 2.00 2.00 2.0 2.0 0.481 -0.399 6142 5804 3.5774 3.6254 11.94 
0.182 2 2.00 2.00 2.0 2.0 0.500 -0.386 6142 5804 3.5774 3.6254 11.94 
0.183 2 2.00 2.00 2.0 2.0 0.519 -0.380 6142 5805 3.5774 3.5215 11.94 
0.184 2 2.00 2.00 2.0 2.0 0.526 -0.380 6143 5805 3.3977 3.5215 11.96 
0.185 2 2.00 2.00 2.0 2.0 0.500 -0.405 6143 5805 3.3977 3.5215 11.96 
0.186 2 2.00 2.00 2.0 2.0 0.507 -0.412 6143 5806 3.3977 3.5215 11.96 
0.187 2 2.00 2.00 2.0 2.0 0.519 -0.418 6143 5806 3.3977 3.9083 11.96 
0.188 2 2.00 2.00 2.0 2.0 0.507 -0.393 6144 5806 3.7253 3.9083 11.96 
0.189 2 2.00 2.00 2.0 2.0 0.513 -0.399 6144 5806 3.7253 3.9083 11.98 
0.190 2 2.00 2.00 2.0 2.0 0.494 -0.380 6144 5807 3.7253 4.1228 11.98 
0.191 2 2.00 2.00 2.0 2.0 0.456 -0.374 6145 5807 3.7253 4.1228 11.98 
0.192 2 2.00 2.00 2.0 2.0 0.462 -0.386 6145 5807 3.8200 4.1228 11.98 
0.193 2 2.00 2.00 2.0 2.0 0.456 -0.361 6145 5808 3.8200 4.4926 11.98 
0.194 2 2.00 2.00 2.0 2.0 0.443 -0.374 6145 5808 3.8200 4.4926 11.96 
0.195 2 2.00 2.00 2.0 2.0 0.469 -0.393 6146 5808 3.9773 4.4926 11.96 
0.196 2 2.00 2.00 2.0 2.0 0.456 -0.418 6146 5809 3.9773 3.8526 11.96 
0.197 2 2.00 2.00 2.0 2.0 0.456 -0.431 6146 5809 3.9773 3.8526 11.96 
0.198 2 2.00 2.00 2.0 2.0 0.507 -0.450 6147 5809 3.8747 3.8526 11.96 
0.199 2 2.00 2.00 2.0 2.0 0.488 -0.494 6147 5809 3.8747 3.8526 11.96 
0.200 2 2.00 2.00 2.0 2.0 0.488 -0.418 6147 5809 3.8747 3.3639 11.96 
0.201 2 2.00 2.00 2.0 2.0 0.519 -0.374 6147 5810 3.8747 3.1448 11.96 
0.202 2 2.00 2.00 2.0 2.0 0.564 -0.386 6148 5810 3.7563 3.1448 11.96 
0.203 2 2.00 2.00 2.0 2.0 0.519 -0.399 6148 5810 3.7563 3.1448 11.96 
0.204 2 2.00 2.00 2.0 2.0 0.431 -0.399 6148 5811 3.7563 3.9310 11.96 
0.205 2 2.00 2.00 2.0 2.0 0.450 -0.393 6149 5811 3.7563 3.9310 11.96 
0.206 2 2.00 2.00 2.0 2.0 0.443 -0.393 6149 5811 3.7356 3.9310 11.96 
0.207 2 2.00 2.00 2.0 2.0 0.500 -0.405 6149 5812 3.7356 4.4629 11.96 
0.208 2 2.00 2.00 2.0 2.0 0.526 -0.399 6149 5812 3.7356 4.4629 11.96 
0.209 2 2.00 2.00 2.0 2.0 0.507 -0.386 6150 5812 3.9083 4.4629 11.94 
0.210 2 2.00 2.00 2.0 2.0 0.469 -0.386 6150 5813 3.9083 4.1608 11.94 
0.211 2 2.00 2.00 2.0 2.0 0.456 -0.399 6150 5813 3.9083 4.0731 11.94 
0.212 2 2.00 2.00 2.0 2.0 0.475 -0.399 6151 5813 3.9083 4.0731 11.94 
0.213 2 2.00 2.00 2.0 2.0 0.437 -0.405 6151 5813 3.8092 4.0731 11.94 
0.214 2 2.00 2.00 2.0 2.0 0.500 -0.393 6151 5814 3.8092 3.7985 11.96 
0.215 2 2.00 2.00 2.0 2.0 0.513 -0.424 6151 5814 3.8092 3.7985 11.96 
0.216 2 2.00 2.00 2.0 2.0 0.500 -0.443 6152 5814 3.7150 3.7985 11.96 
0.217 2 2.00 2.00 2.0 2.0 0.500 -0.399 6152 5815 3.7150 4.0366 11.96 
0.218 2 2.00 2.00 2.0 2.0 0.469 -0.418 6152 5815 3.7150 4.0366 11.96 
0.219 2 2.00 2.00 2.0 2.0 0.443 -0.393 6152 5815 3.7150 4.0366 11.94 
0.220 2 2.00 2.00 2.0 2.0 0.431 -0.393 6153 5816 3.8092 4.0366 11.94 
0.221 2 2.00 2.00 2.0 2.0 0.431 -0.380 6153 5816 3.8092 4.3481 11.94 
0.222 2 2.00 2.00 2.0 2.0 0.469 -0.380 6153 5816 3.8092 4.3481 11.94 
0.223 2 2.00 2.00 2.0 2.0 0.475 -0.374 6154 5816 3.9425 4.3481 11.94 
0.224 2 2.00 2.00 2.0 2.0 0.488 -0.367 6154 5817 3.9425 4.2258 11.93 
0.225 2 2.00 2.00 2.0 2.0 0.456 -0.418 6154 5817 3.9425 4.2258 11.93 
0.226 2 2.00 2.00 2.0 2.0 0.437 -0.399 6154 5817 3.9425 4.2258 11.93 
0.227 2 2.00 2.00 2.0 2.0 0.475 -0.380 6155 5818 3.8308 4.2524 11.93 
0.228 2 2.00 2.00 2.0 2.0 0.481 -0.380 6155 5818 3.8308 4.2524 11.93 
0.229 2 2.00 2.00 2.0 2.0 0.494 -0.405 6155 5818 3.8308 4.2524 11.94 
0.230 2 2.00 2.00 2.0 2.0 0.507 -0.412 6156 5819 4.2127 4.0487 11.94 
0.231 2 2.00 2.00 2.0 2.0 0.545 -0.380 6156 5819 4.2127 4.0487 11.94 
0.232 2 2.00 2.00 2.0 2.0 0.431 -0.374 6156 5819 4.2127 4.0487 11.94 
0.233 2 2.00 2.00 2.0 2.0 0.456 -0.386 6157 5820 4.3905 4.0487 11.94 
0.234 2 2.00 2.00 2.0 2.0 0.469 -0.355 6157 5820 4.3905 4.1102 11.96 
0.235 2 2.00 2.00 2.0 2.0 0.494 -0.336 6157 5820 4.3905 4.1102 11.96 
0.236 2 2.00 2.00 2.0 2.0 0.494 -0.329 6158 5820 4.7783 4.1102 11.96 
0.237 2 2.00 2.00 2.0 2.0 0.507 -0.342 6158 5821 4.7783 4.0127 11.96 
0.238 2 2.00 2.00 2.0 2.0 0.513 -0.348 6158 5821 4.7783 4.0127 11.96 
0.239 2 2.00 2.00 2.0 2.0 0.494 -0.367 6159 5821 4.6954 4.0127 11.96 
0.240 2 2.00 2.00 2.0 2.0 0.488 -0.374 6159 5822 4.6954 4.2658 11.96 
0.241 2 2.00 2.00 2.0 2.0 0.500 -0.342 6159 5822 4.6954 4.2658 11.96 
0.242 2 2.00 2.00 2.0 2.0 0.481 -0.348 6160 5822 4.5840 4.2658 11.96 
0.243 2 2.00 2.00 2.0 2.0 0.494 -0.348 6160 5823 4.5840 4.5840 11.96 
0.244 2 2.00 2.00 2.0 2.0 0.500 -0.355 6160 5823 4.5840 4.5840 11.94 
0.245 2 2.00 2.00 2.0 2.0 0.481 -0.348 6161 5824 4.1866 4.5840 11.94 
0.246 2 2.00 2.00 2.0 2.0 0.507 -0.355 6161 5824 4.1866 5.0458 11.94 
0.247 2 2.00 2.00 2.0 2.0 0.456 -0.329 6161 5824 4.1866 5.0458 11.94 
0.248 2 2.00 2.00 2.0 2.0 0.488 -0.342 6162 5825 4.2391 5.2211 11.94 
0.249 2 2.00 2.00 2.0 2.0 0.488 -0.355 6162 5825 4.2391 5.2211 11.94 
0.250 2 2.00 2.00 2.0 2.0 0.475 -0.399 6162 5825 4.2391 5.2211 11.94 
0.251 2 2.00 2.00 2.0 2.0 0.475 -0.361 6163 5826 4.0487 5.0084 11.94 
0.252 2 2.00 2.00 2.0 2.0 0.481 -0.348 6163 5826 3.9540 5.0084 11.94 
0.253 2 2.00 2.00 2.0 2.0 0.500 -0.367 6163 5826 3.9540 5.0084 11.94 
0.254 2 2.00 2.00 2.0 2.0 0.500 -0.374 6163 5827 3.9540 4.4777 11.94 
0.255 2 2.00 2.00 2.0 2.0 0.507 -0.355 6164 5827 3.9540 4.4777 11.94 
0.256 2 2.00 2.00 2.0 2.0 0.532 -0.355 6164 5827 3.9540 4.4777 11.94 
0.257 2 2.00 2.00 2.0 2.0 0.399 -0.355 6164 5828 3.9540 4.3905 11.94 
0.258 2 2.00 2.00 2.0 2.0 0.412 -0.386 6165 5828 4.4192 4.3905 11.94 
0.259 2 2.00 2.00 2.0 2.0 0.431 -0.374 6165 5828 4.4192 4.3905 11.94 
0.260 2 2.00 2.00 2.0 2.0 0.431 -0.367 6165 5829 4.4192 4.1608 11.94 
0.261 2 2.00 2.00 2.0 2.0 0.424 -0.374 6166 5829 4.7282 4.1608 11.94 
0.262 2 2.00 2.00 2.0 2.0 0.437 -0.367 6166 5829 4.7282 4.1608 11.94 
0.263 2 2.00 2.00 2.0 2.0 0.488 -0.348 6166 5830 4.7282 4.1608 11.94 
0.264 2 2.00 2.00 2.0 2.0 0.437 -0.374 6167 5830 4.5996 4.1737 11.94 
0.265 2 2.00 2.00 2.0 2.0 0.488 -0.374 6167 5830 4.5996 4.1737 11.94 
0.266 2 2.00 2.00 2.0 2.0 0.488 -0.380 6167 5830 4.5996 4.1737 11.94 
0.267 2 2.00 2.00 2.0 2.0 0.475 -0.399 6168 5831 4.4629 4.3066 11.94 
0.268 2 2.00 2.00 2.0 2.0 0.456 -0.367 6168 5831 4.4629 4.3066 11.94 
0.269 2 2.00 2.00 2.0 2.0 0.475 -0.367 6168 5832 4.4629 5.2617 11.94 
0.270 2 2.00 2.00 2.0 2.0 0.481 -0.380 6169 5832 4.1354 5.2617 11.94 
0.271 2 2.00 2.00 2.0 2.0 0.481 -0.361 6169 5833 4.1354 5.2617 11.94 
0.272 2 2.00 2.00 2.0 2.0 0.456 -0.361 6169 5833 4.1354 6.1467 11.94 
0.273 2 2.00 2.00 2.0 2.0 0.494 -0.399 6170 5833 4.1866 6.1467 11.94 
0.274 2 2.00 2.00 2.0 2.0 0.507 -0.374 6170 5834 4.1866 5.2414 11.96 
0.275 2 2.00 2.00 2.0 2.0 0.494 -0.380 6170 5834 4.1866 5.2414 11.96 
0.276 2 2.00 2.00 2.0 2.0 0.481 -0.386 6171 5834 4.5076 5.2414 11.96 
0.277 2 2.00 2.00 2.0 2.0 0.519 -0.386 6171 5835 4.5076 4.0854 11.96 
0.278 2 2.00 2.00 2.0 2.0 0.526 -0.374 6171 5835 4.5076 4.0854 11.96 
0.279 2 2.00 2.00 2.0 2.0 0.545 -0.355 6172 5835 4.3204 4.0854 11.94 
0.280 2 2.00 2.00 2.0 2.0 0.532 -0.374 6172 5836 4.1354 4.0854 11.94 
0.281 2 2.00 2.00 2.0 2.0 0.545 -0.418 6172 5836 4.1354 4.4048 11.94 
0.282 2 2.00 2.00 2.0 2.0 0.443 -0.418 6172 5836 4.1354 4.4048 11.94 
0.283 2 2.00 2.00 2.0 2.0 0.431 -0.399 6173 5837 3.9890 4.4048 11.94 
0.284 2 2.00 2.00 2.0 2.0 0.450 -0.386 6173 5837 3.9890 4.2793 11.94 
0.285 2 2.00 2.00 2.0 2.0 0.431 -0.412 6173 5837 3.9890 4.2793 11.94 
0.286 2 2.00 2.00 2.0 2.0 0.456 -0.380 6174 5838 4.7448 4.2793 11.94 
0.287 2 2.00 2.00 2.0 2.0 0.488 -0.374 6174 5838 4.7448 4.5840 11.94 
0.288 2 2.00 2.00 2.0 2.0 0.481 -0.374 6175 5838 5.5421 4.5840 11.94 
0.289 2 2.00 2.00 2.0 2.0 0.469 -0.386 6175 5839 5.5421 5.2414 11.96 
0.290 2 2.00 2.00 2.0 2.0 0.443 -0.386 6176 5839 5.5421 5.2414 11.96 
0.291 2 2.00 2.00 2.0 2.0 0.437 -0.405 6176 5839 5.5195 5.2414 11.96 
0.292 2 2.00 2.00 2.0 2.0 0.431 -0.393 6176 5840 5.5195 5.0647 11.96 
0.293 2 2.00 2.00 2.0 2.0 0.475 -0.380 6177 5840 5.0084 5.0647 11.96 
0.294 2 2.00 2.00 2.0 2.0 0.469 -0.386 6177 5841 4.9173 5.2211 11.96 
0.295 2 2.00 2.00 2.0 2.0 0.475 -0.380 6177 5841 4.9173 5.2211 11.96 
0.296 2 2.00 2.00 2.0 2.0 0.450 -0.399 6178 5841 5.3030 5.2211 11.96 
0.297 2 2.00 2.00 2.0 2.0 0.418 -0.329 6178 5842 5.3030 5.3661 11.96 
0.298 2 2.00 2.00 2.0 2.0 0.418 -0.317 6179 5842 5.3030 5.3661 11.96 
0.299 2 2.00 2.00 2.0 2.0 0.399 -0.342 6179 5843 5.2617 5.3449 11.98 
0.300 2 2.00 2.00 2.0 2.0 0.437 -0.355 6179 5843 5.2617 5.2010 11.98 
0.301 2 2.00 2.00 2.0 2.0 0.500 -0.342 6180 5843 4.8643 5.2010 11.98 
0.302 2 2.00 2.00 2.0 2.0 0.545 -0.355 6180 5844 4.8643 5.2211 11.98 
0.303 2 2.00 2.00 2.0 2.0 0.500 -0.361 6180 5844 4.8643 5.2211 11.98 
0.304 2 2.00 2.00 2.0 2.0 0.431 -0.367 6181 5844 4.8468 5.2211 11.96 
0.305 2 2.00 2.00 2.0 2.0 0.494 -0.374 6181 5845 4.8468 5.1222 11.96 
0.306 2 2.00 2.00 2.0 2.0 0.488 -0.361 6181 5845 4.8468 5.1222 11.96 
0.307 2 2.00 2.00 2.0 2.0 0.494 -0.380 6182 5846 5.0270 5.0270 11.96 
0.308 2 2.00 2.00 2.0 2.0 0.475 -0.412 6182 5846 5.0270 4.9353 11.96 
0.309 2 2.00 2.00 2.0 2.0 0.481 -0.399 6183 5846 5.7300 4.9353 11.98 
0.310 2 2.00 2.00 2.0 2.0 0.462 -0.393 6183 5847 5.7300 4.6630 11.98 
0.311 2 2.00 2.00 2.0 2.0 0.450 -0.367 6184 5847 5.7300 4.6630 11.98 
0.312 2 2.00 2.00 2.0 2.0 0.431 -0.361 6184 5847 5.6345 4.6630 11.98 
0.313 2 2.00 2.00 2.0 2.0 0.443 -0.361 6184 5848 5.6345 4.9173 11.98 
0.314 2 2.00 2.00 2.0 2.0 0.431 -0.380 6185 5848 5.3661 4.9173 11.96 
0.315 2 2.00 2.00 2.0 2.0 0.443 -0.367 6185 5848 5.3661 4.9173 11.96 
0.316 2 2.00 2.00 2.0 2.0 0.456 -0.367 6186 5849 5.3661 5.1222 11.96 
0.317 2 2.00 2.00 2.0 2.0 0.469 -0.386 6186 5849 5.4748 5.1222 11.96 
0.318 2 2.00 2.00 2.0 2.0 0.462 -0.355 6186 5850 5.4748 5.2211 11.96 
0.319 2 2.00 2.00 2.0 2.0 0.481 -0.361 6187 5850 4.9534 5.2211 11.96 
0.320 2 2.00 2.00 2.0 2.0 0.456 -0.380 6187 5850 4.9534 5.2211 11.96 
0.321 2 2.00 2.00 2.0 2.0 0.507 -0.342 6187 5851 4.9534 5.4527 11.96 
0.322 2 2.00 2.00 2.0 2.0 0.519 -0.355 6188 5851 4.6153 5.4527 11.96 
0.323 2 2.00 2.00 2.0 2.0 0.532 -0.355 6188 5852 4.6153 5.8287 11.96 
0.324 2 2.00 2.00 2.0 2.0 0.475 -0.348 6188 5852 4.6153 5.8287 11.96 
0.325 2 2.00 2.00 2.0 2.0 0.437 -0.374 6189 5853 4.5076 5.8287 11.96 
0.326 2 2.00 2.00 2.0 2.0 0.399 -0.393 6189 5853 4.5076 5.3875 11.96 
0.327 2 2.00 2.00 2.0 2.0 0.443 -0.374 6189 5853 4.5076 5.3875 11.96 
0.328 2 2.00 2.00 2.0 2.0 0.488 -0.393 6190 5854 4.6954 4.9173 11.96 
0.329 2 2.00 2.00 2.0 2.0 0.507 -0.399 6190 5854 4.6954 4.8818 11.96 
0.330 2 2.00 2.00 2.0 2.0 0.469 -0.367 6190 5854 4.6954 4.8818 11.96 
0.331 2 2.00 2.00 2.0 2.0 0.475 -0.399 6191 5855 4.8818 4.5378 11.96 
0.332 2 2.00 2.00 2.0 2.0 0.475 -0.412 6191 5855 4.8818 4.3481 11.96 
0.333 2 2.00 2.00 2.0 2.0 0.462 -0.386 6192 5855 5.4970 4.3481 11.96 
0.334 2 2.00 2.00 2.0 2.0 0.431 -0.386 6192 5856 5.4970 4.3481 11.96 
0.335 2 2.00 2.00 2.0 2.0 0.431 -0.393 6192 5856 5.4970 4.6791 11.96 
0.336 2 2.00 2.00 2.0 2.0 0.386 -0.380 6193 5856 5.5879 4.6791 11.96 
0.337 2 2.00 2.00 2.0 2.0 0.399 -0.380 6193 5857 5.5879 4.8995 11.96 
0.338 2 2.00 2.00 2.0 2.0 0.399 -0.405 6194 5857 5.7300 4.8995 11.96 
0.339 2 2.00 2.00 2.0 2.0 0.393 -0.405 6194 5858 5.7300 4.8995 11.96 
0.340 2 2.00 2.00 2.0 2.0 0.399 -0.355 6195 5858 5.7300 5.5421 11.96 
0.341 2 2.00 2.00 2.0 2.0 0.405 -0.374 6195 5858 5.5879 5.5421 11.96 
0.342 2 2.00 2.00 2.0 2.0 0.431 -0.374 6195 5859 5.5879 6.1747 11.96 
0.343 2 2.00 2.00 2.0 2.0 0.481 -0.342 6196 5859 5.6111 6.1747 11.96 
0.344 2 2.00 2.00 2.0 2.0 0.469 -0.329 6196 5860 5.6111 6.0640 11.96 
0.345 2 2.00 2.00 2.0 2.0 0.374 -0.348 6197 5860 5.5421 6.0640 11.96 
0.346 2 2.00 2.00 2.0 2.0 0.431 -0.355 6197 5861 5.5421 5.9571 11.96 
0.347 2 2.00 2.00 2.0 2.0 0.456 -0.386 6197 5861 5.5421 5.9571 11.96 
0.348 2 2.00 2.00 2.0 2.0 0.456 -0.380 6198 5862 5.6345 5.9571 11.96 
0.349 2 2.00 2.00 2.0 2.0 0.424 -0.355 6198 5862 5.6345 5.8794 11.94 
0.350 2 2.00 2.00 2.0 2.0 0.424 -0.367 6199 5862 5.6818 5.8794 11.94 
0.351 2 2.00 2.00 2.0 2.0 0.443 -0.361 6199 5863 5.6818 5.7300 11.94 
0.352 2 2.00 2.00 2.0 2.0 0.437 -0.367 6200 5863 5.6818 5.7300 11.94 
0.353 2 2.00 2.00 2.0 2.0 0.424 -0.348 6200 5864 5.8540 5.5649 11.94 
0.354 2 2.00 2.00 2.0 2.0 0.399 -0.355 6200 5864 5.8540 5.3449 11.96 
0.355 2 2.00 2.00 2.0 2.0 0.374 -0.380 6201 5864 5.8794 5.3449 11.96 
0.356 2 2.00 2.00 2.0 2.0 0.374 -0.399 6201 5865 5.8794 4.7783 11.96 
0.357 2 2.00 2.00 2.0 2.0 0.380 -0.431 6202 5865 6.1189 4.7783 11.96 
0.358 2 2.00 2.00 2.0 2.0 0.393 -0.450 6202 5865 6.1189 4.7783 11.96 
0.359 2 2.00 2.00 2.0 2.0 0.399 -0.355 6203 5866 5.9051 5.1811 11.98 
0.360 2 2.00 2.00 2.0 2.0 0.405 -0.367 6203 5866 5.9051 5.1811 11.98 
0.361 2 2.00 2.00 2.0 2.0 0.418 -0.367 6204 5867 5.9051 5.6345 11.98 
0.362 2 2.00 2.00 2.0 2.0 0.431 -0.304 6204 5867 5.9310 5.6345 11.98 
0.363 2 2.00 2.00 2.0 2.0 0.393 -0.329 6204 5868 5.9310 5.6345 11.98 
0.364 2 2.00 2.00 2.0 2.0 0.386 -0.291 6205 5868 5.3661 6.0101 11.96 
0.365 2 2.00 2.00 2.0 2.0 0.424 -0.310 6205 5868 5.3661 6.0101 11.96 
0.366 2 2.00 2.00 2.0 2.0 0.456 -0.336 6206 5869 5.3661 6.1467 11.96 
0.367 2 2.00 2.00 2.0 2.0 0.456 -0.329 6206 5869 5.3875 6.1467 11.96 
0.368 2 2.00 2.00 2.0 2.0 0.456 -0.317 6206 5870 5.3875 6.4394 11.96 
0.369 2 2.00 2.00 2.0 2.0 0.462 -0.336 6207 5870 5.1417 6.4394 11.96 
0.370 2 2.00 2.00 2.0 2.0 0.475 -0.336 6207 5871 5.1417 6.0369 11.96 
0.371 2 2.00 2.00 2.0 2.0 0.431 -0.342 6207 5871 5.1417 6.0369 11.96 
0.372 2 2.00 2.00 2.0 2.0 0.462 -0.329 6208 5872 5.1417 5.9571 11.96 
0.373 2 2.00 2.00 2.0 2.0 0.488 -0.348 6208 5872 5.1417 5.7543 11.96 
0.374 2 2.00 2.00 2.0 2.0 0.450 -0.342 6209 5872 5.1417 5.7543 11.96 
0.375 2 2.00 2.00 2.0 2.0 0.456 -0.342 6209 5873 5.2010 5.2211 11.96 
0.376 2 2.00 2.00 2.0 2.0 0.443 -0.399 6209 5873 5.2010 5.2211 11.96 
0.377 2 2.00 2.00 2.0 2.0 0.424 -0.405 6210 5873 5.7300 5.2211 11.96 
0.378 2 2.00 2.00 2.0 2.0 0.361 -0.374 6210 5874 5.7300 4.8468 11.96 
0.379 2 2.00 2.00 2.0 2.0 0.361 -0.380 6211 5874 5.8287 4.8468 11.96 
0.380 2 2.00 2.00 2.0 2.0 0.412 -0.393 6211 5875 5.8287 4.8468 11.96 
0.381 2 2.00 2.00 2.0 2.0 0.431 -0.367 6212 5875 5.8287 4.9353 11.96 
0.382 2 2.00 2.00 2.0 2.0 0.481 -0.348 6212 5875 5.8794 4.9353 11.96 
0.383 2 2.00 2.00 2.0 2.0 0.361 -0.348 6212 5876 5.8794 5.8037 11.96 
0.384 2 2.00 2.00 2.0 2.0 0.367 -0.323 6213 5876 5.8287 5.8037 11.96 
0.385 2 2.00 2.00 2.0 2.0 0.380 -0.317 6213 5877 5.8287 6.5327 11.96 
0.386 2 2.00 2.00 2.0 2.0 0.374 -0.279 6214 5877 5.7543 6.5327 11.96 
0.387 2 2.00 2.00 2.0 2.0 0.418 -0.317 6214 5878 5.7543 6.7277 11.96 
0.388 2 2.00 2.00 2.0 2.0 0.418 -0.329 6215 5878 5.7543 6.7277 11.96 
0.389 2 2.00 2.00 2.0 2.0 0.386 -0.336 6215 5879 5.7300 6.1467 11.96 
0.390 2 2.00 2.00 2.0 2.0 0.380 -0.367 6215 5879 5.7300 6.1467 11.96 
0.391 2 2.00 2.00 2.0 2.0 0.374 -0.393 6216 5880 6.0369 6.4702 11.96 
0.392 2 2.00 2.00 2.0 2.0 0.386 -0.367 6216 5880 6.0369 6.4702 11.96 
0.393 2 2.00 2.00 2.0 2.0 0.393 -0.367 6217 5881 6.0369 6.7277 11.96 
0.394 2 2.00 2.00 2.0 2.0 0.418 -0.367 6217 5881 6.0369 6.7277 11.94 
0.395 2 2.00 2.00 2.0 2.0 0.393 -0.399 6218 5881 6.4089 6.4702 11.94 
0.396 2 2.00 2.00 2.0 2.0 0.418 -0.367 6218 5882 6.4089 5.3661 11.94 
0.397 2 2.00 2.00 2.0 2.0 0.405 -0.367 6219 5882 6.9705 5.3661 11.94 
0.398 2 2.00 2.00 2.0 2.0 0.431 -0.399 6219 5882 6.9705 5.2617 11.94 
0.399 2 2.00 2.00 2.0 2.0 0.437 -0.405 6220 5883 6.4089 4.4777 11.94 
0.400 2 2.00 2.00 2.0 2.0 0.469 -0.399 6220 5883 6.4089 4.4777 11.94 
0.401 4 0.00 0.00 0.0 0.0 0.374 -0.405 6221 5884 5.8794 5.4527 11.94 
0.402 4 0.00 0.00 0.0 0.0 0.241 -0.241 6221 5884 5.8037 5.4527 11.94 
0.405 4 0.00 0.00 0.0 0.0 0.032 -0.051 6222 5885 5.8037 5.4527 11.94 
0.406 4 0.00 0.00 0.0 0.0 -0.063 0.101 6222 5886 5.9835 5.9571 12.02 
0.407 4 0.00 0.00 0.0 0.0 -0.057 0.133 6223 5886 5.5879 5.7543 12.02 
0.407 4 0.00 0.00 0.0 0.0 -0.076 0.139 6223 5886 5.5879 5.7543 12.02 
0.408 4 0.00 0.00 0.0 0.0 -0.057 0.133 6223 5887 5.5879 5.5195 12.02 
0.409 4 0.00 0.00 0.0 0.0 -0.063 0.120 6224 5887 4.5840 5.3030 12.02 
0.410 4 0.00 0.00 0.0 0.0 -0.051 0.120 6224 5887 4.5840 5.3030 12.02 
0.411 4 0.00 0.00 0.0 0.0 -0.063 0.114 6224 5887 4.5840 4.6630 12.02 
0.412 4 0.00 0.00 0.0 0.0 -0.057 0.095 6224 5888 4.0609 4.0978 12.02 
0.413 4 0.00 0.00 0.0 0.0 -0.038 0.082 6225 5888 3.6351 4.0978 12.02 
0.414 4 0.00 0.00 0.0 0.0 -0.051 0.082 6225 5888 3.6351 4.0978 12.02 
0.415 4 0.00 0.00 0.0 0.0 -0.057 0.089 6225 5888 3.6351 3.7356 12.01 
0.416 4 0.00 0.00 0.0 0.0 -0.032 0.051 6226 5889 3.6351 3.1818 12.01 
0.417 4 0.00 0.00 0.0 0.0 -0.044 0.051 6226 5889 3.6947 3.1818 12.01 
0.418 4 0.00 0.00 0.0 0.0 -0.038 0.044 6226 5889 3.6947 3.1818 12.01 
0.419 4 0.00 0.00 0.0 0.0 -0.032 0.032 6226 5889 3.6947 3.1818 12.01 
0.420 4 0.00 0.00 0.0 0.0 -0.025 0.038 6227 5889 3.3977 3.0944 12.01 
0.421 4 0.00 0.00 0.0 0.0 -0.013 0.025 6227 5890 3.3891 2.6672 12.01 
0.422 4 0.00 0.00 0.0 0.0 -0.019 0.044 6227 5890 3.3891 2.6672 12.01 
0.423 4 0.00 0.00 0.0 0.0 -0.019 0.038 6227 5890 3.3891 2.6672 12.01 
0.424 4 0.00 0.00 0.0 0.0 -0.019 0.051 6227 5890 3.3891 2.6672 12.01 
0.425 4 0.00 0.00 0.0 0.0 -0.025 0.070 6228 5891 3.0525 3.6449 12.02 
0.426 4 0.00 0.00 0.0 0.0 -0.019 0.076 6228 5891 3.0525 3.6449 12.02 
0.427 4 0.00 0.00 0.0 0.0 -0.019 0.089 6228 5891 3.0525 3.6449 12.02 
0.428 4 0.00 0.00 0.0 0.0 -0.025 0.095 6228 5892 3.0525 4.8295 12.02 
0.429 4 0.00 0.00 0.0 0.0 -0.038 0.101 6229 5892 3.1375 4.8295 12.02 
0.430 4 0.00 0.00 0.0 0.0 -0.038 0.108 6229 5893 3.1375 5.4970 12.02 
0.431 4 0.00 0.00 0.0 0.0 -0.051 0.133 6229 5893 3.1375 5.4970 12.02 
0.432 4 0.00 0.00 0.0 0.0 -0.032 0.146 6229 5894 3.1375 5.4970 12.02 
0.433 4 0.00 0.00 0.0 0.0 -0.032 0.158 6230 5894 3.5215 5.7543 12.02 
0.434 4 0.00 0.00 0.0 0.0 -0.057 0.152 6230 5894 3.5215 5.7543 12.02 
0.435 4 0.00 0.00 0.0 0.0 -0.044 0.152 6230 5895 3.5215 5.1029 12.02 
0.436 4 0.00 0.00 0.0 0.0 -0.051 0.152 6231 5895 4.1996 5.1029 12.02 
0.437 4 0.00 0.00 0.0 0.0 -0.051 0.120 6231 5895 4.1996 5.1029 12.02 
0.438 4 0.00 0.00 0.0 0.0 -0.082 0.108 6231 5896 4.1996 4.8295 12.02 
0.439 4 0.00 0.00 0.0 0.0 -0.057 0.120 6232 5896 4.2793 4.8295 12.02 
0.440 4 0.00 0.00 0.0 0.0 -0.044 0.089 6232 5896 4.2793 4.8295 12.01 
0.441 4 0.00 0.00 0.0 0.0 -0.070 0.089 6232 5897 4.2793 4.6153 12.01 
0.442 4 0.00 0.00 0.0 0.0 -0.063 0.076 6233 5897 4.2793 4.6153 12.01 
0.443 4 0.00 0.00 0.0 0.0 -0.044 0.089 6233 5897 4.3066 4.6153 12.01 
0.444 4 0.00 0.00 0.0 0.0 -0.044 0.089 6233 5898 4.3066 4.2524 12.01 
0.445 4 0.00 0.00 0.0 0.0 -0.063 0.076 6234 5898 4.7282 4.2524 12.01 
0.446 4 0.00 0.00 0.0 0.0 -0.063 0.076 6234 5898 4.7282 4.2524 12.01 
0.447 4 0.00 0.00 0.0 0.0 -0.044 0.070 6234 5899 4.7282 4.3066 12.01 
0.448 4 0.00 0.00 0.0 0.0 -0.063 0.089 6235 5899 4.8295 4.3066 12.01 
0.449 4 0.00 0.00 0.0 0.0 -0.057 0.082 6235 5899 4.8295 4.3066 12.01 
0.450 4 0.00 0.00 0.0 0.0 -0.070 0.101 6235 5900 4.8295 4.5996 12.01 
0.451 4 0.00 0.00 0.0 0.0 -0.051 0.095 6236 5900 4.9716 4.5996 12.01 
0.452 4 0.00 0.00 0.0 0.0 -0.044 0.114 6236 5900 4.9716 4.5996 12.01 
0.453 4 0.00 0.00 0.0 0.0 -0.038 0.114 6236 5901 4.9716 4.5531 12.01 
0.454 4 0.00 0.00 0.0 0.0 -0.038 0.101 6237 5901 4.7783 4.5531 12.01 
0.455 4 0.00 0.00 0.0 0.0 -0.044 0.127 6237 5901 4.7783 4.5531 12.02 
0.456 4 0.00 0.00 0.0 0.0 -0.038 0.101 6237 5902 4.7783 4.6470 12.02 
0.457 4 0.00 0.00 0.0 0.0 -0.063 0.114 6238 5902 4.4629 4.6470 12.02 
0.458 4 0.00 0.00 0.0 0.0 -0.070 0.133 6238 5902 4.4629 4.6470 12.02 
0.459 4 0.00 0.00 0.0 0.0 -0.044 0.133 6238 5903 4.4629 4.5996 12.02 
0.460 4 0.00 0.00 0.0 0.0 -0.038 0.127 6239 5903 3.9540 4.5996 12.01 
0.461 4 0.00 0.00 0.0 0.0 -0.057 0.114 6239 5904 3.9540 4.5996 12.01 
0.462 4 0.00 0.00 0.0 0.0 -0.057 0.114 6239 5904 3.9540 4.8995 12.01 
0.463 4 0.00 0.00 0.0 0.0 -0.051 0.127 6240 5904 3.9540 4.8995 12.01 
0.464 4 0.00 0.00 0.0 0.0 -0.057 0.120 6240 5905 3.9083 4.8995 12.01 
0.465 4 0.00 0.00 0.0 0.0 -0.057 0.120 6240 5905 3.9083 4.6954 12.02 
0.466 4 0.00 0.00 0.0 0.0 -0.032 0.108 6240 5905 3.9083 4.6954 12.02 
0.467 4 0.00 0.00 0.0 0.0 -0.032 0.089 6241 5906 3.6449 4.6954 12.02 
0.468 4 0.00 0.00 0.0 0.0 -0.025 0.082 6241 5906 3.6449 4.7117 12.02 
0.469 4 0.00 0.00 0.0 0.0 -0.044 0.070 6241 5906 3.6449 4.7117 12.02 
0.470 4 0.00 0.00 0.0 0.0 -0.044 0.095 6241 5907 3.6449 4.4926 12.01 
0.471 4 0.00 0.00 0.0 0.0 -0.057 0.082 6242 5907 3.8200 4.4926 12.01 
0.472 4 0.00 0.00 0.0 0.0 -0.051 0.063 6242 5907 3.8200 4.4926 12.01 
0.473 4 0.00 0.00 0.0 0.0 -0.044 0.057 6242 5907 3.8200 4.4926 12.01 
0.474 4 0.00 0.00 0.0 0.0 -0.051 0.070 6243 5908 4.0008 3.5680 12.01 
0.475 4 0.00 0.00 0.0 0.0 -0.038 0.063 6243 5908 4.0008 3.5680 12.01 
0.476 4 0.00 0.00 0.0 0.0 -0.051 0.057 6243 5908 4.0008 3.5680 12.01 
0.477 4 0.00 0.00 0.0 0.0 -0.032 0.051 6244 5908 4.3481 3.5680 12.01 
0.478 4 0.00 0.00 0.0 0.0 -0.044 0.057 6244 5908 4.3481 3.2274 12.01 
0.479 4 0.00 0.00 0.0 0.0 -0.044 0.063 6244 5909 4.3481 2.9333 12.01 
0.480 4 0.00 0.00 0.0 0.0 -0.044 0.044 6245 5909 4.3481 2.9333 12.01 
0.481 4 0.00 0.00 0.0 0.0 -0.057 0.076 6245 5909 4.4048 2.9333 12.01 
0.482 4 0.00 0.00 0.0 0.0 -0.044 0.076 6245 5909 4.4048 2.9333 12.01 
0.483 4 0.00 0.00 0.0 0.0 -0.063 0.070 6246 5910 4.4048 3.1303 12.01 
0.484 4 0.00 0.00 0.0 0.0 -0.051 0.070 6246 5910 4.4337 3.1303 12.01 
0.485 4 0.00 0.00 0.0 0.0 -0.044 0.089 6246 5910 4.4337 3.1303 12.01 
0.486 4 0.00 0.00 0.0 0.0 -0.051 0.089 6246 5910 4.4337 3.1303 12.01 
0.487 4 0.00 0.00 0.0 0.0 -0.038 0.076 6247 5911 4.1996 3.5965 12.01 
0.488 4 0.00 0.00 0.0 0.0 -0.051 0.095 6247 5911 4.1996 3.5965 12.01 
0.489 4 0.00 0.00 0.0 0.0 -0.070 0.076 6247 5911 4.1996 3.5965 12.01 
0.490 4 0.00 0.00 0.0 0.0 -0.044 0.082 6248 5912 3.9890 3.5965 12.01 
0.491 4 0.00 0.00 0.0 0.0 -0.038 0.089 6248 5912 3.9890 3.6548 12.01 
0.492 4 0.00 0.00 0.0 0.0 -0.057 0.082 6248 5912 3.9890 3.6548 12.01 
0.493 4 0.00 0.00 0.0 0.0 -0.038 0.082 6248 5912 3.9890 3.6548 12.01 
0.494 4 0.00 0.00 0.0 0.0 -0.051 0.089 6249 5913 3.6647 3.5586 12.01 
0.495 4 0.00 0.00 0.0 0.0 -0.044 0.070 6249 5913 3.6647 3.4235 12.01 
0.496 4 0.00 0.00 0.0 0.0 -0.051 0.076 6249 5913 3.6647 3.4235 12.01 
0.497 4 0.00 0.00 0.0 0.0 -0.038 0.070 6250 5913 3.6647 3.4235 12.01 
0.498 4 0.00 0.00 0.0 0.0 -0.032 0.063 6250 5914 3.5869 3.7563 12.01 
0.499 4 0.00 0.00 0.0 0.0 -0.025 0.051 6250 5914 3.5869 3.7563 12.01 
0.500 4 0.00 0.00 0.0 0.0 -0.038 0.032 6250 5914 3.5869 3.7563 12.01 
0.501 4 0.00 0.00 0.0 0.0 -0.038 0.051 6251 5914 3.5400 3.7563 12.01 
0.502 4 0.00 0.00 0.0 0.0 -0.032 0.044 6251 5915 3.4852 3.7879 12.01 
0.503 4 0.00 0.00 0.0 0.0 -0.032 0.051 6251 5915 3.4852 3.7879 12.01 
0.504 4 0.00 0.00 0.0 0.0 -0.038 0.032 6251 5915 3.4852 3.7879 12.01 
0.505 4 0.00 0.00 0.0 0.0 -0.044 0.025 6252 5915 3.7356 3.6548 12.01 
0.506 4 0.00 0.00 0.0 0.0 -0.038 0.051 6252 5916 3.7356 3.3639 12.01 
0.507 4 0.00 0.00 0.0 0.0 -0.032 0.025 6252 5916 3.7356 3.3639 12.01 
0.508 4 0.00 0.00 0.0 0.0 -0.051 0.044 6252 5916 3.7356 3.3639 12.01 
0.509 4 0.00 0.00 0.0 0.0 -0.038 0.051 6253 5916 3.6847 3.3639 12.01 
0.510 4 0.00 0.00 0.0 0.0 -0.032 0.044 6253 5917 3.6847 2.8895 12.01 
0.511 4 0.00 0.00 0.0 0.0 -0.044 0.044 6253 5917 3.6847 2.8711 12.01 
0.512 4 0.00 0.00 0.0 0.0 -0.057 0.044 6254 5917 3.6847 2.8711 12.01 
0.513 4 0.00 0.00 0.0 0.0 -0.038 0.063 6254 5917 3.6847 2.8711 12.01 
0.514 4 0.00 0.00 0.0 0.0 -0.038 0.051 6254 5917 3.6847 2.8711 12.01 
0.515 4 0.00 0.00 0.0 0.0 -0.044 0.044 6254 5918 3.6847 3.0664 12.01 
0.516 4 0.00 0.00 0.0 0.0 -0.032 0.044 6255 5918 3.4062 3.0664 12.01 
0.517 4 0.00 0.00 0.0 0.0 -0.038 0.063 6255 5918 3.3807 3.0664 12.01 
0.518 4 0.00 0.00 0.0 0.0 -0.038 0.057 6255 5918 3.3807 3.0664 12.01 
0.519 4 0.00 0.00 0.0 0.0 -0.025 0.063 6255 5919 3.3807 3.2585 12.01 
0.520 4 0.00 0.00 0.0 0.0 -0.057 0.057 6255 5919 3.3807 3.2585 12.01 
0.521 4 0.00 0.00 0.0 0.0 -0.044 0.051 6256 5919 3.0320 3.2585 12.01 
0.522 4 0.00 0.00 0.0 0.0 -0.038 0.070 6256 5919 3.0320 3.2585 12.01 
0.523 4 0.00 0.00 0.0 0.0 -0.025 0.057 6256 5920 3.0320 3.1669 12.01 
0.524 4 0.00 0.00 0.0 0.0 -0.038 0.051 6256 5920 3.0320 3.1669 12.01 
0.525 4 0.00 0.00 0.0 0.0 -0.038 0.063 6256 5920 2.9786 3.1669 12.01 
0.526 4 0.00 0.00 0.0 0.0 -0.025 0.038 6257 5920 2.6938 3.1669 12.01 
0.527 4 0.00 0.00 0.0 0.0 -0.032 0.044 6257 5920 2.6938 3.1669 12.01 
0.528 4 0.00 0.00 0.0 0.0 -0.032 0.044 6257 5921 2.6938 3.0733 12.01 
0.529 4 0.00 0.00 0.0 0.0 -0.032 0.044 6257 5921 2.6938 3.0733 12.01 
0.530 4 0.00 0.00 0.0 0.0 -0.025 0.044 6258 5921 2.6938 3.0733 12.01 
0.531 4 0.00 0.00 0.0 0.0 -0.025 0.044 6258 5922 2.8589 3.0733 12.01 
0.532 4 0.00 0.00 0.0 0.0 -0.038 0.038 6258 5922 2.8589 3.3891 12.01 
0.533 4 0.00 0.00 0.0 0.0 -0.044 0.063 6258 5922 2.8589 3.3891 12.01 
0.534 4 0.00 0.00 0.0 0.0 -0.013 0.051 6258 5922 2.8589 3.3891 12.01 
0.535 4 0.00 0.00 0.0 0.0 -0.025 0.057 6259 5923 2.9655 3.3891 12.01 
0.536 4 0.00 0.00 0.0 0.0 -0.032 0.038 6259 5923 2.9655 3.5033 12.01 
0.537 4 0.00 0.00 0.0 0.0 -0.032 0.044 6259 5923 2.9655 3.5033 12.01 
0.538 4 0.00 0.00 0.0 0.0 -0.044 0.044 6259 5923 2.9655 3.5033 12.01 
0.539 4 0.00 0.00 0.0 0.0 -0.038 0.051 6260 5923 2.9655 3.4942 12.01 
0.540 4 0.00 0.00 0.0 0.0 -0.032 0.044 6260 5924 3.0525 3.2120 11.99 
0.541 4 0.00 0.00 0.0 0.0 -0.025 0.013 6260 5924 3.0525 3.2120 11.99 
0.542 4 0.00 0.00 0.0 0.0 -0.013 0.025 6260 5924 3.0525 3.2120 11.99 
0.543 4 0.00 0.00 0.0 0.0 -0.019 0.013 6260 5924 3.0525 3.2120 11.99 
0.544 4 0.00 0.00 0.0 0.0 -0.044 0.019 6261 5924 2.9590 2.9019 11.99 
0.545 4 0.00 0.00 0.0 0.0 -0.038 0.019 6261 5925 2.9590 2.5323 12.01 
0.546 4 0.00 0.00 0.0 0.0 -0.025 0.006 6261 5925 2.9590 2.5323 12.01 
0.547 4 0.00 0.00 0.0 0.0 -0.044 0.013 6261 5925 2.9590 2.5323 12.01 
0.548 4 0.00 0.00 0.0 0.0 -0.025 0.013 6261 5925 2.9590 2.5323 12.01 
0.549 4 0.00 0.00 0.0 0.0 -0.032 0.013 6262 5925 2.6831 2.5323 12.01 
0.550 4 0.00 0.00 0.0 0.0 -0.032 0.000 6262 5925 2.6831 2.5323 11.99 
0.551 4 0.00 0.00 0.0 0.0 -0.025 0.025 6262 5925 2.6831 2.1397 11.99 
0.552 4 0.00 0.00 0.0 0.0 -0.032 0.044 6262 5926 2.6831 1.8913 11.99 
0.553 4 0.00 0.00 0.0 0.0 -0.019 0.044 6262 5926 2.6831 1.8913 11.99 
0.554 4 0.00 0.00 0.0 0.0 -0.032 0.032 6262 5926 2.6207 1.8913 11.99 
0.555 4 0.00 0.00 0.0 0.0 -0.025 0.032 6263 5926 2.2998 1.8913 12.01 
0.556 4 0.00 0.00 0.0 0.0 -0.006 0.044 6263 5926 2.2998 1.8913 12.01 
0.557 4 0.00 0.00 0.0 0.0 -0.013 0.038 6263 5926 2.2998 1.8913 12.01 
0.558 4 0.00 0.00 0.0 0.0 -0.038 0.044 6263 5926 2.2998 1.8913 12.01 
0.559 4 0.00 0.00 0.0 0.0 -0.038 0.032 6263 5927 2.2998 2.0366 12.01 
0.560 4 0.00 0.00 0.0 0.0 -0.038 0.057 6263 5927 2.2998 2.0366 12.01 
0.561 4 0.00 0.00 0.0 0.0 -0.025 0.038 6264 5927 2.1533 2.0366 12.01 
0.562 4 0.00 0.00 0.0 0.0 -0.019 0.032 6264 5927 2.1533 2.0366 12.01 
0.563 4 0.00 0.00 0.0 0.0 -0.025 0.038 6264 5927 2.1533 2.0366 12.01 
0.564 4 0.00 0.00 0.0 0.0 -0.032 0.032 6264 5927 2.1533 2.0366 12.01 
0.565 4 0.00 0.00 0.0 0.0 -0.032 0.019 6264 5928 2.1533 2.0366 12.01 
0.566 4 0.00 0.00 0.0 0.0 -0.019 0.019 6264 5928 2.1533 2.0551 12.01 
0.567 4 0.00 0.00 0.0 0.0 -0.013 0.038 6264 5928 2.1533 2.0551 12.01 
0.568 4 0.00 0.00 0.0 0.0 -0.032 0.038 6265 5928 1.9916 2.0551 12.01 
0.569 4 0.00 0.00 0.0 0.0 -0.019 0.032 6265 5928 1.9916 2.0551 12.01 
0.570 4 0.00 0.00 0.0 0.0 -0.013 0.032 6265 5928 1.9916 2.0551 12.01 
0.571 4 0.00 0.00 0.0 0.0 -0.051 0.032 6265 5928 1.9916 2.0551 12.01 
0.572 4 0.00 0.00 0.0 0.0 -0.019 0.013 6265 5929 1.9916 2.1811 12.01 
0.573 4 0.00 0.00 0.0 0.0 -0.019 0.006 6265 5929 1.9916 2.1811 12.01 
0.574 4 0.00 0.00 0.0 0.0 -0.032 0.025 6266 5929 1.9916 2.1811 12.01 
0.575 4 0.00 0.00 0.0 0.0 -0.025 0.025 6266 5929 2.0965 2.1811 12.01 
0.576 4 0.00 0.00 0.0 0.0 -0.025 -0.006 6266 5929 2.0965 2.1811 12.01 
0.577 4 0.00 0.00 0.0 0.0 -0.013 0.013 6266 5929 2.0965 2.1811 12.01 
0.578 4 0.00 0.00 0.0 0.0 -0.032 0.025 6266 5929 2.0965 2.0034 12.01 
0.579 4 0.00 0.00 0.0 0.0 -0.032 0.019 6266 5930 2.0965 1.8755 12.01 
0.580 4 0.00 0.00 0.0 0.0 -0.038 0.000 6267 5930 2.0965 1.8755 12.01 
0.581 4 0.00 0.00 0.0 0.0 -0.019 0.006 6267 5930 2.2426 1.8755 12.01 
0.582 4 0.00 0.00 0.0 0.0 -0.019 0.032 6267 5930 2.2426 1.8755 12.01 
0.583 4 0.00 0.00 0.0 0.0 -0.025 0.019 6267 5930 2.2426 1.8755 12.01 
0.584 4 0.00 0.00 0.0 0.0 -0.019 0.013 6267 5930 2.2426 1.8755 12.01 
0.585 4 0.00 0.00 0.0 0.0 -0.025 0.006 6267 5930 2.2426 1.8755 12.01 
0.586 4 0.00 0.00 0.0 0.0 -0.025 0.006 6267 5930 2.2426 1.7935 12.01 
0.587 4 0.00 0.00 0.0 0.0 -0.006 0.006 6268 5930 2.0093 1.5835 12.01 
0.588 4 0.00 0.00 0.0 0.0 -0.025 0.006 6268 5931 1.9541 1.4355 12.01 
0.589 4 0.00 0.00 0.0 0.0 -0.019 0.006 6268 5931 1.9541 1.4355 12.01 
0.590 4 0.00 0.00 0.0 0.0 -0.025 0.025 6268 5931 1.9541 1.4355 12.01 
0.591 4 0.00 0.00 0.0 0.0 -0.025 -0.006 6268 5931 1.9541 1.4355 12.01 
0.592 4 0.00 0.00 0.0 0.0 -0.013 0.006 6268 5931 1.9541 1.4355 12.01 
0.593 4 0.00 0.00 0.0 0.0 -0.032 0.013 6268 5931 1.9541 1.4355 12.01 
0.594 4 0.00 0.00 0.0 0.0 -0.019 0.006 6268 5931 1.9541 1.4355 12.01 
0.595 4 0.00 0.00 0.0 0.0 -0.032 0.000 6268 5931 1.7248 1.4355 11.98 
0.596 4 0.00 0.00 0.0 0.0 0.000 0.019 6269 5931 1.6041 1.4355 11.98 
0.597 4 0.00 0.00 0.0 0.0 0.000 0.019 6269 5931 1.6041 1.4355 11.98 
0.598 4 0.00 0.00 0.0 0.0 -0.006 -0.006 6269 5932 1.6041 1.3536 11.98 
0.599 4 0.00 0.00 0.0 0.0 -0.013 0.019 6269 5932 1.6041 1.3536 11.98 
0.600 4 0.00 0.00 0.0 0.0 -0.025 0.019 6269 5932 1.6041 1.3536 11.99 
0.601 4 0.00 0.00 0.0 0.0 -0.019 0.000 6269 5932 1.6041 1.3536 11.99 
0.602 4 0.00 0.00 0.0 0.0 -0.013 0.019 6269 5932 1.6041 1.3536 11.99 
0.604 4 0.00 0.00 0.0 0.0 -0.013 0.019 6269 5932 1.6041 1.3536 11.99 
0.604 4 0.00 0.00 0.0 0.0 -0.025 0.006 6269 5932 1.6003 1.3536 11.99 
0.605 4 0.00 0.00 0.0 0.0 -0.013 0.006 6270 5932 1.4779 1.3536 11.96 
0.606 4 0.00 0.00 0.0 0.0 -0.013 0.013 6270 5932 1.4779 1.3536 11.96 
0.607 4 0.00 0.00 0.0 0.0 -0.013 0.013 6270 5932 1.4779 1.3536 11.96 
0.608 4 0.00 0.00 0.0 0.0 -0.006 0.013 6270 5933 1.4779 1.3442 11.96 
0.609 4 0.00 0.00 0.0 0.0 -0.013 0.000 6270 5933 1.4779 1.3442 11.96 
0.610 4 0.00 0.00 0.0 0.0 0.006 0.006 6270 5933 1.4779 1.3442 11.94 
0.611 4 0.00 0.00 0.0 0.0 -0.006 0.006 6270 5933 1.4779 1.3442 11.94 
0.612 4 0.00 0.00 0.0 0.0 -0.006 0.013 6270 5933 1.4779 1.3442 11.94 
0.613 4 0.00 0.00 0.0 0.0 0.006 -0.006 6270 5933 1.4779 1.3442 11.94 
0.614 4 0.00 0.00 0.0 0.0 0.006 0.000 6270 5933 1.4651 1.3442 11.94 
0.615 4 0.00 0.00 0.0 0.0 -0.013 0.006 6270 5933 1.3180 1.3442 11.94 
0.616 4 0.00 0.00 0.0 0.0 0.006 0.013 6271 5933 1.2429 1.3442 11.94 
0.617 4 0.00 0.00 0.0 0.0 -0.006 0.013 6271 5933 1.2429 1.3442 11.94 
0.618 4 0.00 0.00 0.0 0.0 0.000 0.006 6271 5933 1.2429 1.3429 11.94 
0.619 4 0.00 0.00 0.0 0.0 -0.019 0.013 6271 5933 1.2429 1.2216 11.94 
0.620 4 0.00 0.00 0.0 0.0 0.000 0.000 6271 5933 1.2429 1.1185 11.96 
0.621 4 0.00 0.00 0.0 0.0 -0.013 0.013 6271 5934 1.2429 1.0565 11.96 
0.622 4 0.00 0.00 0.0 0.0 -0.006 -0.013 6271 5934 1.2429 1.0565 11.96 
0.623 4 0.00 0.00 0.0 0.0 0.013 0.013 6271 5934 1.2429 1.0565 11.96 
0.624 4 0.00 0.00 0.0 0.0 0.032 -0.006 6271 5934 1.2429 1.0565 11.96 
0.625 4 0.00 0.00 0.0 0.0 -0.013 0.000 6271 5934 1.2429 1.0565 11.96 
0.626 4 0.00 0.00 0.0 0.0 0.000 -0.019 6271 5934 1.2429 1.0565 11.96 
0.627 4 0.00 0.00 0.0 0.0 -0.019 0.006 6271 5934 1.1914 1.0565 11.96 
0.628 4 0.00 0.00 0.0 0.0 0.000 0.000 6271 5934 1.0950 1.0565 11.96 
0.629 4 0.00 0.00 0.0 0.0 0.006 0.006 6271 5934 1.0129 1.0565 11.96 
0.630 4 0.00 0.00 0.0 0.0 -0.006 -0.019 6271 5934 0.9404 1.0565 11.96 
0.631 4 0.00 0.00 0.0 0.0 0.006 -0.019 6271 5934 0.8810 1.0565 11.96 
0.632 4 0.00 0.00 0.0 0.0 0.013 -0.025 6271 5934 0.8271 1.0565 11.96 
0.633 4 0.00 0.00 0.0 0.0 0.006 -0.013 6271 5934 0.7794 1.0565 11.96 
0.634 4 0.00 0.00 0.0 0.0 -0.013 -0.019 6272 5934 0.7377 1.0190 11.96 
0.635 4 0.00 0.00 0.0 0.0 -0.006 -0.013 6272 5934 0.7377 0.9463 11.94 
0.636 4 0.00 0.00 0.0 0.0 0.019 -0.013 6272 5934 0.7377 0.8856 11.94 
0.637 4 0.00 0.00 0.0 0.0 0.000 -0.019 6272 5934 0.7377 0.8311 11.94 
0.638 4 0.00 0.00 0.0 0.0 0.000 0.000 6272 5934 0.7377 0.7830 11.94 
0.639 4 0.00 0.00 0.0 0.0 -0.006 -0.025 6272 5934 0.7377 0.7402 11.94 
0.640 4 0.00 0.00 0.0 0.0 0.000 -0.025 6272 5934 0.7377 0.7010 11.99 
0.641 4 0.00 0.00 0.0 0.0 -0.006 0.000 6272 5934 0.7377 0.6671 11.99 
0.642 4 0.00 0.00 0.0 0.0 0.000 -0.019 6272 5935 0.7377 0.6461 11.99 
0.643 4 0.00 0.00 0.0 0.0 0.000 -0.013 6272 5935 0.7377 0.6461 11.99 
0.644 4 0.00 0.00 0.0 0.0 0.013 -0.038 6272 5935 0.7377 0.6461 11.99 
0.645 4 0.00 0.00 0.0 0.0 0.006 -0.025 6272 5935 0.7377 0.6461 11.98 
0.646 4 0.00 0.00 0.0 0.0 0.025 -0.013 6272 5935 0.7377 0.6461 11.98 
0.647 4 0.00 0.00 0.0 0.0 0.025 -0.025 6272 5935 0.7377 -0.0000 11.98 
0.648 4 0.00 0.00 0.0 0.0 0.038 -0.013 6272 5935 0.7377 0.6461 11.98 
0.649 4 0.00 0.00 0.0 0.0 0.000 -0.019 6272 5935 0.7377 0.6461 11.98 
0.650 4 0.00 0.00 0.0 0.0 0.013 -0.013 6272 5935 0.7377 0.6461 11.96 
0.651 4 0.00 0.00 0.0 0.0 0.006 -0.019 6272 5935 0.7377 0.6461 11.96 
0.652 4 0.00 0.00 0.0 0.0 0.032 -0.032 6272 5935 0.7377 0.6461 11.96 
0.653 4 0.00 0.00 0.0 0.0 0.013 -0.025 6272 5935 0.7106 0.6461 11.96 
0.654 4 0.00 0.00 0.0 0.0 0.013 -0.032 6272 5935 0.6755 0.6461 11.96 
0.655 4 0.00 0.00 0.0 0.0 0.019 -0.044 6272 5935 0.6424 0.6461 11.98 
0.656 4 0.00 0.00 0.0 0.0 0.013 -0.044 6272 5935 0.6141 0.6461 11.98 
0.657 4 0.00 0.00 0.0 0.0 0.000 -0.025 6272 5935 0.5874 0.6461 11.98 
0.658 4 0.00 0.00 0.0 0.0 0.013 -0.019 6272 5935 0.5630 0.6461 11.98 
0.659 4 0.00 0.00 0.0 0.0 0.032 -0.019 6272 5935 0.5405 0.6461 11.98 
0.660 4 0.00 0.00 0.0 0.0 0.006 -0.025 6272 5935 0.5191 0.6461 11.98 
0.661 4 0.00 0.00 0.0 0.0 0.006 -0.044 6272 5935 0.5005 0.6461 11.98 
0.662 4 0.00 0.00 0.0 0.0 0.000 -0.038 6272 5935 0.4826 0.6461 11.98 
0.663 4 0.00 0.00 0.0 0.0 0.013 -0.038 6272 5935 0.4660 0.6337 11.98 
0.664 4 0.00 0.00 0.0 0.0 -0.006 -0.013 6272 5935 0.4505 0.6053 11.98 
0.665 4 0.00 0.00 0.0 0.0 0.019 -0.013 6272 5935 0.4355 0.5789 11.98 
0.666 4 0.00 0.00 0.0 0.0 0.006 -0.025 6272 5935 0.4223 0.5556 11.98 
0.667 4 0.00 0.00 0.0 0.0 0.000 -0.051 6272 5935 0.4094 0.5334 11.98 
0.668 4 0.00 0.00 0.0 0.0 0.006 -0.038 6272 5935 0.3975 0.5134 11.98 
0.669 4 0.00 0.00 0.0 0.0 0.000 -0.044 6272 5935 0.3861 0.4946 11.98 
0.670 4 0.00 0.00 0.0 0.0 0.000 -0.032 6272 5935 0.3751 0.4768 11.98 
0.671 4 0.00 0.00 0.0 0.0 0.025 -0.038 6272 5935 0.3653 0.4609 11.98 
0.672 4 0.00 0.00 0.0 0.0 0.019 -0.057 6272 5935 0.3557 0.4457 11.98 
0.673 4 0.00 0.00 0.0 0.0 0.006 -0.025 6272 5935 0.3466 0.4315 11.98 
0.674 4 0.00 0.00 0.0 0.0 0.038 -0.013 6272 5935 0.3379 0.4181 11.98 
0.675 4 0.00 0.00 0.0 0.0 0.019 -0.025 6272 5935 0.3294 0.4054 11.98 
0.676 4 0.00 0.00 0.0 0.0 0.038 -0.032 6272 5935 0.3218 0.3938 11.98 
0.677 4 0.00 0.00 0.0 0.0 0.025 -0.038 6272 5935 0.3143 0.3826 11.98 
0.678 4 0.00 0.00 0.0 0.0 0.019 -0.025 6272 5935 0.3072 0.3721 11.98 
0.679 4 0.00 0.00 0.0 0.0 0.013 -0.044 6272 5935 0.3004 0.3622 11.98 
0.680 4 0.00 0.00 0.0 0.0 0.025 -0.032 6272 5935 0.2937 0.3525 11.98 
0.681 4 0.00 0.00 0.0 0.0 0.019 -0.019 6272 5935 0.2876 0.3437 11.98 
0.682 4 0.00 0.00 0.0 0.0 0.006 -0.025 6272 5935 0.2816 0.3352 11.98 
0.683 4 0.00 0.00 0.0 0.0 0.025 -0.032 6272 5935 0.2759 0.3271 11.98 
0.684 4 0.00 0.00 0.0 0.0 0.006 -0.051 6272 5935 0.2703 0.3194 11.98 
0.685 4 0.00 0.00 0.0 0.0 0.000 -0.044 6272 5935 0.2649 0.3119 11.99 
0.686 4 0.00 0.00 0.0 0.0 0.000 -0.032 6272 5935 0.2600 0.3050 11.99 
0.687 4 0.00 0.00 0.0 0.0 0.006 -0.025 6272 5935 0.2550 0.2983 11.99 
0.688 4 0.00 0.00 0.0 0.0 0.013 -0.032 6272 5935 0.2503 0.2918 11.99 
0.689 4 0.00 0.00 0.0 0.0 0.006 -0.044 6272 5935 0.2458 0.2857 11.99 
0.690 4 0.00 0.00 0.0 0.0 0.025 -0.019 6272 5935 0.2413 0.2796 11.99 
0.691 4 0.00 0.00 0.0 0.0 0.006 -0.006 6272 5935 0.2372 0.2741 11.99 
0.692 4 0.00 0.00 0.0 0.0 0.019 -0.032 6272 5935 0.2331 0.2686 11.99 
0.693 4 0.00 0.00 0.0 0.0 0.019 -0.032 6272 5935 0.2291 0.2634 11.99 
0.694 4 0.00 0.00 0.0 0.0 0.000 -0.032 6272 5935 0.2253 0.2584 11.99 
0.695 4 0.00 0.00 0.0 0.0 0.019 -0.032 6272 5935 0.2215 0.2534 11.99 
0.696 4 0.00 0.00 0.0 0.0 0.006 -0.038 6272 5935 0.2180 0.2489 11.99 
0.697 4 0.00 0.00 0.0 0.0 0.019 -0.025 6272 5935 0.2146 0.2444 11.99 
0.698 4 0.00 0.00 0.0 0.0 0.013 -0.032 6272 5935 0.2112 0.2400 11.99 
0.699 4 0.00 0.00 0.0 0.0 0.025 -0.019 6272 5935 0.2080 0.2358 11.99 
0.700 4 0.00 0.00 0.0 0.0 0.019 -0.038 6272 5935 0.2047 0.2317 12.01 
0.701 4 0.00 0.00 0.0 0.0 0.019 -0.038 6272 5935 0.2018 0.2279 12.01 
0.702 4 0.00 0.00 0.0 0.0 0.044 -0.044 6272 5935 0.1988 0.2241 12.01 
0.703 4 0.00 0.00 0.0 0.0 0.025 -0.032 6272 5935 0.1959 0.2205 12.01 
0.704 4 0.00 0.00 0.0 0.0 0.025 -0.032 6272 5935 0.1931 0.2169 12.01 
0.705 4 0.00 0.00 0.0 0.0 0.025 -0.019 6272 5935 0.1903 0.2134 11.99 
0.706 4 0.00 0.00 0.0 0.0 0.013 -0.038 6272 5935 0.1877 0.2101 11.99 
0.707 4 0.00 0.00 0.0 0.0 0.019 -0.038 6272 5935 0.1852 0.2070 11.99 
0.708 4 0.00 0.00 0.0 0.0 0.019 -0.038 6272 5935 0.1827 0.2038 11.99 
0.709 4 0.00 0.00 0.0 0.0 0.025 -0.038 6272 5935 0.1803 0.2008 11.99 
0.710 4 0.00 0.00 0.0 0.0 0.032 -0.032 6272 5935 0.1778 0.1978 12.01 
0.711 4 0.00 0.00 0.0 0.0 0.006 -0.051 6272 5935 0.1756 0.1950 12.01 
0.712 4 0.00 0.00 0.0 0.0 0.025 -0.044 6272 5935 0.1733 0.1922 12.01 
0.713 4 0.00 0.00 0.0 0.0 0.025 -0.032 6272 5935 0.1711 0.1896 12.01 
0.714 4 0.00 0.00 0.0 0.0 0.000 -0.032 6272 5935 0.1690 0.1869 12.01 
0.715 4 0.00 0.00 0.0 0.0 0.019 -0.044 6272 5935 0.1668 0.1843 11.99 
0.716 4 0.00 0.00 0.0 0.0 0.006 -0.038 6272 5935 0.1649 0.1819 11.99 
0.717 4 0.00 0.00 0.0 0.0 0.044 -0.019 6272 5935 0.1629 0.1795 11.99 
0.718 4 0.00 0.00 0.0 0.0 0.025 -0.032 6272 5935 0.1609 0.1771 11.99 
0.719 4 0.00 0.00 0.0 0.0 0.019 -0.032 6272 5935 0.1591 0.1748 11.99 
0.720 4 0.00 0.00 0.0 0.0 0.019 -0.032 6272 5935 0.1571 0.1726 12.01 
0.721 4 0.00 0.00 0.0 0.0 0.025 -0.019 6272 5935 0.1554 0.1704 12.01 
0.722 4 0.00 0.00 0.0 0.0 0.019 -0.038 6272 5935 0.1536 0.1683 12.01 
0.723 4 0.00 0.00 0.0 0.0 0.032 -0.038 6272 5935 0.1519 0.1662 12.01 
0.724 4 0.00 0.00 0.0 0.0 0.038 -0.044 6272 5935 0.1502 0.1642 12.01 
0.725 4 0.00 0.00 0.0 0.0 0.013 -0.032 6272 5935 0.1485 0.1622 12.01 
0.726 4 0.00 0.00 0.0 0.0 0.000 -0.038 6272 5935 0.1470 0.1603 12.01 
0.727 4 0.00 0.00 0.0 0.0 0.013 -0.032 6272 5935 0.1454 0.1585 12.01 
0.728 4 0.00 0.00 0.0 0.0 0.006 -0.044 6272 5935 0.1438 0.1566 12.01 
0.729 4 0.00 0.00 0.0 0.0 0.019 -0.032 6272 5935 0.1423 0.1548 12.01 
0.730 4 0.00 0.00 0.0 0.0 0.019 -0.019 6272 5935 0.1408 0.1530 11.99 
0.731 4 0.00 0.00 0.0 0.0 0.013 -0.032 6272 5935 0.1394 0.1514 11.99 
0.732 4 0.00 0.00 0.0 0.0 0.013 -0.057 6272 5935 0.1380 0.1497 11.99 
0.733 4 0.00 0.00 0.0 0.0 0.025 -0.019 6272 5935 0.1366 0.1480 11.99 
0.734 4 0.00 0.00 0.0 0.0 0.013 -0.051 6272 5935 0.1352 0.1464 11.99 
0.735 4 0.00 0.00 0.0 0.0 0.019 -0.019 6272 5935 0.1338 0.1448 12.01 
0.736 4 0.00 0.00 0.0 0.0 0.013 -0.032 6272 5935 0.1325 0.1433 12.01 
0.737 4 0.00 0.00 0.0 0.0 0.025 -0.038 6272 5935 0.1313 0.1418 12.01 
0.738 4 0.00 0.00 0.0 0.0 0.025 -0.013 6272 5935 0.1300 0.1404 12.01 
0.739 4 0.00 0.00 0.0 0.0 0.044 -0.038 6272 5935 0.1288 0.1389 12.01 
0.740 4 0.00 0.00 0.0 0.0 0.013 -0.032 6272 5935 0.1275 0.1375 12.01 
0.741 4 0.00 0.00 0.0 0.0 0.019 -0.019 6272 5935 0.1264 0.1361 12.01 
0.742 4 0.00 0.00 0.0 0.0 0.044 -0.051 6272 5935 0.1252 0.1348 12.01 
0.743 4 0.00 0.00 0.0 0.0 0.032 -0.025 6272 5935 0.1240 0.1334 12.01 
0.744 4 0.00 0.00 0.0 0.0 0.013 -0.025 6272 5935 0.1229 0.1321 12.01 
0.745 4 0.00 0.00 0.0 0.0 0.025 -0.038 6272 5935 0.1218 0.1308 11.98 
0.746 4 0.00 0.00 0.0 0.0 0.051 -0.032 6272 5935 0.1207 0.1296 11.98 
0.747 4 0.00 0.00 0.0 0.0 0.025 -0.025 6272 5935 0.1196 0.1284 11.98 
0.748 4 0.00 0.00 0.0 0.0 -0.006 -0.032 6272 5935 0.1186 0.1272 11.98 
0.749 4 0.00 0.00 0.0 0.0 0.019 -0.044 6272 5935 0.1176 0.1260 11.98 
0.750 4 0.00 0.00 0.0 0.0 0.019 -0.032 6272 5935 0.1165 0.1248 12.01 
0.751 4 0.00 0.00 0.0 0.0 0.019 -0.032 6272 5935 0.1156 0.1237 12.01 
0.752 4 0.00 0.00 0.0 0.0 0.013 -0.019 6272 5935 0.1146 0.1226 12.01 
0.753 4 0.00 0.00 0.0 0.0 0.019 -0.038 6272 5935 0.1136 0.1215 12.01 
0.754 4 0.00 0.00 0.0 0.0 0.032 -0.019 6272 5935 0.1127 0.1204 12.01 
0.755 4 0.00 0.00 0.0 0.0 0.032 -0.032 6272 5935 0.1117 0.1193 11.99 
0.756 4 0.00 0.00 0.0 0.0 0.032 -0.032 6272 5935 0.1108 0.1183 11.99 
0.757 4 0.00 0.00 0.0 0.0 0.006 0.000 6272 5935 0.1099 0.1172 11.99 
0.758 4 0.00 0.00 0.0 0.0 0.019 -0.025 6272 5935 0.1090 0.1162 11.99 
0.759 4 0.00 0.00 0.0 0.0 0.032 -0.032 6272 5935 0.1082 0.1152 11.99 
0.760 4 0.00 0.00 0.0 0.0 0.006 -0.038 6272 5935 0.1073 0.1143 11.99 
0.761 4 0.00 0.00 0.0 0.0 0.019 -0.019 6272 5935 0.1065 0.1133 11.99 
0.762 4 0.00 0.00 0.0 0.0 0.032 -0.038 6272 5935 0.1056 0.1124 11.99 
0.763 4 0.00 0.00 0.0 0.0 0.025 -0.025 6272 5935 0.1048 0.1114 11.99 
0.764 4 0.00 0.00 0.0 0.0 0.019 -0.025 6272 5935 0.1040 0.1105 11.99 
0.765 4 0.00 0.00 0.0 0.0 0.038 -0.019 6272 5935 0.1032 0.1096 11.99 
0.766 4 0.00 0.00 0.0 0.0 0.025 -0.019 6272 5935 0.1024 0.1088 11.99 
0.767 4 0.00 0.00 0.0 0.0 0.032 -0.038 6272 5935 0.1017 0.1079 11.99 
0.768 4 0.00 0.00 0.0 0.0 0.038 -0.032 6272 5935 0.1009 0.1070 11.99 
0.769 4 0.00 0.00 0.0 0.0 0.032 -0.038 6272 5935 0.1002 0.1062 11.99 
0.770 4 0.00 0.00 0.0 0.0 0.025 -0.025 6272 5935 0.0994 0.1053 11.98 
0.771 4 0.00 0.00 0.0 0.0 0.013 -0.038 6272 5935 0.0987 0.1046 11.98 
0.772 4 0.00 0.00 0.0 0.0 0.032 -0.038 6272 5935 0.0980 0.1037 11.98 
0.773 4 0.00 0.00 0.0 0.0 0.025 -0.032 6272 5935 0.0973 0.1030 11.98 
0.774 4 0.00 0.00 0.0 0.0 0.032 -0.032 6272 5935 0.0966 0.1022 11.98 
0.775 4 0.00 0.00 0.0 0.0 0.025 -0.032 6272 5935 0.0959 0.1014 11.98 
0.776 4 0.00 0.00 0.0 0.0 0.032 -0.038 6272 5935 0.0952 0.1007 11.98 
0.777 4 0.00 0.00 0.0 0.0 0.006 -0.038 6272 5935 0.0946 0.0999 11.98 
0.778 4 0.00 0.00 0.0 0.0 0.013 -0.044 6272 5935 0.0939 0.0992 11.98 
0.779 4 0.00 0.00 0.0 0.0 0.057 -0.025 6272 5935 0.0932 0.0985 11.98 
0.780 4 0.00 0.00 0.0 0.0 0.025 -0.019 6272 5935 0.0926 0.0977 11.98 
0.781 4 0.00 0.00 0.0 0.0 0.013 -0.019 6272 5935 0.0920 0.0970 11.98 
0.782 4 0.00 0.00 0.0 0.0 0.038 -0.019 6272 5935 0.0914 0.0964 11.98 
0.783 4 0.00 0.00 0.0 0.0 0.013 -0.032 6272 5935 0.0907 0.0957 11.98 
0.784 4 0.00 0.00 0.0 0.0 0.013 -0.032 6272 5935 0.0901 0.0950 11.98 
0.785 4 0.00 0.00 0.0 0.0 0.051 -0.019 6272 5935 0.0895 0.0943 11.98 
0.786 4 0.00 0.00 0.0 0.0 0.044 -0.032 6272 5935 0.0890 0.0937 11.98 
0.787 4 0.00 0.00 0.0 0.0 0.038 -0.025 6272 5935 0.0884 0.0930 11.98 
0.788 4 0.00 0.00 0.0 0.0 0.032 -0.032 6272 5935 0.0878 0.0924 11.98 
0.789 4 0.00 0.00 0.0 0.0 0.032 -0.006 6272 5935 0.0872 0.0918 11.98 
0.790 4 0.00 0.00 0.0 0.0 0.032 -0.025 6272 5935 0.0867 0.0911 11.99 
0.791 4 0.00 0.00 0.0 0.0 0.019 -0.019 6272 5935 0.0861 0.0905 11.99 
0.792 4 0.00 0.00 0.0 0.0 0.025 -0.025 6272 5935 0.0856 0.0899 11.99 
0.793 4 0.00 0.00 0.0 0.0 0.044 -0.032 6272 5935 0.0850 0.0894 11.99 
0.794 4 0.00 0.00 0.0 0.0 0.032 -0.019 6272 5935 0.0845 0.0888 11.99 
0.795 4 0.00 0.00 0.0 0.0 0.019 -0.025 6272 5935 0.0840 0.0882 11.99 
