%  1    time 0.000 sec
%  2    mission (0) state 2
%  3  4 Motor velocity ref left, right: 2.50 2.50
%  5  6 Motor voltage [V] left, right: 2.5 2.5
%  7  8 Motor current left, right [A]: 0.076 0.006
%  9 10 Encoder left, right: 1125 7
% 11 12 Wheel velocity [r/s] left, right: 0.0000 -0.0107
% 13    Battery voltage [V]: 12.04
0.001 2 2.50 2.50 2.5 2.5 0.272 0.184 1125 7 0.0000 -0.0107 12.02 
0.002 2 2.50 2.50 2.5 2.5 0.475 0.399 1125 7 0.0000 -0.0107 12.02 
0.003 2 2.50 2.50 2.5 2.5 0.627 0.481 1125 7 0.0000 -0.0107 12.02 
0.004 2 2.50 2.50 2.5 2.5 0.678 0.526 1125 8 0.0000 0.0107 12.02 
0.005 2 2.50 2.50 2.5 2.5 0.728 0.551 1126 8 0.0000 0.0107 12.02 
0.006 2 2.50 2.50 2.5 2.5 0.722 0.551 1126 8 0.0000 0.0107 11.99 
0.007 2 2.50 2.50 2.5 2.5 0.760 0.576 1126 8 0.0000 0.0107 11.99 
0.008 2 2.50 2.50 2.5 2.5 0.633 0.633 1126 8 0.0000 0.0107 11.99 
0.009 2 2.50 2.50 2.5 2.5 0.621 0.646 1127 8 0.0000 0.0107 11.99 
0.010 2 2.50 2.50 2.5 2.5 0.633 0.659 1127 8 2.9590 0.0107 11.99 
0.011 2 2.50 2.50 2.5 2.5 0.646 0.652 1127 8 2.9590 0.0107 11.99 
0.012 2 2.50 2.50 2.5 2.5 0.633 0.621 1128 8 4.9173 0.0107 11.99 
0.013 2 2.50 2.50 2.5 2.5 0.640 0.627 1128 8 4.9173 0.0107 11.99 
0.014 2 2.50 2.50 2.5 2.5 0.627 0.633 1129 8 4.9173 0.0107 11.99 
0.015 2 2.50 2.50 2.5 2.5 0.602 0.627 1129 8 6.1189 0.0107 11.99 
0.016 2 2.50 2.50 2.5 2.5 0.583 0.627 1130 8 7.1929 0.0107 12.01 
0.017 2 2.50 2.50 2.5 2.5 0.538 0.621 1130 8 7.1929 0.0107 12.01 
0.018 2 2.50 2.50 2.5 2.5 0.551 0.633 1131 8 7.7717 0.0107 12.01 
0.019 2 2.50 2.50 2.5 2.5 0.564 0.621 1132 8 7.7717 0.0107 12.01 
0.020 2 2.50 2.50 2.5 2.5 0.519 0.633 1132 8 8.7243 0.0107 12.01 
0.021 2 2.50 2.50 2.5 2.5 0.507 0.627 1133 8 9.1991 0.0107 11.99 
0.022 2 2.50 2.50 2.5 2.5 0.532 0.646 1134 8 9.1991 0.0107 11.99 
0.023 2 2.50 2.50 2.5 2.5 0.519 0.659 1134 8 9.9432 0.0107 11.99 
0.024 2 2.50 2.50 2.5 2.5 0.412 0.627 1135 8 10.4827 0.0107 11.99 
0.025 2 2.50 2.50 2.5 2.5 0.424 0.640 1136 8 10.6478 0.0107 11.99 
0.026 2 2.50 2.50 2.5 2.5 0.431 0.640 1137 8 10.7323 0.0107 11.99 
0.027 2 2.50 2.50 2.5 2.5 0.424 0.627 1138 8 10.7323 0.0107 11.99 
0.028 2 2.50 2.50 2.5 2.5 0.393 0.608 1139 8 11.5579 0.0107 11.99 
0.029 2 2.50 2.50 2.5 2.5 0.386 0.621 1139 8 11.6575 0.0107 11.99 
0.030 2 2.50 2.50 2.5 2.5 0.405 0.621 1140 8 12.0738 0.0107 11.99 
0.031 2 2.50 2.50 2.5 2.5 0.424 0.621 1141 9 13.2575 0.0107 11.99 
0.032 2 2.50 2.50 2.5 2.5 0.456 0.627 1142 9 12.6380 0.4863 11.99 
0.033 2 2.50 2.50 2.5 2.5 0.342 0.608 1143 9 11.8620 0.4863 11.99 
0.034 2 2.50 2.50 2.5 2.5 0.393 0.621 1144 9 13.1288 0.4863 11.99 
0.035 2 2.50 2.50 2.5 2.5 0.361 0.621 1145 9 13.6593 0.4863 11.99 
0.036 2 2.50 2.50 2.5 2.5 0.386 0.621 1146 9 13.6593 0.4863 12.02 
0.037 2 2.50 2.50 2.5 2.5 0.361 0.621 1147 9 12.4061 0.4863 12.02 
0.038 2 2.50 2.50 2.5 2.5 0.367 0.627 1148 9 13.2575 0.4863 12.02 
0.039 2 2.50 2.50 2.5 2.5 0.336 0.633 1149 9 13.9409 0.4863 12.02 
0.040 2 2.50 2.50 2.5 2.5 0.399 0.627 1150 9 14.2344 0.4863 12.02 
0.041 2 2.50 2.50 2.5 2.5 0.323 0.640 1152 9 14.5405 0.4863 12.01 
0.042 2 2.50 2.50 2.5 2.5 0.342 0.646 1153 9 14.5405 0.4863 12.01 
0.043 2 2.50 2.50 2.5 2.5 0.342 0.646 1154 9 15.1940 0.4863 12.01 
0.044 2 2.50 2.50 2.5 2.5 0.348 0.621 1155 9 14.8601 0.4863 12.01 
0.045 2 2.50 2.50 2.5 2.5 0.348 0.614 1156 9 15.0252 0.4863 12.01 
0.046 2 2.50 2.50 2.5 2.5 0.317 0.595 1157 9 15.1940 0.4863 12.01 
0.047 2 2.50 2.50 2.5 2.5 0.361 0.576 1158 9 15.5433 0.4863 12.01 
0.048 2 2.50 2.50 2.5 2.5 0.304 0.576 1159 9 15.7241 0.4863 12.01 
0.049 2 2.50 2.50 2.5 2.5 0.329 0.583 1161 9 15.9091 0.4863 12.01 
0.050 2 2.50 2.50 2.5 2.5 0.304 0.564 1162 9 15.5433 0.4863 12.01 
0.051 2 2.50 2.50 2.5 2.5 0.323 0.564 1163 9 16.0984 0.4863 12.01 
0.052 2 2.50 2.50 2.5 2.5 0.272 0.576 1164 9 16.2924 0.4863 12.01 
0.053 2 2.50 2.50 2.5 2.5 0.291 0.583 1165 9 16.2924 0.4863 12.01 
0.054 2 2.50 2.50 2.5 2.5 0.260 0.602 1167 9 16.6947 0.4863 12.01 
0.055 2 2.50 2.50 2.5 2.5 0.260 0.576 1168 10 16.9034 0.5699 12.01 
0.056 2 2.50 2.50 2.5 2.5 0.247 0.602 1169 10 16.9034 0.5699 12.01 
0.057 2 2.50 2.50 2.5 2.5 0.272 0.614 1170 10 17.1173 0.5699 12.01 
0.058 2 2.50 2.50 2.5 2.5 0.228 0.595 1172 10 17.1173 0.5699 12.01 
0.059 2 2.50 2.50 2.5 2.5 0.247 0.621 1173 10 17.1173 0.5699 12.01 
0.060 2 2.50 2.50 2.5 2.5 0.291 0.621 1174 10 17.5619 0.5699 12.01 
0.061 2 2.50 2.50 2.5 2.5 0.266 0.633 1176 10 17.3368 0.5699 12.01 
0.062 2 2.50 2.50 2.5 2.5 0.279 0.646 1177 10 17.5619 0.5699 12.01 
0.063 2 2.50 2.50 2.5 2.5 0.272 0.665 1178 10 18.0303 0.5699 12.01 
0.064 2 2.50 2.50 2.5 2.5 0.253 0.716 1180 10 17.7930 0.5699 12.01 
0.065 2 2.50 2.50 2.5 2.5 0.234 0.722 1181 10 18.0303 0.5699 12.01 
0.066 2 2.50 2.50 2.5 2.5 0.291 0.690 1182 10 18.2739 0.5699 12.01 
0.067 2 2.50 2.50 2.5 2.5 0.203 0.703 1184 10 18.5242 0.5699 12.01 
0.068 2 2.50 2.50 2.5 2.5 0.209 0.722 1185 10 18.2739 0.5699 12.01 
0.069 2 2.50 2.50 2.5 2.5 0.209 0.697 1186 10 18.5242 0.5699 12.01 
0.070 2 2.50 2.50 2.5 2.5 0.222 0.671 1188 10 18.5242 0.5699 12.01 
0.071 2 2.50 2.50 2.5 2.5 0.228 0.659 1189 11 19.0460 0.8399 12.01 
0.072 2 2.50 2.50 2.5 2.5 0.298 0.665 1190 11 18.7815 0.8399 12.01 
0.073 2 2.50 2.50 2.5 2.5 0.228 0.665 1192 11 18.0303 0.8399 12.01 
0.074 2 2.50 2.50 2.5 2.5 0.253 0.646 1193 11 19.0460 0.8399 12.01 
0.075 2 2.50 2.50 2.5 2.5 0.215 0.652 1194 11 19.0460 0.8399 12.01 
0.076 2 2.50 2.50 2.5 2.5 0.247 0.633 1196 11 18.2739 0.8399 12.02 
0.077 2 2.50 2.50 2.5 2.5 0.196 0.621 1197 11 18.5242 0.8399 12.02 
0.078 2 2.50 2.50 2.5 2.5 0.260 0.621 1199 11 18.7815 0.8399 12.02 
0.079 2 2.50 2.50 2.5 2.5 0.222 0.602 1200 11 19.0460 0.8399 12.02 
0.080 2 2.50 2.50 2.5 2.5 0.222 0.633 1202 11 19.8863 0.8399 12.02 
0.081 2 2.50 2.50 2.5 2.5 0.215 0.614 1203 11 19.0460 0.8399 12.01 
0.082 2 2.50 2.50 2.5 2.5 0.215 0.608 1204 11 19.3181 0.8399 12.01 
0.083 2 2.50 2.50 2.5 2.5 0.228 0.614 1206 11 19.0460 0.8399 12.01 
0.084 2 2.50 2.50 2.5 2.5 0.203 0.602 1207 11 19.5981 0.8399 12.01 
0.085 2 2.50 2.50 2.5 2.5 0.209 0.633 1209 12 19.5981 0.9680 12.01 
0.086 2 2.50 2.50 2.5 2.5 0.222 0.640 1210 12 19.5981 0.9680 12.01 
0.087 2 2.50 2.50 2.5 2.5 0.196 0.583 1212 12 19.5981 0.9680 12.01 
0.088 2 2.50 2.50 2.5 2.5 0.222 0.602 1213 12 19.8863 0.9680 12.01 
0.089 2 2.50 2.50 2.5 2.5 0.196 0.608 1215 12 20.1831 0.9680 12.01 
0.090 2 2.50 2.50 2.5 2.5 0.203 0.595 1216 12 20.1831 0.9680 12.01 
0.091 2 2.50 2.50 2.5 2.5 0.171 0.602 1218 12 19.8863 0.9680 12.01 
0.092 2 2.50 2.50 2.5 2.5 0.158 0.595 1219 12 20.1831 0.9680 12.01 
0.093 2 2.50 2.50 2.5 2.5 0.196 0.589 1220 12 20.1831 0.9680 12.01 
0.094 2 2.50 2.50 2.5 2.5 0.203 0.608 1222 12 20.1831 0.9680 12.01 
0.095 2 2.50 2.50 2.5 2.5 0.184 0.608 1223 12 20.1831 0.9680 12.01 
0.096 2 2.50 2.50 2.5 2.5 0.253 0.621 1225 12 20.1831 0.9680 12.01 
0.097 2 2.50 2.50 2.5 2.5 0.222 0.589 1226 12 20.4889 0.9680 12.01 
0.098 2 2.50 2.50 2.5 2.5 0.209 0.583 1228 13 20.4889 1.0862 12.01 
0.099 2 2.50 2.50 2.5 2.5 0.203 0.589 1229 13 20.1831 1.0862 12.01 
0.100 2 2.50 2.50 2.5 2.5 0.203 0.570 1231 13 20.8041 1.0862 12.01 
0.101 2 2.50 2.50 2.5 2.5 0.209 0.557 1232 13 20.4889 1.0862 12.02 
0.102 2 2.50 2.50 2.5 2.5 0.158 0.545 1234 13 20.1831 1.0862 12.02 
0.103 2 2.50 2.50 2.5 2.5 0.190 0.564 1235 13 20.1831 1.0862 12.02 
0.104 2 2.50 2.50 2.5 2.5 0.203 0.564 1237 13 20.8041 1.0862 12.02 
0.105 2 2.50 2.50 2.5 2.5 0.234 0.576 1238 13 20.8041 1.0862 12.02 
0.106 2 2.50 2.50 2.5 2.5 0.215 0.564 1240 13 20.1831 1.0862 12.02 
0.107 2 2.50 2.50 2.5 2.5 0.177 0.583 1241 13 21.1292 1.0862 12.02 
0.109 2 2.50 2.50 2.5 2.5 0.190 0.551 1243 14 19.0460 1.0862 12.02 
0.109 2 2.50 2.50 2.5 2.5 0.177 0.557 1245 14 20.1831 1.2282 12.02 
0.110 2 2.50 2.50 2.5 2.5 0.196 0.589 1246 14 20.8041 1.2282 12.02 
0.111 2 2.50 2.50 2.5 2.5 0.196 0.583 1247 14 21.1292 1.2282 12.02 
0.112 2 2.50 2.50 2.5 2.5 0.171 0.576 1249 14 21.4646 1.2282 12.02 
0.113 2 2.50 2.50 2.5 2.5 0.190 0.576 1251 14 21.4646 1.2282 12.02 
0.114 2 2.50 2.50 2.5 2.5 0.190 0.564 1252 14 20.8041 1.2282 12.02 
0.115 2 2.50 2.50 2.5 2.5 0.209 0.564 1254 14 20.4889 1.2282 12.02 
0.116 2 2.50 2.50 2.5 2.5 0.171 0.583 1255 14 21.1292 1.2282 12.01 
0.117 2 2.50 2.50 2.5 2.5 0.203 0.621 1257 15 21.1292 1.6592 12.01 
0.118 2 2.50 2.50 2.5 2.5 0.177 0.589 1258 15 20.8041 1.6592 12.01 
0.119 2 2.50 2.50 2.5 2.5 0.171 0.614 1260 15 20.8041 1.6592 12.01 
0.120 2 2.50 2.50 2.5 2.5 0.177 0.614 1261 15 20.8041 1.6592 12.01 
0.121 2 2.50 2.50 2.5 2.5 0.165 0.589 1263 15 21.1292 1.6592 12.02 
0.122 2 2.50 2.50 2.5 2.5 0.177 0.583 1264 15 21.1292 1.6592 12.02 
0.123 2 2.50 2.50 2.5 2.5 0.158 0.583 1266 15 21.4646 1.6592 12.02 
0.124 2 2.50 2.50 2.5 2.5 0.158 0.608 1267 15 21.1292 1.6592 12.02 
0.125 2 2.50 2.50 2.5 2.5 0.146 0.595 1269 15 20.8041 1.5835 12.02 
0.126 2 2.50 2.50 2.5 2.5 0.215 0.608 1271 15 21.1292 1.4160 12.01 
0.127 2 2.50 2.50 2.5 2.5 0.171 0.614 1272 16 21.1292 1.3591 12.01 
0.128 2 2.50 2.50 2.5 2.5 0.184 0.595 1274 16 21.1292 1.3591 12.01 
0.129 2 2.50 2.50 2.5 2.5 0.165 0.608 1275 16 21.1292 1.3591 12.01 
0.130 2 2.50 2.50 2.5 2.5 0.158 0.627 1277 16 21.1292 1.3591 12.01 
0.131 2 2.50 2.50 2.5 2.5 0.184 0.621 1278 16 21.4646 1.3591 12.01 
0.132 2 2.50 2.50 2.5 2.5 0.158 0.621 1280 16 21.8108 1.3591 12.01 
0.133 2 2.50 2.50 2.5 2.5 0.171 0.640 1281 16 21.1292 1.3591 12.01 
0.134 2 2.50 2.50 2.5 2.5 0.139 0.621 1283 16 21.1292 1.3591 12.01 
0.135 2 2.50 2.50 2.5 2.5 0.171 0.621 1285 17 21.1292 1.6156 12.01 
0.136 2 2.50 2.50 2.5 2.5 0.196 0.608 1286 17 21.8108 1.6156 12.01 
0.137 2 2.50 2.50 2.5 2.5 0.184 0.621 1288 17 20.8041 1.6156 12.01 
0.138 2 2.50 2.50 2.5 2.5 0.184 0.633 1289 17 21.8108 1.6156 12.01 
0.139 2 2.50 2.50 2.5 2.5 0.184 0.640 1291 17 19.5981 1.6156 12.01 
0.140 2 2.50 2.50 2.5 2.5 0.190 0.640 1292 17 20.8041 1.6156 12.01 
0.141 2 2.50 2.50 2.5 2.5 0.190 0.633 1294 17 21.4646 1.6156 12.01 
0.142 2 2.50 2.50 2.5 2.5 0.203 0.665 1296 17 21.8108 1.6156 12.01 
0.143 2 2.50 2.50 2.5 2.5 0.196 0.665 1297 17 22.1684 1.6156 12.01 
0.144 2 2.50 2.50 2.5 2.5 0.152 0.627 1299 18 21.8108 1.5177 12.01 
0.145 2 2.50 2.50 2.5 2.5 0.203 0.602 1300 18 21.1292 1.5177 12.01 
0.146 2 2.50 2.50 2.5 2.5 0.209 0.589 1302 18 21.4646 1.5177 11.99 
0.147 2 2.50 2.50 2.5 2.5 0.177 0.659 1304 18 21.8108 1.5177 11.99 
0.148 2 2.50 2.50 2.5 2.5 0.196 0.684 1305 18 20.8041 1.5177 11.99 
0.149 2 2.50 2.50 2.5 2.5 0.190 0.665 1307 18 21.4646 1.5177 11.99 
0.150 2 2.50 2.50 2.5 2.5 0.184 0.602 1308 18 21.4646 1.5177 11.99 
0.151 2 2.50 2.50 2.5 2.5 0.177 0.608 1310 19 21.1292 1.5177 12.02 
0.152 2 2.50 2.50 2.5 2.5 0.177 0.595 1311 19 21.4646 1.8474 12.02 
0.153 2 2.50 2.50 2.5 2.5 0.165 0.595 1313 19 21.4646 1.8474 12.02 
0.154 2 2.50 2.50 2.5 2.5 0.146 0.614 1315 19 21.8108 1.8474 12.02 
0.155 2 2.50 2.50 2.5 2.5 0.139 0.608 1316 19 21.8108 1.8474 12.02 
0.156 2 2.50 2.50 2.5 2.5 0.158 0.627 1318 19 21.1292 1.8474 12.01 
0.157 2 2.50 2.50 2.5 2.5 0.171 0.652 1319 19 21.1292 1.8474 12.01 
0.158 2 2.50 2.50 2.5 2.5 0.171 0.646 1321 19 21.4646 1.8474 12.01 
0.159 2 2.50 2.50 2.5 2.5 0.171 0.633 1322 19 21.8108 1.6925 12.01 
0.160 2 2.50 2.50 2.5 2.5 0.165 0.621 1324 19 21.4646 1.5042 12.01 
0.161 2 2.50 2.50 2.5 2.5 0.152 0.646 1326 20 21.4646 1.3898 12.01 
0.162 2 2.50 2.50 2.5 2.5 0.146 0.646 1327 20 22.1684 1.3898 12.01 
0.163 2 2.50 2.50 2.5 2.5 0.158 0.640 1329 20 22.1684 1.3898 12.01 
0.164 2 2.50 2.50 2.5 2.5 0.133 0.633 1330 20 21.8108 1.3898 12.01 
0.165 2 2.50 2.50 2.5 2.5 0.152 0.627 1332 20 21.8108 1.3898 12.01 
0.166 2 2.50 2.50 2.5 2.5 0.190 0.614 1334 20 22.5378 1.3898 12.01 
0.167 2 2.50 2.50 2.5 2.5 0.152 0.621 1335 20 21.1292 1.3898 12.01 
0.168 2 2.50 2.50 2.5 2.5 0.177 0.589 1337 20 21.4646 1.3898 12.01 
0.169 2 2.50 2.50 2.5 2.5 0.152 0.602 1338 20 22.1684 1.3898 12.01 
0.170 2 2.50 2.50 2.5 2.5 0.152 0.589 1340 21 21.4646 1.5798 12.01 
0.171 2 2.50 2.50 2.5 2.5 0.171 0.570 1342 21 21.8108 1.5798 12.01 
0.172 2 2.50 2.50 2.5 2.5 0.171 0.595 1343 21 22.5378 1.5798 12.01 
0.173 2 2.50 2.50 2.5 2.5 0.190 0.583 1345 21 22.9198 1.5798 12.01 
0.174 2 2.50 2.50 2.5 2.5 0.171 0.570 1347 21 22.5378 1.5798 12.01 
0.175 2 2.50 2.50 2.5 2.5 0.171 0.570 1348 21 21.8108 1.5798 12.01 
0.176 2 2.50 2.50 2.5 2.5 0.171 0.608 1350 21 21.4646 1.5798 11.99 
0.177 2 2.50 2.50 2.5 2.5 0.177 0.614 1351 21 22.1684 1.5798 11.99 
0.178 2 2.50 2.50 2.5 2.5 0.165 0.621 1353 22 21.4646 1.6967 11.99 
0.179 2 2.50 2.50 2.5 2.5 0.171 0.608 1355 22 21.8108 1.6967 11.99 
0.180 2 2.50 2.50 2.5 2.5 0.152 0.583 1356 22 21.8108 1.6967 11.99 
0.181 2 2.50 2.50 2.5 2.5 0.171 0.589 1358 22 21.8108 1.6967 12.02 
0.182 2 2.50 2.50 2.5 2.5 0.184 0.564 1359 22 22.1684 1.6967 12.02 
0.183 2 2.50 2.50 2.5 2.5 0.177 0.570 1361 22 21.8108 1.6967 12.02 
0.184 2 2.50 2.50 2.5 2.5 0.165 0.576 1363 23 22.1684 1.6967 12.02 
0.185 2 2.50 2.50 2.5 2.5 0.158 0.589 1364 23 22.1684 1.9857 12.02 
0.186 2 2.50 2.50 2.5 2.5 0.165 0.576 1366 23 21.4646 1.9857 12.01 
0.187 2 2.50 2.50 2.5 2.5 0.171 0.595 1367 23 21.8108 1.9857 12.01 
0.188 2 2.50 2.50 2.5 2.5 0.203 0.576 1369 23 21.8108 1.9857 12.01 
0.189 2 2.50 2.50 2.5 2.5 0.158 0.595 1371 23 22.1684 1.9857 12.01 
0.190 2 2.50 2.50 2.5 2.5 0.190 0.589 1372 23 21.8108 1.9857 12.01 
0.191 2 2.50 2.50 2.5 2.5 0.165 0.627 1374 24 21.8108 2.0772 11.99 
0.192 2 2.50 2.50 2.5 2.5 0.139 0.627 1375 24 22.5378 2.0772 11.99 
0.193 2 2.50 2.50 2.5 2.5 0.158 0.621 1377 24 21.8108 2.0772 11.99 
0.194 2 2.50 2.50 2.5 2.5 0.146 0.614 1379 24 22.1684 2.0772 11.99 
0.195 2 2.50 2.50 2.5 2.5 0.146 0.595 1380 24 21.8108 2.0772 11.99 
0.196 2 2.50 2.50 2.5 2.5 0.158 0.589 1382 24 22.5378 2.0772 12.01 
0.197 2 2.50 2.50 2.5 2.5 0.152 0.576 1384 24 21.4646 2.0772 12.01 
0.198 2 2.50 2.50 2.5 2.5 0.158 0.589 1385 25 22.5378 1.9127 12.01 
0.199 2 2.50 2.50 2.5 2.5 0.171 0.595 1387 25 22.5378 1.9127 12.01 
0.200 2 2.50 2.50 2.5 2.5 0.139 0.589 1388 25 21.4646 1.9127 12.01 
0.201 2 2.50 2.50 2.5 2.5 0.171 0.589 1390 25 22.1684 1.9127 12.02 
0.202 2 2.50 2.50 2.5 2.5 0.171 0.583 1392 25 22.5378 1.9127 12.02 
0.203 2 2.50 2.50 2.5 2.5 0.171 0.608 1393 25 22.9198 1.9127 12.02 
0.204 2 2.50 2.50 2.5 2.5 0.165 0.595 1395 25 21.4646 1.9127 12.02 
0.205 2 2.50 2.50 2.5 2.5 0.171 0.583 1396 26 21.8108 1.8601 12.02 
0.206 2 2.50 2.50 2.5 2.5 0.190 0.589 1398 26 21.8108 1.8601 12.02 
0.207 2 2.50 2.50 2.5 2.5 0.184 0.589 1400 26 22.1684 1.8601 12.02 
0.208 2 2.50 2.50 2.5 2.5 0.203 0.576 1401 26 21.4646 1.8601 12.02 
0.209 2 2.50 2.50 2.5 2.5 0.177 0.627 1403 26 21.8108 1.8601 12.02 
0.210 2 2.50 2.50 2.5 2.5 0.171 0.665 1405 26 21.8108 1.8601 12.02 
0.211 2 2.50 2.50 2.5 2.5 0.177 0.652 1406 26 22.1684 1.8601 12.02 
0.212 2 2.50 2.50 2.5 2.5 0.171 0.659 1408 27 22.1684 1.8601 12.02 
0.213 2 2.50 2.50 2.5 2.5 0.158 0.595 1409 27 21.8108 1.8729 12.02 
0.214 2 2.50 2.50 2.5 2.5 0.146 0.564 1411 27 22.1684 1.8729 12.02 
0.215 2 2.50 2.50 2.5 2.5 0.165 0.557 1413 27 22.1684 1.8729 12.02 
0.216 2 2.50 2.50 2.5 2.5 0.165 0.557 1414 27 22.1684 1.8729 12.01 
0.217 2 2.50 2.50 2.5 2.5 0.190 0.564 1416 27 21.8108 1.8729 12.01 
0.218 2 2.50 2.50 2.5 2.5 0.171 0.576 1417 27 22.1684 1.8729 12.01 
0.219 2 2.50 2.50 2.5 2.5 0.165 0.570 1419 27 21.8108 1.8729 12.01 
0.220 2 2.50 2.50 2.5 2.5 0.158 0.570 1421 28 22.1684 1.8474 12.01 
0.221 2 2.50 2.50 2.5 2.5 0.158 0.557 1422 28 22.1684 1.8474 12.01 
0.222 2 2.50 2.50 2.5 2.5 0.114 0.545 1424 28 22.5378 1.8474 12.01 
0.223 2 2.50 2.50 2.5 2.5 0.165 0.532 1426 28 22.1684 1.8474 12.01 
0.224 2 2.50 2.50 2.5 2.5 0.133 0.526 1427 28 22.1684 1.8474 12.01 
0.225 2 2.50 2.50 2.5 2.5 0.152 0.526 1429 28 22.9198 1.8474 12.01 
0.226 2 2.50 2.50 2.5 2.5 0.171 0.538 1431 28 22.5378 1.8474 12.02 
0.227 2 2.50 2.50 2.5 2.5 0.177 0.538 1432 29 22.1684 1.8808 12.02 
0.228 2 2.50 2.50 2.5 2.5 0.152 0.526 1434 29 22.9198 1.8808 12.02 
0.229 2 2.50 2.50 2.5 2.5 0.139 0.513 1435 29 21.4646 1.8808 12.02 
0.230 2 2.50 2.50 2.5 2.5 0.139 0.532 1437 29 22.1684 1.8808 12.02 
0.231 2 2.50 2.50 2.5 2.5 0.184 0.538 1439 29 22.5378 1.8808 11.98 
0.232 2 2.50 2.50 2.5 2.5 0.158 0.545 1440 29 22.5378 1.8808 11.98 
0.233 2 2.50 2.50 2.5 2.5 0.165 0.538 1442 29 22.9198 1.8808 11.98 
0.234 2 2.50 2.50 2.5 2.5 0.146 0.557 1444 30 22.1684 1.8423 11.98 
0.235 2 2.50 2.50 2.5 2.5 0.165 0.551 1445 30 21.8108 1.8225 11.98 
0.236 2 2.50 2.50 2.5 2.5 0.184 0.564 1447 30 22.5378 1.8225 12.01 
0.237 2 2.50 2.50 2.5 2.5 0.152 0.532 1449 30 22.5378 1.8225 12.01 
0.238 2 2.50 2.50 2.5 2.5 0.171 0.564 1450 30 22.1684 1.8225 12.01 
0.239 2 2.50 2.50 2.5 2.5 0.127 0.570 1452 30 22.1684 1.8225 12.01 
0.240 2 2.50 2.50 2.5 2.5 0.152 0.570 1454 31 22.1684 2.3559 12.01 
0.241 2 2.50 2.50 2.5 2.5 0.146 0.538 1455 31 22.1684 2.3559 12.02 
0.242 2 2.50 2.50 2.5 2.5 0.146 0.564 1457 31 22.5378 2.3559 12.02 
0.243 2 2.50 2.50 2.5 2.5 0.133 0.583 1458 31 22.5378 2.3559 12.02 
0.244 2 2.50 2.50 2.5 2.5 0.108 0.576 1460 31 22.5378 2.3559 12.02 
0.245 2 2.50 2.50 2.5 2.5 0.158 0.576 1462 31 22.1684 2.3559 12.02 
0.246 2 2.50 2.50 2.5 2.5 0.146 0.583 1463 32 22.1684 2.2538 12.02 
0.247 2 2.50 2.50 2.5 2.5 0.146 0.583 1465 32 22.1684 2.2538 12.02 
0.248 2 2.50 2.50 2.5 2.5 0.165 0.576 1467 32 22.5378 2.2538 12.02 
0.249 2 2.50 2.50 2.5 2.5 0.158 0.564 1468 32 22.1684 2.2538 12.02 
0.250 2 2.50 2.50 2.5 2.5 0.146 0.602 1470 32 22.1684 2.2538 12.02 
0.251 2 2.50 2.50 2.5 2.5 0.165 0.583 1472 32 22.9198 2.2538 12.01 
0.252 2 2.50 2.50 2.5 2.5 0.139 0.589 1473 33 22.1684 2.3155 12.01 
0.253 2 2.50 2.50 2.5 2.5 0.158 0.589 1475 33 22.5378 2.3155 12.01 
0.254 2 2.50 2.50 2.5 2.5 0.152 0.564 1477 33 22.1684 2.3155 12.01 
0.255 2 2.50 2.50 2.5 2.5 0.177 0.576 1478 33 22.9198 2.3155 12.01 
0.256 2 2.50 2.50 2.5 2.5 0.158 0.576 1480 33 21.8108 2.3155 12.01 
0.257 2 2.50 2.50 2.5 2.5 0.177 0.551 1481 33 22.9198 2.3155 12.01 
0.258 2 2.50 2.50 2.5 2.5 0.158 0.545 1483 34 21.4646 2.1329 12.01 
0.259 2 2.50 2.50 2.5 2.5 0.158 0.570 1485 34 21.8108 2.1063 12.01 
0.260 2 2.50 2.50 2.5 2.5 0.196 0.557 1486 34 22.5378 2.1063 12.01 
0.261 2 2.50 2.50 2.5 2.5 0.165 0.608 1488 34 22.9198 2.1063 11.99 
0.262 2 2.50 2.50 2.5 2.5 0.158 0.633 1490 34 23.3150 2.1063 11.99 
0.263 2 2.50 2.50 2.5 2.5 0.158 0.608 1491 34 22.1684 2.1063 11.99 
0.264 2 2.50 2.50 2.5 2.5 0.152 0.595 1493 35 22.1684 2.3766 11.99 
0.265 2 2.50 2.50 2.5 2.5 0.184 0.595 1495 35 22.5378 2.3766 11.99 
0.266 2 2.50 2.50 2.5 2.5 0.171 0.576 1496 35 22.5378 2.3766 12.02 
0.267 2 2.50 2.50 2.5 2.5 0.152 0.602 1498 35 21.8108 2.3766 12.02 
0.268 2 2.50 2.50 2.5 2.5 0.146 0.602 1499 35 22.1684 2.3766 12.02 
0.269 2 2.50 2.50 2.5 2.5 0.158 0.595 1501 35 22.1684 2.3766 12.02 
0.270 2 2.50 2.50 2.5 2.5 0.158 0.583 1503 36 22.5378 2.2096 12.02 
0.271 2 2.50 2.50 2.5 2.5 0.158 0.551 1504 36 22.1684 2.2096 12.01 
0.272 2 2.50 2.50 2.5 2.5 0.152 0.570 1506 36 22.5378 2.2096 12.01 
0.273 2 2.50 2.50 2.5 2.5 0.139 0.570 1508 36 22.1684 2.2096 12.01 
0.274 2 2.50 2.50 2.5 2.5 0.146 0.589 1509 36 21.8108 2.2096 12.01 
0.275 2 2.50 2.50 2.5 2.5 0.177 0.602 1511 36 22.1684 2.2096 12.01 
0.276 2 2.50 2.50 2.5 2.5 0.158 0.614 1513 37 22.1684 2.2060 12.01 
0.277 2 2.50 2.50 2.5 2.5 0.171 0.621 1514 37 22.5378 2.1162 12.01 
0.278 2 2.50 2.50 2.5 2.5 0.165 0.633 1516 37 22.1684 2.1162 12.01 
0.279 2 2.50 2.50 2.5 2.5 0.139 0.633 1517 37 22.1684 2.1162 12.01 
0.280 2 2.50 2.50 2.5 2.5 0.165 0.602 1519 37 22.5378 2.1162 12.01 
0.281 2 2.50 2.50 2.5 2.5 0.146 0.564 1521 37 22.5378 2.1162 12.02 
0.282 2 2.50 2.50 2.5 2.5 0.133 0.557 1522 37 22.5378 2.1162 12.02 
0.283 2 2.50 2.50 2.5 2.5 0.152 0.551 1524 38 22.1684 2.1567 12.02 
0.284 2 2.50 2.50 2.5 2.5 0.158 0.557 1526 38 22.9198 2.1567 12.02 
0.285 2 2.50 2.50 2.5 2.5 0.158 0.583 1527 38 21.8108 2.1567 12.02 
0.286 2 2.50 2.50 2.5 2.5 0.184 0.557 1529 38 22.1684 2.1567 12.01 
0.287 2 2.50 2.50 2.5 2.5 0.165 0.570 1530 38 22.9198 2.1567 12.01 
0.288 2 2.50 2.50 2.5 2.5 0.158 0.583 1532 39 21.8108 2.1567 12.01 
0.289 2 2.50 2.50 2.5 2.5 0.184 0.583 1534 39 22.1684 2.3934 12.01 
0.290 2 2.50 2.50 2.5 2.5 0.190 0.557 1535 39 22.9198 2.3934 12.01 
0.291 2 2.50 2.50 2.5 2.5 0.165 0.564 1537 39 23.3150 2.3934 12.02 
0.292 2 2.50 2.50 2.5 2.5 0.165 0.595 1539 39 23.3150 2.3934 12.02 
0.293 2 2.50 2.50 2.5 2.5 0.184 0.557 1540 39 22.1684 2.3934 12.02 
0.294 2 2.50 2.50 2.5 2.5 0.215 0.545 1542 40 22.5378 2.6005 12.02 
0.295 2 2.50 2.50 2.5 2.5 0.165 0.538 1544 40 22.5378 2.6005 12.02 
0.296 2 2.50 2.50 2.5 2.5 0.196 0.538 1545 40 21.8108 2.6005 12.01 
0.297 2 2.50 2.50 2.5 2.5 0.158 0.538 1547 40 22.1684 2.6005 12.01 
0.298 2 2.50 2.50 2.5 2.5 0.158 0.551 1549 41 22.5378 2.6005 12.01 
0.299 2 2.50 2.50 2.5 2.5 0.184 0.545 1550 41 22.5378 2.8349 12.01 
0.300 2 2.50 2.50 2.5 2.5 0.152 0.570 1552 41 22.5378 2.8349 12.01 
0.301 4 0.00 0.00 0.0 0.0 0.184 0.576 1554 41 22.5378 2.8349 12.01 
0.302 4 0.00 0.00 0.0 0.0 -0.038 0.386 1555 41 22.5378 2.8349 12.01 
0.303 4 0.00 0.00 0.0 0.0 -0.222 0.177 1557 41 22.5378 2.7997 12.01 
0.304 4 0.00 0.00 0.0 0.0 -0.241 0.070 1558 42 22.1684 2.4234 12.01 
0.305 4 0.00 0.00 0.0 0.0 -0.228 0.019 1560 42 21.4646 2.4234 12.01 
0.306 4 0.00 0.00 0.0 0.0 -0.247 0.013 1561 42 21.1292 2.4234 12.04 
0.307 4 0.00 0.00 0.0 0.0 -0.285 -0.019 1563 42 20.4889 2.4234 12.04 
0.308 4 0.00 0.00 0.0 0.0 -0.323 -0.038 1564 42 20.1831 2.4234 12.04 
0.309 4 0.00 0.00 0.0 0.0 -0.222 -0.019 1566 42 19.8863 2.4234 12.04 
0.310 4 0.00 0.00 0.0 0.0 -0.184 -0.006 1567 42 19.8863 2.1636 12.04 
0.311 4 0.00 0.00 0.0 0.0 -0.222 -0.006 1569 42 19.3181 1.8575 12.04 
0.312 4 0.00 0.00 0.0 0.0 -0.253 -0.032 1570 42 18.7815 1.6391 12.04 
0.313 4 0.00 0.00 0.0 0.0 -0.247 -0.000 1571 42 18.2739 1.4619 12.04 
0.314 4 0.00 0.00 0.0 0.0 -0.234 -0.006 1573 42 18.0303 1.3180 12.04 
0.315 4 0.00 0.00 0.0 0.0 -0.222 0.006 1574 42 18.0303 1.2020 12.04 
0.316 4 0.00 0.00 0.0 0.0 -0.165 -0.019 1575 42 16.9034 1.1030 12.04 
0.317 4 0.00 0.00 0.0 0.0 -0.196 0.013 1576 42 16.9034 1.0214 12.04 
0.318 4 0.00 0.00 0.0 0.0 -0.209 -0.000 1578 42 17.3368 0.9490 12.04 
0.319 4 0.00 0.00 0.0 0.0 -0.209 0.006 1579 42 16.9034 0.8873 12.04 
0.320 4 0.00 0.00 0.0 0.0 -0.209 0.013 1580 42 15.5433 0.8322 12.04 
0.321 4 0.00 0.00 0.0 0.0 -0.184 -0.000 1581 42 15.5433 0.7830 12.06 
0.322 4 0.00 0.00 0.0 0.0 -0.190 -0.000 1582 42 15.5433 0.7410 12.06 
0.323 4 0.00 0.00 0.0 0.0 -0.127 -0.013 1583 42 15.5433 0.7025 12.06 
0.324 4 0.00 0.00 0.0 0.0 -0.158 -0.000 1584 43 15.1940 0.6728 12.06 
0.325 4 0.00 0.00 0.0 0.0 -0.165 -0.025 1585 43 15.3667 0.6728 12.06 
0.326 4 0.00 0.00 0.0 0.0 -0.190 -0.038 1586 43 14.8601 0.6728 12.06 
0.327 4 0.00 0.00 0.0 0.0 -0.184 -0.032 1587 43 13.2575 0.6728 12.06 
0.328 4 0.00 0.00 0.0 0.0 -0.146 -0.038 1588 43 13.5227 0.6728 12.06 
0.329 4 0.00 0.00 0.0 0.0 -0.152 -0.025 1589 43 13.0026 0.6728 12.06 
0.330 4 0.00 0.00 0.0 0.0 -0.139 -0.051 1590 44 13.1288 2.2765 12.06 
0.331 4 0.00 0.00 0.0 0.0 -0.114 -0.044 1591 44 12.8788 2.2765 12.06 
0.332 4 0.00 0.00 0.0 0.0 -0.127 -0.063 1592 44 12.4061 2.2765 12.06 
0.333 4 0.00 0.00 0.0 0.0 -0.146 -0.076 1593 44 11.5579 2.2765 12.06 
0.334 4 0.00 0.00 0.0 0.0 -0.158 -0.063 1594 44 11.9670 2.2765 12.06 
0.335 4 0.00 0.00 0.0 0.0 -0.127 -0.038 1595 44 11.9670 2.2765 12.06 
0.336 4 0.00 0.00 0.0 0.0 -0.089 -0.032 1595 44 11.2689 2.1706 12.06 
0.337 4 0.00 0.00 0.0 0.0 -0.127 -0.038 1596 45 11.0842 1.8755 12.06 
0.338 4 0.00 0.00 0.0 0.0 -0.089 -0.006 1597 45 10.6478 1.8678 12.06 
0.339 4 0.00 0.00 0.0 0.0 -0.114 -0.013 1598 45 10.7323 1.8678 12.06 
0.340 4 0.00 0.00 0.0 0.0 -0.051 -0.019 1599 45 10.7323 1.8678 12.06 
0.341 4 0.00 0.00 0.0 0.0 -0.089 -0.051 1599 45 10.2445 1.8678 12.06 
0.342 4 0.00 0.00 0.0 0.0 -0.082 -0.051 1600 45 10.1674 1.8678 12.06 
0.343 4 0.00 0.00 0.0 0.0 -0.101 -0.051 1601 45 9.7991 1.8678 12.06 
0.344 4 0.00 0.00 0.0 0.0 -0.095 -0.044 1601 45 9.7991 1.8678 12.06 
0.345 4 0.00 0.00 0.0 0.0 -0.095 -0.044 1602 46 9.7991 1.6967 12.06 
0.346 4 0.00 0.00 0.0 0.0 -0.095 -0.076 1603 46 9.2621 1.6633 12.06 
0.347 4 0.00 0.00 0.0 0.0 -0.089 -0.057 1604 46 9.2621 1.6633 12.06 
0.348 4 0.00 0.00 0.0 0.0 -0.089 -0.063 1604 46 9.1370 1.6633 12.06 
0.349 4 0.00 0.00 0.0 0.0 -0.076 -0.063 1605 46 8.4517 1.6633 12.06 
0.350 4 0.00 0.00 0.0 0.0 -0.076 -0.082 1605 46 8.4517 1.6633 12.06 
0.351 4 0.00 0.00 0.0 0.0 -0.070 -0.063 1606 46 8.6684 1.6633 12.04 
0.352 4 0.00 0.00 0.0 0.0 -0.057 -0.076 1607 47 8.4517 2.0998 12.04 
0.353 4 0.00 0.00 0.0 0.0 -0.057 -0.076 1607 47 8.0016 2.0998 12.04 
0.354 4 0.00 0.00 0.0 0.0 -0.082 -0.057 1608 47 7.9545 2.0998 12.04 
0.355 4 0.00 0.00 0.0 0.0 -0.076 -0.044 1608 47 7.9545 2.0998 12.04 
0.356 4 0.00 0.00 0.0 0.0 -0.057 -0.070 1609 47 7.6399 2.0998 12.06 
0.357 4 0.00 0.00 0.0 0.0 -0.089 -0.063 1609 47 7.6399 2.0998 12.06 
0.358 4 0.00 0.00 0.0 0.0 -0.082 -0.070 1610 47 7.3895 2.0998 12.06 
0.359 4 0.00 0.00 0.0 0.0 -0.070 -0.063 1610 47 7.3895 1.8274 12.06 
0.360 4 0.00 0.00 0.0 0.0 -0.057 -0.051 1611 48 6.6614 1.7010 12.06 
0.361 4 0.00 0.00 0.0 0.0 -0.070 -0.044 1611 48 6.6614 1.7010 12.04 
0.362 4 0.00 0.00 0.0 0.0 -0.063 -0.051 1612 48 6.5327 1.7010 12.04 
0.363 4 0.00 0.00 0.0 0.0 -0.006 -0.038 1612 48 6.5327 1.7010 12.04 
0.364 4 0.00 0.00 0.0 0.0 -0.025 -0.032 1613 48 6.0913 1.7010 12.04 
0.365 4 0.00 0.00 0.0 0.0 -0.044 -0.044 1613 48 6.0913 1.7010 12.04 
0.366 4 0.00 0.00 0.0 0.0 -0.025 -0.032 1614 48 6.0101 1.7010 12.06 
0.367 4 0.00 0.00 0.0 0.0 -0.044 -0.038 1614 48 6.0101 1.7010 12.06 
0.368 4 0.00 0.00 0.0 0.0 -0.025 -0.051 1615 48 6.0101 1.6003 12.06 
0.369 4 0.00 0.00 0.0 0.0 -0.019 -0.025 1615 49 5.7789 1.5059 12.06 
0.370 4 0.00 0.00 0.0 0.0 -0.019 -0.038 1615 49 5.7789 1.5059 12.06 
0.371 4 0.00 0.00 0.0 0.0 -0.025 -0.038 1616 49 5.3875 1.5059 12.04 
0.372 4 0.00 0.00 0.0 0.0 -0.038 -0.025 1616 49 5.3875 1.5059 12.04 
0.373 4 0.00 0.00 0.0 0.0 -0.019 -0.038 1616 49 5.3875 1.5059 12.04 
0.374 4 0.00 0.00 0.0 0.0 -0.044 -0.044 1617 49 4.9173 1.5059 12.04 
0.375 4 0.00 0.00 0.0 0.0 -0.032 -0.051 1617 49 4.9173 1.5059 12.04 
0.376 4 0.00 0.00 0.0 0.0 -0.051 -0.032 1617 49 4.9173 1.5059 12.06 
0.377 4 0.00 0.00 0.0 0.0 -0.032 -0.044 1618 49 4.7783 1.5059 12.06 
0.378 4 0.00 0.00 0.0 0.0 -0.038 -0.013 1618 50 4.7783 1.4280 12.06 
0.379 4 0.00 0.00 0.0 0.0 -0.019 -0.032 1618 50 4.7783 1.4071 12.06 
0.380 4 0.00 0.00 0.0 0.0 -0.013 -0.051 1619 50 4.2524 1.4071 12.06 
0.381 4 0.00 0.00 0.0 0.0 -0.006 -0.038 1619 50 4.2524 1.4071 12.04 
0.382 4 0.00 0.00 0.0 0.0 -0.013 -0.038 1619 50 4.2524 1.4071 12.04 
0.383 4 0.00 0.00 0.0 0.0 -0.019 -0.038 1620 50 4.0609 1.4071 12.04 
0.384 4 0.00 0.00 0.0 0.0 -0.019 -0.057 1620 50 4.0609 1.4071 12.04 
0.385 4 0.00 0.00 0.0 0.0 -0.032 -0.057 1620 50 4.0609 1.4071 12.04 
0.386 4 0.00 0.00 0.0 0.0 -0.006 -0.044 1621 50 4.0609 1.4071 12.04 
0.387 4 0.00 0.00 0.0 0.0 0.000 -0.044 1621 50 4.0609 1.4071 12.04 
0.388 4 0.00 0.00 0.0 0.0 0.006 -0.038 1621 51 4.0609 1.3898 12.04 
0.389 4 0.00 0.00 0.0 0.0 0.019 -0.038 1621 51 4.0609 1.3898 12.04 
0.390 4 0.00 0.00 0.0 0.0 -0.006 -0.032 1622 51 3.5869 1.3898 12.04 
0.391 4 0.00 0.00 0.0 0.0 -0.006 -0.038 1622 51 3.4942 1.3898 12.06 
0.392 4 0.00 0.00 0.0 0.0 0.006 -0.013 1622 51 3.4942 1.3898 12.06 
0.393 4 0.00 0.00 0.0 0.0 0.006 -0.032 1622 51 3.4942 1.3898 12.06 
0.394 4 0.00 0.00 0.0 0.0 0.006 -0.051 1622 51 3.4674 1.3898 12.06 
0.395 4 0.00 0.00 0.0 0.0 -0.006 -0.032 1623 51 2.8772 1.3898 12.06 
0.396 4 0.00 0.00 0.0 0.0 0.025 -0.019 1623 51 2.8772 1.3898 12.06 
0.397 4 0.00 0.00 0.0 0.0 0.006 -0.013 1623 51 2.8772 1.3898 12.06 
0.398 4 0.00 0.00 0.0 0.0 0.000 -0.025 1623 51 2.8772 1.3349 12.06 
0.399 4 0.00 0.00 0.0 0.0 0.019 -0.006 1623 52 2.8772 1.2150 12.06 
0.400 4 0.00 0.00 0.0 0.0 0.006 -0.013 1624 52 2.7767 1.1904 12.06 
0.401 4 0.00 0.00 0.0 0.0 0.006 -0.013 1624 52 2.7767 1.1904 12.06 
0.402 4 0.00 0.00 0.0 0.0 0.000 -0.013 1624 52 2.7767 1.1904 12.06 
0.403 4 0.00 0.00 0.0 0.0 -0.006 -0.032 1624 52 2.7767 1.1904 12.06 
0.404 4 0.00 0.00 0.0 0.0 0.038 -0.025 1624 52 2.7767 1.1904 12.06 
0.405 4 0.00 0.00 0.0 0.0 0.013 -0.013 1625 52 2.6207 1.1904 12.06 
0.406 4 0.00 0.00 0.0 0.0 0.032 -0.013 1625 52 2.6207 1.1904 12.06 
0.407 4 0.00 0.00 0.0 0.0 0.013 0.006 1625 52 2.6207 1.1904 12.06 
0.408 4 0.00 0.00 0.0 0.0 0.000 -0.025 1625 52 2.6207 1.1904 12.06 
0.409 4 0.00 0.00 0.0 0.0 0.032 -0.013 1625 52 2.6207 1.1904 12.06 
0.410 4 0.00 0.00 0.0 0.0 0.006 -0.006 1625 52 2.6156 1.1904 12.06 
0.411 4 0.00 0.00 0.0 0.0 -0.006 -0.032 1626 52 2.1811 1.1470 12.04 
0.412 4 0.00 0.00 0.0 0.0 0.019 -0.013 1626 52 2.0772 1.0589 12.04 
0.413 4 0.00 0.00 0.0 0.0 0.025 -0.019 1626 52 2.0772 0.9820 12.04 
0.414 4 0.00 0.00 0.0 0.0 0.006 -0.019 1626 53 2.0772 0.9156 12.04 
0.415 4 0.00 0.00 0.0 0.0 -0.006 -0.025 1626 53 2.0772 0.9003 12.04 
0.416 4 0.00 0.00 0.0 0.0 0.032 -0.013 1626 53 2.0772 0.9003 12.04 
0.417 4 0.00 0.00 0.0 0.0 0.013 -0.019 1626 53 2.0772 0.9003 12.04 
0.418 4 0.00 0.00 0.0 0.0 0.019 -0.013 1626 53 2.0304 0.9003 12.04 
0.419 4 0.00 0.00 0.0 0.0 0.013 -0.013 1626 53 1.7654 0.9003 12.04 
0.420 4 0.00 0.00 0.0 0.0 0.032 -0.032 1626 53 1.5615 0.9003 12.04 
0.421 4 0.00 0.00 0.0 0.0 0.019 -0.032 1627 53 1.4667 0.9003 12.06 
0.422 4 0.00 0.00 0.0 0.0 0.025 -0.025 1627 53 1.4667 0.9003 12.06 
0.423 4 0.00 0.00 0.0 0.0 0.051 -0.025 1627 53 1.4667 0.9003 12.06 
0.424 4 0.00 0.00 0.0 0.0 0.044 -0.025 1627 53 1.4667 0.9003 12.06 
0.425 4 0.00 0.00 0.0 0.0 0.038 -0.038 1627 53 1.4667 0.9003 12.06 
0.426 4 0.00 0.00 0.0 0.0 0.025 -0.025 1627 53 1.4667 0.9003 12.06 
0.427 4 0.00 0.00 0.0 0.0 0.019 -0.019 1627 53 1.4667 0.9003 12.06 
0.428 4 0.00 0.00 0.0 0.0 0.019 -0.025 1627 54 1.4667 0.9003 12.06 
0.429 4 0.00 0.00 0.0 0.0 0.044 -0.013 1627 54 1.4667 0.9722 12.06 
0.430 4 0.00 0.00 0.0 0.0 0.006 -0.019 1627 54 1.4325 0.9722 12.06 
0.431 4 0.00 0.00 0.0 0.0 0.032 -0.013 1628 54 1.2916 0.9722 12.06 
0.432 4 0.00 0.00 0.0 0.0 0.013 -0.006 1628 54 1.2879 0.9722 12.06 
0.433 4 0.00 0.00 0.0 0.0 0.013 -0.044 1628 54 1.2879 0.9722 12.06 
0.434 4 0.00 0.00 0.0 0.0 0.038 -0.025 1628 54 1.2879 0.9722 12.06 
0.435 4 0.00 0.00 0.0 0.0 0.025 -0.032 1628 54 1.2879 0.9722 12.06 
0.436 4 0.00 0.00 0.0 0.0 0.032 -0.025 1628 54 1.2879 0.9722 12.06 
0.437 4 0.00 0.00 0.0 0.0 0.025 -0.019 1628 54 1.2879 0.9722 12.06 
0.438 4 0.00 0.00 0.0 0.0 0.038 -0.025 1628 54 1.2879 0.9722 12.06 
0.439 4 0.00 0.00 0.0 0.0 0.038 -0.044 1628 54 1.2879 0.9722 12.06 
0.440 4 0.00 0.00 0.0 0.0 0.038 -0.000 1628 55 1.2879 0.9722 12.06 
0.441 4 0.00 0.00 0.0 0.0 0.025 -0.006 1628 55 1.2879 1.1326 12.06 
0.442 4 0.00 0.00 0.0 0.0 0.019 0.006 1628 55 1.2361 1.1326 12.06 
0.443 4 0.00 0.00 0.0 0.0 0.025 0.006 1628 55 1.1326 1.1326 12.06 
0.444 4 0.00 0.00 0.0 0.0 0.044 -0.025 1628 55 1.0450 1.1326 12.06 
0.445 4 0.00 0.00 0.0 0.0 0.019 -0.006 1628 55 0.9701 1.1326 12.06 
0.446 4 0.00 0.00 0.0 0.0 0.044 -0.013 1628 55 0.9033 1.1326 12.06 
0.447 4 0.00 0.00 0.0 0.0 0.044 0.006 1628 55 0.8483 1.1326 12.06 
0.448 4 0.00 0.00 0.0 0.0 0.032 -0.032 1629 55 0.8088 1.1326 12.06 
0.449 4 0.00 0.00 0.0 0.0 0.051 -0.019 1629 55 0.8088 1.1326 12.06 
0.450 4 0.00 0.00 0.0 0.0 0.032 -0.032 1629 55 0.8088 1.1326 12.06 
0.451 4 0.00 0.00 0.0 0.0 0.063 -0.032 1629 55 0.8088 1.1326 12.06 
0.452 4 0.00 0.00 0.0 0.0 0.057 -0.006 1629 55 0.8088 1.1326 12.06 
0.453 4 0.00 0.00 0.0 0.0 0.070 -0.025 1629 55 0.8088 1.0483 12.06 
0.454 4 0.00 0.00 0.0 0.0 0.044 -0.013 1629 55 0.8088 0.9729 12.06 
0.455 4 0.00 0.00 0.0 0.0 0.044 -0.013 1629 55 0.8088 0.9076 12.06 
0.456 4 0.00 0.00 0.0 0.0 0.070 0.006 1629 56 0.8088 0.8580 12.06 
0.457 4 0.00 0.00 0.0 0.0 0.044 -0.013 1629 56 0.8088 0.8580 12.06 
0.458 4 0.00 0.00 0.0 0.0 0.070 -0.044 1629 56 0.8088 0.8580 12.06 
0.459 4 0.00 0.00 0.0 0.0 0.051 -0.013 1629 56 0.8088 0.8580 12.06 
0.460 4 0.00 0.00 0.0 0.0 0.051 -0.019 1629 56 0.8088 0.8580 12.06 
0.461 4 0.00 0.00 0.0 0.0 0.051 -0.038 1629 56 0.8088 0.8580 12.04 
0.462 4 0.00 0.00 0.0 0.0 0.044 -0.038 1629 56 0.8088 0.8580 12.04 
0.463 4 0.00 0.00 0.0 0.0 0.044 -0.038 1629 56 0.8088 0.8580 12.04 
0.464 4 0.00 0.00 0.0 0.0 0.070 -0.032 1629 56 0.8088 0.8580 12.04 
0.465 4 0.00 0.00 0.0 0.0 0.070 -0.019 1629 56 0.7853 0.8580 12.04 
0.466 4 0.00 0.00 0.0 0.0 0.051 -0.006 1629 56 0.7410 0.8580 12.06 
0.467 4 0.00 0.00 0.0 0.0 0.038 -0.019 1629 56 0.7036 0.8580 12.06 
0.468 4 0.00 0.00 0.0 0.0 0.032 -0.019 1629 56 0.6688 0.8580 12.06 
0.469 4 0.00 0.00 0.0 0.0 0.044 -0.032 1629 56 0.6373 0.8580 12.06 
0.470 4 0.00 0.00 0.0 0.0 0.063 -0.025 1629 56 0.6086 0.8580 12.06 
0.471 4 0.00 0.00 0.0 0.0 0.063 -0.013 1629 56 0.5816 0.8580 12.04 
0.472 4 0.00 0.00 0.0 0.0 0.070 -0.032 1629 56 0.5583 0.8378 12.04 
0.473 4 0.00 0.00 0.0 0.0 0.051 -0.019 1629 56 0.5362 0.7890 12.04 
0.474 4 0.00 0.00 0.0 0.0 0.063 -0.032 1629 56 0.5157 0.7455 12.04 
0.475 4 0.00 0.00 0.0 0.0 0.057 -0.019 1629 56 0.4968 0.7065 12.04 
0.476 4 0.00 0.00 0.0 0.0 0.051 -0.019 1629 57 0.4787 0.6758 12.06 
0.477 4 0.00 0.00 0.0 0.0 0.051 -0.013 1629 57 0.4628 0.6758 12.06 
0.478 4 0.00 0.00 0.0 0.0 0.063 -0.038 1629 57 0.4475 0.6758 12.06 
0.479 4 0.00 0.00 0.0 0.0 0.051 -0.019 1629 57 0.4331 0.6758 12.06 
0.480 4 0.00 0.00 0.0 0.0 0.044 -0.019 1629 57 0.4197 0.6758 12.06 
0.481 4 0.00 0.00 0.0 0.0 0.038 -0.025 1629 57 0.4067 0.6758 12.04 
0.482 4 0.00 0.00 0.0 0.0 0.070 -0.032 1629 57 0.3952 0.6758 12.04 
0.483 4 0.00 0.00 0.0 0.0 0.044 -0.025 1629 57 0.3839 0.6758 12.04 
0.484 4 0.00 0.00 0.0 0.0 0.076 -0.000 1629 57 0.3733 0.6758 12.04 
0.485 4 0.00 0.00 0.0 0.0 0.076 -0.000 1629 57 0.3633 0.6758 12.04 
0.486 4 0.00 0.00 0.0 0.0 0.063 -0.019 1629 57 0.3535 0.6758 12.06 
0.487 4 0.00 0.00 0.0 0.0 0.057 -0.000 1629 57 0.3448 0.6758 12.06 
0.488 4 0.00 0.00 0.0 0.0 0.063 -0.019 1629 57 0.3362 0.6758 12.06 
0.489 4 0.00 0.00 0.0 0.0 0.076 -0.006 1629 57 0.3281 0.6758 12.06 
0.490 4 0.00 0.00 0.0 0.0 0.044 -0.000 1629 57 0.3203 0.6758 12.06 
0.491 4 0.00 0.00 0.0 0.0 0.044 -0.013 1629 57 0.3127 0.6758 12.06 
0.492 4 0.00 0.00 0.0 0.0 0.051 -0.013 1629 57 0.3058 0.6758 12.06 
0.493 4 0.00 0.00 0.0 0.0 0.051 -0.013 1629 57 0.2990 0.6758 12.06 
0.494 4 0.00 0.00 0.0 0.0 0.057 -0.006 1629 57 0.2926 0.6758 12.06 
0.495 4 0.00 0.00 0.0 0.0 0.063 -0.013 1629 57 0.2864 0.6758 12.06 
0.496 4 0.00 0.00 0.0 0.0 0.038 -0.019 1629 57 0.2803 0.6711 12.04 
0.497 4 0.00 0.00 0.0 0.0 0.076 0.025 1629 57 0.2747 0.6400 12.04 
0.498 4 0.00 0.00 0.0 0.0 0.057 -0.006 1629 57 0.2693 0.6111 12.04 
0.499 4 0.00 0.00 0.0 0.0 0.051 -0.000 1629 57 0.2640 0.5846 12.04 
0.500 4 0.00 0.00 0.0 0.0 0.051 0.006 1629 57 0.2590 0.5604 12.04 
0.501 4 0.00 0.00 0.0 0.0 0.057 -0.013 1629 57 0.2539 0.5377 12.06 
0.502 4 0.00 0.00 0.0 0.0 0.019 -0.013 1629 57 0.2494 0.5175 12.06 
0.503 4 0.00 0.00 0.0 0.0 0.063 -0.006 1629 57 0.2449 0.4984 12.06 
0.504 4 0.00 0.00 0.0 0.0 0.063 0.013 1629 57 0.2405 0.4807 12.06 
0.505 4 0.00 0.00 0.0 0.0 0.070 -0.013 1629 57 0.2363 0.4642 12.06 
0.506 4 0.00 0.00 0.0 0.0 0.057 -0.000 1629 57 0.2321 0.4485 12.06 
0.507 4 0.00 0.00 0.0 0.0 0.057 -0.000 1629 57 0.2283 0.4344 12.06 
0.510 4 0.00 0.00 0.0 0.0 0.051 -0.000 1629 57 0.2246 0.4209 12.06 
0.511 4 0.00 0.00 0.0 0.0 0.038 0.013 1629 57 0.2158 0.3912 12.06 
0.512 4 0.00 0.00 0.0 0.0 0.063 0.006 1629 57 0.2128 0.3812 12.06 
0.513 4 0.00 0.00 0.0 0.0 0.070 -0.000 1629 57 0.2097 0.3716 12.06 
0.514 4 0.00 0.00 0.0 0.0 0.032 0.006 1629 57 0.2068 0.3626 12.06 
0.514 4 0.00 0.00 0.0 0.0 0.076 0.006 1629 57 0.2040 0.3541 12.06 
0.515 4 0.00 0.00 0.0 0.0 0.044 -0.000 1629 57 0.2012 0.3456 12.06 
0.516 4 0.00 0.00 0.0 0.0 0.070 -0.000 1629 57 0.1982 0.3370 12.06 
0.517 4 0.00 0.00 0.0 0.0 0.057 0.032 1629 57 0.1953 0.3286 12.04 
0.518 4 0.00 0.00 0.0 0.0 0.044 0.025 1629 57 0.1926 0.3210 12.04 
0.519 4 0.00 0.00 0.0 0.0 0.057 -0.000 1629 57 0.1899 0.3135 12.04 
0.520 4 0.00 0.00 0.0 0.0 0.032 0.006 1629 57 0.1872 0.3064 12.04 
0.521 4 0.00 0.00 0.0 0.0 0.038 -0.006 1629 57 0.1847 0.2996 12.04 
0.522 4 0.00 0.00 0.0 0.0 0.082 0.013 1629 57 0.1821 0.2930 12.04 
0.523 4 0.00 0.00 0.0 0.0 0.044 -0.013 1629 57 0.1798 0.2869 12.04 
0.524 4 0.00 0.00 0.0 0.0 0.057 0.013 1629 57 0.1774 0.2810 12.04 
0.525 4 0.00 0.00 0.0 0.0 0.063 -0.013 1629 57 0.1751 0.2752 12.04 
0.526 4 0.00 0.00 0.0 0.0 0.063 -0.013 1629 57 0.1729 0.2698 12.04 
0.527 4 0.00 0.00 0.0 0.0 0.032 -0.019 1629 57 0.1706 0.2644 12.06 
0.528 4 0.00 0.00 0.0 0.0 0.057 -0.006 1629 57 0.1686 0.2594 12.06 
0.529 4 0.00 0.00 0.0 0.0 0.070 0.006 1629 57 0.1665 0.2545 12.06 
0.530 4 0.00 0.00 0.0 0.0 0.070 -0.006 1629 57 0.1645 0.2498 12.06 
0.531 4 0.00 0.00 0.0 0.0 0.063 0.006 1629 57 0.1625 0.2453 12.06 
0.532 4 0.00 0.00 0.0 0.0 0.057 0.006 1629 57 0.1605 0.2408 12.06 
0.533 4 0.00 0.00 0.0 0.0 0.063 -0.000 1629 57 0.1587 0.2367 12.06 
0.534 4 0.00 0.00 0.0 0.0 0.063 0.006 1629 57 0.1568 0.2326 12.06 
0.535 4 0.00 0.00 0.0 0.0 0.063 -0.019 1629 57 0.1550 0.2287 12.06 
0.536 4 0.00 0.00 0.0 0.0 0.063 -0.000 1629 57 0.1533 0.2249 12.06 
0.537 4 0.00 0.00 0.0 0.0 0.051 -0.000 1629 57 0.1515 0.2211 12.04 
0.538 4 0.00 0.00 0.0 0.0 0.063 0.006 1629 57 0.1499 0.2177 12.04 
0.539 4 0.00 0.00 0.0 0.0 0.044 0.006 1629 57 0.1482 0.2142 12.04 
0.540 4 0.00 0.00 0.0 0.0 0.038 -0.013 1629 57 0.1466 0.2109 12.04 
0.541 4 0.00 0.00 0.0 0.0 0.063 0.013 1629 57 0.1451 0.2076 12.04 
0.542 4 0.00 0.00 0.0 0.0 0.057 -0.019 1629 57 0.1435 0.2044 12.06 
0.543 4 0.00 0.00 0.0 0.0 0.070 -0.000 1629 57 0.1420 0.2014 12.06 
0.544 4 0.00 0.00 0.0 0.0 0.063 -0.013 1629 57 0.1405 0.1985 12.06 
0.545 4 0.00 0.00 0.0 0.0 0.063 0.006 1629 57 0.1391 0.1956 12.06 
0.546 4 0.00 0.00 0.0 0.0 0.051 -0.006 1629 57 0.1377 0.1928 12.06 
0.547 4 0.00 0.00 0.0 0.0 0.082 0.013 1629 57 0.1362 0.1901 12.06 
0.548 4 0.00 0.00 0.0 0.0 0.032 0.006 1629 57 0.1349 0.1875 12.06 
0.549 4 0.00 0.00 0.0 0.0 0.076 0.032 1629 57 0.1336 0.1849 12.06 
0.550 4 0.00 0.00 0.0 0.0 0.070 -0.013 1629 57 0.1323 0.1824 12.06 
0.551 4 0.00 0.00 0.0 0.0 0.076 0.013 1629 57 0.1310 0.1800 12.06 
0.552 4 0.00 0.00 0.0 0.0 0.082 -0.006 1629 57 0.1297 0.1776 12.06 
0.553 4 0.00 0.00 0.0 0.0 0.063 -0.000 1629 57 0.1285 0.1753 12.06 
0.554 4 0.00 0.00 0.0 0.0 0.032 -0.013 1629 57 0.1273 0.1731 12.06 
0.555 4 0.00 0.00 0.0 0.0 0.082 -0.006 1629 57 0.1261 0.1709 12.06 
0.556 4 0.00 0.00 0.0 0.0 0.044 0.006 1629 57 0.1250 0.1688 12.06 
0.557 4 0.00 0.00 0.0 0.0 0.070 0.006 1629 57 0.1238 0.1666 12.06 
0.558 4 0.00 0.00 0.0 0.0 0.063 -0.006 1629 57 0.1227 0.1646 12.06 
0.559 4 0.00 0.00 0.0 0.0 0.044 0.006 1629 57 0.1216 0.1627 12.06 
0.560 4 0.00 0.00 0.0 0.0 0.044 0.006 1629 57 0.1205 0.1607 12.06 
0.561 4 0.00 0.00 0.0 0.0 0.057 -0.013 1629 57 0.1194 0.1588 12.06 
0.562 4 0.00 0.00 0.0 0.0 0.044 0.006 1629 57 0.1184 0.1570 12.06 
0.563 4 0.00 0.00 0.0 0.0 0.076 0.006 1629 57 0.1174 0.1552 12.06 
0.564 4 0.00 0.00 0.0 0.0 0.063 -0.000 1629 57 0.1164 0.1534 12.06 
0.565 4 0.00 0.00 0.0 0.0 0.070 -0.000 1629 57 0.1154 0.1517 12.06 
0.566 4 0.00 0.00 0.0 0.0 0.070 0.013 1629 57 0.1144 0.1500 12.06 
0.567 4 0.00 0.00 0.0 0.0 0.063 -0.013 1629 57 0.1134 0.1484 12.06 
0.568 4 0.00 0.00 0.0 0.0 0.076 0.019 1629 57 0.1125 0.1468 12.06 
0.569 4 0.00 0.00 0.0 0.0 0.076 0.019 1629 57 0.1116 0.1452 12.06 
0.570 4 0.00 0.00 0.0 0.0 0.063 0.013 1629 57 0.1106 0.1437 12.06 
0.571 4 0.00 0.00 0.0 0.0 0.051 -0.006 1629 57 0.1097 0.1421 12.06 
0.572 4 0.00 0.00 0.0 0.0 0.038 0.025 1629 57 0.1088 0.1406 12.06 
0.573 4 0.00 0.00 0.0 0.0 0.070 -0.019 1629 57 0.1080 0.1392 12.06 
0.574 4 0.00 0.00 0.0 0.0 0.057 -0.006 1629 57 0.1071 0.1378 12.06 
0.575 4 0.00 0.00 0.0 0.0 0.070 -0.006 1629 57 0.1063 0.1364 12.06 
0.576 4 0.00 0.00 0.0 0.0 0.044 0.013 1629 57 0.1055 0.1351 12.06 
0.577 4 0.00 0.00 0.0 0.0 0.070 -0.000 1629 57 0.1046 0.1337 12.04 
0.578 4 0.00 0.00 0.0 0.0 0.044 0.013 1629 57 0.1038 0.1324 12.04 
0.579 4 0.00 0.00 0.0 0.0 0.051 -0.006 1629 57 0.1031 0.1311 12.04 
0.580 4 0.00 0.00 0.0 0.0 0.070 -0.006 1629 57 0.1023 0.1299 12.04 
0.581 4 0.00 0.00 0.0 0.0 0.063 -0.006 1629 57 0.1015 0.1286 12.04 
0.582 4 0.00 0.00 0.0 0.0 0.051 -0.000 1629 57 0.1007 0.1274 12.04 
0.583 4 0.00 0.00 0.0 0.0 0.070 0.006 1629 57 0.1000 0.1262 12.04 
0.584 4 0.00 0.00 0.0 0.0 0.044 -0.013 1629 57 0.0993 0.1251 12.04 
0.585 4 0.00 0.00 0.0 0.0 0.063 -0.000 1629 57 0.0985 0.1239 12.04 
0.586 4 0.00 0.00 0.0 0.0 0.038 0.013 1629 57 0.0978 0.1228 12.04 
0.587 4 0.00 0.00 0.0 0.0 0.038 -0.000 1629 57 0.0971 0.1217 12.04 
0.588 4 0.00 0.00 0.0 0.0 0.038 0.013 1629 57 0.0964 0.1206 12.04 
0.589 4 0.00 0.00 0.0 0.0 0.038 -0.006 1629 57 0.0958 0.1195 12.04 
0.590 4 0.00 0.00 0.0 0.0 0.044 0.006 1629 57 0.0951 0.1185 12.04 
0.591 4 0.00 0.00 0.0 0.0 0.076 -0.006 1629 57 0.0944 0.1175 12.04 
0.592 4 0.00 0.00 0.0 0.0 0.063 -0.000 1629 57 0.0937 0.1164 12.06 
0.593 4 0.00 0.00 0.0 0.0 0.038 -0.006 1629 57 0.0931 0.1155 12.06 
0.594 4 0.00 0.00 0.0 0.0 0.063 0.013 1629 57 0.0925 0.1145 12.06 
0.595 4 0.00 0.00 0.0 0.0 0.076 -0.025 1629 57 0.0919 0.1135 12.06 
0.596 4 0.00 0.00 0.0 0.0 0.063 -0.025 1629 57 0.0912 0.1126 12.06 
0.597 4 0.00 0.00 0.0 0.0 0.057 -0.032 1629 57 0.0906 0.1116 12.06 
0.598 4 0.00 0.00 0.0 0.0 0.063 -0.019 1629 57 0.0900 0.1107 12.06 
0.599 4 0.00 0.00 0.0 0.0 0.051 -0.006 1629 57 0.0894 0.1098 12.06 
0.600 4 0.00 0.00 0.0 0.0 0.063 -0.006 1629 57 0.0888 0.1089 12.06 
0.601 4 0.00 0.00 0.0 0.0 0.038 0.019 1629 57 0.0883 0.1081 12.06 
0.602 4 0.00 0.00 0.0 0.0 0.051 0.006 1629 57 0.0877 0.1072 12.04 
0.603 4 0.00 0.00 0.0 0.0 0.044 -0.013 1629 57 0.0871 0.1064 12.04 
0.604 4 0.00 0.00 0.0 0.0 0.051 -0.000 1629 57 0.0866 0.1055 12.04 
0.605 4 0.00 0.00 0.0 0.0 0.057 -0.006 1629 57 0.0860 0.1047 12.04 
0.606 4 0.00 0.00 0.0 0.0 0.057 -0.000 1629 57 0.0855 0.1039 12.04 
0.607 4 0.00 0.00 0.0 0.0 0.057 -0.006 1629 57 0.0849 0.1031 12.04 
0.608 4 0.00 0.00 0.0 0.0 0.063 -0.013 1629 57 0.0844 0.1023 12.04 
0.609 4 0.00 0.00 0.0 0.0 0.051 -0.013 1629 57 0.0839 0.1016 12.04 
0.610 4 0.00 0.00 0.0 0.0 0.044 -0.006 1629 57 0.0834 0.1008 12.04 
0.611 4 0.00 0.00 0.0 0.0 0.063 -0.000 1629 57 0.0828 0.1001 12.04 
0.612 4 0.00 0.00 0.0 0.0 0.044 -0.006 1629 57 0.0823 0.0993 12.06 
0.613 4 0.00 0.00 0.0 0.0 0.070 -0.000 1629 57 0.0818 0.0986 12.06 
0.614 4 0.00 0.00 0.0 0.0 0.044 -0.000 1629 57 0.0814 0.0979 12.06 
0.615 4 0.00 0.00 0.0 0.0 0.063 -0.013 1629 57 0.0809 0.0972 12.06 
0.616 4 0.00 0.00 0.0 0.0 0.057 -0.006 1629 57 0.0804 0.0965 12.06 
0.617 4 0.00 0.00 0.0 0.0 0.063 -0.006 1629 57 0.0799 0.0958 12.04 
0.618 4 0.00 0.00 0.0 0.0 0.038 -0.006 1629 57 0.0794 0.0951 12.04 
0.619 4 0.00 0.00 0.0 0.0 0.057 0.006 1629 57 0.0790 0.0945 12.04 
0.620 4 0.00 0.00 0.0 0.0 0.063 -0.019 1629 57 0.0785 0.0938 12.04 
0.621 4 0.00 0.00 0.0 0.0 0.044 -0.000 1629 57 0.0781 0.0932 12.04 
0.622 4 0.00 0.00 0.0 0.0 0.070 0.006 1629 57 0.0776 0.0925 12.06 
0.623 4 0.00 0.00 0.0 0.0 0.038 -0.006 1629 57 0.0772 0.0919 12.06 
0.624 4 0.00 0.00 0.0 0.0 0.057 0.013 1629 57 0.0767 0.0913 12.06 
0.625 4 0.00 0.00 0.0 0.0 0.044 0.013 1629 57 0.0763 0.0907 12.06 
0.626 4 0.00 0.00 0.0 0.0 0.076 0.006 1629 57 0.0759 0.0901 12.06 
0.627 4 0.00 0.00 0.0 0.0 0.057 0.006 1629 57 0.0754 0.0895 12.06 
0.628 4 0.00 0.00 0.0 0.0 0.044 -0.013 1629 57 0.0750 0.0889 12.06 
0.629 4 0.00 0.00 0.0 0.0 0.044 0.013 1629 57 0.0746 0.0883 12.06 
0.630 4 0.00 0.00 0.0 0.0 0.044 -0.019 1629 57 0.0742 0.0877 12.06 
0.631 4 0.00 0.00 0.0 0.0 0.057 -0.006 1629 57 0.0738 0.0872 12.06 
0.632 4 0.00 0.00 0.0 0.0 0.044 0.019 1629 57 0.0734 0.0866 12.04 
0.633 4 0.00 0.00 0.0 0.0 0.063 -0.019 1629 57 0.0730 0.0861 12.04 
0.634 4 0.00 0.00 0.0 0.0 0.063 -0.006 1629 57 0.0726 0.0855 12.04 
0.635 4 0.00 0.00 0.0 0.0 0.070 0.013 1629 57 0.0722 0.0850 12.04 
0.636 4 0.00 0.00 0.0 0.0 0.063 -0.000 1629 57 0.0718 0.0844 12.04 
0.637 4 0.00 0.00 0.0 0.0 0.051 -0.006 1629 57 0.0715 0.0839 12.04 
0.638 4 0.00 0.00 0.0 0.0 0.076 0.013 1629 57 0.0711 0.0834 12.04 
0.639 4 0.00 0.00 0.0 0.0 0.076 -0.025 1629 57 0.0707 0.0829 12.04 
0.640 4 0.00 0.00 0.0 0.0 0.076 -0.006 1629 57 0.0704 0.0824 12.04 
0.641 4 0.00 0.00 0.0 0.0 0.044 -0.000 1629 57 0.0700 0.0819 12.04 
0.642 4 0.00 0.00 0.0 0.0 0.051 -0.006 1629 57 0.0696 0.0814 12.04 
0.643 4 0.00 0.00 0.0 0.0 0.051 -0.006 1629 57 0.0693 0.0809 12.04 
0.644 4 0.00 0.00 0.0 0.0 0.089 -0.000 1629 57 0.0689 0.0804 12.04 
0.645 4 0.00 0.00 0.0 0.0 0.044 -0.006 1629 57 0.0686 0.0800 12.04 
0.646 4 0.00 0.00 0.0 0.0 0.057 0.006 1629 57 0.0682 -0.0000 12.04 
0.647 4 0.00 0.00 0.0 0.0 0.070 -0.013 1629 57 0.0679 0.0790 12.06 
0.648 4 0.00 0.00 0.0 0.0 0.070 -0.000 1629 57 0.0675 0.0786 12.06 
0.649 4 0.00 0.00 0.0 0.0 0.057 0.006 1629 57 0.0672 0.0781 12.06 
0.650 4 0.00 0.00 0.0 0.0 0.076 0.013 1629 57 0.0669 0.0777 12.06 
0.651 4 0.00 0.00 0.0 0.0 0.070 0.006 1629 57 0.0665 0.0772 12.06 
0.652 4 0.00 0.00 0.0 0.0 0.082 -0.006 1629 57 0.0662 0.0768 12.04 
0.653 4 0.00 0.00 0.0 0.0 0.044 -0.013 1629 57 0.0659 0.0763 12.04 
0.654 4 0.00 0.00 0.0 0.0 0.070 0.006 1629 57 0.0656 0.0759 12.04 
0.655 4 0.00 0.00 0.0 0.0 0.051 -0.000 1629 57 0.0653 0.0755 12.04 
0.656 4 0.00 0.00 0.0 0.0 0.063 0.006 1629 57 0.0649 0.0751 12.04 
0.657 4 0.00 0.00 0.0 0.0 0.051 -0.000 1629 57 0.0646 0.0746 12.04 
0.658 4 0.00 0.00 0.0 0.0 0.032 0.006 1629 57 0.0643 0.0742 12.04 
0.659 4 0.00 0.00 0.0 0.0 0.063 -0.013 1629 57 0.0640 0.0738 12.04 
0.660 4 0.00 0.00 0.0 0.0 0.063 -0.013 1629 57 0.0637 0.0734 12.04 
0.661 4 0.00 0.00 0.0 0.0 0.044 0.006 1629 57 0.0634 0.0730 12.04 
0.662 4 0.00 0.00 0.0 0.0 0.070 -0.000 1629 57 0.0631 0.0726 12.04 
0.663 4 0.00 0.00 0.0 0.0 0.070 0.019 1629 57 0.0628 0.0723 12.04 
0.664 4 0.00 0.00 0.0 0.0 0.051 -0.000 1629 57 0.0625 0.0719 12.04 
0.665 4 0.00 0.00 0.0 0.0 0.057 0.006 1629 57 0.0623 0.0715 12.04 
0.666 4 0.00 0.00 0.0 0.0 0.057 -0.000 1629 57 0.0620 0.0711 12.04 
0.667 4 0.00 0.00 0.0 0.0 0.044 0.025 1629 57 0.0617 0.0707 12.06 
0.668 4 0.00 0.00 0.0 0.0 0.057 -0.013 1629 57 0.0614 0.0704 12.06 
0.669 4 0.00 0.00 0.0 0.0 0.063 0.019 1629 57 0.0611 0.0700 12.06 
0.670 4 0.00 0.00 0.0 0.0 0.051 -0.006 1629 57 0.0609 0.0697 12.06 
0.671 4 0.00 0.00 0.0 0.0 0.063 0.013 1629 57 0.0606 0.0693 12.06 
0.672 4 0.00 0.00 0.0 0.0 0.038 0.013 1629 57 0.0603 0.0689 12.06 
0.673 4 0.00 0.00 0.0 0.0 0.070 -0.019 1629 57 0.0600 0.0686 12.06 
0.674 4 0.00 0.00 0.0 0.0 0.038 -0.000 1629 57 0.0598 0.0683 12.06 
0.675 4 0.00 0.00 0.0 0.0 0.044 -0.006 1629 57 0.0595 0.0679 12.06 
0.676 4 0.00 0.00 0.0 0.0 0.057 -0.019 1629 57 0.0593 0.0676 12.06 
0.677 4 0.00 0.00 0.0 0.0 0.063 -0.006 1629 57 0.0590 0.0672 12.06 
0.678 4 0.00 0.00 0.0 0.0 0.070 -0.025 1629 57 0.0587 0.0669 12.06 
0.679 4 0.00 0.00 0.0 0.0 0.057 -0.000 1629 57 0.0585 0.0666 12.06 
0.680 4 0.00 0.00 0.0 0.0 0.063 -0.013 1629 57 0.0582 0.0662 12.06 
0.681 4 0.00 0.00 0.0 0.0 0.032 0.013 1629 57 0.0580 0.0659 12.06 
0.682 4 0.00 0.00 0.0 0.0 0.051 -0.000 1629 57 0.0577 0.0656 12.06 
0.683 4 0.00 0.00 0.0 0.0 0.051 0.013 1629 57 0.0575 0.0653 12.06 
0.684 4 0.00 0.00 0.0 0.0 0.057 0.006 1629 57 0.0572 0.0650 12.06 
0.685 4 0.00 0.00 0.0 0.0 0.057 0.006 1629 57 0.0570 0.0647 12.06 
0.686 4 0.00 0.00 0.0 0.0 0.063 -0.019 1629 57 0.0568 0.0644 12.06 
0.687 4 0.00 0.00 0.0 0.0 0.076 0.006 1629 57 0.0565 0.0640 12.06 
0.688 4 0.00 0.00 0.0 0.0 0.070 -0.000 1629 57 0.0563 0.0637 12.06 
0.689 4 0.00 0.00 0.0 0.0 0.051 -0.013 1629 57 0.0561 0.0634 12.06 
0.690 4 0.00 0.00 0.0 0.0 0.076 0.006 1629 57 0.0558 0.0632 12.06 
0.691 4 0.00 0.00 0.0 0.0 0.082 0.013 1629 57 0.0556 0.0629 12.06 
0.692 4 0.00 0.00 0.0 0.0 0.070 0.006 1629 57 0.0554 0.0626 12.04 
0.693 4 0.00 0.00 0.0 0.0 0.057 0.013 1629 57 0.0551 0.0623 12.04 
0.694 4 0.00 0.00 0.0 0.0 0.070 0.013 1629 57 0.0549 0.0620 12.04 
0.695 4 0.00 0.00 0.0 0.0 0.070 0.006 1629 57 0.0547 0.0617 12.04 
0.696 4 0.00 0.00 0.0 0.0 0.051 -0.019 1629 57 0.0545 0.0614 12.04 
0.697 4 0.00 0.00 0.0 0.0 0.025 -0.006 1629 57 0.0543 0.0611 12.06 
0.698 4 0.00 0.00 0.0 0.0 0.063 -0.013 1629 57 0.0540 0.0609 12.06 
0.699 4 0.00 0.00 0.0 0.0 0.051 -0.006 1629 57 0.0538 0.0606 12.06 
0.700 4 0.00 0.00 0.0 0.0 0.057 0.019 1629 57 0.0536 0.0603 12.06 
0.701 4 0.00 0.00 0.0 0.0 0.063 0.025 1629 57 0.0534 0.0601 12.06 
0.702 4 0.00 0.00 0.0 0.0 0.032 0.006 1629 57 0.0532 0.0598 12.06 
0.703 4 0.00 0.00 0.0 0.0 0.063 0.013 1629 57 0.0530 0.0595 12.06 
0.704 4 0.00 0.00 0.0 0.0 0.057 -0.013 1629 57 0.0528 0.0593 12.06 
0.705 4 0.00 0.00 0.0 0.0 0.038 0.019 1629 57 0.0526 0.0590 12.06 
0.706 4 0.00 0.00 0.0 0.0 0.063 -0.000 1629 57 0.0524 0.0588 12.06 
0.707 4 0.00 0.00 0.0 0.0 0.070 0.006 1629 57 0.0522 0.0585 12.06 
0.710 4 0.00 0.00 0.0 0.0 0.051 -0.006 1629 57 0.0520 0.0583 12.06 
0.711 4 0.00 0.00 0.0 0.0 0.038 -0.000 1629 57 0.0515 0.0577 12.06 
0.712 4 0.00 0.00 0.0 0.0 0.051 -0.000 1629 57 0.0513 0.0575 12.06 
0.712 4 0.00 0.00 0.0 0.0 0.051 0.006 1629 57 0.0512 0.0572 12.06 
0.713 4 0.00 0.00 0.0 0.0 0.044 -0.000 1629 57 0.0510 0.0570 12.02 
0.714 4 0.00 0.00 0.0 0.0 0.038 -0.000 1629 57 0.0508 0.0568 12.02 
0.715 4 0.00 0.00 0.0 0.0 0.063 -0.000 1629 57 0.0506 0.0565 12.02 
0.716 4 0.00 0.00 0.0 0.0 0.044 -0.006 1629 57 0.0504 0.0563 12.02 
0.717 4 0.00 0.00 0.0 0.0 0.038 -0.006 1629 57 0.0502 0.0561 12.02 
0.718 4 0.00 0.00 0.0 0.0 0.032 0.013 1629 57 0.0500 0.0558 12.06 
0.719 4 0.00 0.00 0.0 0.0 0.057 0.019 1629 57 0.0499 0.0556 12.06 
0.720 4 0.00 0.00 0.0 0.0 0.076 0.025 1629 57 0.0497 0.0554 12.06 
0.721 4 0.00 0.00 0.0 0.0 0.044 0.006 1629 57 0.0495 0.0552 12.06 
0.722 4 0.00 0.00 0.0 0.0 0.063 -0.006 1629 57 0.0493 0.0549 12.06 
0.723 4 0.00 0.00 0.0 0.0 0.044 0.006 1629 57 0.0491 0.0547 12.06 
0.724 4 0.00 0.00 0.0 0.0 0.063 -0.006 1629 57 0.0490 0.0545 12.06 
0.725 4 0.00 0.00 0.0 0.0 0.044 0.013 1629 57 0.0488 0.0543 12.06 
0.726 4 0.00 0.00 0.0 0.0 0.070 -0.013 1629 57 0.0486 0.0541 12.06 
0.727 4 0.00 0.00 0.0 0.0 0.038 -0.025 1629 57 0.0484 0.0538 12.06 
0.728 4 0.00 0.00 0.0 0.0 0.051 0.013 1629 57 0.0483 0.0536 12.06 
0.729 4 0.00 0.00 0.0 0.0 0.070 0.006 1629 57 0.0481 0.0534 12.06 
0.730 4 0.00 0.00 0.0 0.0 0.057 -0.006 1629 57 0.0479 0.0532 12.06 
0.731 4 0.00 0.00 0.0 0.0 0.044 -0.013 1629 57 0.0477 0.0530 12.06 
0.732 4 0.00 0.00 0.0 0.0 0.051 -0.006 1629 57 0.0476 0.0528 12.06 
0.733 4 0.00 0.00 0.0 0.0 0.063 -0.019 1629 57 0.0474 0.0526 12.04 
0.734 4 0.00 0.00 0.0 0.0 0.076 0.006 1629 57 0.0472 0.0524 12.04 
0.735 4 0.00 0.00 0.0 0.0 0.051 0.019 1629 57 0.0471 0.0522 12.04 
0.736 4 0.00 0.00 0.0 0.0 0.070 -0.000 1629 57 0.0469 0.0520 12.04 
0.737 4 0.00 0.00 0.0 0.0 0.057 -0.000 1629 57 0.0468 0.0518 12.04 
0.738 4 0.00 0.00 0.0 0.0 0.063 0.019 1629 57 0.0466 0.0516 12.06 
0.739 4 0.00 0.00 0.0 0.0 0.044 -0.013 1629 57 0.0464 0.0514 12.06 
0.740 4 0.00 0.00 0.0 0.0 0.057 0.006 1629 57 0.0463 0.0512 12.06 
0.741 4 0.00 0.00 0.0 0.0 0.038 -0.006 1629 57 0.0461 0.0510 12.06 
0.742 4 0.00 0.00 0.0 0.0 0.063 0.013 1629 57 0.0460 0.0508 12.06 
0.743 4 0.00 0.00 0.0 0.0 0.051 0.013 1629 57 0.0458 0.0506 12.06 
0.744 4 0.00 0.00 0.0 0.0 0.063 -0.000 1629 57 0.0457 0.0504 12.06 
0.745 4 0.00 0.00 0.0 0.0 0.070 -0.000 1629 57 0.0455 0.0502 12.06 
0.746 4 0.00 0.00 0.0 0.0 0.082 0.025 1629 57 0.0453 0.0501 12.06 
0.747 4 0.00 0.00 0.0 0.0 0.057 0.013 1629 57 0.0452 0.0499 12.06 
0.748 4 0.00 0.00 0.0 0.0 0.076 0.006 1629 57 0.0450 0.0497 12.04 
0.749 4 0.00 0.00 0.0 0.0 0.025 -0.000 1629 57 0.0449 0.0495 12.04 
0.750 4 0.00 0.00 0.0 0.0 0.082 0.013 1629 57 0.0447 0.0493 12.04 
0.751 4 0.00 0.00 0.0 0.0 0.038 -0.006 1629 57 0.0446 0.0492 12.04 
0.752 4 0.00 0.00 0.0 0.0 0.044 0.013 1629 57 0.0445 0.0490 12.04 
0.753 4 0.00 0.00 0.0 0.0 0.044 0.019 1629 57 0.0443 0.0488 12.04 
0.754 4 0.00 0.00 0.0 0.0 0.038 -0.006 1629 57 0.0442 0.0486 12.04 
0.755 4 0.00 0.00 0.0 0.0 0.051 0.006 1629 57 0.0440 0.0484 12.04 
0.756 4 0.00 0.00 0.0 0.0 0.038 -0.000 1629 57 0.0439 0.0483 12.04 
0.757 4 0.00 0.00 0.0 0.0 0.063 0.019 1629 57 0.0437 0.0481 12.04 
0.758 4 0.00 0.00 0.0 0.0 0.070 -0.000 1629 57 0.0436 0.0479 12.04 
0.759 4 0.00 0.00 0.0 0.0 0.051 -0.000 1629 57 0.0435 0.0478 12.04 
0.760 4 0.00 0.00 0.0 0.0 0.051 -0.000 1629 57 0.0433 0.0476 12.04 
0.761 4 0.00 0.00 0.0 0.0 0.051 0.019 1629 57 0.0432 0.0474 12.04 
0.762 4 0.00 0.00 0.0 0.0 0.051 -0.013 1629 57 0.0430 0.0473 12.04 
0.763 4 0.00 0.00 0.0 0.0 0.076 0.013 1629 57 0.0429 0.0471 12.04 
0.764 4 0.00 0.00 0.0 0.0 0.057 -0.000 1629 57 0.0428 0.0469 12.04 
0.765 4 0.00 0.00 0.0 0.0 0.057 0.006 1629 57 0.0426 0.0468 12.04 
0.766 4 0.00 0.00 0.0 0.0 0.051 0.006 1629 57 0.0425 0.0466 12.04 
0.767 4 0.00 0.00 0.0 0.0 0.070 0.013 1629 57 0.0424 0.0464 12.04 
0.768 4 0.00 0.00 0.0 0.0 0.044 -0.006 1629 57 0.0422 0.0463 12.04 
0.769 4 0.00 0.00 0.0 0.0 0.063 -0.000 1629 57 0.0421 0.0461 12.04 
0.770 4 0.00 0.00 0.0 0.0 0.051 0.019 1629 57 0.0420 0.0460 12.04 
0.771 4 0.00 0.00 0.0 0.0 0.051 0.019 1629 57 0.0418 0.0458 12.04 
0.772 4 0.00 0.00 0.0 0.0 0.044 -0.000 1629 57 0.0417 0.0457 12.04 
0.773 4 0.00 0.00 0.0 0.0 0.070 -0.019 1629 58 0.0416 0.0455 12.06 
0.774 4 0.00 0.00 0.0 0.0 0.057 -0.000 1629 58 0.0415 0.0455 12.06 
0.775 4 0.00 0.00 0.0 0.0 0.057 -0.000 1629 58 0.0413 0.0455 12.06 
0.776 4 0.00 0.00 0.0 0.0 0.063 0.013 1629 58 0.0412 0.0455 12.06 
0.777 4 0.00 0.00 0.0 0.0 0.070 0.006 1629 58 0.0411 0.0455 12.06 
0.778 4 0.00 0.00 0.0 0.0 0.057 0.013 1629 58 0.0409 0.0455 12.06 
0.779 4 0.00 0.00 0.0 0.0 0.063 -0.000 1629 58 0.0408 0.0455 12.06 
0.780 4 0.00 0.00 0.0 0.0 0.032 0.006 1629 58 0.0407 0.0455 12.06 
0.781 4 0.00 0.00 0.0 0.0 0.044 0.013 1629 58 0.0406 0.0455 12.06 
0.782 4 0.00 0.00 0.0 0.0 0.038 0.006 1629 58 0.0405 0.0455 12.06 
0.783 4 0.00 0.00 0.0 0.0 0.057 0.013 1629 58 0.0403 0.0455 12.06 
0.784 4 0.00 0.00 0.0 0.0 0.051 0.006 1629 58 0.0402 0.0455 12.06 
0.785 4 0.00 0.00 0.0 0.0 0.070 -0.006 1629 58 0.0401 0.0455 12.06 
0.786 4 0.00 0.00 0.0 0.0 0.076 -0.000 1629 58 0.0400 0.0455 12.06 
0.787 4 0.00 0.00 0.0 0.0 0.038 -0.000 1629 58 0.0399 0.0455 12.06 
0.788 4 0.00 0.00 0.0 0.0 0.082 -0.000 1629 58 0.0397 0.0455 12.04 
0.789 4 0.00 0.00 0.0 0.0 0.044 -0.038 1629 58 0.0396 0.0455 12.04 
0.790 4 0.00 0.00 0.0 0.0 0.063 -0.000 1629 58 0.0395 0.0455 12.04 
0.791 4 0.00 0.00 0.0 0.0 0.051 0.006 1629 58 0.0394 0.0455 12.04 
0.792 4 0.00 0.00 0.0 0.0 0.057 0.013 1629 58 0.0393 0.0455 12.04 
0.793 4 0.00 0.00 0.0 0.0 0.044 0.019 1629 58 0.0392 0.0455 12.06 
0.794 4 0.00 0.00 0.0 0.0 0.076 0.006 1629 58 0.0391 0.0455 12.06 
0.795 4 0.00 0.00 0.0 0.0 0.082 -0.019 1629 58 0.0389 0.0455 12.06 
