% log is empty
%  0    time 0.000 sec
%  1    mission (0) state 2
%  2  3 Motor velocity ref left, right: 2.00 2.00
%  4  5 Motor voltage [V] left, right: 2.0 2.0
%  6  7 Motor current left, right [A]: 0.002 0.002
%  8  9 Wheel velocity [r/s] left, right: -0.0031 -0.0031
% 10    Turnrate [r/s]: -0.0000
% 11    Battery voltage [V]: 12.10
% 12 13 Get data time [us]: 590 +ctrl 860
0.001 2 2.00 2.00 2.0 2.0 0.022 0.025 -0.0031 -0.0031 -0.0000 12.10 560 780 
0.002 2 2.00 2.00 2.0 2.0 0.114 0.087 -0.0031 -0.0031 -0.0000 12.10 560 790 
0.003 2 2.00 2.00 2.0 2.0 0.156 0.118 -0.0031 -0.0031 -0.0000 12.10 560 790 
0.004 2 2.00 2.00 2.0 2.0 0.176 0.136 -0.0031 -0.0031 -0.0000 12.10 560 790 
0.005 2 2.00 2.00 2.0 2.0 0.174 0.152 -0.0031 -0.0031 -0.0000 12.06 590 810 
0.006 2 2.00 2.00 2.0 2.0 0.174 0.156 0.0031 -0.0031 0.0002 12.06 560 850 
0.007 2 2.00 2.00 2.0 2.0 0.167 0.179 0.0031 0.0031 -0.0000 12.06 560 850 
0.008 2 2.00 2.00 2.0 2.0 0.154 0.190 0.0031 0.0031 -0.0000 12.06 560 790 
0.009 2 2.00 2.00 2.0 2.0 0.156 0.163 0.0031 0.0031 -0.0000 12.06 560 790 
0.010 2 2.00 2.00 2.0 2.0 0.147 0.165 0.0031 0.0031 -0.0000 12.04 590 820 
0.011 2 2.00 2.00 2.0 2.0 0.143 0.165 3.1818 0.0031 0.0441 12.04 560 860 
0.012 2 2.00 2.00 2.0 2.0 0.143 0.150 3.1818 2.8114 -0.0255 12.04 560 850 
0.013 2 2.00 2.00 2.0 2.0 0.127 0.145 3.1818 2.8114 -0.0155 12.04 560 860 
0.014 2 2.00 2.00 2.0 2.0 0.123 0.150 4.6470 2.8114 0.0283 12.04 560 840 
0.015 2 2.00 2.00 2.0 2.0 0.114 0.150 4.6470 3.8200 0.0073 12.06 590 880 
0.016 2 2.00 2.00 2.0 2.0 0.094 0.150 5.6111 3.8200 0.0395 12.06 560 850 
0.017 2 2.00 2.00 2.0 2.0 0.087 0.141 5.6111 3.8200 0.0425 12.06 560 840 
0.018 2 2.00 2.00 2.0 2.0 0.096 0.134 6.2031 5.3030 0.0208 12.06 560 850 
0.019 2 2.00 2.00 2.0 2.0 0.112 0.129 6.2031 5.3030 0.0231 12.06 560 840 
0.020 2 2.00 2.00 2.0 2.0 0.085 0.118 6.7277 5.8540 0.0236 12.06 590 870 
0.021 2 2.00 2.00 2.0 2.0 0.098 0.105 6.7277 5.8540 0.0242 12.06 560 840 
0.022 2 2.00 2.00 2.0 2.0 0.103 0.094 7.0799 6.6944 0.0022 12.06 560 810 
0.023 2 2.00 2.00 2.0 2.0 0.098 0.100 7.0799 6.6944 0.0029 12.06 560 800 
0.024 2 2.00 2.00 2.0 2.0 0.094 0.100 7.5970 6.8993 0.0208 12.06 570 770 
0.025 2 2.00 2.00 2.0 2.0 0.089 0.080 7.5970 6.8993 0.0208 12.07 590 780 
0.026 2 2.00 2.00 2.0 2.0 0.089 0.078 7.8620 8.0492 -0.0056 12.07 560 770 
0.027 2 2.00 2.00 2.0 2.0 0.085 0.071 8.3992 8.0974 0.0090 12.07 560 770 
0.028 2 2.00 2.00 2.0 2.0 0.074 0.069 8.3992 8.0974 0.0090 12.07 560 760 
0.029 2 2.00 2.00 2.0 2.0 0.067 0.078 8.4517 8.6132 -0.0048 12.07 560 760 
0.030 2 2.00 2.00 2.0 2.0 0.060 0.089 9.1370 8.6132 0.0156 12.01 590 800 
0.031 2 2.00 2.00 2.0 2.0 0.065 0.094 9.1370 8.5587 0.0172 12.01 560 770 
0.032 2 2.00 2.00 2.0 2.0 0.054 0.087 9.5906 9.3908 0.0059 12.01 560 770 
0.033 2 2.00 2.00 2.0 2.0 0.058 0.087 9.5906 9.3908 0.0059 12.01 560 770 
0.034 2 2.00 2.00 2.0 2.0 0.062 0.067 9.5906 9.0756 0.0153 12.01 560 770 
0.035 2 2.00 2.00 2.0 2.0 0.071 0.069 9.4564 9.8706 -0.0123 12.06 590 790 
0.036 2 2.00 2.00 2.0 2.0 0.067 0.067 9.9432 9.8706 0.0022 12.06 560 770 
0.037 2 2.00 2.00 2.0 2.0 0.067 0.060 9.7286 9.8706 -0.0042 12.06 560 770 
0.038 2 2.00 2.00 2.0 2.0 0.054 0.060 9.7286 10.7323 -0.0299 12.06 560 770 
0.039 2 2.00 2.00 2.0 2.0 0.058 0.060 10.4827 9.5230 0.0286 12.06 560 770 
0.040 2 2.00 2.00 2.0 2.0 0.040 0.038 11.2689 11.0842 0.0055 12.07 590 790 
0.041 2 2.00 2.00 2.0 2.0 0.033 0.045 10.9941 11.8620 -0.0258 12.07 560 770 
0.042 2 2.00 2.00 2.0 2.0 0.036 0.047 11.4599 11.6575 -0.0059 12.07 560 770 
0.043 2 2.00 2.00 2.0 2.0 0.027 0.056 11.1758 11.5579 -0.0114 12.07 560 770 
0.044 2 2.00 2.00 2.0 2.0 0.038 0.049 11.1758 9.7991 0.0410 12.07 560 770 
0.045 2 2.00 2.00 2.0 2.0 0.045 0.036 11.5579 11.6575 -0.0030 12.07 590 790 
0.046 2 2.00 2.00 2.0 2.0 0.054 0.036 11.3636 11.2689 0.0028 12.07 560 770 
0.047 2 2.00 2.00 2.0 2.0 0.047 0.031 10.2445 12.5210 -0.0677 12.07 560 770 
0.048 2 2.00 2.00 2.0 2.0 0.042 0.036 11.6575 12.2934 -0.0189 12.07 560 770 
0.049 2 2.00 2.00 2.0 2.0 0.033 0.045 12.5210 12.2934 0.0068 12.07 560 770 
0.050 2 2.00 2.00 2.0 2.0 0.018 0.045 12.0738 12.4061 -0.0099 12.06 590 800 
0.051 2 2.00 2.00 2.0 2.0 0.022 0.047 12.0738 11.5579 0.0154 12.06 560 770 
0.052 2 2.00 2.00 2.0 2.0 0.029 0.038 11.2689 13.0026 -0.0516 12.06 560 770 
0.053 2 2.00 2.00 2.0 2.0 0.033 0.033 12.1826 12.0738 0.0032 12.06 560 770 
0.054 2 2.00 2.00 2.0 2.0 0.036 0.029 13.0026 12.7573 0.0073 12.06 560 770 
0.055 2 2.00 2.00 2.0 2.0 0.040 0.027 12.4061 12.5210 -0.0034 12.06 590 800 
0.056 2 2.00 2.00 2.0 2.0 0.040 0.020 11.8620 13.3888 -0.0454 12.06 570 780 
0.057 2 2.00 2.00 2.0 2.0 0.033 0.031 12.4061 11.6575 0.0223 12.06 570 780 
0.058 2 2.00 2.00 2.0 2.0 0.033 0.031 12.1826 13.2575 -0.0320 12.06 570 770 
0.059 2 2.00 2.00 2.0 2.0 0.033 0.031 12.8788 13.2575 -0.0113 12.06 560 770 
0.060 2 2.00 2.00 2.0 2.0 0.027 0.038 13.1288 13.5227 -0.0117 12.07 590 780 
0.061 2 2.00 2.00 2.0 2.0 0.022 0.027 13.0026 12.4061 0.0177 12.07 560 770 
0.062 2 2.00 2.00 2.0 2.0 0.031 0.022 12.7573 13.0026 -0.0073 12.07 560 770 
0.063 2 2.00 2.00 2.0 2.0 0.038 0.018 13.2575 13.0026 0.0076 12.07 560 770 
0.064 2 2.00 2.00 2.0 2.0 0.025 0.018 12.8788 13.6593 -0.0232 12.07 560 770 
0.065 2 2.00 2.00 2.0 2.0 0.029 0.022 12.7573 12.8788 -0.0036 12.07 590 790 
0.066 2 2.00 2.00 2.0 2.0 0.020 0.013 13.2575 13.5227 -0.0079 12.07 560 760 
0.067 2 2.00 2.00 2.0 2.0 0.018 0.020 13.2575 13.0026 0.0076 12.07 560 770 
0.068 2 2.00 2.00 2.0 2.0 0.011 0.016 13.5227 13.7987 -0.0082 12.07 560 760 
0.069 2 2.00 2.00 2.0 2.0 0.018 0.011 12.8788 14.3858 -0.0448 12.07 560 710 
0.070 2 2.00 2.00 2.0 2.0 0.038 0.009 13.2575 14.5405 -0.0382 12.06 590 740 
0.071 2 2.00 2.00 2.0 2.0 0.038 0.009 13.3888 14.0861 -0.0207 12.06 560 710 
0.072 2 2.00 2.00 2.0 2.0 0.033 0.011 13.6593 14.5405 -0.0262 12.06 560 770 
0.073 2 2.00 2.00 2.0 2.0 0.020 0.018 13.7987 14.6986 -0.0268 12.06 560 770 
0.074 2 2.00 2.00 2.0 2.0 0.018 0.022 13.9409 14.6986 -0.0225 12.06 560 770 
0.075 2 2.00 2.00 2.0 2.0 0.013 0.027 14.0861 13.3888 0.0207 12.07 590 790 
0.076 2 2.00 2.00 2.0 2.0 0.011 0.020 14.2344 14.2344 0.0000 12.07 560 770 
0.077 2 2.00 2.00 2.0 2.0 0.016 0.009 14.2344 14.3858 -0.0045 12.07 560 770 
0.078 2 2.00 2.00 2.0 2.0 0.022 0.020 14.2344 14.3858 -0.0045 12.07 560 710 
0.079 2 2.00 2.00 2.0 2.0 0.025 0.009 14.3858 14.8601 -0.0141 12.07 560 710 
0.080 2 2.00 2.00 2.0 2.0 0.020 0.011 14.3858 14.8601 -0.0141 12.07 590 730 
0.081 2 2.00 2.00 2.0 2.0 0.018 0.020 14.3858 15.0252 -0.0190 12.07 560 710 
0.082 2 2.00 2.00 2.0 2.0 0.009 0.029 14.2344 14.8601 -0.0186 12.07 560 710 
0.083 2 2.00 2.00 2.0 2.0 0.011 0.025 14.3858 15.1940 -0.0240 12.07 570 720 
0.084 2 2.00 2.00 2.0 2.0 0.011 0.013 14.6986 14.8601 -0.0048 12.07 570 720 
0.085 2 2.00 2.00 2.0 2.0 0.020 0.007 14.6986 15.1940 -0.0147 12.07 590 730 
0.086 2 2.00 2.00 2.0 2.0 0.027 0.007 14.5405 15.1940 -0.0194 12.07 560 780 
0.087 2 2.00 2.00 2.0 2.0 0.025 0.007 14.6986 13.9409 0.0225 12.07 560 770 
0.088 2 2.00 2.00 2.0 2.0 0.016 0.016 14.5405 15.1940 -0.0194 12.07 560 770 
0.089 2 2.00 2.00 2.0 2.0 0.013 0.009 15.1940 16.0984 -0.0269 12.07 560 770 
0.090 2 2.00 2.00 2.0 2.0 0.011 0.009 15.0252 16.0984 -0.0319 11.99 600 740 
0.091 2 2.00 2.00 2.0 2.0 0.007 0.011 15.3667 14.8601 0.0151 11.99 570 720 
0.092 2 2.00 2.00 2.0 2.0 0.007 0.007 15.1940 15.3667 -0.0051 11.99 560 710 
0.093 2 2.00 2.00 2.0 2.0 0.018 0.007 15.3667 15.3667 0.0000 11.99 570 710 
0.094 2 2.00 2.00 2.0 2.0 0.018 0.013 15.1940 15.9091 -0.0213 11.99 560 770 
0.095 2 2.00 2.00 2.0 2.0 0.011 0.016 13.5227 16.0984 -0.0766 12.07 590 780 
0.096 2 2.00 2.00 2.0 2.0 0.009 0.018 14.2344 15.5433 -0.0389 12.07 560 770 
0.097 2 2.00 2.00 2.0 2.0 0.009 0.011 15.1940 16.0984 -0.0269 12.07 560 770 
0.098 2 2.00 2.00 2.0 2.0 0.007 0.009 14.8601 15.7241 -0.0257 12.07 560 710 
0.099 2 2.00 2.00 2.0 2.0 0.011 0.007 15.0252 16.0984 -0.0319 12.07 560 780 
0.100 2 2.00 2.00 2.0 2.0 0.013 0.009 15.7241 16.2924 -0.0169 12.07 590 790 
0.101 2 2.00 2.00 2.0 2.0 0.016 0.011 15.5433 15.3667 0.0053 12.07 560 770 
0.102 2 2.00 2.00 2.0 2.0 0.011 0.011 15.1940 15.9091 -0.0213 12.07 560 770 
0.103 2 2.00 2.00 2.0 2.0 0.009 0.011 15.3667 16.0984 -0.0218 12.07 560 770 
0.104 2 2.00 2.00 2.0 2.0 0.007 0.009 15.1940 16.4911 -0.0386 12.07 560 770 
0.105 2 2.00 2.00 2.0 2.0 0.009 0.007 15.7241 16.0984 -0.0111 12.07 590 790 
0.106 2 2.00 2.00 2.0 2.0 0.009 0.007 15.7241 15.7241 0.0000 12.07 560 770 
0.107 2 2.00 2.00 2.0 2.0 0.013 0.009 15.5433 16.2924 -0.0223 12.07 560 770 
0.108 2 2.00 2.00 2.0 2.0 0.013 0.011 15.5433 15.7241 -0.0054 12.07 560 770 
0.109 2 2.00 2.00 2.0 2.0 0.004 0.004 15.3667 16.0984 -0.0218 12.07 570 770 
0.110 2 2.00 2.00 2.0 2.0 0.007 0.009 15.5433 15.7241 -0.0054 12.07 590 800 
0.111 2 2.00 2.00 2.0 2.0 0.011 0.004 15.5433 16.9034 -0.0405 12.07 560 760 
0.112 2 2.00 2.00 2.0 2.0 0.007 0.009 15.5433 16.6947 -0.0343 12.07 570 770 
0.113 2 2.00 2.00 2.0 2.0 0.009 0.007 15.7241 16.2924 -0.0169 12.07 570 780 
0.114 2 2.00 2.00 2.0 2.0 0.018 0.007 15.5433 16.6947 -0.0343 12.07 560 770 
0.115 2 2.00 2.00 2.0 2.0 0.016 0.011 15.7241 16.9034 -0.0351 12.07 590 790 
0.116 2 2.00 2.00 2.0 2.0 0.009 0.009 15.9091 16.0984 -0.0056 12.07 560 770 
0.117 2 2.00 2.00 2.0 2.0 0.009 0.007 15.9091 16.6947 -0.0234 12.07 560 770 
0.118 2 2.00 2.00 2.0 2.0 0.011 0.007 16.0984 16.6947 -0.0177 12.07 560 770 
0.119 2 2.00 2.00 2.0 2.0 0.011 0.009 16.0984 16.6947 -0.0177 12.07 560 780 
0.120 2 2.00 2.00 2.0 2.0 0.009 0.009 16.0984 16.9034 -0.0239 12.07 590 780 
0.121 2 2.00 2.00 2.0 2.0 0.016 0.007 16.0984 16.6947 -0.0177 12.07 560 770 
0.122 2 2.00 2.00 2.0 2.0 0.009 0.013 16.0984 16.6947 -0.0177 12.07 560 770 
0.123 2 2.00 2.00 2.0 2.0 0.009 0.013 16.0984 16.4911 -0.0117 12.07 560 780 
0.124 2 2.00 2.00 2.0 2.0 0.011 0.009 15.9091 16.6947 -0.0234 12.07 560 770 
0.125 2 2.00 2.00 2.0 2.0 0.007 0.007 16.0984 16.9034 -0.0239 12.06 590 780 
0.126 2 2.00 2.00 2.0 2.0 0.009 0.011 16.4911 16.9034 -0.0123 12.06 560 760 
0.127 2 2.00 2.00 2.0 2.0 0.013 0.009 16.2924 17.1173 -0.0245 12.06 560 770 
0.128 2 2.00 2.00 2.0 2.0 0.016 0.004 16.0984 16.6947 -0.0177 12.06 570 780 
0.129 2 2.00 2.00 2.0 2.0 0.011 0.007 15.9091 17.5619 -0.0492 12.06 560 770 
0.130 2 2.00 2.00 2.0 2.0 0.007 0.004 16.0984 17.5619 -0.0435 12.07 590 790 
0.133 2 2.00 2.00 2.0 2.0 0.004 0.009 16.6947 15.9091 0.0234 12.07 560 770 
0.134 2 2.00 2.00 2.0 2.0 0.011 0.007 16.6947 17.1173 -0.0126 12.07 570 780 
0.134 2 2.00 2.00 2.0 2.0 0.009 0.009 16.6947 17.1173 -0.0126 12.07 560 770 
0.135 2 2.00 2.00 2.0 2.0 0.007 0.009 16.6947 17.3368 -0.0191 12.07 560 770 
0.136 2 2.00 2.00 2.0 2.0 0.007 0.007 15.7241 17.3368 -0.0480 12.07 590 790 
0.137 2 2.00 2.00 2.0 2.0 0.009 0.004 16.0984 16.9034 -0.0239 12.07 570 770 
0.138 2 2.00 2.00 2.0 2.0 0.009 0.009 16.6947 17.1173 -0.0126 12.07 560 770 
0.139 2 2.00 2.00 2.0 2.0 0.009 0.009 16.0984 16.9034 -0.0239 12.07 560 760 
0.140 2 2.00 2.00 2.0 2.0 0.009 0.009 16.2924 15.9091 0.0114 12.07 560 780 
0.141 2 2.00 2.00 2.0 2.0 0.011 0.007 16.9034 16.9034 0.0000 12.07 580 770 
0.142 2 2.00 2.00 2.0 2.0 0.009 0.007 16.6947 17.1173 -0.0126 12.07 560 770 
0.143 2 2.00 2.00 2.0 2.0 0.009 0.009 16.2924 17.5619 -0.0378 12.07 570 770 
0.144 2 2.00 2.00 2.0 2.0 0.007 0.009 16.2924 16.9034 -0.0182 12.07 560 770 
0.145 2 2.00 2.00 2.0 2.0 0.009 0.009 16.4911 16.6947 -0.0061 12.07 560 770 
0.146 2 2.00 2.00 2.0 2.0 0.007 0.009 16.6947 17.3368 -0.0191 12.02 600 800 
0.147 2 2.00 2.00 2.0 2.0 0.009 0.007 16.6947 16.6947 0.0000 12.02 560 770 
0.148 2 2.00 2.00 2.0 2.0 0.011 0.009 16.6947 17.1173 -0.0126 12.02 560 780 
0.149 2 2.00 2.00 2.0 2.0 0.009 0.007 16.2924 17.3368 -0.0311 12.02 560 770 
0.150 2 2.00 2.00 2.0 2.0 0.009 0.004 16.4911 17.5619 -0.0319 12.02 560 770 
0.151 2 2.00 2.00 2.0 2.0 0.011 0.007 16.6947 17.5619 -0.0258 12.07 590 790 
0.152 2 2.00 2.00 2.0 2.0 0.011 0.007 16.4911 17.5619 -0.0319 12.07 560 770 
0.153 2 2.00 2.00 2.0 2.0 0.009 0.004 16.4911 17.5619 -0.0319 12.07 560 770 
0.154 2 2.00 2.00 2.0 2.0 0.011 0.009 16.4911 17.5619 -0.0319 12.07 560 770 
0.155 2 2.00 2.00 2.0 2.0 0.007 0.007 16.6947 16.6947 0.0000 12.07 560 770 
0.156 2 2.00 2.00 2.0 2.0 0.007 0.009 16.6947 17.3368 -0.0191 12.07 590 790 
0.157 2 2.00 2.00 2.0 2.0 0.007 0.007 16.6947 17.5619 -0.0258 12.07 560 770 
0.158 2 2.00 2.00 2.0 2.0 0.009 0.009 16.9034 17.1173 -0.0064 12.07 570 770 
0.159 2 2.00 2.00 2.0 2.0 0.011 0.007 16.9034 17.5619 -0.0196 12.07 570 770 
0.160 2 2.00 2.00 2.0 2.0 0.009 0.007 16.9034 17.5619 -0.0196 12.07 560 760 
0.161 2 2.00 2.00 2.0 2.0 0.009 0.009 16.9034 17.3368 -0.0129 12.07 590 790 
0.162 2 2.00 2.00 2.0 2.0 0.009 0.004 16.9034 17.7930 -0.0265 12.07 560 760 
0.163 2 2.00 2.00 2.0 2.0 0.009 0.007 16.9034 17.5619 -0.0196 12.07 560 760 
0.164 2 2.00 2.00 2.0 2.0 0.011 0.009 16.4911 17.5619 -0.0319 12.07 560 770 
0.165 2 2.00 2.00 2.0 2.0 0.009 0.009 17.1173 18.0303 -0.0272 12.07 570 770 
0.166 2 2.00 2.00 2.0 2.0 0.009 0.004 17.1173 17.5619 -0.0132 12.07 590 800 
0.167 2 2.00 2.00 2.0 2.0 0.009 0.009 16.6947 18.5242 -0.0544 12.07 560 770 
0.168 2 2.00 2.00 2.0 2.0 0.009 0.007 16.9034 18.5242 -0.0482 12.07 560 760 
0.169 2 2.00 2.00 2.0 2.0 0.004 0.011 16.6947 16.6947 0.0000 12.07 560 770 
0.170 2 2.00 2.00 2.0 2.0 0.011 0.011 17.3368 17.1173 0.0065 12.07 560 770 
0.171 2 2.00 2.00 2.0 2.0 0.009 0.004 17.3368 17.5619 -0.0067 12.09 590 790 
0.172 2 2.00 2.00 2.0 2.0 0.009 0.007 17.5619 17.7930 -0.0069 12.09 560 770 
0.173 2 2.00 2.00 2.0 2.0 0.009 0.007 17.3368 17.1173 0.0065 12.09 560 770 
0.174 2 2.00 2.00 2.0 2.0 0.009 0.004 17.3368 17.7930 -0.0136 12.09 560 770 
0.175 2 2.00 2.00 2.0 2.0 0.009 0.007 16.2924 17.3368 -0.0311 12.09 560 770 
0.176 2 2.00 2.00 2.0 2.0 0.011 0.009 16.6947 17.3368 -0.0191 12.07 590 800 
0.177 2 2.00 2.00 2.0 2.0 0.011 0.011 17.1173 17.7930 -0.0201 12.07 560 770 
0.178 2 2.00 2.00 2.0 2.0 0.007 0.007 16.4911 16.6947 -0.0061 12.07 560 770 
0.179 2 2.00 2.00 2.0 2.0 0.009 0.009 16.6947 17.3368 -0.0191 12.07 560 770 
0.180 2 2.00 2.00 2.0 2.0 0.009 0.009 17.3368 18.0303 -0.0206 12.07 560 770 
0.181 2 2.00 2.00 2.0 2.0 0.009 0.007 16.6947 17.1173 -0.0126 12.07 590 800 
0.182 2 2.00 2.00 2.0 2.0 0.009 0.009 16.9034 17.5619 -0.0196 12.07 560 760 
0.183 2 2.00 2.00 2.0 2.0 0.009 0.016 16.6947 17.1173 -0.0126 12.07 560 770 
0.184 2 2.00 2.00 2.0 2.0 0.009 0.009 16.9034 17.1173 -0.0064 12.07 570 760 
0.185 2 2.00 2.00 2.0 2.0 0.009 0.009 17.1173 17.5619 -0.0132 12.07 560 770 
0.186 2 2.00 2.00 2.0 2.0 0.009 0.007 16.9034 17.1173 -0.0064 12.07 590 780 
0.187 2 2.00 2.00 2.0 2.0 0.007 0.009 17.1173 18.2739 -0.0344 12.07 560 770 
0.188 2 2.00 2.00 2.0 2.0 0.007 0.009 16.6947 18.2739 -0.0470 12.07 560 770 
0.189 2 2.00 2.00 2.0 2.0 0.009 0.009 16.9034 17.5619 -0.0196 12.07 570 780 
0.190 2 2.00 2.00 2.0 2.0 0.011 0.009 17.1173 18.0303 -0.0272 12.07 560 770 
0.191 2 2.00 2.00 2.0 2.0 0.007 0.007 16.6947 18.0303 -0.0397 12.09 590 790 
0.192 2 2.00 2.00 2.0 2.0 0.011 0.009 16.9034 17.1173 -0.0064 12.09 560 760 
0.193 2 2.00 2.00 2.0 2.0 0.011 0.009 16.9034 17.7930 -0.0265 12.09 570 770 
0.194 2 2.00 2.00 2.0 2.0 0.009 0.009 17.1173 18.0303 -0.0272 12.09 560 770 
0.195 2 2.00 2.00 2.0 2.0 0.009 0.013 17.1173 17.5619 -0.0132 12.09 560 770 
0.196 2 2.00 2.00 2.0 2.0 0.009 0.007 17.1173 17.7930 -0.0201 12.09 590 800 
0.197 2 2.00 2.00 2.0 2.0 0.011 0.004 17.3368 17.7930 -0.0136 12.09 570 770 
0.198 2 2.00 2.00 2.0 2.0 0.011 0.011 17.3368 17.5619 -0.0067 12.09 560 770 
0.199 2 2.00 2.00 2.0 2.0 0.009 0.007 17.3368 18.0303 -0.0206 12.09 560 770 
0.200 2 2.00 2.00 2.0 2.0 0.009 0.009 17.3368 18.0303 -0.0206 12.09 560 780 
0.201 2 2.00 2.00 2.0 2.0 0.009 0.009 17.3368 17.7930 -0.0136 12.09 590 790 
0.202 2 2.00 2.00 2.0 2.0 0.011 0.011 16.9034 18.2739 -0.0408 12.09 560 760 
0.203 2 2.00 2.00 2.0 2.0 0.009 0.007 17.1173 17.7930 -0.0201 12.09 560 770 
0.204 2 2.00 2.00 2.0 2.0 0.009 0.004 17.3368 18.5242 -0.0353 12.09 560 770 
0.205 2 2.00 2.00 2.0 2.0 0.009 0.009 17.1173 18.5242 -0.0419 12.09 560 770 
0.206 2 2.00 2.00 2.0 2.0 0.004 0.009 17.1173 17.5619 -0.0132 12.04 590 800 
0.207 2 2.00 2.00 2.0 2.0 0.009 0.009 16.9034 17.3368 -0.0129 12.04 570 770 
0.208 2 2.00 2.00 2.0 2.0 0.011 0.009 17.1173 18.0303 -0.0272 12.04 560 770 
0.209 2 2.00 2.00 2.0 2.0 0.011 0.007 17.5619 18.2739 -0.0212 12.04 570 770 
0.210 2 2.00 2.00 2.0 2.0 0.007 0.009 17.5619 17.5619 0.0000 12.04 560 770 
0.211 2 2.00 2.00 2.0 2.0 0.009 0.004 17.3368 18.2739 -0.0279 11.98 590 800 
0.212 2 2.00 2.00 2.0 2.0 0.007 0.009 17.3368 17.7930 -0.0136 11.98 570 770 
0.213 2 2.00 2.00 2.0 2.0 0.007 0.009 16.2924 17.7930 -0.0446 11.98 560 770 
0.214 2 2.00 2.00 2.0 2.0 0.009 0.009 16.6947 18.2739 -0.0470 11.98 560 770 
0.215 2 2.00 2.00 2.0 2.0 0.011 0.009 17.3368 17.1173 0.0065 11.98 560 770 
0.216 2 2.00 2.00 2.0 2.0 0.009 0.009 16.6947 18.0303 -0.0397 11.96 590 790 
0.217 2 2.00 2.00 2.0 2.0 0.007 0.009 16.9034 18.5242 -0.0482 11.96 560 760 
0.218 2 2.00 2.00 2.0 2.0 0.009 0.011 17.5619 17.5619 0.0000 11.96 560 770 
0.219 2 2.00 2.00 2.0 2.0 0.011 0.009 17.5619 17.5619 0.0000 11.96 560 770 
0.220 2 2.00 2.00 2.0 2.0 0.009 0.007 17.1173 18.2739 -0.0344 11.96 560 770 
0.221 2 2.00 2.00 2.0 2.0 0.009 0.007 16.9034 17.5619 -0.0196 12.07 600 790 
0.222 2 2.00 2.00 2.0 2.0 0.009 0.009 17.1173 17.5619 -0.0132 12.07 570 770 
0.223 2 2.00 2.00 2.0 2.0 0.009 0.007 17.3368 18.2739 -0.0279 12.07 560 770 
0.224 2 2.00 2.00 2.0 2.0 0.009 0.009 16.9034 18.5242 -0.0482 12.07 570 770 
0.225 2 2.00 2.00 2.0 2.0 0.009 0.011 17.1173 17.7930 -0.0201 12.07 560 770 
0.226 2 2.00 2.00 2.0 2.0 0.011 0.011 16.9034 18.2739 -0.0408 11.99 600 790 
0.227 2 2.00 2.00 2.0 2.0 0.009 0.007 17.1173 18.5242 -0.0419 11.99 560 770 
0.228 2 2.00 2.00 2.0 2.0 0.007 0.007 17.1173 17.5619 -0.0132 11.99 560 770 
0.229 2 2.00 2.00 2.0 2.0 0.009 0.004 16.9034 18.2739 -0.0408 11.99 560 760 
0.230 2 2.00 2.00 2.0 2.0 0.007 0.007 17.1173 18.2739 -0.0344 11.99 560 770 
0.231 2 2.00 2.00 2.0 2.0 0.011 0.009 16.9034 17.7930 -0.0265 12.07 590 790 
0.232 2 2.00 2.00 2.0 2.0 0.007 0.009 17.1173 18.2739 -0.0344 12.07 560 770 
0.233 2 2.00 2.00 2.0 2.0 0.011 0.009 17.3368 18.0303 -0.0206 12.07 560 770 
0.234 2 2.00 2.00 2.0 2.0 0.011 0.004 17.3368 17.7930 -0.0136 12.07 560 770 
0.235 2 2.00 2.00 2.0 2.0 0.011 0.009 17.5619 18.2739 -0.0212 12.07 570 770 
0.236 2 2.00 2.00 2.0 2.0 0.009 0.009 17.3368 18.0303 -0.0206 11.98 590 800 
0.237 2 2.00 2.00 2.0 2.0 0.009 0.009 17.3368 18.0303 -0.0206 11.98 560 770 
0.238 2 2.00 2.00 2.0 2.0 0.007 0.007 17.3368 18.5242 -0.0353 11.98 560 770 
0.239 2 2.00 2.00 2.0 2.0 0.011 0.007 17.3368 17.3368 0.0000 11.98 560 770 
0.240 2 2.00 2.00 2.0 2.0 0.009 0.009 16.9034 19.0460 -0.0637 11.98 560 760 
0.241 2 2.00 2.00 2.0 2.0 0.009 0.007 17.3368 19.0460 -0.0509 12.09 590 790 
0.242 2 2.00 2.00 2.0 2.0 0.009 0.007 17.5619 17.3368 0.0067 12.09 560 780 
0.243 2 2.00 2.00 2.0 2.0 0.009 0.011 17.3368 17.7930 -0.0136 12.09 570 770 
0.244 2 2.00 2.00 2.0 2.0 0.007 0.009 17.3368 18.5242 -0.0353 12.09 560 770 
0.245 2 2.00 2.00 2.0 2.0 0.007 0.007 17.1173 18.5242 -0.0419 12.09 570 780 
0.246 2 2.00 2.00 2.0 2.0 0.007 0.007 17.7930 17.7930 0.0000 12.09 590 790 
0.247 2 2.00 2.00 2.0 2.0 0.013 0.009 17.7930 18.2739 -0.0143 12.09 560 770 
0.248 2 2.00 2.00 2.0 2.0 0.009 0.007 18.0303 18.0303 0.0000 12.09 560 770 
0.249 2 2.00 2.00 2.0 2.0 0.011 0.009 17.7930 18.0303 -0.0071 12.09 560 770 
0.250 2 2.00 2.00 2.0 2.0 0.007 0.011 17.5619 18.5242 -0.0286 12.09 570 770 
0.251 2 2.00 2.00 2.0 2.0 0.007 0.007 16.4911 17.3368 -0.0252 12.07 590 790 
0.252 2 2.00 2.00 2.0 2.0 0.011 0.009 16.9034 18.2739 -0.0408 12.07 560 760 
0.253 2 2.00 2.00 2.0 2.0 0.011 0.009 17.5619 18.7815 -0.0363 12.07 570 770 
0.254 2 2.00 2.00 2.0 2.0 0.009 0.004 16.9034 17.7930 -0.0265 12.07 560 760 
0.255 2 2.00 2.00 2.0 2.0 0.004 0.009 17.1173 17.7930 -0.0201 12.07 570 770 
0.256 2 2.00 2.00 2.0 2.0 0.009 0.009 17.7930 18.2739 -0.0143 12.09 590 790 
0.257 2 2.00 2.00 2.0 2.0 0.009 0.007 17.1173 17.7930 -0.0201 12.09 570 770 
0.258 2 2.00 2.00 2.0 2.0 0.009 0.009 17.3368 17.1173 0.0065 12.09 560 770 
0.259 2 2.00 2.00 2.0 2.0 0.011 0.009 17.1173 18.2739 -0.0344 12.09 560 770 
0.260 2 2.00 2.00 2.0 2.0 0.011 0.009 17.3368 18.7815 -0.0430 12.09 560 770 
0.261 2 2.00 2.00 2.0 2.0 0.011 0.009 17.5619 18.0303 -0.0139 12.07 590 790 
0.262 2 2.00 2.00 2.0 2.0 0.009 0.009 17.3368 18.5242 -0.0353 12.07 560 770 
0.263 2 2.00 2.00 2.0 2.0 0.007 0.007 17.3368 18.5242 -0.0353 12.07 560 770 
0.264 2 2.00 2.00 2.0 2.0 0.011 0.009 17.1173 17.5619 -0.0132 12.07 560 770 
0.265 2 2.00 2.00 2.0 2.0 0.009 0.009 17.3368 18.2739 -0.0279 12.07 560 770 
0.266 2 2.00 2.00 2.0 2.0 0.009 0.009 17.3368 18.2739 -0.0279 12.07 590 790 
0.267 2 2.00 2.00 2.0 2.0 0.009 0.011 17.1173 18.0303 -0.0272 12.07 560 770 
0.268 2 2.00 2.00 2.0 2.0 0.009 0.009 17.1173 18.5242 -0.0419 12.07 570 770 
0.269 2 2.00 2.00 2.0 2.0 0.009 0.007 17.3368 18.2739 -0.0279 12.07 570 770 
0.270 2 2.00 2.00 2.0 2.0 0.009 0.007 17.3368 18.2739 -0.0279 12.07 560 770 
0.271 2 2.00 2.00 2.0 2.0 0.009 0.007 17.3368 18.7815 -0.0430 12.07 590 790 
0.272 2 2.00 2.00 2.0 2.0 0.013 0.009 17.5619 18.2739 -0.0212 12.07 560 770 
0.273 2 2.00 2.00 2.0 2.0 0.009 0.009 17.5619 18.2739 -0.0212 12.07 560 770 
0.274 2 2.00 2.00 2.0 2.0 0.011 0.007 17.5619 18.7815 -0.0363 12.07 560 770 
0.275 2 2.00 2.00 2.0 2.0 0.009 0.009 17.5619 17.5619 0.0000 12.07 570 770 
0.276 2 2.00 2.00 2.0 2.0 0.009 0.007 17.3368 19.0460 -0.0509 12.07 590 790 
0.277 2 2.00 2.00 2.0 2.0 0.011 0.011 17.3368 19.0460 -0.0509 12.07 560 770 
0.278 2 2.00 2.00 2.0 2.0 0.011 0.007 17.1173 17.3368 -0.0065 12.07 560 780 
0.279 2 2.00 2.00 2.0 2.0 0.009 0.007 17.5619 17.7930 -0.0069 12.07 570 770 
0.280 2 2.00 2.00 2.0 2.0 0.009 0.004 17.5619 18.5242 -0.0286 12.07 560 770 
0.281 2 2.00 2.00 2.0 2.0 0.009 0.004 17.3368 18.5242 -0.0353 12.09 590 790 
0.282 2 2.00 2.00 2.0 2.0 0.009 0.009 17.5619 17.7930 -0.0069 12.09 560 770 
0.283 2 2.00 2.00 2.0 2.0 0.004 0.007 17.3368 18.5242 -0.0353 12.09 570 780 
0.284 2 2.00 2.00 2.0 2.0 0.011 0.009 18.0303 18.0303 0.0000 12.09 560 770 
0.285 2 2.00 2.00 2.0 2.0 0.011 0.009 17.7930 18.0303 -0.0071 12.09 560 770 
0.286 2 2.00 2.00 2.0 2.0 0.011 0.009 17.7930 18.5242 -0.0218 12.04 590 800 
0.287 2 2.00 2.00 2.0 2.0 0.009 0.004 17.7930 17.3368 0.0136 12.04 560 770 
0.288 2 2.00 2.00 2.0 2.0 0.009 0.007 17.5619 18.2739 -0.0212 12.04 560 770 
0.289 2 2.00 2.00 2.0 2.0 0.011 0.007 16.6947 18.5242 -0.0544 12.04 570 780 
0.290 2 2.00 2.00 2.0 2.0 0.011 0.009 17.7930 17.7930 0.0000 12.04 560 770 
0.291 2 2.00 2.00 2.0 2.0 0.011 0.007 17.7930 17.7930 0.0000 12.09 590 790 
0.292 2 2.00 2.00 2.0 2.0 0.011 0.009 17.1173 18.2739 -0.0344 12.09 560 770 
0.293 2 2.00 2.00 2.0 2.0 0.007 0.007 18.0303 17.7930 0.0071 12.09 560 770 
0.294 2 2.00 2.00 2.0 2.0 0.009 0.004 17.7930 17.5619 0.0069 12.09 560 770 
0.295 2 2.00 2.00 2.0 2.0 0.009 0.009 17.3368 18.2739 -0.0279 12.09 560 770 
0.296 2 2.00 2.00 2.0 2.0 0.009 0.011 17.1173 18.7815 -0.0495 12.07 590 790 
0.297 2 2.00 2.00 2.0 2.0 0.011 0.011 17.3368 18.0303 -0.0206 12.07 560 770 
0.298 2 2.00 2.00 2.0 2.0 0.007 0.007 17.5619 18.5242 -0.0286 12.07 570 780 
0.299 2 2.00 2.00 2.0 2.0 0.009 0.009 17.5619 18.5242 -0.0286 12.07 570 780 
0.300 2 2.00 2.00 2.0 2.0 0.007 0.004 17.3368 17.5619 -0.0067 12.07 560 770 
0.301 2 2.00 2.00 2.0 2.0 0.009 0.007 17.1173 18.2739 -0.0344 12.07 590 790 
0.302 2 2.00 2.00 2.0 2.0 0.011 0.009 17.3368 18.5242 -0.0353 12.07 560 770 
0.303 2 2.00 2.00 2.0 2.0 0.009 0.011 17.3368 18.0303 -0.0206 12.07 560 770 
0.304 2 2.00 2.00 2.0 2.0 0.009 0.007 17.1173 18.5242 -0.0419 12.07 560 770 
0.305 2 2.00 2.00 2.0 2.0 0.007 0.007 17.3368 18.5242 -0.0353 12.07 560 770 
0.306 2 2.00 2.00 2.0 2.0 0.011 0.007 17.1173 18.2739 -0.0344 12.07 590 790 
0.307 2 2.00 2.00 2.0 2.0 0.011 0.009 17.3368 18.5242 -0.0353 12.07 570 780 
0.308 2 2.00 2.00 2.0 2.0 0.009 0.007 17.3368 18.5242 -0.0353 12.07 560 770 
0.309 2 2.00 2.00 2.0 2.0 0.011 0.009 17.3368 18.2739 -0.0279 12.07 560 770 
0.310 2 2.00 2.00 2.0 2.0 0.009 0.009 17.5619 18.7815 -0.0363 12.07 560 770 
0.311 2 2.00 2.00 2.0 2.0 0.009 0.009 17.5619 18.2739 -0.0212 12.09 590 790 
0.312 2 2.00 2.00 2.0 2.0 0.011 0.007 17.5619 19.0460 -0.0442 12.09 560 770 
0.313 2 2.00 2.00 2.0 2.0 0.009 0.009 17.5619 18.7815 -0.0363 12.09 560 770 
0.314 2 2.00 2.00 2.0 2.0 0.011 0.007 17.3368 18.0303 -0.0206 12.09 570 770 
0.315 2 2.00 2.00 2.0 2.0 0.011 0.009 17.1173 17.7930 -0.0201 12.09 560 770 
0.316 2 2.00 2.00 2.0 2.0 0.011 0.009 17.3368 18.5242 -0.0353 12.09 590 790 
0.317 2 2.00 2.00 2.0 2.0 0.011 0.007 17.7930 18.5242 -0.0218 12.09 560 770 
0.318 2 2.00 2.00 2.0 2.0 0.007 0.007 17.3368 17.7930 -0.0136 12.09 560 770 
0.319 2 2.00 2.00 2.0 2.0 0.009 0.009 17.5619 18.5242 -0.0286 12.09 560 770 
0.320 2 2.00 2.00 2.0 2.0 0.009 0.013 17.1173 18.2739 -0.0344 12.09 560 770 
0.321 2 2.00 2.00 2.0 2.0 0.009 0.009 18.0303 18.0303 0.0000 12.06 590 800 
0.322 2 2.00 2.00 2.0 2.0 0.011 0.009 17.7930 18.5242 -0.0218 12.06 560 770 
0.323 2 2.00 2.00 2.0 2.0 0.009 0.007 18.0303 18.0303 0.0000 12.06 570 770 
0.324 2 2.00 2.00 2.0 2.0 0.011 0.007 17.7930 18.2739 -0.0143 12.06 560 770 
0.325 2 2.00 2.00 2.0 2.0 0.009 0.007 17.7930 18.5242 -0.0218 12.06 560 770 
0.326 2 2.00 2.00 2.0 2.0 0.009 0.009 16.6947 18.2739 -0.0470 12.07 590 790 
0.327 2 2.00 2.00 2.0 2.0 0.007 0.009 17.1173 17.7930 -0.0201 12.07 560 770 
0.328 2 2.00 2.00 2.0 2.0 0.013 0.009 17.7930 18.2739 -0.0143 12.07 560 780 
0.329 2 2.00 2.00 2.0 2.0 0.009 0.007 17.1173 18.2739 -0.0344 12.07 560 770 
0.330 2 2.00 2.00 2.0 2.0 0.007 0.007 17.3368 17.7930 -0.0136 12.07 570 770 
0.332 2 2.00 2.00 2.0 2.0 0.009 0.009 17.3368 18.5242 -0.0353 12.07 590 790 
0.332 2 2.00 2.00 2.0 2.0 0.007 0.009 17.3368 18.7815 -0.0430 12.07 560 770 
0.333 2 2.00 2.00 2.0 2.0 0.011 0.007 17.3368 18.0303 -0.0206 12.07 560 770 
0.334 2 2.00 2.00 2.0 2.0 0.009 0.011 17.1173 18.7815 -0.0495 12.07 560 780 
0.335 2 2.00 2.00 2.0 2.0 0.009 0.004 17.5619 18.7815 -0.0363 12.07 560 770 
0.336 2 2.00 2.00 2.0 2.0 0.011 0.011 17.5619 17.7930 -0.0069 12.07 590 790 
0.337 2 2.00 2.00 2.0 2.0 0.007 0.009 17.3368 18.5242 -0.0353 12.07 570 770 
0.338 2 2.00 2.00 2.0 2.0 0.009 0.007 17.3368 18.7815 -0.0430 12.07 560 770 
0.339 2 2.00 2.00 2.0 2.0 0.011 0.011 17.3368 18.0303 -0.0206 12.07 560 780 
0.340 2 2.00 2.00 2.0 2.0 0.011 0.009 17.3368 18.5242 -0.0353 12.07 560 770 
0.341 2 2.00 2.00 2.0 2.0 0.007 0.009 17.5619 18.5242 -0.0286 12.07 590 790 
0.342 2 2.00 2.00 2.0 2.0 0.007 0.007 17.1173 18.2739 -0.0344 12.07 560 780 
0.343 2 2.00 2.00 2.0 2.0 0.009 0.011 17.3368 18.2739 -0.0279 12.07 560 770 
0.344 2 2.00 2.00 2.0 2.0 0.009 0.009 17.5619 18.5242 -0.0286 12.07 560 770 
0.345 2 2.00 2.00 2.0 2.0 0.011 0.009 17.5619 18.2739 -0.0212 12.07 560 780 
0.346 2 2.00 2.00 2.0 2.0 0.009 0.009 17.5619 17.5619 0.0000 12.07 590 790 
0.347 2 2.00 2.00 2.0 2.0 0.013 0.009 17.5619 18.2739 -0.0212 12.07 560 770 
0.348 2 2.00 2.00 2.0 2.0 0.009 0.004 17.5619 19.0460 -0.0442 12.07 570 780 
0.349 2 2.00 2.00 2.0 2.0 0.009 0.007 17.5619 17.3368 0.0067 12.07 570 780 
0.350 2 2.00 2.00 2.0 2.0 0.007 0.011 17.5619 18.0303 -0.0139 12.07 570 770 
0.351 2 2.00 2.00 2.0 2.0 0.007 0.011 17.5619 18.5242 -0.0286 12.02 590 800 
0.352 2 2.00 2.00 2.0 2.0 0.011 0.007 17.5619 18.5242 -0.0286 12.02 560 770 
0.353 2 2.00 2.00 2.0 2.0 0.011 0.007 17.3368 18.5242 -0.0353 12.02 560 770 
0.354 2 2.00 2.00 2.0 2.0 0.009 0.009 17.5619 18.5242 -0.0286 12.02 560 770 
0.355 2 2.00 2.00 2.0 2.0 0.009 0.007 17.5619 18.0303 -0.0139 12.02 560 770 
0.356 2 2.00 2.00 2.0 2.0 0.009 0.009 17.3368 18.2739 -0.0279 12.07 590 790 
0.357 2 2.00 2.00 2.0 2.0 0.007 0.011 17.1173 18.7815 -0.0495 12.07 560 770 
0.358 2 2.00 2.00 2.0 2.0 0.013 0.004 17.3368 17.5619 -0.0067 12.07 560 770 
0.359 2 2.00 2.00 2.0 2.0 0.011 0.011 17.7930 18.0303 -0.0071 12.07 570 780 
0.360 2 2.00 2.00 2.0 2.0 0.009 0.009 18.0303 18.7815 -0.0224 12.07 570 770 
0.361 2 2.00 2.00 2.0 2.0 0.011 0.007 17.7930 18.0303 -0.0071 12.07 590 790 
0.362 2 2.00 2.00 2.0 2.0 0.007 0.011 17.7930 18.2739 -0.0143 12.07 560 770 
0.363 2 2.00 2.00 2.0 2.0 0.009 0.009 15.9091 18.5242 -0.0778 12.07 560 770 
0.364 2 2.00 2.00 2.0 2.0 0.009 0.007 17.1173 18.0303 -0.0272 12.07 560 770 
0.365 2 2.00 2.00 2.0 2.0 0.011 0.009 17.7930 18.5242 -0.0218 12.07 560 770 
0.366 2 2.00 2.00 2.0 2.0 0.009 0.007 17.7930 18.5242 -0.0218 12.09 590 800 
0.367 2 2.00 2.00 2.0 2.0 0.009 0.007 17.3368 19.0460 -0.0509 12.09 560 770 
0.368 2 2.00 2.00 2.0 2.0 0.007 0.011 18.0303 19.0460 -0.0302 12.09 560 770 
0.369 2 2.00 2.00 2.0 2.0 0.009 0.011 17.7930 18.7815 -0.0294 12.09 560 770 
0.370 2 2.00 2.00 2.0 2.0 0.011 0.009 17.3368 18.7815 -0.0430 12.09 570 770 
0.371 2 2.00 2.00 2.0 2.0 0.011 0.007 17.1173 17.1173 0.0000 12.07 590 800 
0.372 2 2.00 2.00 2.0 2.0 0.009 0.009 17.3368 18.7815 -0.0430 12.07 560 770 
0.373 2 2.00 2.00 2.0 2.0 0.009 0.009 17.5619 18.7815 -0.0363 12.07 570 780 
0.374 2 2.00 2.00 2.0 2.0 0.011 0.011 17.3368 18.2739 -0.0279 12.07 560 770 
0.375 2 2.00 2.00 2.0 2.0 0.009 0.009 17.3368 18.7815 -0.0430 12.07 560 770 
0.376 2 2.00 2.00 2.0 2.0 0.011 0.009 17.1173 18.5242 -0.0419 12.10 590 790 
0.377 2 2.00 2.00 2.0 2.0 0.011 0.007 17.3368 18.5242 -0.0353 12.10 560 770 
0.378 2 2.00 2.00 2.0 2.0 0.009 0.007 17.5619 18.7815 -0.0363 12.10 570 770 
0.379 2 2.00 2.00 2.0 2.0 0.011 0.007 17.1173 18.5242 -0.0419 12.10 560 770 
0.380 2 2.00 2.00 2.0 2.0 0.009 0.009 17.3368 18.5242 -0.0353 12.10 560 770 
0.381 2 2.00 2.00 2.0 2.0 0.009 0.011 17.3368 18.7815 -0.0430 12.01 600 800 
0.382 2 2.00 2.00 2.0 2.0 0.007 0.007 17.5619 17.5619 0.0000 12.01 560 770 
0.383 2 2.00 2.00 2.0 2.0 0.009 0.009 17.5619 19.3181 -0.0522 12.01 570 780 
0.384 2 2.00 2.00 2.0 2.0 0.011 0.009 17.5619 19.3181 -0.0522 12.01 560 770 
0.385 2 2.00 2.00 2.0 2.0 0.011 0.009 17.7930 18.2739 -0.0143 12.01 570 770 
0.386 2 2.00 2.00 2.0 2.0 0.009 0.009 17.7930 18.0303 -0.0071 12.07 590 790 
0.387 2 2.00 2.00 2.0 2.0 0.009 0.009 17.5619 18.7815 -0.0363 12.07 560 770 
0.388 2 2.00 2.00 2.0 2.0 0.009 0.007 17.5619 18.7815 -0.0363 12.07 560 770 
0.389 2 2.00 2.00 2.0 2.0 0.011 0.007 17.5619 18.0303 -0.0139 12.07 560 770 
0.390 2 2.00 2.00 2.0 2.0 0.011 0.009 17.1173 18.7815 -0.0495 12.07 560 770 
0.391 2 2.00 2.00 2.0 2.0 0.007 0.009 17.7930 18.5242 -0.0218 12.12 590 790 
0.392 2 2.00 2.00 2.0 2.0 0.011 0.011 17.5619 18.2739 -0.0212 12.12 560 770 
0.393 2 2.00 2.00 2.0 2.0 0.009 0.009 17.3368 18.7815 -0.0430 12.12 560 770 
0.394 2 2.00 2.00 2.0 2.0 0.011 0.009 17.5619 18.2739 -0.0212 12.12 560 770 
0.395 2 2.00 2.00 2.0 2.0 0.011 0.004 17.3368 18.5242 -0.0353 12.12 560 770 
0.396 2 2.00 2.00 2.0 2.0 0.009 0.011 18.0303 18.7815 -0.0224 12.07 590 790 
0.397 2 2.00 2.00 2.0 2.0 0.011 0.009 18.0303 18.5242 -0.0147 12.07 570 780 
0.398 2 2.00 2.00 2.0 2.0 0.011 0.007 17.7930 18.0303 -0.0071 12.07 560 770 
0.399 2 2.00 2.00 2.0 2.0 0.009 0.009 17.7930 18.5242 -0.0218 12.07 560 770 
0.400 2 2.00 2.00 2.0 2.0 0.009 0.009 17.7930 18.2739 -0.0143 12.07 560 770 
0.401 4 4.00 4.00 4.0 4.0 0.011 0.009 16.6947 17.7930 -0.0327 12.07 590 790 
0.402 4 4.00 4.00 4.0 4.0 0.074 0.078 17.7930 18.5242 -0.0218 12.07 560 770 
0.403 4 4.00 4.00 4.0 4.0 0.158 0.176 17.7930 19.0460 -0.0373 12.07 560 760 
0.404 4 4.00 4.00 4.0 4.0 0.167 0.217 17.3368 18.5242 -0.0353 12.07 560 770 
0.405 4 4.00 4.00 4.0 4.0 0.212 0.250 18.7815 19.8863 -0.0329 12.07 560 760 
0.406 4 4.00 4.00 4.0 4.0 0.237 0.208 18.7815 20.1831 -0.0417 11.82 590 770 
0.407 4 4.00 4.00 4.0 4.0 0.243 0.237 18.7815 20.1831 -0.0417 11.82 560 750 
0.408 4 4.00 4.00 4.0 4.0 0.248 0.228 19.0460 20.4889 -0.0429 11.82 560 750 
0.409 4 4.00 4.00 4.0 4.0 0.252 0.228 19.8863 20.8041 -0.0273 11.82 560 750 
0.410 4 4.00 4.00 4.0 4.0 0.188 0.239 20.8041 21.4646 -0.0196 11.82 560 740 
0.411 4 4.00 4.00 4.0 4.0 0.221 0.208 21.1292 22.1684 -0.0309 11.87 590 750 
0.412 4 4.00 4.00 4.0 4.0 0.228 0.228 20.8041 22.9198 -0.0629 11.87 560 740 
0.413 4 4.00 4.00 4.0 4.0 0.221 0.214 21.4646 22.9198 -0.0433 11.87 560 740 
0.414 4 4.00 4.00 4.0 4.0 0.205 0.208 21.8108 23.3150 -0.0447 11.87 560 740 
0.415 4 4.00 4.00 4.0 4.0 0.167 0.212 22.1684 22.9198 -0.0224 11.87 560 730 
0.416 4 4.00 4.00 4.0 4.0 0.203 0.145 22.9198 25.0420 -0.0631 11.88 590 750 
0.417 4 4.00 4.00 4.0 4.0 0.199 0.179 23.3150 22.1684 0.0341 11.88 560 740 
0.418 4 4.00 4.00 4.0 4.0 0.188 0.174 23.7240 24.1477 -0.0126 11.88 570 740 
0.419 4 4.00 4.00 4.0 4.0 0.183 0.181 24.5867 25.0420 -0.0135 11.88 560 730 
0.420 4 4.00 4.00 4.0 4.0 0.152 0.163 24.5867 26.0052 -0.0422 11.88 560 730 
0.421 4 4.00 4.00 4.0 4.0 0.167 0.179 24.5867 26.0052 -0.0422 11.85 590 760 
0.422 4 4.00 4.00 4.0 4.0 0.165 0.158 24.5867 26.0052 -0.0422 11.85 560 740 
0.423 4 4.00 4.00 4.0 4.0 0.167 0.161 24.5867 26.5151 -0.0574 11.85 560 740 
0.424 4 4.00 4.00 4.0 4.0 0.134 0.134 25.5145 26.0052 -0.0146 11.85 560 730 
0.425 4 4.00 4.00 4.0 4.0 0.170 0.150 25.5145 27.0454 -0.0455 11.85 560 730 
0.426 4 4.00 4.00 4.0 4.0 0.163 0.145 26.0052 26.5151 -0.0152 11.90 590 750 
0.427 4 4.00 4.00 4.0 4.0 0.143 0.138 27.0454 27.0454 0.0000 11.90 570 730 
0.428 4 4.00 4.00 4.0 4.0 0.112 0.145 27.0454 27.0454 0.0000 11.90 560 720 
0.429 4 4.00 4.00 4.0 4.0 0.129 0.132 27.5973 27.0454 0.0164 11.90 560 730 
0.430 4 4.00 4.00 4.0 4.0 0.127 0.127 26.5151 28.1723 -0.0493 11.90 570 730 
0.431 4 4.00 4.00 4.0 4.0 0.116 0.129 27.5973 28.1723 -0.0171 11.93 590 750 
0.432 4 4.00 4.00 4.0 4.0 0.100 0.116 27.5973 28.7717 -0.0349 11.93 560 730 
0.433 4 4.00 4.00 4.0 4.0 0.132 0.127 28.1723 28.1723 0.0000 11.93 570 740 
0.434 4 4.00 4.00 4.0 4.0 0.125 0.118 27.5973 29.3972 -0.0535 11.93 560 740 
0.435 4 4.00 4.00 4.0 4.0 0.127 0.118 28.1723 30.0504 -0.0559 11.93 560 740 
0.436 4 4.00 4.00 4.0 4.0 0.098 0.118 28.7717 30.0504 -0.0380 11.93 590 760 
0.437 4 4.00 4.00 4.0 4.0 0.118 0.123 28.7717 30.7334 -0.0584 11.93 560 740 
0.438 4 4.00 4.00 4.0 4.0 0.116 0.107 28.7717 30.7334 -0.0584 11.93 560 740 
0.439 4 4.00 4.00 4.0 4.0 0.112 0.123 29.3972 30.0504 -0.0194 11.93 560 750 
0.440 4 4.00 4.00 4.0 4.0 0.109 0.094 29.3972 31.4481 -0.0610 11.93 560 740 
0.441 4 4.00 4.00 4.0 4.0 0.118 0.096 30.0504 29.3972 0.0194 11.93 600 760 
0.442 4 4.00 4.00 4.0 4.0 0.105 0.096 30.0504 30.0504 0.0000 11.93 560 730 
0.443 4 4.00 4.00 4.0 4.0 0.114 0.105 30.0504 31.4481 -0.0416 11.93 560 740 
0.444 4 4.00 4.00 4.0 4.0 0.096 0.114 30.0504 31.4481 -0.0416 11.93 570 750 
0.445 4 4.00 4.00 4.0 4.0 0.103 0.085 30.0504 31.4481 -0.0416 11.93 570 740 
0.446 4 4.00 4.00 4.0 4.0 0.096 0.094 30.0504 31.4481 -0.0416 11.96 590 760 
0.447 4 4.00 4.00 4.0 4.0 0.087 0.089 30.7334 32.9822 -0.0669 11.96 570 740 
0.448 4 4.00 4.00 4.0 4.0 0.107 0.071 30.7334 32.1969 -0.0435 11.96 570 750 
0.449 4 4.00 4.00 4.0 4.0 0.098 0.074 30.7334 32.9822 -0.0669 11.96 560 750 
0.450 4 4.00 4.00 4.0 4.0 0.087 0.074 32.1969 30.7334 0.0435 11.96 570 740 
0.451 4 4.00 4.00 4.0 4.0 0.076 0.083 32.1969 33.8067 -0.0479 11.94 590 760 
0.452 4 4.00 4.00 4.0 4.0 0.083 0.078 31.4481 32.9822 -0.0456 11.94 560 740 
0.453 4 4.00 4.00 4.0 4.0 0.071 0.076 32.1969 33.8067 -0.0479 11.94 560 730 
0.454 4 4.00 4.00 4.0 4.0 0.071 0.085 31.4481 33.8067 -0.0702 11.94 560 730 
0.455 4 4.00 4.00 4.0 4.0 0.089 0.071 32.1969 31.4481 0.0223 11.94 560 750 
0.456 4 4.00 4.00 4.0 4.0 0.076 0.074 32.1969 33.8067 -0.0479 11.94 590 750 
0.457 4 4.00 4.00 4.0 4.0 0.087 0.098 32.1969 33.8067 -0.0479 11.94 560 730 
0.458 4 4.00 4.00 4.0 4.0 0.080 0.076 32.1969 33.8067 -0.0479 11.94 560 730 
0.459 4 4.00 4.00 4.0 4.0 0.080 0.076 32.1969 34.6736 -0.0737 11.94 570 740 
0.460 4 4.00 4.00 4.0 4.0 0.069 0.058 32.1969 34.6736 -0.0737 11.94 560 740 
0.461 4 4.00 4.00 4.0 4.0 0.071 0.060 32.1969 33.8067 -0.0479 11.96 590 750 
0.462 4 4.00 4.00 4.0 4.0 0.083 0.060 32.9822 34.6736 -0.0503 11.96 570 740 
0.463 4 4.00 4.00 4.0 4.0 0.067 0.074 32.9822 34.6736 -0.0503 11.96 560 730 
0.464 4 4.00 4.00 4.0 4.0 0.069 0.078 32.9822 34.6736 -0.0503 11.96 560 740 
0.465 4 4.00 4.00 4.0 4.0 0.069 0.062 32.9822 34.6736 -0.0503 11.96 560 730 
0.466 4 4.00 4.00 4.0 4.0 0.056 0.056 32.9822 34.6736 -0.0503 11.96 590 770 
0.467 4 4.00 4.00 4.0 4.0 0.067 0.065 33.8067 35.5860 -0.0529 11.96 570 730 
0.468 4 4.00 4.00 4.0 4.0 0.069 0.058 33.8067 33.8067 0.0000 11.96 560 720 
0.469 4 4.00 4.00 4.0 4.0 0.069 0.065 33.8067 34.6736 -0.0258 11.96 560 730 
0.470 4 4.00 4.00 4.0 4.0 0.056 0.058 34.6736 35.5860 -0.0271 11.96 560 740 
0.471 4 4.00 4.00 4.0 4.0 0.051 0.051 34.6736 36.5478 -0.0558 11.93 590 770 
0.472 4 4.00 4.00 4.0 4.0 0.065 0.058 33.8067 36.5478 -0.0815 11.93 560 730 
0.473 4 4.00 4.00 4.0 4.0 0.051 0.062 34.6736 35.5860 -0.0271 11.93 560 740 
0.474 4 4.00 4.00 4.0 4.0 0.056 0.051 33.8067 35.5860 -0.0529 11.93 560 730 
0.475 4 4.00 4.00 4.0 4.0 0.062 0.047 34.6736 36.5478 -0.0558 11.93 560 740 
0.476 4 4.00 4.00 4.0 4.0 0.060 0.060 34.6736 36.5478 -0.0558 11.96 590 760 
0.477 4 4.00 4.00 4.0 4.0 0.067 0.058 34.6736 36.5478 -0.0558 11.96 570 740 
0.478 4 4.00 4.00 4.0 4.0 0.058 0.049 33.8067 36.5478 -0.0815 11.96 570 740 
0.479 4 4.00 4.00 4.0 4.0 0.058 0.042 34.6736 37.5630 -0.0860 11.96 560 740 
0.480 4 4.00 4.00 4.0 4.0 0.054 0.040 34.6736 35.5860 -0.0271 11.96 560 740 
0.481 4 4.00 4.00 4.0 4.0 0.062 0.036 34.6736 36.5478 -0.0558 11.94 580 750 
0.482 4 4.00 4.00 4.0 4.0 0.062 0.062 34.6736 35.5860 -0.0271 11.94 570 750 
0.483 4 4.00 4.00 4.0 4.0 0.051 0.062 34.6736 36.5478 -0.0558 11.94 560 740 
0.484 4 4.00 4.00 4.0 4.0 0.047 0.047 34.6736 36.5478 -0.0558 11.94 570 750 
0.485 4 4.00 4.00 4.0 4.0 0.054 0.049 34.6736 35.5860 -0.0271 11.94 560 740 
0.486 4 4.00 4.00 4.0 4.0 0.045 0.042 34.6736 36.5478 -0.0558 11.94 590 760 
0.487 4 4.00 4.00 4.0 4.0 0.049 0.040 35.5860 37.5630 -0.0588 11.94 570 740 
0.488 4 4.00 4.00 4.0 4.0 0.062 0.036 35.5860 36.5478 -0.0286 11.94 560 740 
0.489 4 4.00 4.00 4.0 4.0 0.045 0.045 35.5860 37.5630 -0.0588 11.94 560 740 
0.490 4 4.00 4.00 4.0 4.0 0.051 0.031 35.5860 36.5478 -0.0286 11.94 560 740 
0.491 4 4.00 4.00 4.0 4.0 0.051 0.047 35.5860 37.5630 -0.0588 12.01 590 770 
0.492 4 4.00 4.00 4.0 4.0 0.036 0.047 35.5860 37.5630 -0.0588 12.01 560 730 
0.493 4 4.00 4.00 4.0 4.0 0.038 0.031 34.6736 36.5478 -0.0558 12.01 560 740 
0.494 4 4.00 4.00 4.0 4.0 0.051 0.058 35.5860 37.5630 -0.0588 12.01 570 740 
0.495 4 4.00 4.00 4.0 4.0 0.038 0.058 35.5860 37.5630 -0.0588 12.01 560 740 
0.496 4 4.00 4.00 4.0 4.0 0.047 0.033 35.5860 37.5630 -0.0588 11.94 590 760 
0.497 4 4.00 4.00 4.0 4.0 0.049 0.038 35.5860 36.5478 -0.0286 11.94 560 750 
0.498 4 4.00 4.00 4.0 4.0 0.045 0.027 35.5860 36.5478 -0.0286 11.94 570 750 
0.499 4 4.00 4.00 4.0 4.0 0.042 0.033 35.5860 36.5478 -0.0286 11.94 570 750 
0.500 4 4.00 4.00 4.0 4.0 0.056 0.051 35.5860 37.5630 -0.0588 11.94 560 740 
0.501 4 4.00 4.00 4.0 4.0 0.049 0.045 35.5860 37.5630 -0.0588 11.98 590 760 
0.502 4 4.00 4.00 4.0 4.0 0.040 0.036 35.5860 37.5630 -0.0588 11.98 570 750 
0.503 4 4.00 4.00 4.0 4.0 0.042 0.042 35.5860 37.5630 -0.0588 11.98 570 750 
0.504 4 4.00 4.00 4.0 4.0 0.040 0.033 35.5860 37.5630 -0.0588 11.98 560 740 
0.505 4 4.00 4.00 4.0 4.0 0.031 0.029 35.5860 36.5478 -0.0286 11.98 560 750 
0.506 4 4.00 4.00 4.0 4.0 0.051 0.029 35.5860 37.5630 -0.0588 11.96 590 760 
0.507 4 4.00 4.00 4.0 4.0 0.051 0.038 35.5860 38.6363 -0.0907 11.96 560 740 
0.508 4 4.00 4.00 4.0 4.0 0.038 0.029 36.5478 37.5630 -0.0302 11.96 560 740 
0.509 4 4.00 4.00 4.0 4.0 0.033 0.038 36.5478 37.5630 -0.0302 11.96 560 750 
0.510 4 4.00 4.00 4.0 4.0 0.040 0.036 35.5860 37.5630 -0.0588 11.96 560 740 
0.511 4 4.00 4.00 4.0 4.0 0.029 0.027 36.5478 38.6363 -0.0621 11.99 590 760 
0.512 4 4.00 4.00 4.0 4.0 0.038 0.045 35.5860 38.6363 -0.0907 11.99 560 740 
0.513 4 4.00 4.00 4.0 4.0 0.047 0.040 36.5478 38.6363 -0.0621 11.99 560 740 
0.514 4 4.00 4.00 4.0 4.0 0.033 0.031 36.5478 38.6363 -0.0621 11.99 560 740 
0.515 4 4.00 4.00 4.0 4.0 0.033 0.027 36.5478 38.6363 -0.0621 11.99 570 740 
0.516 4 4.00 4.00 4.0 4.0 0.047 0.013 36.5478 37.5630 -0.0302 11.99 590 770 
0.517 4 4.00 4.00 4.0 4.0 0.031 0.022 36.5478 38.6363 -0.0621 11.99 570 750 
0.518 4 4.00 4.00 4.0 4.0 0.033 0.042 36.5478 37.5630 -0.0302 11.99 570 740 
0.519 4 4.00 4.00 4.0 4.0 0.051 0.036 36.5478 38.6363 -0.0621 11.99 560 740 
0.520 4 4.00 4.00 4.0 4.0 0.038 0.018 36.5478 38.6363 -0.0621 11.99 570 740 
0.521 4 4.00 4.00 4.0 4.0 0.033 0.031 36.5478 37.5630 -0.0302 11.94 590 760 
0.522 4 4.00 4.00 4.0 4.0 0.042 0.027 36.5478 37.5630 -0.0302 11.94 560 740 
0.523 4 4.00 4.00 4.0 4.0 0.033 0.020 36.5478 38.6363 -0.0621 11.94 570 740 
0.524 4 4.00 4.00 4.0 4.0 0.040 0.031 35.5860 36.5478 -0.0286 11.94 560 740 
0.525 4 4.00 4.00 4.0 4.0 0.051 0.029 37.5630 38.6363 -0.0319 11.94 570 740 
0.526 4 4.00 4.00 4.0 4.0 0.040 0.025 37.5630 38.6363 -0.0319 11.98 600 770 
0.527 4 4.00 4.00 4.0 4.0 0.038 0.038 37.5630 37.5630 0.0000 11.98 560 740 
0.528 4 4.00 4.00 4.0 4.0 0.038 0.025 37.5630 38.6363 -0.0319 11.98 570 740 
0.529 4 4.00 4.00 4.0 4.0 0.031 0.027 37.5630 38.6363 -0.0319 11.98 570 730 
0.530 4 4.00 4.00 4.0 4.0 0.029 0.045 36.5478 38.6363 -0.0621 11.98 560 750 
0.531 4 4.00 4.00 4.0 4.0 0.045 0.031 37.5630 38.6363 -0.0319 11.94 590 760 
0.532 4 4.00 4.00 4.0 4.0 0.038 0.033 35.5860 37.5630 -0.0588 11.94 560 740 
0.533 4 4.00 4.00 4.0 4.0 0.045 0.022 37.5630 39.7726 -0.0657 11.94 560 740 
0.534 4 4.00 4.00 4.0 4.0 0.042 0.011 37.5630 37.5630 0.0000 11.94 560 740 
0.535 4 4.00 4.00 4.0 4.0 0.036 0.036 37.5630 38.6363 -0.0319 11.94 560 740 
0.536 4 4.00 4.00 4.0 4.0 0.038 0.051 37.5630 38.6363 -0.0319 11.98 590 760 
0.537 4 4.00 4.00 4.0 4.0 0.051 0.020 37.5630 38.6363 -0.0319 11.98 560 730 
0.538 4 4.00 4.00 4.0 4.0 0.033 0.029 37.5630 37.5630 0.0000 11.98 560 740 
0.539 4 4.00 4.00 4.0 4.0 0.036 0.029 37.5630 38.6363 -0.0319 11.98 560 740 
0.540 4 4.00 4.00 4.0 4.0 0.040 0.011 37.5630 38.6363 -0.0319 11.98 560 730 
0.541 4 4.00 4.00 4.0 4.0 0.031 0.033 37.5630 38.6363 -0.0319 11.93 590 760 
0.542 4 4.00 4.00 4.0 4.0 0.033 0.029 37.5630 38.6363 -0.0319 11.93 560 740 
0.543 4 4.00 4.00 4.0 4.0 0.051 0.025 37.5630 38.6363 -0.0319 11.93 570 740 
0.544 4 4.00 4.00 4.0 4.0 0.038 0.029 37.5630 39.7726 -0.0657 11.93 570 750 
0.545 4 4.00 4.00 4.0 4.0 0.029 0.031 37.5630 38.6363 -0.0319 11.93 560 730 
0.546 4 4.00 4.00 4.0 4.0 0.038 0.020 37.5630 39.7726 -0.0657 12.01 590 760 
0.547 4 4.00 4.00 4.0 4.0 0.025 0.038 36.5478 39.7726 -0.0959 12.01 560 740 
0.548 4 4.00 4.00 4.0 4.0 0.029 0.027 36.5478 39.7726 -0.0959 12.01 560 740 
0.549 4 4.00 4.00 4.0 4.0 0.040 0.029 37.5630 39.7726 -0.0657 12.01 570 740 
0.550 4 4.00 4.00 4.0 4.0 0.029 0.020 37.5630 39.7726 -0.0657 12.01 560 740 
0.551 4 4.00 4.00 4.0 4.0 0.029 0.011 37.5630 38.6363 -0.0319 11.91 590 760 
0.552 4 4.00 4.00 4.0 4.0 0.040 0.016 37.5630 39.7726 -0.0657 11.91 560 740 
0.553 4 4.00 4.00 4.0 4.0 0.036 0.042 37.5630 38.6363 -0.0319 11.91 560 750 
0.554 4 4.00 4.00 4.0 4.0 0.036 0.029 37.5630 39.7726 -0.0657 11.91 560 730 
0.555 4 4.00 4.00 4.0 4.0 0.047 0.020 37.5630 38.6363 -0.0319 11.91 570 740 
0.556 4 4.00 4.00 4.0 4.0 0.036 0.029 37.5630 38.6363 -0.0319 12.09 590 770 
0.557 4 4.00 4.00 4.0 4.0 0.029 0.016 37.5630 38.6363 -0.0319 12.09 570 740 
0.558 4 4.00 4.00 4.0 4.0 0.033 0.016 37.5630 38.6363 -0.0319 12.09 570 740 
0.559 4 4.00 4.00 4.0 4.0 0.022 0.022 37.5630 38.6363 -0.0319 12.09 560 740 
0.560 4 4.00 4.00 4.0 4.0 0.029 0.011 37.5630 36.5478 0.0302 12.09 560 740 
0.561 4 4.00 4.00 4.0 4.0 0.042 0.022 37.5630 39.7726 -0.0657 11.98 590 770 
0.562 4 4.00 4.00 4.0 4.0 0.031 0.033 37.5630 39.7726 -0.0657 11.98 560 750 
0.563 4 4.00 4.00 4.0 4.0 0.027 0.013 38.6363 38.6363 0.0000 11.98 570 730 
0.564 4 4.00 4.00 4.0 4.0 0.029 0.027 38.6363 39.7726 -0.0338 11.98 560 730 
0.565 4 4.00 4.00 4.0 4.0 0.025 0.036 37.5630 39.7726 -0.0657 11.98 560 740 
0.566 4 4.00 4.00 4.0 4.0 0.031 0.020 36.5478 39.7726 -0.0959 11.99 590 760 
0.567 4 4.00 4.00 4.0 4.0 0.038 0.009 37.5630 38.6363 -0.0319 11.99 570 750 
0.568 4 4.00 4.00 4.0 4.0 0.027 0.013 37.5630 38.6363 -0.0319 11.99 560 740 
0.569 4 4.00 4.00 4.0 4.0 0.033 0.009 37.5630 39.7726 -0.0657 11.99 560 730 
0.570 4 4.00 4.00 4.0 4.0 0.038 0.045 37.5630 35.5860 0.0588 11.99 560 740 
0.571 4 4.00 4.00 4.0 4.0 0.029 0.029 37.5630 39.7726 -0.0657 12.01 590 760 
0.572 4 4.00 4.00 4.0 4.0 0.031 0.022 37.5630 39.7726 -0.0657 12.01 570 740 
0.573 4 4.00 4.00 4.0 4.0 0.042 0.029 37.5630 38.6363 -0.0319 12.01 560 730 
0.574 4 4.00 4.00 4.0 4.0 0.027 0.020 37.5630 38.6363 -0.0319 12.01 570 740 
0.575 4 4.00 4.00 4.0 4.0 0.031 0.016 37.5630 39.7726 -0.0657 12.01 560 750 
0.576 4 4.00 4.00 4.0 4.0 0.031 0.027 37.5630 37.5630 0.0000 11.99 590 760 
0.577 4 4.00 4.00 4.0 4.0 0.025 0.013 37.5630 39.7726 -0.0657 11.99 560 740 
0.578 4 4.00 4.00 4.0 4.0 0.025 0.025 37.5630 39.7726 -0.0657 11.99 560 740 
0.579 4 4.00 4.00 4.0 4.0 0.042 0.031 37.5630 39.7726 -0.0657 11.99 560 730 
0.580 4 4.00 4.00 4.0 4.0 0.033 0.018 37.5630 39.7726 -0.0657 11.99 570 750 
0.581 4 4.00 4.00 4.0 4.0 0.029 0.011 37.5630 39.7726 -0.0657 11.94 590 770 
0.582 4 4.00 4.00 4.0 4.0 0.033 0.042 37.5630 39.7726 -0.0657 11.94 560 730 
0.583 4 4.00 4.00 4.0 4.0 0.025 0.022 37.5630 39.7726 -0.0657 11.94 570 740 
0.584 4 4.00 4.00 4.0 4.0 0.027 0.031 37.5630 39.7726 -0.0657 11.94 570 740 
0.585 4 4.00 4.00 4.0 4.0 0.042 0.016 37.5630 35.5860 0.0588 11.94 560 740 
0.586 4 4.00 4.00 4.0 4.0 0.031 0.009 37.5630 38.6363 -0.0319 12.02 590 760 
0.587 4 4.00 4.00 4.0 4.0 0.036 0.033 37.5630 39.7726 -0.0657 12.02 560 750 
0.588 4 4.00 4.00 4.0 4.0 0.036 0.020 37.5630 39.7726 -0.0657 12.02 570 740 
0.589 4 4.00 4.00 4.0 4.0 0.027 0.011 37.5630 39.7726 -0.0657 12.02 570 730 
0.590 4 4.00 4.00 4.0 4.0 0.027 0.020 37.5630 38.6363 -0.0319 12.02 560 750 
0.591 4 4.00 4.00 4.0 4.0 0.040 0.013 37.5630 39.7726 -0.0657 11.96 590 760 
0.592 4 4.00 4.00 4.0 4.0 0.027 0.011 37.5630 39.7726 -0.0657 11.96 560 740 
0.593 4 4.00 4.00 4.0 4.0 0.033 0.025 37.5630 38.6363 -0.0319 11.96 570 750 
0.594 4 4.00 4.00 4.0 4.0 0.033 0.013 37.5630 39.7726 -0.0657 11.96 570 750 
0.595 4 4.00 4.00 4.0 4.0 0.027 0.033 37.5630 39.7726 -0.0657 11.96 570 740 
0.596 4 4.00 4.00 4.0 4.0 0.029 0.036 37.5630 38.6363 -0.0319 12.06 590 760 
0.597 4 4.00 4.00 4.0 4.0 0.040 0.013 37.5630 39.7726 -0.0657 12.06 560 740 
0.598 4 4.00 4.00 4.0 4.0 0.027 0.011 38.6363 39.7726 -0.0338 12.06 560 730 
0.599 4 4.00 4.00 4.0 4.0 0.027 0.036 38.6363 39.7726 -0.0338 12.06 570 740 
0.600 4 4.00 4.00 4.0 4.0 0.029 0.016 38.6363 39.7726 -0.0338 12.06 560 740 
0.601 4 4.00 4.00 4.0 4.0 0.018 0.029 38.6363 38.6363 0.0000 11.99 590 770 
0.602 4 4.00 4.00 4.0 4.0 0.025 0.022 37.5630 39.7726 -0.0657 11.99 570 750 
0.603 4 4.00 4.00 4.0 4.0 0.040 0.004 38.6363 38.6363 0.0000 11.99 560 740 
0.604 4 4.00 4.00 4.0 4.0 0.027 0.025 37.5630 39.7726 -0.0657 11.99 570 740 
0.605 4 4.00 4.00 4.0 4.0 0.027 0.031 37.5630 39.7726 -0.0657 11.99 560 730 
0.606 4 4.00 4.00 4.0 4.0 0.036 0.009 37.5630 39.7726 -0.0657 11.96 590 760 
0.607 4 4.00 4.00 4.0 4.0 0.027 0.027 37.5630 39.7726 -0.0657 11.96 560 740 
0.608 4 4.00 4.00 4.0 4.0 0.022 0.020 37.5630 38.6363 -0.0319 11.96 560 740 
0.609 4 4.00 4.00 4.0 4.0 0.042 0.011 37.5630 39.7726 -0.0657 11.96 570 740 
0.610 4 4.00 4.00 4.0 4.0 0.027 0.018 37.5630 38.6363 -0.0319 11.96 570 750 
0.611 4 4.00 4.00 4.0 4.0 0.020 0.016 37.5630 40.9779 -0.1016 12.02 590 760 
0.612 4 4.00 4.00 4.0 4.0 0.031 0.016 37.5630 39.7726 -0.0657 12.02 560 750 
0.613 4 4.00 4.00 4.0 4.0 0.016 0.031 37.5630 38.6363 -0.0319 12.02 560 750 
0.614 4 4.00 4.00 4.0 4.0 0.029 0.011 38.6363 39.7726 -0.0338 12.02 570 740 
0.615 4 4.00 4.00 4.0 4.0 0.038 0.018 37.5630 39.7726 -0.0657 12.02 570 740 
0.616 4 4.00 4.00 4.0 4.0 0.025 0.042 38.6363 39.7726 -0.0338 11.96 590 760 
0.617 4 4.00 4.00 4.0 4.0 0.020 0.016 38.6363 39.7726 -0.0338 11.96 560 740 
0.618 4 4.00 4.00 4.0 4.0 0.027 0.027 37.5630 38.6363 -0.0319 11.96 560 740 
0.619 4 4.00 4.00 4.0 4.0 0.016 0.013 38.6363 40.9779 -0.0697 11.96 570 740 
0.620 4 4.00 4.00 4.0 4.0 0.027 0.007 37.5630 39.7726 -0.0657 11.96 560 740 
0.621 4 4.00 4.00 4.0 4.0 0.036 0.036 38.6363 39.7726 -0.0338 11.98 590 760 
0.622 4 4.00 4.00 4.0 4.0 0.025 0.045 37.5630 39.7726 -0.0657 11.98 570 740 
0.623 4 4.00 4.00 4.0 4.0 0.022 0.011 38.6363 39.7726 -0.0338 11.98 560 750 
0.624 4 4.00 4.00 4.0 4.0 0.036 0.025 38.6363 39.7726 -0.0338 11.98 560 740 
0.625 4 4.00 4.00 4.0 4.0 0.020 0.022 38.6363 39.7726 -0.0338 11.98 570 740 
0.626 4 4.00 4.00 4.0 4.0 0.031 0.011 38.6363 39.7726 -0.0338 11.99 590 760 
0.627 4 4.00 4.00 4.0 4.0 0.038 0.018 38.6363 38.6363 0.0000 11.99 570 730 
0.628 4 4.00 4.00 4.0 4.0 0.022 0.011 38.6363 40.9779 -0.0697 11.99 570 740 
0.629 4 4.00 4.00 4.0 4.0 0.025 0.013 38.6363 39.7726 -0.0338 11.99 560 740 
0.630 4 4.00 4.00 4.0 4.0 0.029 0.029 38.6363 38.6363 0.0000 11.99 560 740 
0.631 4 4.00 4.00 4.0 4.0 0.018 0.016 37.5630 39.7726 -0.0657 12.01 590 760 
0.632 4 4.00 4.00 4.0 4.0 0.038 0.009 37.5630 39.7726 -0.0657 12.01 570 740 
0.633 4 4.00 4.00 4.0 4.0 0.036 0.040 37.5630 39.7726 -0.0657 12.01 560 740 
0.634 4 4.00 4.00 4.0 4.0 0.018 0.016 38.6363 39.7726 -0.0338 12.01 570 740 
0.635 4 4.00 4.00 4.0 4.0 0.022 0.027 38.6363 38.6363 0.0000 12.01 560 740 
0.636 4 4.00 4.00 4.0 4.0 0.025 0.013 37.5630 40.9779 -0.1016 11.98 590 760 
0.637 4 4.00 4.00 4.0 4.0 0.016 0.009 38.6363 39.7726 -0.0338 11.98 570 750 
0.638 4 4.00 4.00 4.0 4.0 0.036 0.033 38.6363 39.7726 -0.0338 11.98 560 730 
0.639 4 4.00 4.00 4.0 4.0 0.029 0.033 38.6363 39.7726 -0.0338 11.98 570 740 
0.640 4 4.00 4.00 4.0 4.0 0.025 0.016 38.6363 39.7726 -0.0338 11.98 570 740 
0.641 4 4.00 4.00 4.0 4.0 0.031 0.020 38.6363 38.6363 0.0000 11.96 590 770 
0.642 4 4.00 4.00 4.0 4.0 0.031 0.022 38.6363 39.7726 -0.0338 11.96 560 740 
0.643 4 4.00 4.00 4.0 4.0 0.020 0.011 38.6363 39.7726 -0.0338 11.96 570 750 
0.644 4 4.00 4.00 4.0 4.0 0.040 0.018 38.6363 38.6363 0.0000 11.96 560 730 
0.645 4 4.00 4.00 4.0 4.0 0.033 0.018 38.6363 40.9779 -0.0697 11.96 570 740 
0.646 4 4.00 4.00 4.0 4.0 0.025 0.020 37.5630 39.7726 -0.0657 11.93 590 760 
0.647 4 4.00 4.00 4.0 4.0 0.029 0.038 38.6363 38.6363 0.0000 11.93 560 740 
0.648 4 4.00 4.00 4.0 4.0 0.027 0.020 38.6363 39.7726 -0.0338 11.93 570 750 
0.649 4 4.00 4.00 4.0 4.0 0.020 0.020 38.6363 39.7726 -0.0338 11.93 560 730 
0.650 4 4.00 4.00 4.0 4.0 0.040 0.033 38.6363 39.7726 -0.0338 11.93 560 740 
0.651 4 4.00 4.00 4.0 4.0 0.033 0.018 38.6363 39.7726 -0.0338 11.99 590 760 
0.652 4 4.00 4.00 4.0 4.0 0.022 0.027 38.6363 38.6363 0.0000 11.99 560 740 
0.653 4 4.00 4.00 4.0 4.0 0.029 0.011 38.6363 39.7726 -0.0338 11.99 560 750 
0.654 4 4.00 4.00 4.0 4.0 0.022 0.007 37.5630 39.7726 -0.0657 11.99 560 750 
0.655 4 4.00 4.00 4.0 4.0 0.020 0.031 37.5630 39.7726 -0.0657 11.99 570 740 
0.656 4 4.00 4.00 4.0 4.0 0.038 0.027 38.6363 39.7726 -0.0338 11.99 590 760 
0.657 4 4.00 4.00 4.0 4.0 0.029 0.011 38.6363 39.7726 -0.0338 11.99 560 740 
0.658 4 4.00 4.00 4.0 4.0 0.027 0.020 37.5630 39.7726 -0.0657 11.99 570 740 
0.659 4 4.00 4.00 4.0 4.0 0.033 0.018 37.5630 39.7726 -0.0657 11.99 560 740 
0.660 4 4.00 4.00 4.0 4.0 0.025 0.011 37.5630 39.7726 -0.0657 11.99 570 750 
0.661 4 4.00 4.00 4.0 4.0 0.022 0.020 37.5630 38.6363 -0.0319 11.91 590 760 
0.662 4 4.00 4.00 4.0 4.0 0.042 0.011 37.5630 40.9779 -0.1016 11.91 560 730 
0.663 4 4.00 4.00 4.0 4.0 0.027 0.020 37.5630 39.7726 -0.0657 11.91 560 740 
0.664 4 4.00 4.00 4.0 4.0 0.033 0.031 37.5630 39.7726 -0.0657 11.91 560 740 
0.665 4 4.00 4.00 4.0 4.0 0.036 0.009 37.5630 39.7726 -0.0657 11.91 570 750 
0.666 4 4.00 4.00 4.0 4.0 0.022 0.018 37.5630 40.9779 -0.1016 11.96 590 760 
0.667 4 4.00 4.00 4.0 4.0 0.027 0.040 38.6363 40.9779 -0.0697 11.96 560 750 
0.668 4 4.00 4.00 4.0 4.0 0.045 0.016 38.6363 40.9779 -0.0697 11.96 560 730 
0.669 4 4.00 4.00 4.0 4.0 0.031 0.027 38.6363 39.7726 -0.0338 11.96 560 730 
0.670 4 4.00 4.00 4.0 4.0 0.029 0.016 37.5630 39.7726 -0.0657 11.96 570 740 
0.671 4 4.00 4.00 4.0 4.0 0.027 0.009 38.6363 39.7726 -0.0338 11.96 590 770 
0.672 4 4.00 4.00 4.0 4.0 0.018 0.022 38.6363 39.7726 -0.0338 11.96 570 750 
0.673 4 4.00 4.00 4.0 4.0 0.022 0.031 37.5630 39.7726 -0.0657 11.96 570 740 
0.674 4 4.00 4.00 4.0 4.0 0.033 0.011 38.6363 39.7726 -0.0338 11.96 560 740 
0.675 4 4.00 4.00 4.0 4.0 0.025 0.022 38.6363 38.6363 0.0000 11.96 570 740 
0.676 4 4.00 4.00 4.0 4.0 0.025 0.013 38.6363 39.7726 -0.0338 11.99 590 760 
0.677 4 4.00 4.00 4.0 4.0 0.033 0.009 37.5630 38.6363 -0.0319 11.99 560 750 
0.678 4 4.00 4.00 4.0 4.0 0.020 0.016 38.6363 38.6363 0.0000 11.99 560 740 
0.679 4 4.00 4.00 4.0 4.0 0.020 0.013 38.6363 40.9779 -0.0697 11.99 570 750 
0.680 4 4.00 4.00 4.0 4.0 0.036 0.022 38.6363 39.7726 -0.0338 11.99 570 740 
0.681 4 4.00 4.00 4.0 4.0 0.025 0.033 38.6363 39.7726 -0.0338 11.99 590 760 
0.682 4 4.00 4.00 4.0 4.0 0.022 0.013 38.6363 39.7726 -0.0338 11.99 570 750 
0.683 4 4.00 4.00 4.0 4.0 0.029 0.020 38.6363 39.7726 -0.0338 11.99 560 730 
0.684 4 4.00 4.00 4.0 4.0 0.018 0.033 38.6363 39.7726 -0.0338 11.99 560 750 
0.685 4 4.00 4.00 4.0 4.0 0.027 0.013 38.6363 39.7726 -0.0338 11.99 560 740 
0.686 4 4.00 4.00 4.0 4.0 0.036 0.016 38.6363 39.7726 -0.0338 12.01 590 760 
0.687 4 4.00 4.00 4.0 4.0 0.020 0.009 38.6363 39.7726 -0.0338 12.01 560 730 
0.688 4 4.00 4.00 4.0 4.0 0.020 0.009 38.6363 39.7726 -0.0338 12.01 560 740 
0.689 4 4.00 4.00 4.0 4.0 0.025 0.029 37.5630 38.6363 -0.0319 12.01 570 750 
0.690 4 4.00 4.00 4.0 4.0 0.016 0.027 38.6363 39.7726 -0.0338 12.01 570 750 
0.691 4 4.00 4.00 4.0 4.0 0.033 0.011 38.6363 39.7726 -0.0338 12.01 590 770 
0.692 4 4.00 4.00 4.0 4.0 0.031 0.022 38.6363 39.7726 -0.0338 12.01 570 750 
0.693 4 4.00 4.00 4.0 4.0 0.022 0.009 37.5630 39.7726 -0.0657 12.01 560 730 
0.694 4 4.00 4.00 4.0 4.0 0.031 0.011 37.5630 39.7726 -0.0657 12.01 560 730 
0.695 4 4.00 4.00 4.0 4.0 0.029 0.011 37.5630 39.7726 -0.0657 12.01 570 750 
0.696 4 4.00 4.00 4.0 4.0 0.018 0.009 37.5630 39.7726 -0.0657 11.99 590 760 
0.697 4 4.00 4.00 4.0 4.0 0.036 0.022 37.5630 39.7726 -0.0657 11.99 560 740 
0.698 4 4.00 4.00 4.0 4.0 0.031 0.020 37.5630 39.7726 -0.0657 11.99 570 740 
0.699 4 4.00 4.00 4.0 4.0 0.020 0.011 37.5630 39.7726 -0.0657 11.99 570 750 
0.700 4 4.00 4.00 4.0 4.0 0.031 0.018 37.5630 40.9779 -0.1016 11.99 570 740 
0.701 4 4.00 4.00 4.0 4.0 0.025 0.022 37.5630 40.9779 -0.1016 11.96 590 760 
0.702 4 4.00 4.00 4.0 4.0 0.018 0.013 37.5630 40.9779 -0.1016 11.96 560 740 
0.703 4 4.00 4.00 4.0 4.0 0.042 0.011 38.6363 40.9779 -0.0697 11.96 570 740 
0.704 4 4.00 4.00 4.0 4.0 0.033 0.009 38.6363 39.7726 -0.0338 11.96 560 740 
0.705 4 4.00 4.00 4.0 4.0 0.020 0.013 38.6363 40.9779 -0.0697 11.96 570 740 
0.706 4 4.00 4.00 4.0 4.0 0.025 0.040 38.6363 39.7726 -0.0338 11.98 590 770 
0.707 4 4.00 4.00 4.0 4.0 0.020 0.020 37.5630 39.7726 -0.0657 11.98 570 750 
0.708 4 4.00 4.00 4.0 4.0 0.022 0.016 37.5630 39.7726 -0.0657 11.98 560 730 
0.709 4 4.00 4.00 4.0 4.0 0.036 0.022 37.5630 39.7726 -0.0657 11.98 570 740 
0.710 4 4.00 4.00 4.0 4.0 0.027 0.007 38.6363 37.5630 0.0319 11.98 560 750 
0.711 4 4.00 4.00 4.0 4.0 0.029 0.016 -0.0000 39.7726 -0.0338 11.98 580 760 
0.712 4 4.00 4.00 4.0 4.0 0.031 0.020 38.6363 39.7726 -0.0338 11.98 560 740 
0.713 4 4.00 4.00 4.0 4.0 0.025 0.009 38.6363 39.7726 -0.0338 11.98 560 750 
0.714 4 4.00 4.00 4.0 4.0 0.027 0.022 38.6363 40.9779 -0.0697 11.98 560 730 
0.715 4 4.00 4.00 4.0 4.0 0.036 0.025 38.6363 39.7726 -0.0338 11.98 560 730 
0.716 4 4.00 4.00 4.0 4.0 0.025 0.009 38.6363 40.9779 -0.0697 11.93 590 760 
0.717 4 4.00 4.00 4.0 4.0 0.029 0.029 38.6363 40.9779 -0.0697 11.93 570 740 
0.718 4 4.00 4.00 4.0 4.0 0.031 0.027 38.6363 39.7726 -0.0338 11.93 570 740 
0.719 4 4.00 4.00 4.0 4.0 0.025 0.013 37.5630 40.9779 -0.1016 11.93 560 740 
0.720 4 4.00 4.00 4.0 4.0 0.027 0.011 37.5630 40.9779 -0.1016 11.93 560 750 
0.721 4 4.00 4.00 4.0 4.0 0.045 0.007 37.5630 39.7726 -0.0657 12.01 590 760 
0.722 4 4.00 4.00 4.0 4.0 0.029 0.016 38.6363 40.9779 -0.0697 12.01 570 740 
0.723 4 4.00 4.00 4.0 4.0 0.027 0.040 38.6363 39.7726 -0.0338 12.01 560 730 
0.724 4 4.00 4.00 4.0 4.0 0.027 0.013 38.6363 39.7726 -0.0338 12.01 570 740 
0.725 4 4.00 4.00 4.0 4.0 0.018 0.018 38.6363 39.7726 -0.0338 12.01 560 740 
0.726 4 4.00 4.00 4.0 4.0 0.022 0.022 37.5630 39.7726 -0.0657 11.98 590 770 
0.727 4 4.00 4.00 4.0 4.0 0.036 0.007 37.5630 39.7726 -0.0657 11.98 560 740 
0.728 4 4.00 4.00 4.0 4.0 0.025 0.018 38.6363 39.7726 -0.0338 11.98 560 740 
0.729 4 4.00 4.00 4.0 4.0 0.022 0.013 38.6363 40.9779 -0.0697 11.98 560 730 
0.730 4 4.00 4.00 4.0 4.0 0.033 0.009 38.6363 39.7726 -0.0338 11.98 560 730 
0.733 4 4.00 4.00 4.0 4.0 0.016 0.036 38.6363 38.6363 0.0000 11.99 590 760 
0.734 4 4.00 4.00 4.0 4.0 0.027 0.020 38.6363 39.7726 -0.0338 11.99 570 750 
0.734 4 4.00 4.00 4.0 4.0 0.018 0.036 38.6363 40.9779 -0.0697 11.99 570 740 
0.735 4 4.00 4.00 4.0 4.0 0.022 0.016 38.6363 40.9779 -0.0697 11.99 570 750 
0.736 4 4.00 4.00 4.0 4.0 0.029 0.016 38.6363 39.7726 -0.0338 11.99 560 730 
0.737 4 4.00 4.00 4.0 4.0 0.018 0.011 38.6363 40.9779 -0.0697 11.99 590 760 
0.738 4 4.00 4.00 4.0 4.0 0.033 0.009 38.6363 39.7726 -0.0338 11.99 570 750 
0.739 4 4.00 4.00 4.0 4.0 0.036 0.025 38.6363 40.9779 -0.0697 11.99 570 740 
0.740 4 4.00 4.00 4.0 4.0 0.020 0.025 38.6363 39.7726 -0.0338 11.99 570 750 
0.741 4 4.00 4.00 4.0 4.0 0.022 0.011 38.6363 40.9779 -0.0697 11.99 560 740 
0.742 4 4.00 4.00 4.0 4.0 0.025 0.011 37.5630 39.7726 -0.0657 11.98 590 770 
0.743 4 4.00 4.00 4.0 4.0 0.013 0.018 38.6363 39.7726 -0.0338 11.98 570 730 
0.744 4 4.00 4.00 4.0 4.0 0.033 0.007 38.6363 40.9779 -0.0697 11.98 560 730 
0.745 4 4.00 4.00 4.0 4.0 0.029 0.013 38.6363 38.6363 0.0000 11.98 560 740 
0.746 4 4.00 4.00 4.0 4.0 0.025 0.011 38.6363 40.9779 -0.0697 11.98 560 740 
0.747 4 4.00 4.00 4.0 4.0 0.031 0.018 38.6363 40.9779 -0.0697 11.96 590 760 
0.748 4 4.00 4.00 4.0 4.0 0.029 0.031 38.6363 39.7726 -0.0338 11.96 560 740 
0.749 4 4.00 4.00 4.0 4.0 0.020 0.018 38.6363 39.7726 -0.0338 11.96 570 750 
0.750 4 4.00 4.00 4.0 4.0 0.038 0.020 38.6363 40.9779 -0.0697 11.96 570 750 
0.751 4 4.00 4.00 4.0 4.0 0.029 0.036 38.6363 40.9779 -0.0697 11.96 570 730 
0.752 4 4.00 4.00 4.0 4.0 0.020 0.013 38.6363 40.9779 -0.0697 11.96 590 760 
0.753 4 4.00 4.00 4.0 4.0 0.031 0.025 38.6363 39.7726 -0.0338 11.96 570 740 
0.754 4 4.00 4.00 4.0 4.0 0.022 0.013 38.6363 34.6736 0.1179 11.96 570 740 
0.755 4 4.00 4.00 4.0 4.0 0.025 0.007 38.6363 39.7726 -0.0338 11.96 570 740 
0.756 4 4.00 4.00 4.0 4.0 0.042 0.033 38.6363 40.9779 -0.0697 11.96 560 740 
0.757 4 4.00 4.00 4.0 4.0 0.031 0.029 38.6363 40.9779 -0.0697 12.06 590 770 
0.758 4 4.00 4.00 4.0 4.0 0.020 0.009 38.6363 40.9779 -0.0697 12.06 570 740 
0.759 4 4.00 4.00 4.0 4.0 0.022 0.020 38.6363 39.7726 -0.0338 12.06 560 730 
0.760 4 4.00 4.00 4.0 4.0 0.016 0.011 37.5630 39.7726 -0.0657 12.06 560 740 
0.761 4 4.00 4.00 4.0 4.0 0.018 0.007 37.5630 38.6363 -0.0319 12.06 560 750 
0.762 4 4.00 4.00 4.0 4.0 0.033 0.018 38.6363 38.6363 0.0000 11.98 590 760 
0.763 4 4.00 4.00 4.0 4.0 0.018 0.022 38.6363 40.9779 -0.0697 11.98 570 740 
0.764 4 4.00 4.00 4.0 4.0 0.029 0.025 38.6363 40.9779 -0.0697 11.98 560 740 
0.765 4 4.00 4.00 4.0 4.0 0.029 0.031 38.6363 40.9779 -0.0697 11.98 570 750 
0.766 4 4.00 4.00 4.0 4.0 0.022 0.009 38.6363 39.7726 -0.0338 11.98 570 740 
0.767 4 4.00 4.00 4.0 4.0 0.022 0.020 38.6363 39.7726 -0.0338 11.91 590 760 
0.768 4 4.00 4.00 4.0 4.0 0.036 0.031 38.6363 39.7726 -0.0338 11.91 570 740 
0.769 4 4.00 4.00 4.0 4.0 0.025 0.011 38.6363 40.9779 -0.0697 11.91 570 740 
0.770 4 4.00 4.00 4.0 4.0 0.025 0.016 38.6363 39.7726 -0.0338 11.91 560 740 
0.771 4 4.00 4.00 4.0 4.0 0.033 0.013 38.6363 39.7726 -0.0338 11.91 560 740 
0.772 4 4.00 4.00 4.0 4.0 0.020 0.009 37.5630 40.9779 -0.1016 12.02 590 770 
0.773 4 4.00 4.00 4.0 4.0 0.031 0.038 38.6363 39.7726 -0.0338 12.02 560 730 
0.774 4 4.00 4.00 4.0 4.0 0.036 0.018 38.6363 40.9779 -0.0697 12.02 570 740 
0.775 4 4.00 4.00 4.0 4.0 0.018 0.011 38.6363 39.7726 -0.0338 12.02 570 740 
0.776 4 4.00 4.00 4.0 4.0 0.018 0.025 38.6363 40.9779 -0.0697 12.02 570 740 
0.777 4 4.00 4.00 4.0 4.0 0.018 0.007 37.5630 39.7726 -0.0657 11.98 590 760 
0.778 4 4.00 4.00 4.0 4.0 0.013 0.016 38.6363 39.7726 -0.0338 11.98 560 740 
0.779 4 4.00 4.00 4.0 4.0 0.029 0.018 37.5630 39.7726 -0.0657 11.98 570 750 
0.780 4 4.00 4.00 4.0 4.0 0.033 0.009 38.6363 39.7726 -0.0338 11.98 560 730 
0.781 4 4.00 4.00 4.0 4.0 0.022 0.031 38.6363 40.9779 -0.0697 11.98 570 740 
0.782 4 4.00 4.00 4.0 4.0 0.027 0.025 38.6363 40.9779 -0.0697 11.98 590 760 
0.783 4 4.00 4.00 4.0 4.0 0.029 0.009 38.6363 40.9779 -0.0697 11.98 570 740 
0.784 4 4.00 4.00 4.0 4.0 0.018 0.029 38.6363 40.9779 -0.0697 11.98 560 740 
0.785 4 4.00 4.00 4.0 4.0 0.033 0.029 38.6363 40.9779 -0.0697 11.98 570 740 
0.786 4 4.00 4.00 4.0 4.0 0.033 0.011 38.6363 40.9779 -0.0697 11.98 560 740 
0.787 4 4.00 4.00 4.0 4.0 0.020 0.013 38.6363 40.9779 -0.0697 11.99 590 760 
0.788 4 4.00 4.00 4.0 4.0 0.029 0.007 38.6363 39.7726 -0.0338 11.99 570 740 
0.789 4 4.00 4.00 4.0 4.0 0.027 0.013 38.6363 40.9779 -0.0697 11.99 570 740 
0.790 4 4.00 4.00 4.0 4.0 0.018 0.040 37.5630 39.7726 -0.0657 11.99 560 740 
0.791 4 4.00 4.00 4.0 4.0 0.040 0.013 38.6363 39.7726 -0.0338 11.99 570 740 
0.792 4 4.00 4.00 4.0 4.0 0.033 0.020 38.6363 39.7726 -0.0338 11.98 590 760 
0.793 4 4.00 4.00 4.0 4.0 0.020 0.022 38.6363 40.9779 -0.0697 11.98 570 740 
0.794 4 4.00 4.00 4.0 4.0 0.025 0.007 38.6363 39.7726 -0.0338 11.98 560 750 
0.795 4 4.00 4.00 4.0 4.0 0.022 0.013 37.5630 39.7726 -0.0657 11.98 570 740 
0.796 4 4.00 4.00 4.0 4.0 0.018 0.020 37.5630 40.9779 -0.1016 11.98 560 730 
0.797 4 4.00 4.00 4.0 4.0 0.036 0.011 38.6363 40.9779 -0.0697 11.96 590 760 
0.798 4 4.00 4.00 4.0 4.0 0.025 0.031 38.6363 39.7726 -0.0338 11.96 560 750 
0.799 4 4.00 4.00 4.0 4.0 0.027 0.016 38.6363 39.7726 -0.0338 11.96 570 750 
0.800 4 4.00 4.00 4.0 4.0 0.033 0.013 38.6363 40.9779 -0.0697 11.96 560 740 
0.801 4 4.00 4.00 4.0 4.0 0.025 0.040 38.6363 40.9779 -0.0697 11.96 570 750 
0.802 4 4.00 4.00 4.0 4.0 0.029 0.011 38.6363 40.9779 -0.0697 11.99 590 760 
0.803 4 4.00 4.00 4.0 4.0 0.036 0.016 38.6363 39.7726 -0.0338 11.99 570 740 
0.804 4 4.00 4.00 4.0 4.0 0.025 0.013 36.5478 40.9779 -0.1318 11.99 560 740 
0.805 4 4.00 4.00 4.0 4.0 0.031 0.007 38.6363 39.7726 -0.0338 11.99 570 750 
0.806 4 4.00 4.00 4.0 4.0 0.029 0.020 38.6363 39.7726 -0.0338 11.99 560 730 
0.807 4 4.00 4.00 4.0 4.0 0.020 0.029 37.5630 39.7726 -0.0657 11.98 590 760 
0.808 4 4.00 4.00 4.0 4.0 0.020 0.009 38.6363 39.7726 -0.0338 11.98 560 740 
0.809 4 4.00 4.00 4.0 4.0 0.042 0.018 38.6363 39.7726 -0.0338 11.98 560 750 
0.810 4 4.00 4.00 4.0 4.0 0.027 0.016 38.6363 39.7726 -0.0338 11.98 560 730 
0.811 4 4.00 4.00 4.0 4.0 0.025 0.009 38.6363 40.9779 -0.0697 11.98 560 730 
0.812 4 4.00 4.00 4.0 4.0 0.027 0.011 34.6736 38.6363 -0.1179 11.98 590 760 
0.813 4 4.00 4.00 4.0 4.0 0.016 0.013 38.6363 40.9779 -0.0697 11.98 570 750 
0.814 4 4.00 4.00 4.0 4.0 0.025 0.011 37.5630 40.9779 -0.1016 11.98 570 750 
0.815 4 4.00 4.00 4.0 4.0 0.031 0.029 38.6363 39.7726 -0.0338 11.98 560 740 
0.816 4 4.00 4.00 4.0 4.0 0.018 0.013 38.6363 40.9779 -0.0697 11.98 570 750 
0.817 4 4.00 4.00 4.0 4.0 0.016 0.016 38.6363 40.9779 -0.0697 12.02 590 760 
0.818 4 4.00 4.00 4.0 4.0 0.025 0.036 38.6363 40.9779 -0.0697 12.02 570 740 
0.819 4 4.00 4.00 4.0 4.0 0.016 0.007 38.6363 40.9779 -0.0697 12.02 570 740 
0.820 4 4.00 4.00 4.0 4.0 0.025 0.016 38.6363 39.7726 -0.0338 12.02 560 740 
0.821 4 4.00 4.00 4.0 4.0 0.029 0.007 38.6363 39.7726 -0.0338 12.02 560 740 
0.822 4 4.00 4.00 4.0 4.0 0.020 0.007 38.6363 39.7726 -0.0338 11.99 590 760 
0.823 4 4.00 4.00 4.0 4.0 0.025 0.038 38.6363 40.9779 -0.0697 11.99 560 750 
0.824 4 4.00 4.00 4.0 4.0 0.027 0.027 38.6363 40.9779 -0.0697 11.99 570 750 
0.825 4 4.00 4.00 4.0 4.0 0.016 0.013 37.5630 40.9779 -0.1016 11.99 560 730 
0.826 4 4.00 4.00 4.0 4.0 0.036 0.020 37.5630 39.7726 -0.0657 11.99 560 730 
0.827 4 4.00 4.00 4.0 4.0 0.036 0.013 37.5630 39.7726 -0.0657 11.91 590 760 
0.828 4 4.00 4.00 4.0 4.0 0.022 0.011 38.6363 39.7726 -0.0338 11.91 560 740 
0.829 4 4.00 4.00 4.0 4.0 0.027 0.020 38.6363 38.6363 0.0000 11.91 560 740 
0.830 4 4.00 4.00 4.0 4.0 0.027 0.011 37.5630 40.9779 -0.1016 11.91 570 740 
0.831 4 4.00 4.00 4.0 4.0 0.018 0.027 38.6363 40.9779 -0.0697 11.91 560 740 
0.832 4 4.00 4.00 4.0 4.0 0.036 0.031 38.6363 40.9779 -0.0697 11.88 590 760 
0.833 4 4.00 4.00 4.0 4.0 0.031 0.007 38.6363 39.7726 -0.0338 11.88 560 730 
0.834 4 4.00 4.00 4.0 4.0 0.029 0.029 38.6363 40.9779 -0.0697 11.88 570 740 
0.835 4 4.00 4.00 4.0 4.0 0.033 0.029 38.6363 40.9779 -0.0697 11.88 560 740 
0.836 4 4.00 4.00 4.0 4.0 0.029 0.009 38.6363 40.9779 -0.0697 11.88 560 730 
0.837 4 4.00 4.00 4.0 4.0 0.025 0.009 38.6363 42.2584 -0.1078 11.99 590 750 
0.838 4 4.00 4.00 4.0 4.0 0.038 0.007 38.6363 40.9779 -0.0697 11.99 560 750 
0.839 4 4.00 4.00 4.0 4.0 0.029 0.009 38.6363 40.9779 -0.0697 11.99 560 750 
0.840 4 4.00 4.00 4.0 4.0 0.025 0.036 38.6363 39.7726 -0.0338 11.99 570 750 
0.841 4 4.00 4.00 4.0 4.0 0.033 0.018 38.6363 40.9779 -0.0697 11.99 560 740 
0.842 4 4.00 4.00 4.0 4.0 0.020 0.022 38.6363 39.7726 -0.0338 11.98 590 770 
0.843 4 4.00 4.00 4.0 4.0 0.025 0.020 38.6363 40.9779 -0.0697 11.98 560 740 
0.844 4 4.00 4.00 4.0 4.0 0.042 0.007 38.6363 39.7726 -0.0338 11.98 570 740 
0.845 4 4.00 4.00 4.0 4.0 0.029 0.018 39.7726 39.7726 0.0000 11.98 570 740 
0.846 4 4.00 4.00 4.0 4.0 0.027 0.018 39.7726 39.7726 0.0000 11.98 560 750 
0.847 4 4.00 4.00 4.0 4.0 0.029 0.009 39.7726 40.9779 -0.0359 11.98 590 770 
0.848 4 4.00 4.00 4.0 4.0 0.018 0.025 38.6363 40.9779 -0.0697 11.98 560 740 
0.849 4 4.00 4.00 4.0 4.0 0.022 0.013 37.5630 39.7726 -0.0657 11.98 560 740 
0.850 4 4.00 4.00 4.0 4.0 0.031 0.002 38.6363 40.9779 -0.0697 11.98 570 750 
0.851 4 4.00 4.00 4.0 4.0 0.022 0.033 38.6363 40.9779 -0.0697 11.98 570 750 
0.852 4 4.00 4.00 4.0 4.0 0.022 0.016 38.6363 40.9779 -0.0697 11.93 590 760 
0.853 4 4.00 4.00 4.0 4.0 0.033 0.007 38.6363 39.7726 -0.0338 11.93 570 740 
0.854 4 4.00 4.00 4.0 4.0 0.020 0.013 38.6363 40.9779 -0.0697 11.93 560 740 
0.855 4 4.00 4.00 4.0 4.0 0.022 0.007 38.6363 39.7726 -0.0338 11.93 560 740 
0.856 4 4.00 4.00 4.0 4.0 0.036 0.022 38.6363 40.9779 -0.0697 11.93 560 740 
0.857 4 4.00 4.00 4.0 4.0 0.020 0.040 38.6363 40.9779 -0.0697 11.91 590 760 
0.858 4 4.00 4.00 4.0 4.0 0.025 0.011 38.6363 40.9779 -0.0697 11.91 560 750 
0.859 4 4.00 4.00 4.0 4.0 0.025 0.022 38.6363 39.7726 -0.0338 11.91 560 730 
0.860 4 4.00 4.00 4.0 4.0 0.020 0.018 37.5630 39.7726 -0.0657 11.91 560 730 
0.861 4 4.00 4.00 4.0 4.0 0.038 0.004 38.6363 39.7726 -0.0338 11.91 570 740 
0.862 4 4.00 4.00 4.0 4.0 0.033 0.009 38.6363 37.5630 0.0319 12.02 590 760 
0.863 4 4.00 4.00 4.0 4.0 0.022 0.013 38.6363 40.9779 -0.0697 12.02 560 740 
0.864 4 4.00 4.00 4.0 4.0 0.022 0.011 38.6363 40.9779 -0.0697 12.02 560 740 
0.865 4 4.00 4.00 4.0 4.0 0.020 0.027 37.5630 39.7726 -0.0657 12.02 570 750 
0.866 4 4.00 4.00 4.0 4.0 0.011 0.011 38.6363 40.9779 -0.0697 12.02 560 740 
0.867 4 4.00 4.00 4.0 4.0 0.033 0.009 39.7726 40.9779 -0.0359 11.99 590 760 
0.868 4 4.00 4.00 4.0 4.0 0.025 0.033 39.7726 40.9779 -0.0359 11.99 560 730 
0.869 4 4.00 4.00 4.0 4.0 0.022 0.013 38.6363 40.9779 -0.0697 11.99 560 740 
0.870 4 4.00 4.00 4.0 4.0 0.031 0.025 38.6363 40.9779 -0.0697 11.99 570 750 
0.871 4 4.00 4.00 4.0 4.0 0.022 0.011 38.6363 36.5478 0.0621 11.99 570 750 
0.872 4 4.00 4.00 4.0 4.0 0.018 0.007 38.6363 40.9779 -0.0697 12.01 590 760 
0.873 4 4.00 4.00 4.0 4.0 0.031 0.033 38.6363 40.9779 -0.0697 12.01 560 750 
0.874 4 4.00 4.00 4.0 4.0 0.027 0.022 38.6363 40.9779 -0.0697 12.01 560 740 
0.875 4 4.00 4.00 4.0 4.0 0.020 0.004 38.6363 40.9779 -0.0697 12.01 570 740 
