EESchema Schematic File Version 2
LIBS:power
LIBS:device
LIBS:transistors
LIBS:conn
LIBS:linear
LIBS:regul
LIBS:74xx
LIBS:cmos4000
LIBS:adc-dac
LIBS:memory
LIBS:xilinx
LIBS:special
LIBS:microcontrollers
LIBS:dsp
LIBS:microchip
LIBS:analog_switches
LIBS:motorola
LIBS:texas
LIBS:intel
LIBS:audio
LIBS:interface
LIBS:digital-audio
LIBS:philips
LIBS:display
LIBS:cypress
LIBS:siliconi
LIBS:opto
LIBS:atmel
LIBS:contrib
LIBS:valves
EELAYER 27 0
EELAYER END
$Descr A4 11693 8268
encoding utf-8
Sheet 1 1
Title "REGBOT connector base"
Date "29 oct 2015"
Rev ""
Comp "DTU"
Comment1 ""
Comment2 ""
Comment3 ""
Comment4 ""
$EndDescr
Wire Notes Line
	2750 3850 2750 5850
Wire Notes Line
	2750 5850 3700 5850
Wire Notes Line
	3700 5850 3700 3850
Wire Notes Line
	3700 3850 2750 3850
Text Notes 3200 5650 1    79   ~ 16
Pololu #1213
Text Label 3900 5700 0    79   ~ 0
FB
Wire Notes Line
	5550 3900 5550 5850
Wire Notes Line
	5550 5850 6750 5850
Wire Notes Line
	6750 5850 6750 3900
Wire Notes Line
	6750 3900 5550 3900
$Comp
L CONN_1 USB5V?
U 1 1 54885E27
P 6350 4000
F 0 "USB5V?" H 6430 4000 40  0000 L CNN
F 1 "CONN_1" H 6350 4055 30  0001 C CNN
F 2 "" H 6350 4000 60  0000 C CNN
F 3 "" H 6350 4000 60  0000 C CNN
	1    6350 4000
	0    1    1    0   
$EndComp
$Comp
L CONN_1 Vin
U 5 1 54885E3A
P 6750 4000
F 0 "Vin" H 6830 4000 40  0000 L CNN
F 1 "CONN_1" H 6750 4055 30  0001 C CNN
F 2 "" H 6750 4000 60  0000 C CNN
F 3 "" H 6750 4000 60  0000 C CNN
	5    6750 4000
	-1   0    0    1   
$EndComp
$Comp
L CONN_1 Agnd
U 1 1 54885E5D
P 6750 4100
F 0 "Agnd" H 6830 4100 40  0000 L CNN
F 1 "CONN_1" H 6750 4155 30  0001 C CNN
F 2 "" H 6750 4100 60  0000 C CNN
F 3 "" H 6750 4100 60  0000 C CNN
	1    6750 4100
	-1   0    0    1   
$EndComp
$Comp
L CONN_1 3.3
U 0 1 54885E6F
P 6750 4200
F 0 "3.3" H 6830 4200 40  0000 L CNN
F 1 "CONN_1" H 6750 4255 30  0001 C CNN
F 2 "" H 6750 4200 60  0000 C CNN
F 3 "" H 6750 4200 60  0000 C CNN
	0    6750 4200
	-1   0    0    1   
$EndComp
$Comp
L CONN_1 23_A9
U 0 1 54885E81
P 6750 4300
F 0 "23_A9" H 6830 4300 40  0000 L CNN
F 1 "CONN_1" H 6750 4355 30  0001 C CNN
F 2 "" H 6750 4300 60  0000 C CNN
F 3 "" H 6750 4300 60  0000 C CNN
	0    6750 4300
	-1   0    0    1   
$EndComp
$Comp
L CONN_1 22_enc_2A
U 0 1 54885EA0
P 6750 4400
F 0 "22_enc_2A" H 6830 4400 40  0000 L CNN
F 1 "aaa" H 6750 4455 30  0001 C CNN
F 2 "" H 6750 4400 60  0000 C CNN
F 3 "" H 6750 4400 60  0000 C CNN
	0    6750 4400
	-1   0    0    1   
$EndComp
$Comp
L CONN_1 21_enc_2B
U 0 1 54885EBE
P 6750 4500
F 0 "21_enc_2B" H 6830 4500 40  0000 L CNN
F 1 "CONN_1" H 6750 4555 30  0001 C CNN
F 2 "" H 6750 4500 60  0000 C CNN
F 3 "" H 6750 4500 60  0000 C CNN
	0    6750 4500
	-1   0    0    1   
$EndComp
$Comp
L CONN_1 20_enc_1A
U 0 1 54885ED4
P 6750 4600
F 0 "20_enc_1A" H 6830 4600 40  0000 L CNN
F 1 "CONN_1" H 6750 4655 30  0001 C CNN
F 2 "" H 6750 4600 60  0000 C CNN
F 3 "" H 6750 4600 60  0000 C CNN
	0    6750 4600
	-1   0    0    1   
$EndComp
$Comp
L CONN_1 19_enc_1B
U 0 1 54885F3A
P 6750 4700
F 0 "19_enc_1B" H 6830 4700 40  0000 L CNN
F 1 "CONN_1" H 6750 4755 30  0001 C CNN
F 2 "" H 6750 4700 60  0000 C CNN
F 3 "" H 6750 4700 60  0000 C CNN
	0    6750 4700
	-1   0    0    1   
$EndComp
$Comp
L CONN_1 18_port
U 0 1 54885F62
P 6750 4800
F 0 "18_port" H 6830 4800 40  0000 L CNN
F 1 "CONN_1" H 6750 4855 30  0001 C CNN
F 2 "" H 6750 4800 60  0000 C CNN
F 3 "" H 6750 4800 60  0000 C CNN
	0    6750 4800
	-1   0    0    1   
$EndComp
$Comp
L CONN_1 17_SDA0
U 0 1 54885F77
P 6750 4900
F 0 "17_SDA0" H 6830 4900 40  0000 L CNN
F 1 "CONN_1" H 6750 4955 30  0001 C CNN
F 2 "" H 6750 4900 60  0000 C CNN
F 3 "" H 6750 4900 60  0000 C CNN
	0    6750 4900
	-1   0    0    1   
$EndComp
$Comp
L CONN_1 16_SDC0
U 0 1 54885F8D
P 6750 5000
F 0 "16_SDC0" H 6830 5000 40  0000 L CNN
F 1 "CONN_1" H 6750 5055 30  0001 C CNN
F 2 "" H 6750 5000 60  0000 C CNN
F 3 "" H 6750 5000 60  0000 C CNN
	0    6750 5000
	-1   0    0    1   
$EndComp
$Comp
L CONN_1 15_M1_FB
U 0 1 54885FCD
P 6750 5100
F 0 "15_M1_FB" H 6830 5100 40  0000 L CNN
F 1 "CONN_1" H 6750 5155 30  0001 C CNN
F 2 "" H 6750 5100 60  0000 C CNN
F 3 "" H 6750 5100 60  0000 C CNN
	0    6750 5100
	-1   0    0    1   
$EndComp
$Comp
L CONN_1 14_M2_FB
U 0 1 54885FE0
P 6750 5200
F 0 "14_M2_FB" H 6830 5200 40  0000 L CNN
F 1 "CONN_1" H 6750 5255 30  0001 C CNN
F 2 "" H 6750 5200 60  0000 C CNN
F 3 "" H 6750 5200 60  0000 C CNN
	0    6750 5200
	-1   0    0    1   
$EndComp
$Comp
L CONN_1 13_LED
U 0 1 54885FF3
P 6750 5300
F 0 "13_LED" H 6830 5300 40  0000 L CNN
F 1 "CONN_1" H 6750 5355 30  0001 C CNN
F 2 "" H 6750 5300 60  0000 C CNN
F 3 "" H 6750 5300 60  0000 C CNN
	0    6750 5300
	-1   0    0    1   
$EndComp
$Comp
L CONN_1 A14/DAC
U 1 1 5488600E
P 6450 5800
F 0 "A14/DAC" H 6530 5800 40  0000 L CNN
F 1 "CONN_1" H 6450 5855 30  0001 C CNN
F 2 "" H 6450 5800 60  0000 C CNN
F 3 "" H 6450 5800 60  0000 C CNN
	1    6450 5800
	0    -1   -1   0   
$EndComp
$Comp
L CONN_1 Program
U 1 1 54886040
P 6300 5800
F 0 "Program" H 6380 5800 40  0000 L CNN
F 1 "CONN_1" H 6300 5855 30  0001 C CNN
F 2 "" H 6300 5800 60  0000 C CNN
F 3 "" H 6300 5800 60  0000 C CNN
	1    6300 5800
	0    -1   -1   0   
$EndComp
$Comp
L CONN_1 GND
U 1 1 54886052
P 6150 5800
F 0 "GND" H 6230 5800 40  0000 L CNN
F 1 "CONN_1" H 6150 5855 30  0001 C CNN
F 2 "" H 6150 5800 60  0000 C CNN
F 3 "" H 6150 5800 60  0000 C CNN
	1    6150 5800
	0    -1   -1   0   
$EndComp
$Comp
L CONN_1 3.3V
U 1 1 54886064
P 6000 5800
F 0 "3.3V" H 6080 5800 40  0000 L CNN
F 1 "CONN_1" H 6000 5855 30  0001 C CNN
F 2 "" H 6000 5800 60  0000 C CNN
F 3 "" H 6000 5800 60  0000 C CNN
	1    6000 5800
	0    -1   -1   0   
$EndComp
$Comp
L CONN_1 Vbat
U 0 1 5488607B
P 5850 5800
F 0 "Vbat" H 5930 5800 40  0000 L CNN
F 1 "CONN_1" H 5850 5855 30  0001 C CNN
F 2 "" H 5850 5800 60  0000 C CNN
F 3 "" H 5850 5800 60  0000 C CNN
	0    5850 5800
	0    -1   -1   0   
$EndComp
$Comp
L CONN_1 12_port
U 0 1 5488608D
P 5550 5300
F 0 "12_port" H 5630 5300 40  0000 L CNN
F 1 "CONN_1" H 5550 5355 30  0001 C CNN
F 2 "" H 5550 5300 60  0000 C CNN
F 3 "" H 5550 5300 60  0000 C CNN
	0    5550 5300
	1    0    0    -1  
$EndComp
$Comp
L CONN_1 11_START
U 0 1 548860DB
P 5550 5200
F 0 "11_START" H 5630 5200 40  0000 L CNN
F 1 "CONN_1" H 5550 5255 30  0001 C CNN
F 2 "" H 5550 5200 60  0000 C CNN
F 3 "" H 5550 5200 60  0000 C CNN
	0    5550 5200
	1    0    0    -1  
$EndComp
$Comp
L CONN_1 10_M2_D2
U 0 1 548860F4
P 5550 5100
F 0 "10_M2_D2" H 5630 5100 40  0000 L CNN
F 1 "CONN_1" H 5550 5155 30  0001 C CNN
F 2 "" H 5550 5100 60  0000 C CNN
F 3 "" H 5550 5100 60  0000 C CNN
	0    5550 5100
	1    0    0    -1  
$EndComp
$Comp
L CONN_1 9_M2_PWM
U 0 1 5488610D
P 5550 5000
F 0 "9_M2_PWM" H 5630 5000 40  0000 L CNN
F 1 "CONN_1" H 5550 5055 30  0001 C CNN
F 2 "" H 5550 5000 60  0000 C CNN
F 3 "" H 5550 5000 60  0000 C CNN
	0    5550 5000
	1    0    0    -1  
$EndComp
$Comp
L CONN_1 8_M2_DIR
U 0 1 5488612A
P 5550 4900
F 0 "8_M2_DIR" H 5630 4900 40  0000 L CNN
F 1 "CONN_1" H 5550 4955 30  0001 C CNN
F 2 "" H 5550 4900 60  0000 C CNN
F 3 "" H 5550 4900 60  0000 C CNN
	0    5550 4900
	1    0    0    -1  
$EndComp
$Comp
L CONN_1 7_SLEW
U 0 1 5488614D
P 5550 4800
F 0 "7_SLEW" H 5630 4800 40  0000 L CNN
F 1 "CONN_1" H 5550 4855 30  0001 C CNN
F 2 "" H 5550 4800 60  0000 C CNN
F 3 "" H 5550 4800 60  0000 C CNN
	0    5550 4800
	1    0    0    -1  
$EndComp
$Comp
L CONN_1 6_port
U 0 1 5488615F
P 5550 4700
F 0 "6_port" H 5630 4700 40  0000 L CNN
F 1 "CONN_1" H 5550 4755 30  0001 C CNN
F 2 "" H 5550 4700 60  0000 C CNN
F 3 "" H 5550 4700 60  0000 C CNN
	0    5550 4700
	1    0    0    -1  
$EndComp
$Comp
L CONN_1 5_port
U 0 1 54886175
P 5550 4600
F 0 "5_port" H 5630 4600 40  0000 L CNN
F 1 "CONN_1" H 5550 4655 30  0001 C CNN
F 2 "" H 5550 4600 60  0000 C CNN
F 3 "" H 5550 4600 60  0000 C CNN
	0    5550 4600
	1    0    0    -1  
$EndComp
$Comp
L CONN_1 4_M1_D2
U 0 1 54886187
P 5550 4500
F 0 "4_M1_D2" H 5630 4500 40  0000 L CNN
F 1 "CONN_1" H 5550 4555 30  0001 C CNN
F 2 "" H 5550 4500 60  0000 C CNN
F 3 "" H 5550 4500 60  0000 C CNN
	0    5550 4500
	1    0    0    -1  
$EndComp
$Comp
L CONN_1 3_M1_PWM
U 0 1 54886199
P 5550 4400
F 0 "3_M1_PWM" H 5630 4400 40  0000 L CNN
F 1 "CONN_1" H 5550 4455 30  0001 C CNN
F 2 "" H 5550 4400 60  0000 C CNN
F 3 "" H 5550 4400 60  0000 C CNN
	0    5550 4400
	1    0    0    -1  
$EndComp
$Comp
L CONN_1 2_M1_DIR
U 0 1 548861AE
P 5550 4300
F 0 "2_M1_DIR" H 5630 4300 40  0000 L CNN
F 1 "CONN_1" H 5550 4355 30  0001 C CNN
F 2 "" H 5550 4300 60  0000 C CNN
F 3 "" H 5550 4300 60  0000 C CNN
	0    5550 4300
	1    0    0    -1  
$EndComp
$Comp
L CONN_1 1_TX1
U 0 1 548861CC
P 5550 4200
F 0 "1_TX1" H 5630 4200 40  0000 L CNN
F 1 "CONN_1" H 5550 4255 30  0001 C CNN
F 2 "" H 5550 4200 60  0000 C CNN
F 3 "" H 5550 4200 60  0000 C CNN
	0    5550 4200
	1    0    0    -1  
$EndComp
$Comp
L CONN_1 0_RX1
U 0 1 548861DE
P 5550 4100
F 0 "0_RX1" H 5630 4100 40  0000 L CNN
F 1 "CONN_1" H 5550 4155 30  0001 C CNN
F 2 "" H 5550 4100 60  0000 C CNN
F 3 "" H 5550 4100 60  0000 C CNN
	0    5550 4100
	1    0    0    -1  
$EndComp
$Comp
L CONN_1 GND
U 1 1 548861F0
P 5550 4000
F 0 "GND" H 5630 4000 40  0000 L CNN
F 1 "CONN_1" H 5550 4055 30  0001 C CNN
F 2 "" H 5550 4000 60  0000 C CNN
F 3 "" H 5550 4000 60  0000 C CNN
	1    5550 4000
	1    0    0    -1  
$EndComp
Text Notes 6150 5350 1    79   ~ 0
Teensy 3.1 (top view)\n
$Comp
L CONN_1 1_12V_out
U 0 1 5488626B
P 3700 4000
F 0 "1_12V_out" H 3780 4000 40  0000 L CNN
F 1 "CONN_1" H 3700 4055 30  0001 C CNN
F 2 "" H 3700 4000 60  0000 C CNN
F 3 "" H 3700 4000 60  0000 C CNN
	0    3700 4000
	-1   0    0    1   
$EndComp
$Comp
L CONN_1 2_GND
U 0 1 5488627D
P 3700 4100
F 0 "2_GND" H 3780 4100 40  0000 L CNN
F 1 "CONN_1" H 3700 4155 30  0001 C CNN
F 2 "" H 3700 4100 60  0000 C CNN
F 3 "" H 3700 4100 60  0000 C CNN
	0    3700 4100
	-1   0    0    1   
$EndComp
$Comp
L CONN_1 3_VDD
U 3 1 5488628F
P 3700 4200
F 0 "3_VDD" H 3780 4200 40  0000 L CNN
F 1 "CONN_1" H 3700 4255 30  0001 C CNN
F 2 "" H 3700 4200 60  0000 C CNN
F 3 "" H 3700 4200 60  0000 C CNN
	3    3700 4200
	-1   0    0    1   
$EndComp
$Comp
L CONN_1 4_IN2
U 0 1 548862A1
P 3700 4300
F 0 "4_IN2" H 3780 4300 40  0000 L CNN
F 1 "CONN_1" H 3700 4355 30  0001 C CNN
F 2 "" H 3700 4300 60  0000 C CNN
F 3 "" H 3700 4300 60  0000 C CNN
	0    3700 4300
	-1   0    0    1   
$EndComp
$Comp
L CONN_1 5_IN1
U 0 1 548862C7
P 3700 4400
F 0 "5_IN1" H 3780 4400 40  0000 L CNN
F 1 "CONN_1" H 3700 4455 30  0001 C CNN
F 2 "" H 3700 4400 60  0000 C CNN
F 3 "" H 3700 4400 60  0000 C CNN
	0    3700 4400
	-1   0    0    1   
$EndComp
$Comp
L CONN_1 6_D2
U 0 1 548862E3
P 3700 4500
F 0 "6_D2" H 3780 4500 40  0000 L CNN
F 1 "CONN_1" H 3700 4555 30  0001 C CNN
F 2 "" H 3700 4500 60  0000 C CNN
F 3 "" H 3700 4500 60  0000 C CNN
	0    3700 4500
	-1   0    0    1   
$EndComp
$Comp
L CONN_1 7_D1
U 0 1 54886313
P 3700 4600
F 0 "7_D1" H 3780 4600 40  0000 L CNN
F 1 "CONN_1" H 3700 4655 30  0001 C CNN
F 2 "" H 3700 4600 60  0000 C CNN
F 3 "" H 3700 4600 60  0000 C CNN
	0    3700 4600
	-1   0    0    1   
$EndComp
$Comp
L CONN_1 8_SF
U 0 1 5488632A
P 3700 4700
F 0 "8_SF" H 3780 4700 40  0000 L CNN
F 1 "CONN_1" H 3700 4755 30  0001 C CNN
F 2 "" H 3700 4700 60  0000 C CNN
F 3 "" H 3700 4700 60  0000 C CNN
	0    3700 4700
	-1   0    0    1   
$EndComp
$Comp
L CONN_1 9_M1_FB
U 0 1 5488633C
P 3700 4800
F 0 "9_M1_FB" H 3780 4800 40  0000 L CNN
F 1 "CONN_1" H 3700 4855 30  0001 C CNN
F 2 "" H 3700 4800 60  0000 C CNN
F 3 "" H 3700 4800 60  0000 C CNN
	0    3700 4800
	-1   0    0    1   
$EndComp
$Comp
L CONN_1 10_EN
U 0 1 5488634E
P 3700 4900
F 0 "10_EN" H 3780 4900 40  0000 L CNN
F 1 "CONN_1" H 3700 4955 30  0001 C CNN
F 2 "" H 3700 4900 60  0000 C CNN
F 3 "" H 3700 4900 60  0000 C CNN
	0    3700 4900
	-1   0    0    1   
$EndComp
$Comp
L CONN_1 11_SLEW
U 0 1 54886365
P 3700 5000
F 0 "11_SLEW" H 3780 5000 40  0000 L CNN
F 1 "CONN_1" H 3700 5055 30  0001 C CNN
F 2 "" H 3700 5000 60  0000 C CNN
F 3 "" H 3700 5000 60  0000 C CNN
	0    3700 5000
	-1   0    0    1   
$EndComp
$Comp
L CONN_1 12_INV
U 0 1 54886377
P 3700 5100
F 0 "12_INV" H 3780 5100 40  0000 L CNN
F 1 "CONN_1" H 3700 5155 30  0001 C CNN
F 2 "" H 3700 5100 60  0000 C CNN
F 3 "" H 3700 5100 60  0000 C CNN
	0    3700 5100
	-1   0    0    1   
$EndComp
$Comp
L CONN_1 13_M2_IN2
U 0 1 54886389
P 3700 5200
F 0 "13_M2_IN2" H 3780 5200 40  0000 L CNN
F 1 "CONN_1" H 3700 5255 30  0001 C CNN
F 2 "" H 3700 5200 60  0000 C CNN
F 3 "" H 3700 5200 60  0000 C CNN
	0    3700 5200
	-1   0    0    1   
$EndComp
$Comp
L CONN_1 14_M2_IN1
U 0 1 548863A0
P 3700 5300
F 0 "14_M2_IN1" H 3780 5300 40  0000 L CNN
F 1 "CONN_1" H 3700 5355 30  0001 C CNN
F 2 "" H 3700 5300 60  0000 C CNN
F 3 "" H 3700 5300 60  0000 C CNN
	0    3700 5300
	-1   0    0    1   
$EndComp
$Comp
L CONN_1 15_M2_D2
U 0 1 548863B3
P 3700 5400
F 0 "15_M2_D2" H 3780 5400 40  0000 L CNN
F 1 "CONN_1" H 3700 5455 30  0001 C CNN
F 2 "" H 3700 5400 60  0000 C CNN
F 3 "" H 3700 5400 60  0000 C CNN
	0    3700 5400
	-1   0    0    1   
$EndComp
$Comp
L CONN_1 16_M2_D1
U 0 1 548863DD
P 3700 5500
F 0 "16_M2_D1" H 3780 5500 40  0000 L CNN
F 1 "CONN_1" H 3700 5555 30  0001 C CNN
F 2 "" H 3700 5500 60  0000 C CNN
F 3 "" H 3700 5500 60  0000 C CNN
	0    3700 5500
	-1   0    0    1   
$EndComp
$Comp
L CONN_1 17_M2_SF
U 0 1 548863F8
P 3700 5600
F 0 "17_M2_SF" H 3780 5600 40  0000 L CNN
F 1 "CONN_1" H 3700 5655 30  0001 C CNN
F 2 "" H 3700 5600 60  0000 C CNN
F 3 "" H 3700 5600 60  0000 C CNN
	0    3700 5600
	-1   0    0    1   
$EndComp
$Comp
L CONN_1 18_M2_FB
U 0 1 5488640D
P 3700 5700
F 0 "18_M2_FB" H 3780 5700 40  0000 L CNN
F 1 "CONN_1" H 3700 5755 30  0001 C CNN
F 2 "" H 3700 5700 60  0000 C CNN
F 3 "" H 3700 5700 60  0000 C CNN
	0    3700 5700
	-1   0    0    1   
$EndComp
$Comp
L CONN_1 M2
U 0 1 5488641F
P 2750 4950
F 0 "M2" H 2830 4950 40  0000 L CNN
F 1 "CONN_1" H 2750 5005 30  0001 C CNN
F 2 "" H 2750 4950 60  0000 C CNN
F 3 "" H 2750 4950 60  0000 C CNN
	0    2750 4950
	1    0    0    -1  
$EndComp
$Comp
L CONN_1 M2
U 0 1 5488644E
P 2750 4850
F 0 "M2" H 2830 4850 40  0000 L CNN
F 1 "CONN_1" H 2750 4905 30  0001 C CNN
F 2 "" H 2750 4850 60  0000 C CNN
F 3 "" H 2750 4850 60  0000 C CNN
	0    2750 4850
	1    0    0    -1  
$EndComp
$Comp
L CONN_1 Vin
U 12 1 54886460
P 2750 4700
F 0 "Vin" H 2830 4700 40  0000 L CNN
F 1 "CONN_1" H 2750 4755 30  0001 C CNN
F 2 "" H 2750 4700 60  0000 C CNN
F 3 "" H 2750 4700 60  0000 C CNN
	12   2750 4700
	1    0    0    -1  
$EndComp
$Comp
L CONN_1 GND
U 1 1 5488647D
P 2750 4600
F 0 "GND" H 2830 4600 40  0000 L CNN
F 1 "CONN_1" H 2750 4655 30  0001 C CNN
F 2 "" H 2750 4600 60  0000 C CNN
F 3 "" H 2750 4600 60  0000 C CNN
	1    2750 4600
	1    0    0    -1  
$EndComp
$Comp
L CONN_1 M1
U 0 1 5488648F
P 2750 4450
F 0 "M1" H 2830 4450 40  0000 L CNN
F 1 "CONN_1" H 2750 4505 30  0001 C CNN
F 2 "" H 2750 4450 60  0000 C CNN
F 3 "" H 2750 4450 60  0000 C CNN
	0    2750 4450
	1    0    0    -1  
$EndComp
$Comp
L CONN_1 M1
U 0 1 548864A1
P 2750 4350
F 0 "M1" H 2830 4350 40  0000 L CNN
F 1 "CONN_1" H 2750 4405 30  0001 C CNN
F 2 "" H 2750 4350 60  0000 C CNN
F 3 "" H 2750 4350 60  0000 C CNN
	0    2750 4350
	1    0    0    -1  
$EndComp
$Comp
L CONN_1 W
U 0 1 548864BF
P 2000 3500
F 0 "W" H 2080 3500 40  0000 L CNN
F 1 "CONN_1" H 2000 3555 30  0001 C CNN
F 2 "" H 2000 3500 60  0000 C CNN
F 3 "" H 2000 3500 60  0000 C CNN
	0    2000 3500
	-1   0    0    1   
$EndComp
$Comp
L CONN_1 Y
U 0 1 548864F2
P 2000 3600
F 0 "Y" H 2080 3600 40  0000 L CNN
F 1 "CONN_1" H 2000 3655 30  0001 C CNN
F 2 "" H 2000 3600 60  0000 C CNN
F 3 "" H 2000 3600 60  0000 C CNN
	0    2000 3600
	-1   0    0    1   
$EndComp
$Comp
L CONN_1 Green
U 0 1 54886516
P 2000 3800
F 0 "Green" H 2080 3800 40  0000 L CNN
F 1 "CONN_1" H 2000 3855 30  0001 C CNN
F 2 "" H 2000 3800 60  0000 C CNN
F 3 "" H 2000 3800 60  0000 C CNN
	0    2000 3800
	-1   0    0    1   
$EndComp
$Comp
L CONN_1 Black
U 0 1 54886528
P 2000 3900
F 0 "Black" H 2080 3900 40  0000 L CNN
F 1 "CONN_1" H 2000 3955 30  0001 C CNN
F 2 "" H 2000 3900 60  0000 C CNN
F 3 "" H 2000 3900 60  0000 C CNN
	0    2000 3900
	-1   0    0    1   
$EndComp
$Comp
L CONN_1 Red
U 0 1 5488653D
P 2000 4000
F 0 "Red" H 2080 4000 40  0000 L CNN
F 1 "CONN_1" H 2000 4055 30  0001 C CNN
F 2 "" H 2000 4000 60  0000 C CNN
F 3 "" H 2000 4000 60  0000 C CNN
	0    2000 4000
	-1   0    0    1   
$EndComp
$Comp
L CONN_1 W
U 0 1 54886595
P 2000 5350
F 0 "W" H 2080 5350 40  0000 L CNN
F 1 "CONN_1" H 2000 5405 30  0001 C CNN
F 2 "" H 2000 5350 60  0000 C CNN
F 3 "" H 2000 5350 60  0000 C CNN
	0    2000 5350
	-1   0    0    1   
$EndComp
$Comp
L CONN_1 Y
U 0 1 5488659B
P 2000 5450
F 0 "Y" H 2080 5450 40  0000 L CNN
F 1 "CONN_1" H 2000 5505 30  0001 C CNN
F 2 "" H 2000 5450 60  0000 C CNN
F 3 "" H 2000 5450 60  0000 C CNN
	0    2000 5450
	-1   0    0    1   
$EndComp
$Comp
L CONN_1 Green
U 0 1 548865A7
P 2000 5650
F 0 "Green" H 2080 5650 40  0000 L CNN
F 1 "CONN_1" H 2000 5705 30  0001 C CNN
F 2 "" H 2000 5650 60  0000 C CNN
F 3 "" H 2000 5650 60  0000 C CNN
	0    2000 5650
	-1   0    0    1   
$EndComp
$Comp
L CONN_1 Black
U 0 1 548865AD
P 2000 5750
F 0 "Black" H 2080 5750 40  0000 L CNN
F 1 "CONN_1" H 2000 5805 30  0001 C CNN
F 2 "" H 2000 5750 60  0000 C CNN
F 3 "" H 2000 5750 60  0000 C CNN
	0    2000 5750
	-1   0    0    1   
$EndComp
$Comp
L CONN_1 Red
U 0 1 548865B3
P 2000 5850
F 0 "Red" H 2080 5850 40  0000 L CNN
F 1 "CONN_1" H 2000 5905 30  0001 C CNN
F 2 "" H 2000 5850 60  0000 C CNN
F 3 "" H 2000 5850 60  0000 C CNN
	0    2000 5850
	-1   0    0    1   
$EndComp
Text Notes 2400 3150 2    79   ~ 0
Left motor\npololu 25Dx48L
Text Notes 2200 6050 2    79   ~ 0
Right motor
Wire Wire Line
	2150 4000 2250 4000
Wire Wire Line
	2250 4450 2600 4450
Wire Wire Line
	2150 3900 2300 3900
Wire Wire Line
	2300 4350 2600 4350
Wire Wire Line
	2600 4850 2350 4850
Wire Wire Line
	2350 4850 2350 5750
Wire Wire Line
	2350 5750 2150 5750
Wire Wire Line
	1450 4950 2600 4950
Wire Wire Line
	2400 5850 2150 5850
$Comp
L GND #PWR?
U 1 1 54886621
P 4400 4150
F 0 "#PWR?" H 4400 4150 30  0001 C CNN
F 1 "GND" H 4400 4080 30  0001 C CNN
F 2 "" H 4400 4150 60  0000 C CNN
F 3 "" H 4400 4150 60  0000 C CNN
	1    4400 4150
	1    0    0    -1  
$EndComp
$Comp
L GND #PWR?
U 1 1 54886645
P 2450 4000
F 0 "#PWR?" H 2450 4000 30  0001 C CNN
F 1 "GND" H 2450 3930 30  0001 C CNN
F 2 "" H 2450 4000 60  0000 C CNN
F 3 "" H 2450 4000 60  0000 C CNN
	1    2450 4000
	1    0    0    -1  
$EndComp
$Comp
L GND #PWR?
U 1 1 54886652
P 2250 5650
F 0 "#PWR?" H 2250 5650 30  0001 C CNN
F 1 "GND" H 2250 5580 30  0001 C CNN
F 2 "" H 2250 5650 60  0000 C CNN
F 3 "" H 2250 5650 60  0000 C CNN
	1    2250 5650
	1    0    0    -1  
$EndComp
Wire Wire Line
	2250 5650 2150 5650
Wire Wire Line
	2150 3800 2450 3800
Wire Wire Line
	2450 3800 2450 4000
$Comp
L CONN_1 +5V
U 1 1 54886687
P 4600 2650
F 0 "+5V" H 4680 2650 40  0000 L CNN
F 1 "CONN_1" H 4600 2705 30  0001 C CNN
F 2 "" H 4600 2650 60  0000 C CNN
F 3 "" H 4600 2650 60  0000 C CNN
	1    4600 2650
	0    -1   -1   0   
$EndComp
$Comp
L CONN_1 GND
U 1 1 54886699
P 4500 2650
F 0 "GND" H 4580 2650 40  0000 L CNN
F 1 "CONN_1" H 4500 2705 30  0001 C CNN
F 2 "" H 4500 2650 60  0000 C CNN
F 3 "" H 4500 2650 60  0000 C CNN
	1    4500 2650
	0    -1   -1   0   
$EndComp
$Comp
L CONN_1 Vin
U 12 1 548866AB
P 4400 2650
F 0 "Vin" H 4480 2650 40  0000 L CNN
F 1 "CONN_1" H 4400 2705 30  0001 C CNN
F 2 "" H 4400 2650 60  0000 C CNN
F 3 "" H 4400 2650 60  0000 C CNN
	12   4400 2650
	0    -1   -1   0   
$EndComp
$Comp
L CONN_1 SHDN
U 1 1 548866BD
P 4300 2650
F 0 "SHDN" H 4380 2650 40  0000 L CNN
F 1 "CONN_1" H 4300 2705 30  0001 C CNN
F 2 "" H 4300 2650 60  0000 C CNN
F 3 "" H 4300 2650 60  0000 C CNN
	1    4300 2650
	0    -1   -1   0   
$EndComp
Wire Notes Line
	4200 2650 4700 2650
Wire Notes Line
	4700 2650 4700 1800
Wire Notes Line
	4700 1800 4200 1800
Wire Notes Line
	4200 1800 4200 2650
Text Notes 4350 2400 1    79   ~ 0
5V buck\nboost\npololu #2121
$Comp
L GND #PWR?
U 1 1 548866EF
P 4500 3100
F 0 "#PWR?" H 4500 3100 30  0001 C CNN
F 1 "GND" H 4500 3030 30  0001 C CNN
F 2 "" H 4500 3100 60  0000 C CNN
F 3 "" H 4500 3100 60  0000 C CNN
	1    4500 3100
	1    0    0    -1  
$EndComp
Wire Wire Line
	4500 2800 4500 3100
Wire Wire Line
	4600 2800 4600 3350
Wire Wire Line
	850  3350 6900 3350
Wire Wire Line
	2600 3350 2600 4150
Wire Wire Line
	2600 3700 2150 3700
Wire Wire Line
	2600 4150 2450 4150
Wire Wire Line
	2450 4150 2450 5550
Wire Wire Line
	2450 5550 2150 5550
Connection ~ 2600 3700
$Comp
L DIODE D1
U 1 1 54886762
P 5050 2250
F 0 "D1" H 5050 2350 40  0000 C CNN
F 1 "DIODE" H 5050 2150 40  0000 C CNN
F 2 "~" H 5050 2250 60  0000 C CNN
F 3 "~" H 5050 2250 60  0000 C CNN
	1    5050 2250
	0    1    1    0   
$EndComp
$Comp
L DIODE D2
U 1 1 5488676F
P 5350 2250
F 0 "D2" H 5350 2350 40  0000 C CNN
F 1 "DIODE" H 5350 2150 40  0000 C CNN
F 2 "~" H 5350 2250 60  0000 C CNN
F 3 "~" H 5350 2250 60  0000 C CNN
	1    5350 2250
	0    1    1    0   
$EndComp
Wire Wire Line
	5350 2450 5050 2450
Wire Wire Line
	5050 2450 5050 2950
Wire Wire Line
	5050 2950 4400 2950
Wire Wire Line
	4400 2950 4400 2800
Wire Wire Line
	1950 4700 2750 4700
$Comp
L SW_PUSH SW1
U 1 1 548867F8
P 3450 2900
F 0 "SW1" H 3600 3010 50  0000 C CNN
F 1 "PWR_reboot" H 3450 2820 50  0000 C CNN
F 2 "~" H 3450 2900 60  0000 C CNN
F 3 "~" H 3450 2900 60  0000 C CNN
	1    3450 2900
	1    0    0    -1  
$EndComp
Wire Wire Line
	3750 2900 4300 2900
Wire Wire Line
	4300 3800 4300 2800
$Comp
L GND #PWR?
U 1 1 54886838
P 2900 3050
F 0 "#PWR?" H 2900 3050 30  0001 C CNN
F 1 "GND" H 2900 2980 30  0001 C CNN
F 2 "" H 2900 3050 60  0000 C CNN
F 3 "" H 2900 3050 60  0000 C CNN
	1    2900 3050
	1    0    0    -1  
$EndComp
Wire Wire Line
	3150 2900 2900 2900
Wire Wire Line
	2900 2550 2900 3050
Wire Wire Line
	5350 2050 5350 1900
Wire Wire Line
	5350 1900 6350 1900
Wire Wire Line
	6350 1900 6350 3850
$Comp
L CONN_1 1_GND
U 0 1 548868C6
P 8300 4700
F 0 "1_GND" H 8380 4700 40  0000 L CNN
F 1 "CONN_1" H 8300 4755 30  0001 C CNN
F 2 "" H 8300 4700 60  0000 C CNN
F 3 "" H 8300 4700 60  0000 C CNN
	0    8300 4700
	1    0    0    -1  
$EndComp
$Comp
L CONN_1 2_3.3V
U 0 1 548868D8
P 8300 4800
F 0 "2_3.3V" H 8380 4800 40  0000 L CNN
F 1 "CONN_1" H 8300 4855 30  0001 C CNN
F 2 "" H 8300 4800 60  0000 C CNN
F 3 "" H 8300 4800 60  0000 C CNN
	0    8300 4800
	1    0    0    -1  
$EndComp
$Comp
L CONN_1 3_SDA
U 0 1 548868EA
P 8300 4900
F 0 "3_SDA" H 8380 4900 40  0000 L CNN
F 1 "CONN_1" H 8300 4955 30  0001 C CNN
F 2 "" H 8300 4900 60  0000 C CNN
F 3 "" H 8300 4900 60  0000 C CNN
	0    8300 4900
	1    0    0    -1  
$EndComp
$Comp
L CONN_1 4_SCL
U 0 1 548868FC
P 8300 5000
F 0 "4_SCL" H 8380 5000 40  0000 L CNN
F 1 "CONN_1" H 8300 5055 30  0001 C CNN
F 2 "" H 8300 5000 60  0000 C CNN
F 3 "" H 8300 5000 60  0000 C CNN
	0    8300 5000
	1    0    0    -1  
$EndComp
Wire Notes Line
	8300 4550 8300 5950
Wire Notes Line
	8300 5950 9100 5950
Wire Notes Line
	9000 5950 9000 4550
Wire Notes Line
	9100 4550 8300 4550
Text Notes 9050 5650 1    79   ~ 0
MPU-9150
Wire Wire Line
	8150 5000 6900 5000
Wire Wire Line
	8150 4900 6900 4900
Wire Wire Line
	8150 4800 7950 4800
Wire Wire Line
	7950 4200 7950 6300
Wire Wire Line
	7950 4200 6900 4200
$Comp
L GND #PWR?
U 1 1 54886A03
P 8600 4350
F 0 "#PWR?" H 8600 4350 30  0001 C CNN
F 1 "GND" H 8600 4280 30  0001 C CNN
F 2 "" H 8600 4350 60  0000 C CNN
F 3 "" H 8600 4350 60  0000 C CNN
	1    8600 4350
	1    0    0    -1  
$EndComp
Wire Wire Line
	8600 4350 8600 4250
Wire Wire Line
	8600 4250 8050 4250
Wire Wire Line
	8050 4250 8050 4700
Wire Wire Line
	8050 4700 8150 4700
Wire Wire Line
	6900 4400 7750 4400
Wire Wire Line
	7750 4400 7750 6850
Wire Wire Line
	7750 6850 2500 6850
Wire Wire Line
	2500 6850 2500 5450
Wire Wire Line
	2500 5450 2150 5450
Wire Wire Line
	6900 4500 7650 4500
Wire Wire Line
	7650 4500 7650 6750
Wire Wire Line
	7650 6750 2600 6750
Wire Wire Line
	2600 6750 2600 5350
Wire Wire Line
	2600 5350 2150 5350
Wire Wire Line
	6900 4600 7400 4600
Wire Wire Line
	7400 4600 7400 3600
Wire Wire Line
	7400 3600 2150 3600
Wire Wire Line
	6900 4700 7500 4700
Wire Wire Line
	7500 4700 7500 3500
Wire Wire Line
	7500 3500 2150 3500
Wire Wire Line
	6900 3350 6900 4000
Connection ~ 4600 3350
$Comp
L R R2
U 1 1 54886BE5
P 6750 1450
F 0 "R2" V 6830 1450 40  0000 C CNN
F 1 "15k" V 6757 1451 40  0000 C CNN
F 2 "~" V 6680 1450 30  0000 C CNN
F 3 "~" H 6750 1450 30  0000 C CNN
	1    6750 1450
	0    -1   -1   0   
$EndComp
$Comp
L R R1
U 1 1 54886BF2
P 7450 1450
F 0 "R1" V 7530 1450 40  0000 C CNN
F 1 "1.2k" V 7457 1451 40  0000 C CNN
F 2 "~" V 7380 1450 30  0000 C CNN
F 3 "~" H 7450 1450 30  0000 C CNN
	1    7450 1450
	0    -1   -1   0   
$EndComp
Wire Wire Line
	4850 1450 6500 1450
Connection ~ 5050 1450
Wire Wire Line
	7000 1450 7200 1450
Wire Wire Line
	7100 4300 6900 4300
Connection ~ 7100 1450
Wire Wire Line
	7700 1450 7700 4100
Wire Wire Line
	7700 4100 6900 4100
$Comp
L GND #PWR?
U 1 1 54886D89
P 8050 1600
F 0 "#PWR?" H 8050 1600 30  0001 C CNN
F 1 "GND" H 8050 1530 30  0001 C CNN
F 2 "" H 8050 1600 60  0000 C CNN
F 3 "" H 8050 1600 60  0000 C CNN
	1    8050 1600
	1    0    0    -1  
$EndComp
Wire Wire Line
	7700 1450 8050 1450
Wire Wire Line
	8050 1450 8050 1600
Wire Wire Line
	6900 5200 7100 5200
Wire Wire Line
	7100 5200 7100 6450
Wire Wire Line
	7100 6450 4000 6450
Wire Wire Line
	4000 6450 4000 5700
Wire Wire Line
	4000 5700 3850 5700
Wire Wire Line
	6900 5100 7200 5100
Wire Wire Line
	7200 5100 7200 6550
Wire Wire Line
	7200 6550 4100 6550
Wire Wire Line
	4100 6550 4100 4800
Wire Wire Line
	4100 4800 3850 4800
$Comp
L SW_PUSH SW2
U 1 1 54886EBB
P 5250 6300
F 0 "SW2" H 5400 6410 50  0000 C CNN
F 1 "start" H 5250 6220 50  0000 C CNN
F 2 "~" H 5250 6300 60  0000 C CNN
F 3 "~" H 5250 6300 60  0000 C CNN
	1    5250 6300
	1    0    0    -1  
$EndComp
$Comp
L R R3
U 1 1 54886EC1
P 4550 6300
F 0 "R3" V 4630 6300 40  0000 C CNN
F 1 "33k" V 4557 6301 40  0000 C CNN
F 2 "~" V 4480 6300 30  0000 C CNN
F 3 "~" H 4550 6300 30  0000 C CNN
	1    4550 6300
	0    -1   -1   0   
$EndComp
Wire Wire Line
	7950 6300 5550 6300
Connection ~ 7950 4800
Wire Wire Line
	4950 6300 4800 6300
Wire Wire Line
	4850 6300 4850 5200
Wire Wire Line
	4850 5200 5400 5200
Connection ~ 4850 6300
$Comp
L GND #PWR?
U 1 1 54887022
P 4200 6150
F 0 "#PWR?" H 4200 6150 30  0001 C CNN
F 1 "GND" H 4200 6080 30  0001 C CNN
F 2 "" H 4200 6150 60  0000 C CNN
F 3 "" H 4200 6150 60  0000 C CNN
	1    4200 6150
	1    0    0    -1  
$EndComp
Wire Wire Line
	4200 6150 4200 6050
Wire Wire Line
	4200 6050 4300 6050
Wire Wire Line
	4300 6050 4300 6300
Wire Wire Line
	5400 5100 4750 5100
Wire Wire Line
	4750 5100 4750 5400
Wire Wire Line
	4750 5400 3850 5400
Wire Wire Line
	5400 5000 4650 5000
Wire Wire Line
	4650 5000 4650 5300
Wire Wire Line
	4650 5300 3850 5300
Wire Wire Line
	5400 4900 4550 4900
Wire Wire Line
	4550 4900 4550 5200
Wire Wire Line
	4550 5200 3850 5200
Wire Wire Line
	5400 4800 4400 4800
Wire Wire Line
	4400 4800 4400 5000
Wire Wire Line
	4400 5000 3850 5000
Wire Wire Line
	5700 6300 5700 6000
Wire Wire Line
	5700 6000 4500 6000
Wire Wire Line
	4500 6000 4500 5800
Wire Wire Line
	4500 5800 4200 5800
Wire Wire Line
	4200 5800 4200 4200
Wire Wire Line
	4200 4900 3850 4900
Connection ~ 5700 6300
Wire Wire Line
	5400 4500 3850 4500
Wire Wire Line
	5400 4400 3850 4400
Wire Wire Line
	5400 4300 3850 4300
$Comp
L GND #PWR?
U 1 1 548874B9
P 5000 4100
F 0 "#PWR?" H 5000 4100 30  0001 C CNN
F 1 "GND" H 5000 4030 30  0001 C CNN
F 2 "" H 5000 4100 60  0000 C CNN
F 3 "" H 5000 4100 60  0000 C CNN
	1    5000 4100
	1    0    0    -1  
$EndComp
Wire Wire Line
	5000 4100 5000 4000
Wire Wire Line
	5000 4000 5400 4000
Text Notes 1800 4550 0    60   ~ 0
12V in
Wire Wire Line
	3850 4000 4850 4000
Wire Wire Line
	4850 4000 4850 1450
Wire Wire Line
	5050 1450 5050 2050
Wire Wire Line
	2600 4600 1950 4600
Wire Wire Line
	3850 4100 4400 4100
Wire Wire Line
	4400 4100 4400 4150
Wire Wire Line
	4200 4200 3850 4200
Connection ~ 4200 4900
Wire Wire Line
	4000 4100 4000 5500
Wire Wire Line
	4000 5500 3850 5500
Connection ~ 4000 4600
Wire Wire Line
	3850 4600 4000 4600
Connection ~ 4000 4100
$Comp
L GND #PWR?
U 1 1 55FB01C6
P 9500 4200
F 0 "#PWR?" H 9500 4200 30  0001 C CNN
F 1 "GND" H 9500 4130 30  0001 C CNN
F 2 "" H 9500 4200 60  0000 C CNN
F 3 "" H 9500 4200 60  0000 C CNN
	1    9500 4200
	1    0    0    -1  
$EndComp
Wire Wire Line
	6900 4800 7850 4800
Wire Wire Line
	7850 4800 7850 3950
Wire Wire Line
	7850 3950 9600 3950
$Comp
L CONN_1 LED
U 1 1 55FB02FC
P 9750 3950
F 0 "LED on off" H 9830 3950 40  0000 L CNN
F 1 "CONN_1" H 9750 4005 30  0001 C CNN
F 2 "" H 9750 3950 60  0000 C CNN
F 3 "" H 9750 3950 60  0000 C CNN
	1    9750 3950
	1    0    0    -1  
$EndComp
$Comp
L CONN_1 GND
U 1 1 55FB0302
P 9750 4100
F 0 "GND" H 9830 4100 40  0000 L CNN
F 1 "CONN_1" H 9750 4155 30  0001 C CNN
F 2 "" H 9750 4100 60  0000 C CNN
F 3 "" H 9750 4100 60  0000 C CNN
	1    9750 4100
	1    0    0    -1  
$EndComp
$Comp
L CONN_1 12V
U 1 1 55FB0308
P 9750 3800
F 0 "12V LED" H 9830 3800 40  0000 L CNN
F 1 "CONN_1" H 9750 3855 30  0001 C CNN
F 2 "" H 9750 3800 60  0000 C CNN
F 3 "" H 9750 3800 60  0000 C CNN
	1    9750 3800
	1    0    0    -1  
$EndComp
Wire Wire Line
	9600 4100 9500 4100
Wire Wire Line
	9500 4100 9500 4200
Wire Wire Line
	6500 1450 6500 1250
Wire Wire Line
	6500 1250 9600 1250
Wire Wire Line
	9600 1250 9600 3800
$Comp
L CONN_1 LS8
U 1 1 55FB04DF
P 9750 4650
F 0 "LS8" H 9830 4650 40  0000 L CNN
F 1 "CONN_1" H 9750 4705 30  0001 C CNN
F 2 "" H 9750 4650 60  0000 C CNN
F 3 "" H 9750 4650 60  0000 C CNN
	1    9750 4650
	1    0    0    -1  
$EndComp
$Comp
L CONN_1 LS7
U 1 1 55FB04E5
P 9750 4800
F 0 "LS7" H 9830 4800 40  0000 L CNN
F 1 "CONN_1" H 9750 4855 30  0001 C CNN
F 2 "" H 9750 4800 60  0000 C CNN
F 3 "" H 9750 4800 60  0000 C CNN
	1    9750 4800
	1    0    0    -1  
$EndComp
$Comp
L CONN_1 LS6
U 1 1 55FB04EB
P 9750 4950
F 0 "LS6" H 9830 4950 40  0000 L CNN
F 1 "CONN_1" H 9750 5005 30  0001 C CNN
F 2 "" H 9750 4950 60  0000 C CNN
F 3 "" H 9750 4950 60  0000 C CNN
	1    9750 4950
	1    0    0    -1  
$EndComp
$Comp
L CONN_1 LS5
U 1 1 55FB04F1
P 9750 5100
F 0 "LS5" H 9830 5100 40  0000 L CNN
F 1 "CONN_1" H 9750 5155 30  0001 C CNN
F 2 "" H 9750 5100 60  0000 C CNN
F 3 "" H 9750 5100 60  0000 C CNN
	1    9750 5100
	1    0    0    -1  
$EndComp
$Comp
L CONN_1 LS4
U 1 1 55FB04F7
P 9750 5250
F 0 "LS4" H 9830 5250 40  0000 L CNN
F 1 "CONN_1" H 9750 5305 30  0001 C CNN
F 2 "" H 9750 5250 60  0000 C CNN
F 3 "" H 9750 5250 60  0000 C CNN
	1    9750 5250
	1    0    0    -1  
$EndComp
$Comp
L CONN_1 LS3
U 1 1 55FB04FD
P 9750 5400
F 0 "LS3" H 9830 5400 40  0000 L CNN
F 1 "CONN_1" H 9750 5455 30  0001 C CNN
F 2 "" H 9750 5400 60  0000 C CNN
F 3 "" H 9750 5400 60  0000 C CNN
	1    9750 5400
	1    0    0    -1  
$EndComp
$Comp
L CONN_1 LS2
U 1 1 55FB0503
P 9750 5550
F 0 "LS2" H 9830 5550 40  0000 L CNN
F 1 "CONN_1" H 9750 5605 30  0001 C CNN
F 2 "" H 9750 5550 60  0000 C CNN
F 3 "" H 9750 5550 60  0000 C CNN
	1    9750 5550
	1    0    0    -1  
$EndComp
$Comp
L CONN_1 LS1
U 1 1 55FB0509
P 9750 5700
F 0 "LS1" H 9830 5700 40  0000 L CNN
F 1 "CONN_1" H 9750 5755 30  0001 C CNN
F 2 "" H 9750 5700 60  0000 C CNN
F 3 "" H 9750 5700 60  0000 C CNN
	1    9750 5700
	1    0    0    -1  
$EndComp
$Comp
L CONN_1 3.3V
U 1 1 55FB050F
P 9750 5850
F 0 "3.3V" H 9830 5850 40  0000 L CNN
F 1 "CONN_1" H 9750 5905 30  0001 C CNN
F 2 "" H 9750 5850 60  0000 C CNN
F 3 "" H 9750 5850 60  0000 C CNN
	1    9750 5850
	1    0    0    -1  
$EndComp
$Comp
L CONN_1 A_GND
U 1 1 55FB0515
P 9750 6000
F 0 "A_GND" H 9830 6000 40  0000 L CNN
F 1 "CONN_1" H 9750 6055 30  0001 C CNN
F 2 "" H 9750 6000 60  0000 C CNN
F 3 "" H 9750 6000 60  0000 C CNN
	1    9750 6000
	1    0    0    -1  
$EndComp
$Comp
L CONN_1 A20
U 1 1 55FB0552
P 9500 4650
F 0 "A20" H 9580 4650 40  0000 L CNN
F 1 "CONN_1" H 9500 4705 30  0001 C CNN
F 2 "" H 9500 4650 60  0000 C CNN
F 3 "" H 9500 4650 60  0000 C CNN
	1    9500 4650
	-1   0    0    1   
$EndComp
$Comp
L CONN_1 A19
U 1 1 55FB05F7
P 9500 4800
F 0 "A19" H 9580 4800 40  0000 L CNN
F 1 "CONN_1" H 9500 4855 30  0001 C CNN
F 2 "" H 9500 4800 60  0000 C CNN
F 3 "" H 9500 4800 60  0000 C CNN
	1    9500 4800
	-1   0    0    1   
$EndComp
$Comp
L CONN_1 A18
U 1 1 55FB05FD
P 9500 4950
F 0 "A18" H 9580 4950 40  0000 L CNN
F 1 "CONN_1" H 9500 5005 30  0001 C CNN
F 2 "" H 9500 4950 60  0000 C CNN
F 3 "" H 9500 4950 60  0000 C CNN
	1    9500 4950
	-1   0    0    1   
$EndComp
$Comp
L CONN_1 A17
U 1 1 55FB0603
P 9500 5100
F 0 "A17" H 9580 5100 40  0000 L CNN
F 1 "CONN_1" H 9500 5155 30  0001 C CNN
F 2 "" H 9500 5100 60  0000 C CNN
F 3 "" H 9500 5100 60  0000 C CNN
	1    9500 5100
	-1   0    0    1   
$EndComp
$Comp
L CONN_1 A16
U 1 1 55FB0609
P 9500 5250
F 0 "A16" H 9580 5250 40  0000 L CNN
F 1 "CONN_1" H 9500 5305 30  0001 C CNN
F 2 "" H 9500 5250 60  0000 C CNN
F 3 "" H 9500 5250 60  0000 C CNN
	1    9500 5250
	-1   0    0    1   
$EndComp
$Comp
L CONN_1 A15
U 1 1 55FB060F
P 9500 5400
F 0 "A15" H 9580 5400 40  0000 L CNN
F 1 "CONN_1" H 9500 5455 30  0001 C CNN
F 2 "" H 9500 5400 60  0000 C CNN
F 3 "" H 9500 5400 60  0000 C CNN
	1    9500 5400
	-1   0    0    1   
$EndComp
$Comp
L CONN_1 A13
U 1 1 55FB0615
P 9500 5550
F 0 "A13" H 9580 5550 40  0000 L CNN
F 1 "CONN_1" H 9500 5605 30  0001 C CNN
F 2 "" H 9500 5550 60  0000 C CNN
F 3 "" H 9500 5550 60  0000 C CNN
	1    9500 5550
	-1   0    0    1   
$EndComp
$Comp
L CONN_1 A12
U 1 1 55FB061B
P 9500 5700
F 0 "A12" H 9580 5700 40  0000 L CNN
F 1 "CONN_1" H 9500 5755 30  0001 C CNN
F 2 "" H 9500 5700 60  0000 C CNN
F 3 "" H 9500 5700 60  0000 C CNN
	1    9500 5700
	-1   0    0    1   
$EndComp
Wire Wire Line
	9150 3750 9150 6000
Wire Wire Line
	7700 3750 9150 3750
Connection ~ 7700 3750
Wire Wire Line
	7950 5850 9600 5850
Connection ~ 7950 5850
Text Notes 9200 6300 0    118  ~ 0
Line sensor
Wire Wire Line
	9150 6000 9600 6000
$Comp
L TL072 Motor
U 1 1 55FB0B44
P 2250 2150
F 0 "Motor 0 current" H 2200 2350 60  0000 L CNN
F 1 "MCP6242" H 2200 1900 60  0000 L CNN
F 2 "" H 2250 2150 60  0000 C CNN
F 3 "" H 2250 2150 60  0000 C CNN
	1    2250 2150
	1    0    0    -1  
$EndComp
$Comp
L TL072 Motor
U 1 1 55FB0B53
P 2250 1350
F 0 "Motor 1 current" H 2200 1550 60  0000 L CNN
F 1 "MCP6242B" H 2200 1100 60  0000 L CNN
F 2 "" H 2250 1350 60  0000 C CNN
F 3 "" H 2250 1350 60  0000 C CNN
	1    2250 1350
	1    0    0    -1  
$EndComp
$Comp
L CONN_1 A10
U 1 1 55FB0B74
P 3050 2150
F 0 "A10" H 3130 2150 40  0000 L CNN
F 1 "CONN_1" H 3050 2205 30  0001 C CNN
F 2 "" H 3050 2150 60  0000 C CNN
F 3 "" H 3050 2150 60  0000 C CNN
	1    3050 2150
	1    0    0    -1  
$EndComp
$Comp
L CONN_1 A11
U 1 1 55FB0B7A
P 3050 1350
F 0 "A11" H 3130 1350 40  0000 L CNN
F 1 "CONN_1" H 3050 1405 30  0001 C CNN
F 2 "" H 3050 1350 60  0000 C CNN
F 3 "" H 3050 1350 60  0000 C CNN
	1    3050 1350
	1    0    0    -1  
$EndComp
Wire Wire Line
	2900 2150 2750 2150
Wire Wire Line
	2900 1350 2750 1350
$Comp
L CONN_1 Blue
U 1 1 55FB0E7F
P 2000 3700
F 0 "Blue" H 2080 3700 40  0000 L CNN
F 1 "CONN_1" H 2000 3755 30  0001 C CNN
F 2 "" H 2000 3700 60  0000 C CNN
F 3 "" H 2000 3700 60  0000 C CNN
	1    2000 3700
	-1   0    0    1   
$EndComp
$Comp
L CONN_1 Blue
U 1 1 55FB0E8A
P 2000 5550
F 0 "Blue" H 2080 5550 40  0000 L CNN
F 1 "CONN_1" H 2000 5605 30  0001 C CNN
F 2 "" H 2000 5550 60  0000 C CNN
F 3 "" H 2000 5550 60  0000 C CNN
	1    2000 5550
	-1   0    0    1   
$EndComp
Wire Notes Line
	1000 4000 1000 4400
Wire Notes Line
	1000 4400 1300 4400
Wire Notes Line
	1300 4400 1300 4000
Wire Notes Line
	1300 4000 1000 4000
Wire Notes Line
	1300 4800 1000 4800
Wire Notes Line
	1000 4800 1000 5200
Wire Notes Line
	1000 5200 1300 5200
Wire Notes Line
	1300 5200 1300 4800
$Comp
L CONN_1 -
U 1 1 55FC4E7C
P 1300 4950
F 0 "-" H 1380 4950 40  0000 L CNN
F 1 "CONN_1" H 1300 5005 30  0001 C CNN
F 2 "" H 1300 4950 60  0000 C CNN
F 3 "" H 1300 4950 60  0000 C CNN
	1    1300 4950
	-1   0    0    1   
$EndComp
$Comp
L CONN_1 +
U 1 1 55FC4E82
P 1300 5050
F 0 "+" H 1380 5050 40  0000 L CNN
F 1 "CONN_1" H 1300 5105 30  0001 C CNN
F 2 "" H 1300 5050 60  0000 C CNN
F 3 "" H 1300 5050 60  0000 C CNN
	1    1300 5050
	-1   0    0    1   
$EndComp
$Comp
L CONN_1 vcc
U 1 1 55FC4E92
P 1000 4850
F 0 "vcc" H 1080 4850 40  0000 L CNN
F 1 "CONN_1" H 1000 4905 30  0001 C CNN
F 2 "" H 1000 4850 60  0000 C CNN
F 3 "" H 1000 4850 60  0000 C CNN
	1    1000 4850
	1    0    0    -1  
$EndComp
$Comp
L CONN_1 out
U 1 1 55FC4E98
P 1000 4950
F 0 "out" H 1080 4950 40  0000 L CNN
F 1 "CONN_1" H 1000 5005 30  0001 C CNN
F 2 "" H 1000 4950 60  0000 C CNN
F 3 "" H 1000 4950 60  0000 C CNN
	1    1000 4950
	1    0    0    -1  
$EndComp
$Comp
L CONN_1 f
U 1 1 55FC4E9E
P 1000 5050
F 0 "f" H 1080 5050 40  0000 L CNN
F 1 "CONN_1" H 1000 5105 30  0001 C CNN
F 2 "" H 1000 5050 60  0000 C CNN
F 3 "" H 1000 5050 60  0000 C CNN
	1    1000 5050
	1    0    0    -1  
$EndComp
$Comp
L CONN_1 g
U 1 1 55FC4EA4
P 1000 5150
F 0 "g" H 1080 5150 40  0000 L CNN
F 1 "CONN_1" H 1000 5205 30  0001 C CNN
F 2 "" H 1000 5150 60  0000 C CNN
F 3 "" H 1000 5150 60  0000 C CNN
	1    1000 5150
	1    0    0    -1  
$EndComp
$Comp
L CONN_1 g
U 1 1 55FC4EAA
P 1000 4350
F 0 "g" H 1080 4350 40  0000 L CNN
F 1 "CONN_1" H 1000 4405 30  0001 C CNN
F 2 "" H 1000 4350 60  0000 C CNN
F 3 "" H 1000 4350 60  0000 C CNN
	1    1000 4350
	1    0    0    -1  
$EndComp
$Comp
L CONN_1 f
U 1 1 55FC4EB0
P 1000 4250
F 0 "f" H 1080 4250 40  0000 L CNN
F 1 "CONN_1" H 1000 4305 30  0001 C CNN
F 2 "" H 1000 4250 60  0000 C CNN
F 3 "" H 1000 4250 60  0000 C CNN
	1    1000 4250
	1    0    0    -1  
$EndComp
$Comp
L CONN_1 out
U 1 1 55FC4EB6
P 1000 4150
F 0 "out" H 1080 4150 40  0000 L CNN
F 1 "CONN_1" H 1000 4205 30  0001 C CNN
F 2 "" H 1000 4150 60  0000 C CNN
F 3 "" H 1000 4150 60  0000 C CNN
	1    1000 4150
	1    0    0    -1  
$EndComp
$Comp
L CONN_1 vcc
U 1 1 55FC4EBC
P 1000 4050
F 0 "vcc" H 1080 4050 40  0000 L CNN
F 1 "CONN_1" H 1000 4105 30  0001 C CNN
F 2 "" H 1000 4050 60  0000 C CNN
F 3 "" H 1000 4050 60  0000 C CNN
	1    1000 4050
	1    0    0    -1  
$EndComp
$Comp
L CONN_1 -
U 1 1 55FC4EC2
P 1300 4350
F 0 "-" H 1380 4350 40  0000 L CNN
F 1 "CONN_1" H 1300 4405 30  0001 C CNN
F 2 "" H 1300 4350 60  0000 C CNN
F 3 "" H 1300 4350 60  0000 C CNN
	1    1300 4350
	-1   0    0    1   
$EndComp
$Comp
L CONN_1 +
U 1 1 55FC4EC8
P 1300 4250
F 0 "+" H 1380 4250 40  0000 L CNN
F 1 "CONN_1" H 1300 4305 30  0001 C CNN
F 2 "" H 1300 4250 60  0000 C CNN
F 3 "" H 1300 4250 60  0000 C CNN
	1    1300 4250
	-1   0    0    1   
$EndComp
Wire Wire Line
	2300 3900 2300 4350
Wire Wire Line
	2250 4000 2250 4250
Wire Wire Line
	2250 4250 1450 4250
Wire Wire Line
	1450 4350 2250 4350
Wire Wire Line
	2250 4350 2250 4450
Wire Wire Line
	1450 5050 2400 5050
Wire Wire Line
	2400 5050 2400 5850
$Comp
L GND #PWR?
U 1 1 55FC5264
P 850 5600
F 0 "#PWR?" H 850 5600 30  0001 C CNN
F 1 "GND" H 850 5530 30  0001 C CNN
F 2 "" H 850 5600 60  0000 C CNN
F 3 "" H 850 5600 60  0000 C CNN
	1    850  5600
	1    0    0    -1  
$EndComp
$Comp
L GND #PWR?
U 1 1 55FC526A
P 600 4800
F 0 "#PWR?" H 600 4800 30  0001 C CNN
F 1 "GND" H 600 4730 30  0001 C CNN
F 2 "" H 600 4800 60  0000 C CNN
F 3 "" H 600 4800 60  0000 C CNN
	1    600  4800
	1    0    0    -1  
$EndComp
Wire Wire Line
	850  4350 850  4650
Wire Wire Line
	850  5150 850  5600
Wire Wire Line
	850  4050 850  3350
Connection ~ 2600 3350
Wire Wire Line
	850  4850 850  4700
Wire Wire Line
	850  4700 1600 4700
Wire Wire Line
	1600 4700 1600 3350
Connection ~ 1600 3350
$Comp
L R R7
U 1 1 55FC5541
P 1100 1450
F 0 "R7" V 1180 1450 40  0000 C CNN
F 1 "47k" V 1107 1451 40  0000 C CNN
F 2 "~" V 1030 1450 30  0000 C CNN
F 3 "~" H 1100 1450 30  0000 C CNN
	1    1100 1450
	0    -1   -1   0   
$EndComp
$Comp
L R R4
U 1 1 55FC5547
P 1100 2250
F 0 "R4" V 1180 2250 40  0000 C CNN
F 1 "47k" V 1107 2251 40  0000 C CNN
F 2 "~" V 1030 2250 30  0000 C CNN
F 3 "~" H 1100 2250 30  0000 C CNN
	1    1100 2250
	0    -1   -1   0   
$EndComp
$Comp
L R R9
U 1 1 55FC554D
P 1600 2700
F 0 "R9" V 1680 2700 40  0000 C CNN
F 1 "47k" V 1607 2701 40  0000 C CNN
F 2 "~" V 1530 2700 30  0000 C CNN
F 3 "~" H 1600 2700 30  0000 C CNN
	1    1600 2700
	0    -1   -1   0   
$EndComp
$Comp
L R R6
U 1 1 55FC5553
P 1600 750
F 0 "R6" V 1680 750 40  0000 C CNN
F 1 "47k" V 1607 751 40  0000 C CNN
F 2 "~" V 1530 750 30  0000 C CNN
F 3 "~" H 1600 750 30  0000 C CNN
	1    1600 750 
	0    -1   -1   0   
$EndComp
Wire Wire Line
	1850 750  2750 750 
Wire Wire Line
	2750 750  2750 1350
Wire Wire Line
	1850 2700 2750 2700
Wire Wire Line
	2750 2700 2750 2150
Wire Wire Line
	1350 2250 1750 2250
Wire Wire Line
	1350 2700 1350 2250
Wire Wire Line
	1350 1450 1350 750 
Wire Wire Line
	1350 1450 1750 1450
Wire Wire Line
	850  2250 750  2250
Wire Wire Line
	750  2250 750  4150
Wire Wire Line
	750  4150 850  4150
Wire Wire Line
	850  1450 700  1450
Wire Wire Line
	700  1450 700  4950
Wire Wire Line
	700  4950 850  4950
$Comp
L C c4
U 1 1 55FC5B58
P 650 5250
F 0 "c4" H 650 5350 40  0000 L CNN
F 1 "220n" H 656 5165 40  0000 L CNN
F 2 "~" H 688 5100 30  0000 C CNN
F 3 "~" H 650 5250 60  0000 C CNN
	1    650  5250
	1    0    0    -1  
$EndComp
$Comp
L C C3
U 1 1 55FC5B65
P 600 4450
F 0 "C3" H 600 4550 40  0000 L CNN
F 1 "220n" H 606 4365 40  0000 L CNN
F 2 "~" H 638 4300 30  0000 C CNN
F 3 "~" H 600 4450 60  0000 C CNN
	1    600  4450
	1    0    0    -1  
$EndComp
Wire Wire Line
	600  4250 850  4250
Wire Wire Line
	600  4650 600  4800
Wire Wire Line
	850  4650 600  4650
Wire Wire Line
	850  5450 650  5450
Connection ~ 850  5450
Wire Wire Line
	650  5050 850  5050
Text Notes 1000 5300 0    47   ~ 0
ACS712C
Text Notes 1000 4500 0    47   ~ 0
ACS712C
$Comp
L C C1
U 1 1 55FC605D
P 1050 3550
F 0 "C1" H 1050 3650 40  0000 L CNN
F 1 "100n" H 1056 3465 40  0000 L CNN
F 2 "~" H 1088 3400 30  0000 C CNN
F 3 "~" H 1050 3550 60  0000 C CNN
	1    1050 3550
	1    0    0    -1  
$EndComp
$Comp
L GND #PWR?
U 1 1 55FC6063
P 1050 3850
F 0 "#PWR?" H 1050 3850 30  0001 C CNN
F 1 "GND" H 1050 3780 30  0001 C CNN
F 2 "" H 1050 3850 60  0000 C CNN
F 3 "" H 1050 3850 60  0000 C CNN
	1    1050 3850
	1    0    0    -1  
$EndComp
Wire Wire Line
	1050 3750 1050 3850
$Comp
L R R5
U 1 1 55FC6141
P 1300 1950
F 0 "R5" V 1380 1950 40  0000 C CNN
F 1 "47k" V 1307 1951 40  0000 C CNN
F 2 "~" V 1230 1950 30  0000 C CNN
F 3 "~" H 1300 1950 30  0000 C CNN
	1    1300 1950
	0    -1   -1   0   
$EndComp
$Comp
L R R8
U 1 1 55FC6147
P 1300 1700
F 0 "R8" V 1380 1700 40  0000 C CNN
F 1 "47k" V 1307 1701 40  0000 C CNN
F 2 "~" V 1230 1700 30  0000 C CNN
F 3 "~" H 1300 1700 30  0000 C CNN
	1    1300 1700
	0    -1   -1   0   
$EndComp
Wire Wire Line
	1050 1700 1050 1800
Wire Wire Line
	1050 1800 1550 1800
Wire Wire Line
	1550 1800 1550 2050
Wire Wire Line
	1550 2050 1750 2050
Connection ~ 1550 1950
Wire Wire Line
	1750 1250 1650 1250
Wire Wire Line
	1650 1250 1650 1950
Wire Wire Line
	1650 1950 1550 1950
Wire Wire Line
	1550 1700 4050 1700
Wire Wire Line
	2150 1750 3900 1750
Wire Wire Line
	3900 1750 3900 3350
Connection ~ 3900 3350
Wire Wire Line
	2150 2550 2900 2550
Connection ~ 2900 2900
$Comp
L GND #PWR?
U 1 1 55FC6654
P 900 2050
F 0 "#PWR?" H 900 2050 30  0001 C CNN
F 1 "GND" H 900 1980 30  0001 C CNN
F 2 "" H 900 2050 60  0000 C CNN
F 3 "" H 900 2050 60  0000 C CNN
	1    900  2050
	1    0    0    -1  
$EndComp
Wire Wire Line
	1050 1950 900  1950
Wire Wire Line
	900  1950 900  2050
Wire Notes Line
	9650 3650 10200 3650
Wire Notes Line
	10200 3650 10200 6100
Wire Notes Line
	10200 6100 9650 6100
Wire Notes Line
	9650 6100 9650 3650
Wire Wire Line
	7100 1450 7100 4300
Wire Wire Line
	4050 1700 4050 4200
Connection ~ 4050 4200
Text Notes 3700 1650 0    47   ~ 0
3.3V
Text Notes 3550 1850 0    47   ~ 0
5V
$Comp
L CONN_1 gnd
U 1 1 563267ED
P 5950 2700
F 0 "gnd" H 6030 2700 40  0000 L CNN
F 1 "CONN_1" H 5950 2755 30  0001 C CNN
F 2 "" H 5950 2700 60  0000 C CNN
F 3 "" H 5950 2700 60  0000 C CNN
	1    5950 2700
	1    0    0    -1  
$EndComp
$Comp
L CONN_1 Tx
U 1 1 563267F3
P 5950 2800
F 0 "Tx" H 6030 2800 40  0000 L CNN
F 1 "CONN_1" H 5950 2855 30  0001 C CNN
F 2 "" H 5950 2800 60  0000 C CNN
F 3 "" H 5950 2800 60  0000 C CNN
	1    5950 2800
	1    0    0    -1  
$EndComp
$Comp
L CONN_1 Rx
U 1 1 563267F9
P 5950 2900
F 0 "Rx" H 6030 2900 40  0000 L CNN
F 1 "CONN_1" H 5950 2955 30  0001 C CNN
F 2 "" H 5950 2900 60  0000 C CNN
F 3 "" H 5950 2900 60  0000 C CNN
	1    5950 2900
	1    0    0    -1  
$EndComp
Wire Wire Line
	5400 4100 5300 4100
Wire Wire Line
	5300 4100 5300 2900
Wire Wire Line
	5300 2900 5800 2900
Wire Wire Line
	5400 4200 5250 4200
Wire Wire Line
	5250 4200 5250 2800
Wire Wire Line
	5250 2800 5800 2800
Wire Wire Line
	5800 2700 5150 2700
Wire Wire Line
	5150 2700 5150 4000
Connection ~ 5150 4000
Text Notes 5650 3150 0    118  ~ 0
Serial
Wire Notes Line
	5600 2600 5600 3200
Wire Notes Line
	5600 3200 6250 3200
Wire Notes Line
	6250 3200 6250 2600
Wire Notes Line
	6250 2600 5600 2600
Wire Notes Line
	9650 4300 10200 4300
$Comp
L R R?
U 1 1 56326EA3
P 5200 5500
F 0 "R?" V 5280 5500 40  0000 C CNN
F 1 "1k" V 5207 5501 40  0000 C CNN
F 2 "~" V 5130 5500 30  0000 C CNN
F 3 "~" H 5200 5500 30  0000 C CNN
	1    5200 5500
	0    -1   -1   0   
$EndComp
Wire Wire Line
	5400 5300 5400 5400
Wire Wire Line
	5400 5400 5450 5400
Wire Wire Line
	5450 5400 5450 5500
Wire Wire Line
	4950 5500 4950 4650
Wire Wire Line
	4950 4650 4600 4650
Wire Wire Line
	4600 4650 4600 3800
Wire Wire Line
	4600 3800 4300 3800
Connection ~ 4300 2900
$Comp
L CONN_1 12V
U 1 1 563271EF
P 1800 4600
F 0 "12V" H 1850 4700 40  0000 L CNN
F 1 "CONN_1" H 1800 4655 30  0001 C CNN
F 2 "" H 1800 4600 60  0000 C CNN
F 3 "" H 1800 4600 60  0000 C CNN
	1    1800 4600
	-1   0    0    1   
$EndComp
$Comp
L CONN_1 Gnd
U 1 1 563271F5
P 1800 4700
F 0 "Gnd" H 1850 4600 40  0000 L CNN
F 1 "CONN_1" H 1800 4755 30  0001 C CNN
F 2 "" H 1800 4700 60  0000 C CNN
F 3 "" H 1800 4700 60  0000 C CNN
	1    1800 4700
	-1   0    0    1   
$EndComp
$EndSCHEMATC
