%  1    time 0.002 sec
%  2    mission (2) state 2
%  3  4  5 Acc x,y,z: 1.349770 -0.117476 -10.129272
%  6  7  8 Gyro x,y,z: -11.650085 0.747681 -16.944885
%  9 10 Motor velocity ref left, right: 0.00 -0.00
% 11 12 Motor voltage [V] left, right: -5.4 -5.4
% 13 14 Wheel velocity [r/s] left, right: 0.0095 -0.0154
% 15 16 17 18 Pose x,y,h,tilt [m,m,rad,rad]: 0.0000 0.0000 0.000000 0.120489
% 19    Battery voltage [V]: 11.01
% 20 21 Get data time [us]: 490 +ctrl 850
% 22 23 24 25 Extra pt.: balE[0], balU[0], balUI[0], balUI[1]: -0.05 -8.3286 0.0000 0.0000
0.009 2 1.496016 -0.383594 -10.565610 -10.108948 -1.091003 -12.115479 0.08 -0.08 2.9 2.6 0.0094 3.0117 0.0006 0.0000 0.002595 0.121367 11.42 490 890 -0.04 5.90 0.0000 0.0000
0.017 2 -1.817275 -0.786367 -10.620751 -7.781982 -32.600403 -15.197754 0.08 -0.08 -9.9 -9.6 0.0094 1.5724 0.0006 0.0000 0.002595 0.102909 11.42 500 900 -0.03 -17.28 -0.0000 -0.0000
0.023 2 3.231777 -0.465107 -9.956655 -9.078979 -49.072266 -18.913269 0.17 -0.17 9.5 9.5 -4.2929 -0.9463 0.0000 -0.0000 0.005191 0.081485 10.96 490 880 -0.02 29.30 0.0000 0.0000
0.030 2 4.476059 -0.023975 -9.184672 -8.216858 1.548767 -30.845642 0.17 -0.17 4.9 5.1 1.8808 3.5586 0.0004 0.0000 0.005191 0.113870 10.49 490 890 -0.03 8.74 0.0000 0.0000
0.037 2 -0.572993 -4.202749 -10.095708 -9.643555 8.056641 -15.151978 0.17 -0.17 -2.8 -3.3 12.0738 13.0026 0.0024 0.0000 0.005191 0.135272 11.04 490 820 -0.04 2.68 0.0000 0.0000
0.044 2 -4.396943 -1.380937 -9.261392 -8.331299 -66.963196 -21.942139 0.17 -0.17 9.0 9.0 -3.2274 -3.2664 0.0028 0.0000 0.005191 0.079595 10.54 490 890 -0.02 8.88 0.0000 0.0000
0.051 2 1.462451 -0.292490 -13.051777 -6.126404 -89.569092 -28.701782 0.17 -0.17 9.6 9.3 -10.3227 -9.7991 0.0012 -0.0000 0.005191 0.040187 12.09 510 840 0.01 6.00 0.0000 0.0000
0.058 2 10.428955 -5.293593 -6.943047 -6.378174 18.737793 -9.910583 0.33 -0.33 6.2 6.2 2.7429 7.6833 0.0012 0.0000 0.010382 0.103904 7.69 490 850 -0.02 63.01 0.0000 0.0000
0.065 2 4.588740 -5.986460 -10.884472 -17.097473 48.782349 -24.787903 0.42 -0.42 8.8 8.8 15.3667 15.9091 0.0038 0.0000 0.012977 0.157769 10.33 490 810 -0.05 34.06 0.0000 0.0000
0.072 2 -4.389751 -10.577598 -9.764858 10.749817 -90.347290 -24.780273 0.42 -0.42 4.5 -4.3 -10.8182 4.2258 0.0054 0.0001 0.012977 0.062525 8.72 490 850 0.01 -2.51 0.0000 0.0000
0.079 2 4.643882 -1.481631 -11.872226 -3.532410 -104.187012 -20.362854 0.42 -0.42 8.7 8.7 -9.7991 -9.2621 0.0042 0.0000 0.012977 0.030738 10.20 490 820 0.02 40.24 0.0000 0.0000
0.086 2 8.038686 3.356445 -8.774707 -15.518188 3.433228 -21.591187 0.50 -0.50 9.4 9.4 2.0740 5.6345 0.0044 0.0000 0.015573 0.096476 10.90 510 910 -0.02 49.36 0.0000 0.0000
0.093 2 -0.985356 -4.974731 -8.357549 -13.206482 -0.488281 -34.393311 0.42 -0.42 -10.9 -10.9 11.6575 12.5210 0.0066 0.0001 0.012977 0.111354 12.40 490 820 -0.01 -32.37 -0.0000 -0.0000
0.100 2 -2.045034 -3.986977 -9.656972 -6.683350 -78.735352 -25.436401 0.42 -0.42 9.9 8.3 -2.9851 -2.4858 0.0066 0.0001 0.012977 0.049899 11.36 490 890 0.01 11.99 0.0000 0.0000
0.107 2 6.916675 -3.217392 -11.493427 -10.475159 -52.024841 -9.574890 0.25 -0.25 9.8 9.8 -3.6548 -6.2031 0.0054 0.0001 0.007786 0.047015 11.26 490 890 0.01 39.06 0.0000 0.0000
0.115 2 4.238711 -0.064731 -7.487270 -17.173767 45.188904 -12.390137 0.17 -0.17 8.5 8.5 10.9054 6.2605 0.0060 0.0001 0.005191 0.118520 9.97 490 1120 -0.03 46.20 0.0000 0.0000
0.121 2 -4.893218 -0.445928 -9.589844 -12.504578 22.644043 0.694275 0.08 -0.08 -8.9 -8.9 12.7573 14.0861 0.0086 0.0001 0.002595 0.129251 10.39 510 830 -0.03 -35.03 0.0000 0.0000
0.128 2 -1.409707 -2.769067 -10.239555 9.490967 -92.231750 -10.528564 0.17 -0.17 -7.2 -7.2 -6.4394 -2.1776 0.0084 0.0001 0.005191 0.030613 8.73 490 890 0.03 -34.96 -0.0000 -0.0000
0.135 2 4.981924 0.117476 -12.296576 -3.189087 -51.467896 -32.302856 0.17 -0.17 9.3 9.3 -8.9554 -8.0492 0.0064 0.0001 0.005191 0.039270 10.84 490 810 0.01 11.90 0.0000 0.0000
0.142 2 4.852461 2.819414 -8.386318 -7.362366 53.779602 -8.056641 0.33 -0.33 10.6 10.6 3.3807 6.4702 0.0068 0.0001 0.010382 0.114600 12.13 490 890 -0.03 60.63 0.0000 0.0000
0.149 2 -4.468867 1.917969 -10.182016 -13.069153 14.167786 -16.853333 0.42 -0.42 -10.2 -10.2 7.0431 8.6132 0.0086 0.0001 0.012977 0.093683 11.66 490 810 -0.00 -23.23 0.0000 0.0000
0.156 2 -1.543965 6.741660 -10.865293 -8.720398 -60.295105 -33.340454 0.50 -0.50 9.4 7.2 -8.6132 -8.7810 0.0076 0.0001 0.015573 0.033462 11.58 510 840 0.02 10.59 0.0000 0.0000
0.163 2 7.000586 4.449687 -11.579736 -14.709473 -6.629944 -48.690796 0.50 -0.50 9.4 9.4 -2.5515 -3.1303 0.0068 0.0001 0.015573 0.058560 10.92 490 890 0.00 38.07 0.0000 0.0000
0.170 2 0.261323 -0.618545 -8.757924 -18.547058 59.951782 -25.047302 0.42 -0.42 -7.9 -7.9 10.6478 10.9054 0.0082 0.0001 0.012977 0.110725 9.41 490 810 -0.02 -14.05 0.0000 0.0000
0.177 2 -8.053071 10.606367 -10.810151 -14.198303 -18.997192 -18.173218 0.50 -0.50 -9.0 -9.0 5.7789 4.8468 0.0097 0.0001 0.015573 0.063955 10.52 490 890 0.01 -63.37 0.0000 0.0000
0.184 2 1.934751 2.910517 -10.968384 -8.766174 -74.356079 -18.188477 0.42 -0.42 8.4 8.4 -13.0026 -12.8788 0.0074 0.0001 0.012977 0.004582 9.92 490 810 0.03 21.33 0.0000 0.0000
0.191 2 12.447617 3.910259 -11.613300 -11.199951 32.920837 -19.599915 0.59 -0.59 6.9 6.9 -5.5421 -5.8037 0.0062 0.0000 0.018168 0.056458 8.40 510 920 -0.00 62.54 0.0000 0.0000
0.198 2 -0.584980 -2.277588 -8.805874 -22.293091 83.641052 -25.054932 0.59 -0.59 -9.2 -9.2 9.5230 10.6478 0.0078 0.0001 0.018168 0.111214 10.74 490 810 -0.02 -11.60 0.0000 0.0000
0.205 2 -10.345043 -5.065835 -7.218755 -7.865906 -41.954041 -21.553040 0.67 -0.67 -8.7 -8.7 2.8172 2.5466 0.0084 0.0001 0.020764 0.028867 10.17 490 900 0.04 -83.59 -0.0000 -0.0000
0.212 2 3.032788 -0.700059 -11.761943 -12.184143 -50.689697 -14.457703 0.59 -0.59 -2.1 -2.6 -9.3260 -9.6591 0.0062 0.0000 0.018168 -0.000584 10.71 490 810 0.04 -5.47 0.0000 0.0000
0.219 2 8.503794 -0.033564 -10.639932 -17.234802 74.050903 -12.313843 0.59 -0.59 9.7 9.7 2.1567 2.1952 0.0066 0.0001 0.018168 0.076923 11.22 490 890 0.00 31.25 0.0000 0.0000
0.226 2 -11.176963 -2.620425 -9.158300 -6.080627 45.623779 -13.877869 0.67 -0.67 -10.4 -10.4 8.0974 8.1956 0.0088 0.0001 0.020764 0.084512 11.87 510 850 0.00 -66.60 0.0000 0.0000
0.233 2 -3.255752 1.141191 -10.182016 1.655579 -85.350037 -16.777039 0.59 -0.59 -7.1 -7.1 -8.2455 -10.0916 0.0082 0.0001 0.018168 -0.025122 8.57 490 810 0.07 -46.80 -0.0000 -0.0000
0.240 2 9.973437 8.242471 -13.660732 -12.962341 -10.864258 -25.772095 0.59 -0.59 10.4 10.4 -6.4089 -6.0640 0.0062 0.0000 0.018168 0.009378 11.93 490 890 0.04 24.92 0.0000 0.0000
0.247 2 2.443013 3.284521 -9.637793 -19.859314 83.396912 -16.860962 0.59 -0.59 7.6 6.9 5.0084 5.0837 0.0074 0.0001 0.018168 0.083668 10.74 490 890 -0.00 18.48 0.0000 0.0000
0.254 2 -11.057090 2.478975 -11.095448 0.068665 -0.411987 -7.926941 0.67 -0.67 -9.1 -9.1 3.7048 5.2010 0.0084 0.0001 0.020764 0.029420 10.55 490 880 0.04 -54.02 -0.0000 -0.0000
0.261 2 4.955552 0.671289 -10.733432 -4.806519 -44.555664 -20.309448 0.67 -0.67 11.2 11.2 -11.9670 -11.6575 0.0068 0.0001 0.020764 -0.004505 12.69 510 840 0.04 54.50 0.0000 0.0000
0.268 2 6.072768 -1.627876 -10.421762 -12.512207 36.956787 -30.319214 0.59 -0.59 -5.5 -3.3 3.2197 -2.6106 0.0062 0.0000 0.018168 0.045624 10.44 490 900 0.02 -0.48 0.0000 0.0000
0.275 2 -0.872676 -1.757339 -9.544291 -27.229309 70.518494 -26.374817 0.59 -0.59 -0.1 -1.9 8.5587 9.3260 0.0078 0.0001 0.018168 0.090006 10.57 490 810 -0.01 8.34 0.0000 0.0000
0.282 2 -5.080220 -3.521870 -8.594897 -13.229370 -37.292480 -16.372681 0.59 -0.59 -7.7 -7.7 -4.6954 -2.6412 0.0078 0.0001 0.018168 0.013370 9.18 490 890 0.03 -53.66 0.0000 0.0000
0.289 2 2.915312 -5.425454 -11.972919 -13.290405 -36.514282 -12.016296 0.59 -0.59 -6.9 -7.3 -9.9432 -10.4021 0.0054 0.0000 0.018168 -0.001334 11.37 490 810 0.03 -16.07 0.0000 0.0000
0.296 2 3.639346 1.704595 -9.537099 -22.331238 78.590393 -10.421753 0.50 -0.50 9.0 9.0 6.4702 2.7824 0.0056 0.0000 0.015573 0.076375 10.54 510 910 -0.00 35.70 0.0000 0.0000
0.303 2 -6.115922 -4.706216 -9.786435 -20.378113 69.763184 -10.185242 0.50 -0.50 -10.8 -10.8 10.7323 11.9670 0.0080 0.0001 0.015573 0.093427 12.28 490 820 -0.00 -30.00 -0.0000 -0.0000
0.310 2 -3.116699 3.080737 -10.769394 4.295349 -57.106018 -15.510559 0.67 -0.67 -6.8 -6.8 -5.8540 2.0901 0.0080 0.0001 0.020764 -0.007089 8.31 490 890 0.06 -61.98 0.0000 0.0000
0.317 2 5.991255 -3.133481 -11.277656 -1.937866 -11.383057 -21.247864 0.59 -0.59 7.8 7.8 -5.7789 -8.0492 0.0062 0.0000 0.018168 0.018545 9.33 490 850 0.02 27.05 0.0000 0.0000
0.324 2 3.867104 1.846045 -9.767256 -13.534546 72.227478 -19.378662 0.59 -0.59 11.2 11.2 8.7243 7.9545 0.0074 0.0000 0.018168 0.082897 12.66 490 810 -0.00 40.99 0.0000 0.0000
0.331 2 -7.532822 3.648935 -11.021128 -3.746033 -1.510620 -14.511108 0.59 -0.59 -6.8 -6.8 6.0101 7.0431 0.0091 0.0001 0.018168 0.039991 8.32 510 870 0.03 -74.93 -0.0000 -0.0000
0.338 2 1.222705 -2.085791 -10.210786 -5.165100 -58.471680 -16.304016 0.67 -0.67 8.9 8.9 -10.9054 -11.7589 0.0072 0.0000 0.020764 -0.011547 10.43 490 810 0.05 23.32 0.0000 0.0000
0.345 2 12.116767 1.625479 -11.543774 -6.492615 46.386719 -22.911072 0.67 -0.67 10.1 10.1 -2.2765 2.5563 0.0068 0.0000 0.020764 0.045846 11.61 490 900 0.01 45.65 0.0000 0.0000
0.352 2 1.637466 -0.870278 -10.241953 -24.574280 81.260681 -25.863647 0.67 -0.67 -2.5 -4.4 11.9670 13.3888 0.0093 0.0001 0.020764 0.098964 11.68 490 810 -0.01 8.64 0.0000 0.0000
0.359 2 -4.051709 -14.017954 -6.777622 -1.487732 -57.487488 -15.113831 0.59 -0.59 -7.8 -7.8 2.7939 -3.8526 0.0099 0.0001 0.018168 0.000587 9.25 490 900 0.06 -48.74 0.0000 0.0000
0.366 2 7.616733 -10.457725 -11.088257 -2.906799 -50.193787 -7.598877 0.59 -0.59 -4.7 -5.2 -8.5587 -8.8965 0.0078 0.0001 0.018168 -0.006538 12.47 510 840 0.04 -10.63 -0.0000 -0.0000
0.373 2 3.545845 -0.263721 -8.472627 -17.890930 78.956604 -5.088806 0.59 -0.59 9.6 9.6 -1.9974 -1.9598 0.0074 0.0000 0.018168 0.080630 11.12 490 880 -0.02 47.68 0.0000 0.0000
0.380 2 -3.603384 -0.671289 -10.325864 -27.893066 62.324524 -7.827759 0.59 -0.59 -8.3 -8.3 12.8788 12.1826 0.0099 0.0001 0.018168 0.088905 9.76 490 820 0.00 -13.32 -0.0000 -0.0000
0.387 2 -2.471782 -4.878833 -8.515781 2.922058 -44.807434 -13.381958 0.59 -0.59 -6.8 -7.8 -7.8620 -7.8620 0.0095 0.0001 0.018168 0.006206 9.44 490 810 0.04 -12.12 0.0000 0.0000
0.394 2 7.302666 4.126030 -12.087997 -11.543274 7.049561 -19.523621 0.50 -0.50 8.8 8.8 -6.4394 -6.3487 0.0076 0.0001 0.015573 0.036515 10.28 490 890 0.00 51.23 0.0000 0.0000
0.401 2 5.288799 2.968056 -9.206249 -22.590637 100.509644 -8.934021 0.42 -0.42 8.0 8.0 10.4827 9.3260 0.0086 0.0001 0.012977 0.108233 9.54 510 850 -0.03 39.21 0.0000 0.0000
0.408 2 -9.829590 0.484287 -9.568266 -12.886047 30.403137 4.714966 0.25 -0.25 -10.8 -10.8 9.5906 6.7953 0.0111 0.0001 0.007786 0.075321 12.34 490 810 0.00 -82.14 0.0000 0.0000
0.416 2 3.306098 -2.049829 -11.152987 -0.907898 -55.526733 2.708435 0.17 -0.17 5.1 6.9 -8.4517 -12.0738 0.0101 0.0001 0.005191 0.002616 8.46 490 1060 0.03 8.59 0.0000 0.0000
0.422 2 5.329556 0.201387 -12.183896 -13.183594 25.192261 -5.882263 0.00 -0.00 9.1 9.1 -3.9890 -6.7613 0.0084 0.0001 0.000000 0.054436 10.58 490 850 -0.01 26.25 0.0000 0.0000
0.429 2 2.045034 0.949395 -8.311996 -26.168823 90.286255 -0.076294 -0.08 0.08 8.9 9.7 10.5646 10.1674 0.0103 0.0001 -0.002595 0.115176 11.25 490 810 -0.03 22.60 0.0000 0.0000
0.436 2 -9.589844 3.967798 -10.802958 -14.419556 -5.928040 7.911682 -0.08 0.08 -6.8 -6.8 6.4702 4.9534 0.0119 0.0001 -0.002595 0.064007 8.26 510 910 0.01 -60.62 0.0000 0.0000
0.443 2 3.291714 -0.855894 -12.114369 -16.052246 -39.100647 3.112793 -0.17 0.17 8.5 8.5 -11.0842 -14.5405 0.0101 0.0001 -0.005191 0.016060 10.00 490 820 0.01 31.53 0.0000 0.0000
0.450 2 8.609282 -0.709648 -11.402324 -16.716003 64.468384 -3.608704 -0.17 0.17 11.0 11.0 -2.4498 -2.9786 0.0093 0.0001 -0.005191 0.068218 12.47 490 890 -0.01 38.73 0.0000 0.0000
0.457 2 -1.476836 -3.514678 -7.482475 -24.810791 97.648621 -6.599426 -0.25 0.25 -7.6 -7.6 13.6593 13.6593 0.0115 0.0001 -0.007786 0.128394 9.11 490 820 -0.04 -20.12 0.0000 0.0000
0.464 2 -7.290679 -1.486426 -7.511245 -13.168335 -20.439148 1.037598 -0.25 0.25 -9.9 -9.9 6.7277 5.6111 0.0131 0.0001 -0.007786 0.055580 11.39 490 880 0.02 -79.30 0.0000 0.0000
0.471 2 3.176636 5.931318 -12.792851 -23.323059 -30.853271 2.815247 -0.25 0.25 9.2 9.2 -8.6684 -8.3473 0.0119 0.0001 -0.007786 0.030053 10.68 510 830 0.01 21.37 0.0000 0.0000
0.478 2 4.720601 1.671030 -12.521938 -21.499634 43.045044 -15.243530 -0.17 0.17 -6.9 -7.2 1.6674 8.8384 0.0125 0.0001 -0.005191 0.079764 10.01 490 850 -0.01 -2.98 0.0000 0.0000
0.485 2 -2.428628 2.845786 -9.139121 -11.306763 27.198792 -11.108398 -0.08 0.08 -9.3 -9.3 11.8620 11.9670 0.0143 0.0001 -0.002595 0.089493 10.82 490 820 -0.00 -61.57 0.0000 0.0000
0.492 2 -1.054883 -0.354824 -8.501396 -6.248474 -51.383972 -5.203247 -0.17 0.17 5.7 6.5 -4.4483 -2.2651 0.0145 0.0001 -0.005191 0.025381 9.14 490 890 0.02 11.00 0.0000 0.0000
0.499 2 9.098364 2.987236 -12.229448 -13.740540 -9.185791 -30.029297 -0.17 0.17 9.4 9.4 -3.6351 -4.1102 0.0133 0.0001 -0.005191 0.038061 10.87 490 890 0.01 25.12 0.0000 0.0000
0.506 2 5.885767 3.143071 -9.678550 -22.422791 84.907532 -23.246765 -0.08 0.08 7.5 7.5 9.3260 11.2689 0.0143 0.0001 -0.002595 0.110995 9.02 510 840 -0.03 45.02 0.0000 0.0000
0.514 2 -6.729672 5.058642 -10.865293 -23.223877 39.688110 -8.453369 -0.08 0.08 -10.4 -10.4 13.0026 16.2924 0.0175 0.0001 -0.002595 0.118248 11.94 490 1070 -0.02 -60.29 -0.0000 -0.0000
0.520 2 -2.512539 6.926264 -12.076011 -1.464844 -65.315247 -7.431030 0.00 -0.00 -2.6 -2.7 -2.9526 -2.8172 0.0177 0.0001 0.000000 0.028877 8.19 490 890 0.02 -0.49 0.0000 0.0000
0.527 2 10.309082 -5.777881 -12.159922 -3.746033 -7.247925 -24.543762 0.00 -0.00 6.9 6.9 -5.9051 -5.9571 0.0161 0.0001 0.000000 0.050810 8.43 490 860 -0.00 28.88 0.0000 0.0000
0.534 2 4.744575 -0.937407 -7.014970 -13.748169 73.112488 -23.597717 -0.08 0.08 9.2 9.2 4.8643 3.3807 0.0171 0.0001 -0.002595 0.131412 10.74 490 890 -0.06 63.59 0.0000 0.0000
0.541 2 -0.364414 0.338042 -9.920693 -11.985779 16.769409 -9.880066 -0.08 0.08 -2.4 -1.6 10.2445 8.8965 0.0191 0.0001 -0.002595 0.108193 9.95 510 840 -0.02 7.44 0.0000 0.0000
0.548 2 1.064473 -10.030976 -7.954775 2.380371 -30.090332 -10.803223 -0.17 0.17 -4.6 -4.7 -3.8200 -2.0335 0.0189 0.0001 -0.005191 0.069782 9.46 490 890 -0.02 -9.96 0.0000 0.0000
0.555 2 4.734985 -4.207544 -12.385283 -12.985229 4.669189 -21.972656 -0.17 0.17 9.3 9.3 -1.9886 -2.3724 0.0185 0.0001 -0.005191 0.089752 10.82 490 880 -0.03 27.86 0.0000 0.0000
0.562 2 3.231777 1.229897 -7.734209 -16.548157 40.321350 -11.085510 -0.17 0.17 10.4 10.4 10.6478 12.2934 0.0205 0.0000 -0.005191 0.128054 11.87 490 810 -0.04 38.03 0.0000 0.0000
0.569 2 -4.042119 0.091104 -10.239555 -14.617920 -19.088745 -16.014099 -0.08 0.08 -10.6 -10.6 10.1674 10.0168 0.0227 0.0000 -0.002595 0.106705 12.07 490 820 -0.02 -28.06 -0.0000 -0.0000
0.576 2 -0.527441 5.569302 -12.524336 -15.777588 -83.007812 -16.998291 0.00 -0.00 3.9 2.9 -8.1956 -1.8913 0.0221 0.0000 0.000000 0.043349 10.63 510 840 0.01 1.62 0.0000 0.0000
0.583 2 7.405756 5.504570 -12.116767 -12.466431 -14.541626 -20.072937 -0.00 0.00 -6.7 1.3 8.7810 -4.6630 0.0217 0.0000 0.000000 0.069717 12.51 490 860 0.00 -0.15 0.0000 0.0000
0.590 2 2.802632 -0.549019 -6.516299 -17.219543 67.497253 -20.942688 0.08 -0.08 8.5 8.5 6.8993 10.5646 0.0227 0.0000 0.002595 0.157866 10.05 490 810 -0.07 60.15 0.0000 0.0000
0.597 2 -4.034926 -0.822329 -12.591464 -8.918762 10.795593 -25.253296 0.17 -0.17 -7.1 -7.8 8.5587 9.0756 0.0253 0.0000 0.005191 0.133760 9.82 490 810 -0.04 -8.12 0.0000 0.0000
0.604 2 -1.615889 3.344458 -11.603710 -6.729126 -59.120178 -27.015686 0.25 -0.25 8.0 8.0 -8.7243 -7.2703 0.0247 0.0000 0.007786 0.072781 9.46 490 810 -0.02 12.05 0.0000 0.0000
0.611 2 6.406015 3.891079 -12.804838 -14.755249 8.644104 -31.158447 0.25 -0.25 -9.1 -9.1 4.1996 3.0733 0.0247 0.0000 0.007786 0.101797 10.60 510 910 -0.02 -21.51 0.0000 0.0000
0.618 2 -0.520249 2.057021 -6.535478 -17.799377 66.688538 -27.717590 0.17 -0.17 -3.5 -3.6 12.5210 12.2934 0.0266 0.0001 0.005191 0.160419 9.27 490 810 -0.06 -2.08 0.0000 0.0000
0.625 2 -5.849804 -0.266118 -11.016333 -5.523682 -19.859314 -16.876221 0.25 -0.25 -9.0 -9.0 3.6061 4.6630 0.0280 0.0001 0.007786 0.099324 10.49 490 890 -0.02 -29.45 -0.0000 -0.0000
0.632 2 1.999482 -2.857773 -12.524336 -10.894775 -42.808533 -18.501282 0.42 -0.42 9.7 9.7 -10.3227 -7.9080 0.0268 0.0000 0.012977 0.065965 11.25 490 800 -0.02 17.70 0.0000 0.0000
0.639 2 9.232622 3.799975 -10.493686 -10.162354 62.561035 -32.318115 0.42 -0.42 8.4 8.4 3.1230 6.8296 0.0272 0.0001 0.012977 0.120711 9.94 490 860 -0.03 61.08 0.0000 0.0000
0.646 2 3.529062 1.579927 -8.182534 -27.648926 78.117371 -38.375854 0.42 -0.42 8.1 8.6 16.9034 15.1940 0.0300 0.0001 0.012977 0.167318 11.00 510 830 -0.06 22.05 0.0000 0.0000
0.653 2 -5.286401 -14.403945 -7.568784 7.270813 -50.971985 -21.827698 0.33 -0.33 -8.0 -8.0 7.9080 5.2211 0.0318 0.0001 0.010382 0.074289 9.49 490 850 0.02 -68.31 -0.0000 -0.0000
0.660 2 6.020024 -7.528027 -11.948945 -6.637573 -43.022156 -17.410278 0.42 -0.42 10.9 10.9 -6.6288 -4.8995 0.0308 0.0001 0.012977 0.058720 12.45 490 880 0.00 35.64 0.0000 0.0000
0.667 2 8.328779 0.270913 -9.261392 -18.417358 53.436279 -23.300171 0.25 -0.25 8.2 8.2 12.5210 1.9429 0.0316 0.0001 0.007786 0.117258 9.75 490 860 -0.02 28.48 0.0000 0.0000
0.674 2 -3.272534 -10.534443 -6.684121 -0.961304 39.840698 -15.945435 0.25 -0.25 -9.8 -9.8 14.8601 16.6947 0.0348 0.0001 0.007786 0.143342 11.33 490 810 -0.03 -11.89 0.0000 0.0000
0.681 2 -1.594311 -0.829521 -10.371416 -1.754761 -69.198608 -17.494202 0.33 -0.33 -8.0 -8.0 2.1881 2.4767 0.0354 0.0001 0.010382 0.051479 9.48 510 910 0.03 -32.74 -0.0000 -0.0000
0.688 2 12.728120 1.184346 -13.543257 -11.917114 -17.601013 -22.529602 0.33 -0.33 8.0 8.0 -3.6548 -3.6548 0.0342 0.0001 0.010382 0.066891 9.54 490 890 0.00 17.73 0.0000 0.0000
0.695 2 5.178515 2.263203 -7.727016 -15.525818 82.603455 -9.269714 0.25 -0.25 8.7 8.7 13.7987 13.0026 0.0360 0.0001 0.007786 0.152850 10.19 490 820 -0.04 44.82 0.0000 0.0000
0.702 2 -7.683862 12.426040 -11.658853 -18.653870 9.689331 -3.189087 0.25 -0.25 -8.5 -8.5 13.0026 12.5210 0.0392 0.0002 0.007786 0.146936 9.97 490 830 -0.03 -35.25 0.0000 0.0000
0.709 2 0.148643 -0.668892 -12.406860 -1.815796 -81.123352 4.013062 0.17 -0.17 4.6 4.3 -2.2500 -2.5371 0.0390 0.0002 0.005191 0.073594 8.97 490 880 -0.00 6.91 0.0000 0.0000
0.717 2 8.487012 -5.226465 -11.208130 -6.500244 -9.178162 4.676819 0.17 -0.17 10.4 8.4 -2.5466 7.5126 0.0386 0.0002 0.005191 0.106635 11.94 500 870 -0.02 24.45 0.0000 0.0000
0.723 2 3.941426 -0.333247 -6.422798 -21.667480 66.932678 -8.209229 0.08 -0.08 7.2 7.2 13.6593 13.3888 0.0404 0.0002 0.002595 0.183781 8.67 490 820 -0.07 34.92 0.0000 0.0000
0.730 2 -8.278432 7.635913 -11.618095 -22.811890 -8.720398 -0.427246 0.00 -0.00 -10.1 -10.1 8.7243 9.3260 0.0434 0.0002 0.000000 0.150814 11.60 490 820 -0.04 -26.65 0.0000 0.0000
0.737 2 0.194194 3.440356 -13.200419 -13.580322 -72.570801 1.434326 0.00 -0.00 -1.5 -1.3 -7.6833 -7.7273 0.0426 0.0002 0.000000 0.083862 12.01 490 810 -0.01 -7.15 0.0000 0.0000
0.744 2 6.703300 0.884663 -11.467055 -15.808105 21.118164 -8.422852 0.08 -0.08 -4.4 -1.2 6.0640 -1.8729 0.0424 0.0002 0.002595 0.121447 12.29 490 890 -0.03 0.27 0.0000 0.0000
0.751 2 0.230156 0.234951 -6.415605 -26.329041 85.929871 -15.411377 0.08 -0.08 -3.6 -3.4 15.5433 14.8601 0.0449 0.0002 0.002595 0.195275 9.37 510 840 -0.07 0.79 0.0000 0.0000
0.758 2 -9.647383 -5.523750 -9.045620 -8.903503 -27.961731 -11.123657 0.17 -0.17 -7.6 -7.6 4.3622 5.8794 0.0467 0.0002 0.005191 0.124093 9.11 490 890 -0.02 -59.81 0.0000 0.0000
0.765 2 4.471264 -0.819932 -11.920176 -13.420105 -50.163269 -14.587402 0.08 -0.08 7.9 7.9 -9.3908 -9.9432 0.0453 0.0002 0.002595 0.079730 9.41 490 800 -0.01 20.36 0.0000 0.0000
0.772 2 11.390337 4.272275 -10.129272 -25.604248 76.934814 -6.416321 0.08 -0.08 11.3 11.3 6.2605 7.5546 0.0457 0.0002 0.002595 0.148661 12.85 490 860 -0.04 89.30 0.0000 0.0000
0.779 2 -1.783711 -2.713926 -6.902290 -20.278931 82.794189 -10.459900 0.08 -0.08 -6.9 -6.9 15.1940 14.5405 0.0485 0.0002 0.002595 0.182486 8.42 490 810 -0.05 -37.23 0.0000 0.0000
0.786 2 -2.059419 -0.644917 -10.517661 -4.112244 -50.331116 -12.367249 0.00 -0.00 -7.7 -7.7 2.9207 -3.0803 0.0491 0.0002 0.000000 0.080081 9.19 510 910 0.02 -19.51 -0.0000 -0.0000
0.793 2 7.180395 -0.455518 -13.006226 -14.114380 -1.182556 -13.595581 -0.08 0.08 8.8 8.8 -4.7953 -7.5970 0.0477 0.0002 -0.002595 0.092934 10.28 490 850 -0.01 16.15 0.0000 0.0000
0.800 2 4.881230 0.510659 -7.710234 -21.804810 107.055664 -10.055542 -0.08 0.08 7.2 7.2 10.8182 9.4564 0.0489 0.0002 -0.002595 0.173832 8.72 490 810 -0.05 57.35 0.0000 0.0000
0.807 2 -5.166528 -3.974990 -8.949721 -8.460999 46.356201 -10.826111 0.08 -0.08 -8.3 -8.3 10.5646 9.3908 0.0517 0.0002 0.002595 0.151678 9.78 490 810 -0.02 -43.03 0.0000 0.0000
0.815 2 -0.011987 3.644140 -12.879160 -9.284973 -38.818359 -11.947632 0.00 -0.00 6.9 7.4 -2.4767 -2.2804 0.0515 0.0002 0.000000 0.072061 9.07 490 1100 0.02 12.50 0.0000 0.0000
0.821 2 9.582651 5.118579 -14.065903 -17.784119 44.700623 -14.839172 -0.08 0.08 5.9 10.3 6.9347 -2.7824 0.0509 0.0002 -0.002595 0.116388 12.09 510 880 -0.01 18.86 0.0000 0.0000
0.828 2 0.558608 1.344976 -7.077304 -20.042419 88.928223 -7.606506 -0.00 0.00 -7.5 -7.5 12.8788 13.7987 0.0531 0.0002 0.000000 0.162625 8.99 490 820 -0.03 -23.17 -0.0000 -0.0000
0.835 2 -4.900410 -5.674790 -7.180395 -11.886597 -6.774902 -13.229370 0.08 -0.08 -8.5 -8.5 -5.1417 4.5996 0.0541 0.0002 0.002595 0.091572 9.97 490 890 0.02 -34.11 0.0000 0.0000
0.842 2 4.651074 2.308755 -13.332280 -23.773193 -8.811951 -14.137268 0.17 -0.17 4.4 5.9 -6.7277 -8.2961 0.0527 0.0002 0.005191 0.071806 11.28 490 860 0.01 7.78 0.0000 0.0000
0.849 2 6.379643 2.665977 -9.843974 -20.156860 99.510193 -18.455505 0.08 -0.08 7.7 7.7 9.5230 9.1370 0.0537 0.0002 0.002595 0.144127 9.21 490 820 -0.02 41.70 0.0000 0.0000
0.856 2 -4.749370 -8.805874 -8.949721 1.121521 88.508606 -17.929077 0.08 -0.08 -9.4 -9.4 15.0252 15.7241 0.0565 0.0002 0.002595 0.171689 10.90 510 850 -0.03 -38.35 -0.0000 -0.0000
0.863 2 -3.262944 -0.009590 -10.460122 -1.686096 -35.934448 -15.525818 0.17 -0.17 -6.9 -7.3 -7.3096 3.3389 0.0575 0.0002 0.005191 0.071858 8.81 490 850 0.03 -9.62 0.0000 0.0000
0.870 2 7.074907 -3.248559 -12.586670 -15.274048 12.535095 -24.597168 0.25 -0.25 9.0 6.2 -7.2703 -4.9899 0.0561 0.0002 0.007786 0.091867 12.42 490 850 0.00 11.82 0.0000 0.0000
0.877 2 3.823950 -0.592173 -5.866587 -16.670227 108.177185 -18.524170 0.17 -0.17 8.5 8.5 12.4061 11.8620 0.0575 0.0002 0.005191 0.172652 9.97 490 820 -0.04 39.04 0.0000 0.0000
0.884 2 -8.187329 11.047500 -11.905790 -21.293640 46.104431 -14.541626 0.17 -0.17 -10.4 -10.4 9.9432 12.6380 0.0607 0.0002 0.005191 0.156365 11.87 490 820 -0.01 -35.04 0.0000 0.0000
0.891 2 1.579927 2.577271 -13.392217 -17.684937 -30.632019 -15.930176 0.33 -0.33 6.5 4.1 -7.8166 -2.5042 0.0603 0.0002 0.010382 0.092703 11.56 510 880 0.01 10.63 0.0000 0.0000
0.898 2 9.225430 3.682500 -13.449756 -12.947083 52.185059 -29.151917 0.17 -0.17 8.3 8.3 3.6548 -2.4904 0.0603 0.0002 0.005191 0.135555 9.76 490 900 -0.01 24.87 0.0000 0.0000
0.905 2 3.102314 -1.534375 -5.576494 -25.619507 101.646423 -14.556885 0.08 -0.08 8.2 8.2 15.7241 15.7241 0.0630 0.0002 0.002595 0.199111 9.68 490 810 -0.05 31.31 0.0000 0.0000
0.912 2 -5.950498 -3.941426 -9.815205 -13.694763 -2.624512 -11.062622 0.08 -0.08 -7.4 -7.4 9.8706 10.2445 0.0658 0.0002 0.002595 0.127242 8.94 490 810 0.02 -49.69 -0.0000 -0.0000
0.919 2 4.550381 0.946997 -14.008364 -25.085449 -26.176453 -8.369446 0.00 -0.00 11.3 11.3 -5.1613 -7.0431 0.0652 0.0002 0.000000 0.098512 12.77 490 810 0.01 40.67 0.0000 0.0000
0.926 2 6.254975 2.126548 -10.239555 -19.004822 73.226929 1.007080 -0.08 0.08 4.3 4.5 1.8103 1.8913 0.0658 0.0002 -0.002595 0.157402 9.22 510 920 -0.02 15.52 0.0000 0.0000
0.933 2 0.016782 -1.771724 -6.439580 -22.094727 92.216492 -6.362915 -0.00 0.00 -9.3 -9.3 18.0303 19.3181 0.0692 0.0002 0.000000 0.214343 10.76 490 800 -0.04 -0.69 0.0000 0.0000
0.940 2 -1.450464 -9.026441 -8.875401 -9.933472 -20.919800 -0.015259 -0.00 0.00 -8.6 -8.6 8.1956 7.3895 0.0720 0.0002 0.000000 0.125080 10.11 490 810 0.03 -25.48 -0.0000 -0.0000
0.947 2 6.475542 -6.796802 -13.293921 -15.434265 -16.624451 -2.349854 0.00 -0.00 9.1 9.1 -5.9835 -5.2010 0.0712 0.0002 0.000000 0.118206 10.55 490 850 0.00 25.00 0.0000 0.0000
0.954 2 8.295215 -0.827124 -7.415347 -19.676208 85.479736 0.267029 -0.08 0.08 10.6 10.6 9.5906 9.7991 0.0726 0.0002 -0.002595 0.180358 12.09 490 820 -0.03 59.39 0.0000 0.0000
0.961 2 -1.088447 -0.155835 -7.041343 -12.893677 75.698853 -1.129150 -0.00 0.00 -9.2 -9.2 18.0303 18.2739 0.0760 0.0002 0.000000 0.209398 10.74 510 840 -0.03 -33.53 0.0000 0.0000
0.968 2 1.680620 -3.457139 -10.335454 -8.010864 -17.791748 7.553101 -0.08 0.08 4.1 5.3 4.7783 3.7356 0.0774 0.0002 -0.002595 0.126834 8.92 490 880 0.02 18.85 0.0000 0.0000
0.975 2 5.856997 -2.071406 -13.126099 -13.237000 26.229858 -2.952576 -0.08 0.08 7.6 7.2 -2.3766 -1.6903 0.0770 0.0002 -0.002595 0.148651 11.56 490 880 -0.01 18.63 0.0000 0.0000
0.982 2 5.418262 -0.618545 -6.032012 -26.435852 109.817505 -13.542175 -0.17 0.17 8.7 8.7 14.3858 10.4827 0.0788 0.0002 -0.005191 0.211772 10.20 490 820 -0.04 55.90 0.0000 0.0000
0.989 2 -5.871382 15.418071 -9.755268 -25.360107 70.236206 0.343323 -0.25 0.25 -10.6 -10.6 18.5242 17.3368 0.0827 0.0002 -0.007786 0.209414 12.07 490 820 -0.02 -70.54 0.0000 0.0000
0.996 2 1.038101 6.703300 -15.221479 -25.085449 -5.523682 4.928589 -0.33 0.33 -6.0 -4.9 3.3807 2.7263 0.0837 0.0002 -0.010382 0.142673 12.62 510 900 0.01 1.61 0.0000 0.0000
1.003 2 8.978491 1.850840 -13.329883 -29.144287 52.268982 -2.815247 -0.33 0.33 10.7 10.7 -2.3076 -2.2426 0.0833 0.0002 -0.010382 0.171751 12.17 490 890 -0.02 32.51 0.0000 0.0000
1.010 2 5.425454 -2.920107 -3.845527 -32.279968 139.411926 -8.941650 -0.33 0.33 10.1 10.1 15.5433 14.6986 0.0857 0.0001 -0.010382 0.260963 11.63 490 820 -0.07 80.58 0.0000 0.0000
1.017 2 -10.572803 3.716064 -7.911621 -41.564941 59.524536 4.379272 -0.42 0.42 -8.5 -8.5 19.0460 17.7930 0.0895 0.0001 -0.012977 0.224779 10.00 490 820 -0.02 -99.00 0.0000 0.0000
1.024 2 5.590879 -5.298388 -16.264374 -34.721375 -33.004761 12.588501 -0.50 0.50 7.4 7.4 2.4676 -3.9196 0.0901 0.0001 -0.015573 0.136694 8.88 490 880 0.02 35.66 0.0000 0.0000
1.031 2 12.236640 -0.939805 -11.881816 -29.479980 55.046082 17.967224 -0.50 0.50 9.3 9.3 7.9080 9.7286 0.0905 0.0001 -0.015573 0.201687 10.84 510 850 -0.02 38.86 0.0000 0.0000
1.038 2 5.758701 -5.892959 -5.703559 -26.084900 118.225098 11.985779 -0.59 0.59 8.5 8.5 19.5981 18.5242 0.0939 0.0000 -0.018168 0.302325 10.05 490 820 -0.09 68.30 0.0000 0.0000
1.045 2 -5.487788 -2.922505 -11.536582 -19.744873 -16.998291 31.463623 -0.67 0.67 -1.9 1.4 9.5230 8.0492 0.0974 -0.0001 -0.020764 0.250406 11.82 490 820 -0.05 6.47 0.0000 0.0000
1.052 2 5.914536 -3.598589 -11.826674 -18.493652 -61.408997 18.997192 -0.67 0.67 10.6 10.6 1.8423 1.9154 0.0974 -0.0001 -0.020764 0.223805 12.07 490 880 -0.04 35.20 0.0000 0.0000
1.059 2 10.253941 1.747749 -1.282642 -20.210266 -4.341125 13.252258 -0.75 0.75 7.0 7.0 12.4061 11.6575 0.0988 -0.0001 -0.023359 0.301944 8.50 490 810 -0.10 99.00 0.0000 0.0000
1.066 2 5.300786 -2.658784 -7.911621 -17.402649 22.865295 15.769958 -0.84 0.84 8.9 8.9 22.5378 20.8041 0.1026 -0.0002 -0.025955 0.414935 10.44 510 820 -0.18 53.02 0.0000 0.0000
1.073 2 -2.227241 -6.748852 -16.118130 -16.059875 -62.461853 27.648926 -0.84 0.84 7.6 7.3 13.5227 15.9091 0.1066 -0.0003 -0.025955 0.380344 10.19 490 810 -0.15 19.28 0.0000 0.0000
1.080 2 2.553296 -2.232036 -15.192710 5.836487 -154.434204 3.387451 -0.84 0.84 -1.9 1.4 8.6132 7.4711 0.1086 -0.0003 -0.025955 0.315368 12.34 490 810 -0.10 4.26 0.0000 0.0000
1.087 2 10.028579 -3.939028 -3.768808 7.827759 -104.568481 3.471375 -0.84 0.84 7.0 7.0 11.1758 11.1758 0.1098 -0.0004 -0.025955 0.340378 8.53 490 810 -0.12 70.83 0.0000 0.0000
1.094 2 4.461675 1.620684 -2.351909 -10.375977 -45.471191 -8.949280 -0.84 0.84 9.2 9.2 24.1477 23.3150 0.1138 -0.0005 -0.025955 0.470854 10.73 490 790 -0.22 98.15 0.0000 0.0000
1.101 2 -5.552519 -2.234433 -12.406860 -3.646851 -125.022888 -23.780823 -0.84 0.84 -7.1 -7.1 18.7815 19.5981 0.1187 -0.0006 -0.025955 0.396920 8.64 510 840 -0.14 -40.73 -0.0000 -0.0000
1.108 2 6.283745 1.551157 -18.920761 13.839722 -176.940918 -17.753601 -0.84 0.84 -1.8 -1.1 4.7282 5.4091 0.1199 -0.0006 -0.025955 0.327941 10.60 490 880 -0.11 3.35 0.0000 0.0000
1.116 2 10.388198 5.420659 -6.871123 -7.446289 -76.873779 -15.037537 -0.75 0.75 10.3 10.3 1.7426 6.5964 0.1205 -0.0006 -0.023359 0.336066 11.75 490 890 -0.11 41.97 0.0000 0.0000
1.122 2 -0.935010 0.357222 -1.335386 -8.148193 -15.106201 -8.766174 -0.75 0.75 3.0 4.0 20.4889 20.1831 0.1237 -0.0007 -0.023359 0.467802 9.63 490 800 -0.20 16.19 0.0000 0.0000
1.129 2 -6.290937 6.581030 -12.740107 -10.902405 -110.054016 -15.960693 -0.67 0.67 -8.3 -8.3 12.1826 10.9054 0.1275 -0.0008 -0.020764 0.345031 9.79 490 810 -0.09 -25.65 0.0000 0.0000
1.136 2 7.966763 -2.102573 -17.532631 2.288818 -126.991272 -13.671875 -0.75 0.75 2.8 6.4 2.3155 -2.8895 0.1277 -0.0008 -0.023359 0.287618 10.92 510 920 -0.06 15.24 0.0000 0.0000
1.143 2 13.346664 0.865483 -6.964624 -15.266418 0.755310 -8.460999 -0.67 0.67 9.3 9.3 1.1204 3.6947 0.1283 -0.0008 -0.020764 0.312741 10.76 490 900 -0.07 77.51 0.0000 0.0000
1.150 2 -2.658784 -1.987495 -0.457915 -18.234253 32.470703 -6.225586 -0.59 0.59 -7.3 -7.3 17.7930 19.0460 0.1313 -0.0009 -0.018168 0.374333 8.84 490 820 -0.10 -99.00 -0.0000 -0.0000
1.157 2 -3.572217 0.050347 -11.807495 -20.957947 -78.567505 -7.545471 -0.50 0.50 -7.0 -7.0 5.1029 8.3473 0.1335 -0.0009 -0.015573 0.237568 8.53 490 840 0.02 -57.16 0.0000 0.0000
1.164 2 7.827710 -3.447549 -16.276361 -9.971619 -55.526733 -8.377075 -0.50 0.50 11.1 11.1 -1.5965 -2.4676 0.1331 -0.0009 -0.015573 0.229426 12.61 490 890 0.00 27.16 0.0000 0.0000
1.171 2 8.652436 -2.174497 -6.732070 -22.529602 55.648804 -13.580322 -0.59 0.59 7.9 7.9 2.6360 1.5280 0.1338 -0.0009 -0.018168 0.282406 9.40 510 910 -0.03 44.93 0.0000 0.0000
1.178 2 1.304219 -3.579409 -1.973110 -19.348145 44.319153 -11.085510 -0.50 0.50 -8.2 -7.2 15.1940 15.7241 0.1368 -0.0010 -0.015573 0.329367 12.20 490 820 -0.05 1.64 0.0000 0.0000
1.185 2 0.342837 -2.392666 -11.510210 -6.492615 -40.359497 -11.444092 -0.42 0.42 1.9 2.0 4.0246 4.7615 0.1382 -0.0010 -0.012977 0.261996 11.09 490 880 -0.00 11.12 0.0000 0.0000
1.192 2 3.694487 0.822329 -15.605073 -14.717102 -30.998230 -20.080566 -0.50 0.50 8.2 10.3 -2.2352 -3.7048 0.1376 -0.0010 -0.015573 0.263210 12.69 490 880 -0.02 17.80 0.0000 0.0000
1.199 2 8.609282 0.220566 -8.745937 -16.746521 47.271729 -18.371582 -0.42 0.42 9.4 10.0 5.2414 5.3449 0.1386 -0.0010 -0.012977 0.302983 11.53 490 880 -0.03 26.10 0.0000 0.0000
1.206 2 2.701938 1.095640 -4.456880 -23.582458 30.525208 -15.541077 -0.50 0.50 11.4 11.4 11.7589 11.7589 0.1412 -0.0010 -0.015573 0.336806 12.94 510 840 -0.05 72.78 0.0000 0.0000
1.214 2 3.591396 -4.130825 -11.375952 -6.835938 -45.288086 -17.227173 -0.42 0.42 7.3 7.3 -5.4748 4.9353 0.1422 -0.0010 -0.012977 0.258348 8.80 490 1130 0.01 23.76 0.0000 0.0000
1.220 2 6.636172 -3.716064 -13.111713 -6.568909 -37.620544 -16.151428 -0.42 0.42 -8.2 -7.5 -3.2585 -3.0664 0.1414 -0.0010 -0.012977 0.248664 12.70 490 890 0.01 -8.58 -0.0000 -0.0000
1.227 2 7.782158 0.151040 -7.703042 -13.504028 42.572021 -19.363403 -0.50 0.50 10.8 10.8 4.8818 1.7700 0.1420 -0.0010 -0.015573 0.295925 12.32 490 890 -0.02 41.18 0.0000 0.0000
1.234 2 2.582065 -0.503467 -4.504829 -17.684937 41.770935 -23.445129 -0.50 0.50 -7.4 -7.0 11.9670 12.8788 0.1440 -0.0011 -0.015573 0.324899 8.94 490 830 -0.03 1.83 0.0000 0.0000
1.241 2 -2.886543 1.718979 -12.337334 -10.879517 -34.774780 -15.510559 -0.42 0.42 -0.0 -2.8 -3.1595 2.9270 0.1446 -0.0011 -0.012977 0.266716 10.81 510 920 -0.00 0.41 0.0000 0.0000
1.248 2 7.789351 -5.562109 -13.809375 -3.463745 -32.325745 -20.111084 -0.42 0.42 -8.4 -8.8 -6.7953 -5.3661 0.1434 -0.0011 -0.012977 0.256012 11.37 490 850 -0.00 -15.08 0.0000 0.0000
1.255 2 9.522715 0.302080 -6.429990 -15.312195 65.330505 -21.568298 -0.42 0.42 9.4 9.4 1.5297 4.8995 0.1438 -0.0011 -0.012977 0.325968 10.92 490 880 -0.04 67.40 0.0000 0.0000
1.262 2 -0.596968 -1.973110 -6.931059 -16.670227 52.398682 -24.993896 -0.33 0.33 -3.0 -2.9 13.9409 15.5433 0.1464 -0.0011 -0.010382 0.370657 12.10 490 810 -0.06 5.04 0.0000 0.0000
1.269 2 -1.057280 -9.338110 -10.203593 -2.700806 -62.049866 -17.585754 -0.25 0.25 -7.6 -7.6 3.5965 4.9353 0.1478 -0.0011 -0.007786 0.279504 9.08 490 880 0.01 -13.22 0.0000 0.0000
1.276 2 5.212080 -3.411587 -13.859721 -3.234863 -57.167053 -21.171570 -0.25 0.25 -6.2 -6.9 -7.0066 -5.6345 0.1466 -0.0011 -0.007786 0.266186 11.09 510 870 -0.00 -11.76 0.0000 0.0000
1.283 2 7.880454 -0.942202 -7.098882 -10.780334 25.535583 -20.301819 -0.25 0.25 10.4 10.4 2.0901 1.6967 0.1470 -0.0011 -0.007786 0.310894 11.88 490 890 -0.02 37.40 0.0000 0.0000
1.290 2 2.927300 0.987754 -4.770947 -13.267517 10.414124 -18.211365 -0.17 0.17 -7.7 -7.7 10.6478 10.9941 0.1492 -0.0011 -0.005191 0.314650 9.18 490 820 -0.00 -15.91 -0.0000 -0.0000
1.297 2 0.450723 3.145469 -12.859980 -1.976013 -56.442261 -23.994446 -0.17 0.17 -11.1 -11.1 -6.0913 -5.9571 0.1488 -0.0011 -0.005191 0.240645 12.59 490 890 0.03 -50.54 -0.0000 -0.0000
1.304 2 7.259511 4.116440 -13.876504 -8.453369 -16.365051 -30.937195 -0.17 0.17 9.0 9.0 -10.8182 -9.2621 0.1468 -0.0011 -0.005191 0.239881 10.52 490 820 0.02 13.91 0.0000 0.0000
1.311 2 6.096743 -0.709648 -5.914536 -21.720886 96.435547 -19.027710 -0.08 0.08 8.6 8.7 3.2044 2.3850 0.1470 -0.0011 -0.002595 0.318024 11.71 510 920 -0.01 22.76 0.0000 0.0000
1.318 2 -10.412172 -7.221152 -6.123115 -8.575439 57.312012 -14.663696 0.00 -0.00 -8.3 -8.3 6.1467 8.1462 0.1488 -0.0011 0.000000 0.290848 9.82 490 820 0.02 -67.51 -0.0000 -0.0000
1.325 2 2.550898 -6.456362 -11.936957 1.342773 -23.925781 -17.913818 0.08 -0.08 -5.3 -6.1 -11.1758 -9.7991 0.1474 -0.0011 0.002595 0.208014 9.08 490 820 0.06 -10.38 0.0000 0.0000
1.332 2 8.129789 2.819414 -12.095190 -20.538330 61.485291 -29.525757 0.00 -0.00 -1.9 -1.1 -5.3661 -6.5964 0.1452 -0.0011 0.000000 0.234492 11.36 490 870 0.04 -0.30 -0.0000 -0.0000
1.339 2 1.066870 0.544224 -4.118838 -30.380249 151.199341 -22.178650 0.00 -0.00 7.1 7.9 6.6944 7.9545 0.1460 -0.0011 0.000000 0.320040 9.51 490 850 -0.01 20.36 0.0000 0.0000
1.346 2 -6.401220 -1.853237 -9.671357 -32.699585 51.269531 -19.447327 0.17 -0.17 -6.6 -6.6 3.7459 5.0837 0.1476 -0.0011 0.005191 0.232985 8.10 510 920 0.07 -64.00 0.0000 0.0000
1.353 2 4.540791 -2.610835 -14.648486 -9.323120 10.391235 -23.986816 0.25 -0.25 2.5 0.9 -13.7987 -11.3636 0.1458 -0.0011 0.007786 0.190198 10.74 490 820 0.08 -1.57 -0.0000 -0.0000
1.360 2 8.491806 3.330073 -13.128495 -14.495850 96.023560 -46.623230 0.25 -0.25 -8.5 -8.5 -4.9716 -4.6311 0.1438 -0.0012 0.007786 0.231301 10.03 490 900 0.05 -16.79 0.0000 0.0000
1.367 2 1.464849 -1.584722 -3.397202 -17.890930 131.340027 -29.571533 0.25 -0.25 6.9 6.9 7.5126 5.5649 0.1446 -0.0011 0.007786 0.310330 8.37 490 860 0.01 26.02 0.0000 0.0000
1.374 2 -0.632930 -3.198213 -7.878057 -5.027771 43.678284 -25.901794 0.25 -0.25 -8.8 -8.8 3.4062 5.4748 0.1458 -0.0011 0.007786 0.262117 10.31 490 880 0.05 -49.90 0.0000 0.0000
1.381 2 7.050932 -1.421694 -14.854668 -13.031006 15.678406 -25.009155 0.17 -0.17 5.1 5.3 -8.0016 -9.0151 0.1444 -0.0011 0.005191 0.246351 11.60 510 850 0.04 8.00 0.0000 0.0000
1.388 2 8.242471 4.382558 -12.859980 -24.322510 68.038940 -26.748657 0.08 -0.08 10.0 10.0 -3.1087 -2.5466 0.1438 -0.0011 0.002595 0.288176 11.53 490 900 0.01 28.92 0.0000 0.0000
1.395 2 0.671289 -1.615889 -5.077822 -16.990662 58.311462 -30.075073 0.00 -0.00 -8.0 -8.1 3.8970 1.2440 0.1444 -0.0011 0.000000 0.332640 11.47 490 890 -0.01 -6.21 0.0000 0.0000
1.402 2 1.330591 3.466728 -10.726240 -17.593384 -17.539978 -7.362366 0.08 -0.08 9.1 9.1 -3.5680 -5.2211 0.1446 -0.0011 0.002595 0.298306 10.58 490 880 -0.00 28.37 0.0000 0.0000
1.409 2 6.926264 0.405171 -14.907412 -11.154175 -17.974854 -8.987427 0.08 -0.08 10.3 10.3 -4.7615 -4.8468 0.1438 -0.0012 0.002595 0.291274 11.75 490 900 0.01 20.01 0.0000 0.0000
1.417 2 5.559712 -0.558608 -8.110610 -10.261536 28.244019 -25.039673 0.08 -0.08 6.6 8.4 2.3195 -1.7700 0.1438 -0.0012 0.002595 0.325692 12.58 510 920 -0.01 16.91 0.0000 0.0000
1.423 2 -1.860430 -5.219272 -5.221670 -6.828308 5.874634 -21.553040 0.08 -0.08 -10.0 -10.0 5.5421 5.5649 0.1454 -0.0011 0.002595 0.341016 11.45 490 890 -0.01 -35.31 0.0000 0.0000
1.430 2 -1.141191 4.341802 -12.764082 -11.276245 -57.647705 -17.524719 0.08 -0.08 -8.4 -8.4 -4.1608 -5.2211 0.1454 -0.0011 0.002595 0.279095 9.94 490 880 0.02 -76.67 -0.0000 -0.0000
1.437 2 5.427851 1.184346 -12.984648 -4.989624 -35.469055 -18.325806 0.00 -0.00 8.9 9.3 -9.3908 -9.8706 0.1436 -0.0011 0.000000 0.265976 12.07 490 780 0.03 13.29 0.0000 0.0000
1.444 2 10.345043 0.268516 -4.377764 -18.394470 52.246094 -18.745422 0.00 -0.00 8.8 8.8 -2.3477 -2.2689 0.1432 -0.0011 0.000000 0.321792 10.31 490 860 -0.01 87.70 0.0000 0.0000
1.451 2 -0.795957 0.949395 -4.552778 -23.780823 45.753479 -12.374878 0.00 -0.00 -9.1 -9.1 10.9941 11.1758 0.1452 -0.0011 0.000000 0.348998 10.57 510 810 -0.00 -63.42 0.0000 0.0000
1.458 2 -0.546621 6.715288 -15.645829 -16.624451 -29.357910 -15.068054 0.00 -0.00 -3.5 -3.4 -2.8529 -2.2205 0.1452 -0.0011 0.000000 0.285743 9.30 490 890 0.02 -4.01 -0.0000 -0.0000
1.465 2 4.866846 1.738159 -16.719893 -6.683350 -6.340027 -21.865845 0.00 -0.00 -3.8 -3.9 -12.5210 -12.0738 0.1428 -0.0012 0.000000 0.268546 10.44 490 780 0.02 -11.41 0.0000 0.0000
1.472 2 9.402842 6.633774 -4.456880 -28.526306 104.217529 -16.281128 0.00 -0.00 8.8 8.8 -4.3763 -3.5215 0.1420 -0.0012 0.000000 0.343247 10.31 490 860 -0.03 90.48 0.0000 0.0000
1.479 2 0.419556 1.925161 -3.934233 -29.823303 87.043762 -16.288757 0.00 -0.00 -7.4 -7.4 12.5210 13.5227 0.1440 -0.0012 0.000000 0.393583 8.86 490 780 -0.04 -71.08 0.0000 0.0000
1.486 2 -0.294888 7.499258 -14.969746 -19.714355 -4.890442 -10.719299 0.08 -0.08 -3.5 -6.7 -2.7882 2.8469 0.1446 -0.0012 0.002595 0.312105 9.63 510 910 0.01 -6.02 -0.0000 -0.0000
1.493 2 8.678808 -1.611094 -17.388784 -15.960693 14.869690 -23.582458 0.00 -0.00 5.9 6.9 -6.5964 -8.0974 0.1432 -0.0012 0.000000 0.303019 11.36 490 810 0.01 7.60 0.0000 0.0000
1.500 2 4.794922 -1.431284 -6.453965 -18.890381 73.303223 -16.288757 0.00 -0.00 7.6 7.6 -2.0933 -2.0772 0.1428 -0.0012 0.000000 0.333112 9.11 490 860 -0.01 16.17 0.0000 0.0000
1.507 2 1.332988 0.726431 -3.754424 -14.793396 36.888123 -6.713867 -0.00 0.00 -10.6 -10.6 11.7589 11.1758 0.1444 -0.0012 0.000000 0.365855 12.07 490 820 -0.01 -32.86 0.0000 0.0000
1.515 2 1.364155 -7.504053 -13.658335 -6.362915 -9.284973 -5.439758 0.00 -0.00 1.0 -3.2 -4.1102 2.2205 0.1448 -0.0012 0.000000 0.310333 8.46 480 1090 0.02 0.85 0.0000 0.0000
1.521 2 6.372451 -3.831142 -12.991840 -6.752014 11.734009 -17.143250 -0.08 0.08 9.9 9.9 -6.6614 -7.7273 0.1434 -0.0012 -0.002595 0.305635 11.41 510 870 0.01 19.69 0.0000 0.0000
1.528 2 5.502172 -1.222705 -4.857256 -16.784668 61.813354 -24.047852 -0.08 0.08 -7.8 -8.3 2.1363 3.6157 0.1434 -0.0012 -0.002595 0.341128 10.57 490 900 0.00 -4.86 0.0000 0.0000
1.535 2 3.339663 2.318345 -3.761616 -18.989563 43.693542 -11.680603 -0.08 0.08 8.8 8.8 10.4827 10.9941 0.1450 -0.0012 -0.002595 0.397161 10.27 490 820 -0.04 45.43 0.0000 0.0000
1.542 2 -0.443530 -7.312256 -15.108798 -6.744385 -12.847900 -7.736206 -0.08 0.08 7.4 2.9 -5.8794 3.0050 0.1454 -0.0012 -0.002595 0.353508 9.40 490 890 -0.02 4.35 0.0000 0.0000
1.549 2 6.441978 -2.116958 -13.193227 -10.734558 -7.614136 -23.193359 -0.08 0.08 10.7 10.7 -6.0913 -6.0101 0.1442 -0.0012 -0.002595 0.333912 12.24 490 890 -0.01 25.48 0.0000 0.0000
1.556 2 5.473403 -1.275449 -4.025337 -17.349243 64.804077 -22.453308 -0.08 0.08 5.8 5.7 4.5685 4.1102 0.1442 -0.0012 -0.002595 0.382293 12.20 510 920 -0.02 10.84 0.0000 0.0000
1.563 2 1.836455 0.671289 -3.991772 -24.604797 49.888611 -13.191223 -0.08 0.08 -7.4 -7.4 9.4564 11.5579 0.1458 -0.0012 -0.002595 0.401356 8.91 490 820 -0.03 -55.24 0.0000 0.0000
1.570 2 -1.246680 2.186484 -16.132515 -14.396667 -10.246277 -10.871887 -0.08 0.08 2.3 2.5 -2.4676 -2.3155 0.1458 -0.0012 -0.002595 0.333824 9.40 490 890 0.00 -0.96 -0.0000 -0.0000
1.577 2 10.958794 -0.107886 -14.202559 -14.312744 32.951355 -22.827148 -0.08 0.08 9.9 9.9 -6.1747 -5.7300 0.1442 -0.0012 -0.002595 0.323033 11.36 490 890 0.01 21.15 0.0000 0.0000
1.584 2 2.838594 -13.576821 9.971040 9.132385 63.240051 -8.255005 -0.08 0.08 -8.1 -8.1 2.7997 2.0614 0.1442 -0.0012 -0.002595 0.374446 9.56 490 900 -0.02 -77.79 -0.0000 -0.0000
1.591 2 6.736865 -3.291714 -8.784297 -17.074585 98.022461 -6.492615 -0.08 0.08 6.9 6.9 7.5126 7.6399 0.1454 -0.0012 -0.002595 0.452348 8.40 510 840 -0.08 60.65 0.0000 0.0000
1.598 2 -3.869502 7.664682 -19.311546 -50.682068 24.971008 3.959656 -0.08 0.08 -8.8 -8.8 5.4091 5.4748 0.1470 -0.0012 -0.002595 0.423159 10.30 490 880 -0.05 -40.30 0.0000 0.0000
1.605 2 0.712046 4.320224 -19.639999 -21.080017 -39.947510 -12.199402 -0.17 0.17 -6.6 -6.6 -2.4767 -2.5807 0.1464 -0.0012 -0.005191 0.354312 12.40 490 900 -0.01 -18.53 -0.0000 -0.0000
1.612 2 6.573838 2.349512 -0.534634 -24.024963 22.918701 -6.469727 -0.17 0.17 7.2 7.2 -4.8818 -6.8993 0.1452 -0.0012 -0.005191 0.419634 8.75 490 840 -0.08 99.00 0.0000 0.0000
1.619 2 0.580186 0.594570 -5.689175 -23.498535 74.295044 -5.187988 -0.25 0.25 -6.2 -5.9 13.5227 13.5227 0.1470 -0.0012 -0.007786 0.546697 9.19 490 810 -0.16 -5.69 0.0000 0.0000
1.626 2 -3.677705 -2.948877 -12.586670 -28.457642 0.022888 0.381470 -0.17 0.17 5.6 -2.9 -8.0016 6.3786 0.1488 -0.0012 -0.005191 0.465721 11.04 510 880 -0.10 -1.92 -0.0000 -0.0000
1.633 2 6.070371 1.750146 -18.657040 -19.561768 -14.091492 -15.090942 -0.25 0.25 7.2 8.7 -4.5076 -7.6833 0.1478 -0.0012 -0.007786 0.411603 10.19 490 850 -0.06 5.69 0.0000 0.0000
1.640 2 0.884663 3.195815 5.490185 -32.279968 62.362671 -9.605408 -0.33 0.33 8.0 8.0 -1.8423 -2.0998 0.1476 -0.0012 -0.010382 0.467994 9.52 490 890 -0.10 99.00 0.0000 0.0000
1.647 2 6.832764 1.169961 -6.252578 -30.487061 75.668335 -3.456116 -0.33 0.33 8.1 8.1 15.9091 14.6986 0.1504 -0.0012 -0.010382 0.632469 9.62 490 820 -0.23 33.61 0.0000 0.0000
1.654 2 -2.411846 5.835420 -16.458569 -36.575317 15.518188 0.404358 -0.42 0.42 1.2 1.9 9.8706 9.5230 0.1535 -0.0012 -0.012977 0.566871 10.46 490 820 -0.17 6.31 0.0000 0.0000
1.661 2 2.546103 2.634809 -19.639999 -20.706177 -45.410156 -4.196167 -0.42 0.42 10.6 10.6 -2.7710 -2.4019 0.1535 -0.0012 -0.012977 0.494034 12.13 510 910 -0.12 19.17 0.0000 0.0000
1.668 2 8.232881 4.670254 -4.646279 -25.512695 -2.052307 2.418518 -0.50 0.50 8.6 8.6 -1.8448 -3.0594 0.1533 -0.0012 -0.015573 0.496209 10.12 490 890 -0.12 57.25 0.0000 0.0000
1.675 2 4.444892 -0.273311 0.052744 -22.209167 53.192139 5.241394 -0.42 0.42 7.3 7.3 16.0984 16.0984 0.1559 -0.0013 -0.012977 0.659412 8.78 490 800 -0.24 99.00 0.0000 0.0000
1.682 2 2.203267 -3.452344 -18.215908 -28.884888 -10.307312 -1.350403 -0.42 0.42 -8.9 -8.9 17.3368 15.9091 0.1595 -0.0013 -0.012977 0.620971 10.43 490 810 -0.19 -12.83 -0.0000 -0.0000
1.689 2 1.472041 0.484287 -19.639999 -18.020630 -91.835022 2.708435 -0.50 0.50 -3.0 -1.8 3.1448 2.4858 0.1601 -0.0013 -0.015573 0.536601 11.61 490 880 -0.14 -5.38 0.0000 0.0000
1.696 2 8.789091 3.538652 -5.945703 -22.209167 -51.536560 10.284424 -0.50 0.50 7.8 7.8 1.1946 1.0853 0.1601 -0.0013 -0.015573 0.523836 9.29 510 900 -0.12 33.39 0.0000 0.0000
1.703 2 5.140156 -0.402773 1.122012 -18.905640 23.803711 14.198303 -0.59 0.59 7.6 7.6 16.0984 14.8601 0.1623 -0.0014 -0.018168 0.681116 9.14 490 820 -0.25 99.00 0.0000 0.0000
1.710 2 -0.424351 7.211562 -17.875467 -30.570984 -42.457581 13.755798 -0.59 0.59 -8.8 -8.8 17.3368 17.7930 0.1663 -0.0014 -0.018168 0.648811 10.31 490 810 -0.20 -13.02 -0.0000 -0.0000
1.718 2 2.663579 5.926523 -19.639999 -24.482727 -119.148254 10.414124 -0.67 0.67 -5.8 -3.7 4.4483 2.8529 0.1673 -0.0015 -0.020764 0.557512 10.50 490 880 -0.15 -7.81 -0.0000 -0.0000
1.724 2 10.704662 3.720859 -6.298130 -4.211426 -39.657593 2.815247 -0.67 0.67 9.0 9.0 -2.5042 -1.8652 0.1669 -0.0015 -0.020764 0.576459 10.47 490 890 -0.16 63.15 0.0000 0.0000
1.731 2 5.058642 -0.481890 1.275449 -16.357422 16.120911 12.367249 -0.67 0.67 9.0 9.0 16.4911 16.2924 0.1698 -0.0015 -0.020764 0.694480 10.54 510 850 -0.25 99.00 0.0000 0.0000
1.738 2 -3.512280 16.918880 -19.059814 -64.704895 -24.497986 9.796143 -0.59 0.59 -9.1 -9.1 21.1292 20.8041 0.1740 -0.0016 -0.018168 0.692062 10.55 490 790 -0.22 -28.55 -0.0000 -0.0000
1.745 2 -2.706733 5.082617 -19.639999 -7.698059 -135.627747 4.669189 -0.67 0.67 -11.6 -11.6 4.9899 5.1811 0.1758 -0.0016 -0.020764 0.574256 13.08 490 890 -0.14 -22.59 -0.0000 -0.0000
1.752 2 10.632739 -7.276294 -5.729931 6.202698 -73.867798 -0.526428 -0.75 0.75 9.9 9.9 -2.6831 -4.3066 0.1752 -0.0016 -0.023359 0.545840 11.37 490 890 -0.13 41.50 0.0000 0.0000
1.759 2 3.272534 -1.400117 3.835938 -19.607544 29.411316 -9.704590 -0.92 0.92 7.5 7.5 15.5433 10.6478 0.1772 -0.0017 -0.028550 0.675565 8.99 490 820 -0.22 99.00 0.0000 0.0000
1.766 2 0.913433 -7.609541 -9.558677 -4.951477 -42.594910 3.555298 -1.00 1.00 -7.2 -7.2 12.6380 12.7573 0.1806 -0.0018 -0.031146 0.579660 8.70 510 840 -0.11 -1.67 -0.0000 -0.0000
1.773 2 6.748852 -5.432646 -14.363188 -9.254456 -68.504333 -10.803223 -1.17 1.17 -9.7 -3.6 2.3155 -6.4089 0.1806 -0.0018 -0.036337 0.513822 11.77 490 900 -0.08 -8.72 0.0000 0.0000
1.780 2 9.570663 0.697661 -5.389492 -26.275635 5.218506 -2.662659 -1.09 1.09 6.3 7.5 1.0532 2.3934 0.1808 -0.0018 -0.033741 0.513015 10.82 490 890 -0.07 15.96 0.0000 0.0000
1.787 2 5.413466 3.080737 -1.745352 -16.716003 49.697876 -8.598328 -0.92 0.92 7.3 7.3 11.4599 15.5433 0.1828 -0.0018 -0.028550 0.667254 8.78 490 820 -0.19 99.00 0.0000 0.0000
1.794 2 -2.246421 11.500620 -17.201782 -21.179199 4.386902 -21.469116 -0.92 0.92 -9.0 -9.0 19.3181 20.8041 0.1868 -0.0020 -0.028550 0.670260 10.47 490 800 -0.17 -47.08 -0.0000 -0.0000
1.801 2 3.723257 -10.100503 -19.359497 -1.617432 -95.405579 -9.834290 -1.00 1.00 -9.6 -9.1 4.4777 3.3472 0.1883 -0.0020 -0.031146 0.579884 11.09 510 910 -0.12 -18.15 -0.0000 -0.0000
1.808 2 3.229380 -6.362861 -9.074389 4.844666 -90.126038 -4.615784 -1.00 1.00 -10.6 -9.8 -4.7615 -6.2605 0.1874 -0.0020 -0.031146 0.525601 12.09 490 890 -0.08 -25.13 -0.0000 -0.0000
1.816 2 6.909482 0.750405 5.926523 -13.145447 0.961304 -5.500793 -0.92 0.92 8.8 8.8 2.8529 1.8808 0.1876 -0.0020 -0.028550 0.640578 10.33 480 890 -0.17 99.00 0.0000 0.0000
1.822 2 1.184346 0.611353 -9.887129 -12.626648 -8.766174 -13.542175 -0.84 0.84 -11.0 -11.0 16.9034 17.5619 0.1907 -0.0021 -0.025955 0.686472 12.50 490 810 -0.18 -45.89 0.0000 0.0000
1.829 2 5.459018 -4.667856 -16.444183 -2.883911 -59.181213 -18.470764 -0.92 0.92 -9.0 -9.0 6.9347 6.5013 0.1925 -0.0021 -0.028550 0.612076 10.54 490 860 -0.13 -15.75 -0.0000 -0.0000
1.836 2 2.325537 3.754424 -13.970004 -16.113281 -75.065613 -16.990662 -0.92 0.92 -9.2 -8.9 -6.6288 -5.7058 0.1917 -0.0021 -0.028550 0.554654 10.66 510 920 -0.10 -22.29 0.0000 0.0000
1.843 2 12.200678 5.442236 1.054883 -20.858765 -1.472473 -4.234314 -0.75 0.75 9.0 9.0 -2.1296 1.8054 0.1917 -0.0021 -0.023359 0.596176 10.52 490 900 -0.12 99.00 0.0000 0.0000
1.850 2 2.303960 -0.220566 -6.600210 -12.153625 26.855469 -14.503479 -0.67 0.67 -7.2 -7.2 14.6986 17.3368 0.1939 -0.0021 -0.020764 0.694172 8.67 490 820 -0.18 -29.78 0.0000 0.0000
1.857 2 1.663838 -4.082876 -15.171132 -22.544861 -35.545349 -8.415222 -0.59 0.59 -10.3 -10.3 6.5644 6.4394 0.1961 -0.0022 -0.018168 0.621662 11.82 490 880 -0.13 -26.20 0.0000 0.0000
1.864 2 3.804770 9.745678 -17.642914 -16.456604 -70.495605 -17.356873 -0.59 0.59 3.6 4.6 -4.2658 -5.3449 0.1953 -0.0022 -0.018168 0.552324 11.39 490 900 -0.09 -2.16 -0.0000 -0.0000
1.871 2 9.256597 2.965659 -1.793301 -14.297485 12.771606 -15.434265 -0.67 0.67 6.8 6.8 -3.3389 -3.2585 0.1947 -0.0022 -0.020764 0.565252 8.26 510 910 -0.08 67.85 0.0000 0.0000
1.878 2 1.201128 0.877471 -2.821811 -15.769958 50.354004 -10.848999 -0.67 0.67 8.3 8.3 12.7573 12.0738 0.1963 -0.0022 -0.020764 0.714472 9.76 490 810 -0.20 47.58 0.0000 0.0000
1.885 2 -3.476318 5.348735 -18.434076 -25.802612 -8.232117 -2.113342 -0.67 0.67 -9.1 -9.1 6.3190 7.1929 0.1987 -0.0022 -0.020764 0.629423 10.55 490 850 -0.12 -34.74 0.0000 0.0000
1.892 2 6.348476 -6.278950 -15.314980 -7.911682 -44.868469 -12.596130 -0.67 0.67 4.0 5.0 -7.8166 -7.9545 0.1979 -0.0022 -0.020764 0.553531 11.94 490 810 -0.08 0.12 0.0000 0.0000
1.899 2 7.750991 -0.275708 -5.224067 -12.710571 36.300659 -16.876221 -0.75 0.75 11.0 11.0 -5.9051 -7.9545 0.1965 -0.0022 -0.023359 0.549938 12.48 490 840 -0.07 52.85 0.0000 0.0000
1.906 2 1.050088 -0.628135 -0.222964 -19.004822 90.293884 -7.308960 -0.75 0.75 9.1 9.1 8.9554 10.9054 0.1977 -0.0022 -0.023359 0.694513 10.60 510 840 -0.18 99.00 0.0000 0.0000
1.914 2 -5.027475 13.478525 -17.501465 -20.744324 18.447876 -2.159119 -0.59 0.59 -7.7 -7.7 3.9425 5.2617 0.1993 -0.0023 -0.018168 0.585631 9.22 490 1140 -0.07 -33.38 0.0000 0.0000
1.920 2 5.286401 -4.684639 -14.665268 -21.713257 0.503540 -6.446838 -0.67 0.67 -6.2 -4.4 -8.0492 -10.0168 0.1979 -0.0022 -0.020764 0.526017 12.58 490 820 -0.04 -14.27 -0.0000 -0.0000
1.927 2 10.517661 0.134258 -4.269878 -29.945374 98.983765 -18.890381 -0.59 0.59 8.7 8.7 -4.8468 -3.4497 0.1969 -0.0022 -0.018168 0.548593 10.19 490 890 -0.05 45.81 0.0000 0.0000
1.934 2 -0.963779 -1.929956 -0.270913 -22.483826 103.744507 -14.099121 -0.59 0.59 -7.8 -7.8 10.5646 13.5227 0.1985 -0.0022 -0.018168 0.596812 9.29 490 810 -0.06 -99.00 -0.0000 -0.0000
1.941 2 2.637207 -1.766929 -15.233466 -20.408630 29.808044 -1.747131 -0.59 0.59 10.7 10.7 -3.7459 -3.7773 0.1989 -0.0022 -0.018168 0.521980 12.20 510 910 -0.02 21.20 0.0000 0.0000
1.948 2 9.644985 3.893476 -16.180464 -25.329590 29.296875 -10.047913 -0.67 0.67 5.1 7.2 -6.5964 -9.3908 0.1975 -0.0022 -0.020764 0.498874 11.37 490 860 -0.01 3.65 0.0000 0.0000
1.955 2 10.253941 4.826089 -1.498413 -23.605347 86.410522 -3.967285 -0.67 0.67 10.0 10.0 -1.9712 3.5965 0.1971 -0.0022 -0.020764 0.555902 11.50 490 890 -0.03 59.11 0.0000 0.0000
1.962 2 5.535737 -5.638828 -6.576235 -19.630432 72.914124 -1.663208 -0.67 0.67 8.3 8.3 13.1288 13.7987 0.1995 -0.0023 -0.020764 0.665271 9.84 490 820 -0.12 47.86 0.0000 0.0000
1.969 2 0.409966 -6.396426 -19.639999 -21.568298 -19.096375 9.979248 -0.59 0.59 -8.3 -9.0 5.9310 7.2703 0.2017 -0.0023 -0.018168 0.604791 10.47 490 840 -0.06 -11.27 -0.0000 -0.0000
1.976 2 7.496860 -3.167046 -12.054433 -14.747620 -74.661255 -8.796692 -0.67 0.67 2.7 3.0 -6.2031 -7.6399 0.2007 -0.0023 -0.020764 0.538187 10.30 510 890 -0.03 -3.76 -0.0000 -0.0000
1.983 2 8.201714 3.553037 -0.457915 -25.611877 -1.434326 -3.448486 -0.75 0.75 7.1 7.1 3.2743 -3.3063 0.2001 -0.0023 -0.023359 0.584670 8.64 490 900 -0.06 57.83 0.0000 0.0000
1.990 2 1.704595 3.236572 -6.336489 -19.096375 1.327515 2.471924 -0.67 0.67 -7.8 -7.8 13.3888 13.3888 0.2023 -0.0023 -0.020764 0.671849 9.29 490 820 -0.11 -54.62 -0.0000 -0.0000
1.997 2 0.978164 -1.354565 -18.714579 -15.388489 -48.217773 3.120422 -0.84 0.84 -10.3 -10.3 4.1737 2.8957 0.2035 -0.0023 -0.025955 0.605278 11.80 490 880 -0.06 -38.05 0.0000 0.0000
2.004 2 5.142553 3.665718 -14.756371 -13.633728 -63.003540 -4.219055 -0.92 0.92 -10.4 -10.4 -3.3807 -6.7613 0.2025 -0.0023 -0.028550 0.547621 11.91 490 870 -0.03 -29.88 0.0000 0.0000
2.011 2 9.865551 2.423833 2.162510 -22.331238 12.435913 13.710022 -0.92 0.92 6.6 6.6 -6.5644 -5.6345 0.2013 -0.0023 -0.028550 0.609664 8.07 510 910 -0.08 99.00 0.0000 0.0000
2.018 2 2.078598 0.218169 -6.171064 -12.283325 8.399963 3.120422 -0.92 0.92 -8.1 -8.1 13.1288 13.0026 0.2033 -0.0023 -0.028550 0.697176 9.62 490 820 -0.13 -25.46 -0.0000 -0.0000
2.025 2 2.752285 0.052744 -19.218046 -26.840210 -39.276123 15.693665 -0.92 0.92 -9.2 -9.2 5.3239 4.8468 0.2045 -0.0024 -0.028550 0.642628 10.73 490 880 -0.08 -42.29 -0.0000 -0.0000
2.032 2 6.370053 0.122271 -14.137827 -15.190125 -78.414917 -3.578186 -0.92 0.92 -5.7 -4.3 -6.7953 -5.5879 0.2037 -0.0024 -0.028550 0.582399 12.59 490 860 -0.05 -16.30 -0.0000 -0.0000
2.039 2 8.978491 5.868984 -1.558350 -20.629883 -23.658752 -13.488770 -0.84 0.84 10.6 10.6 -4.0854 -3.7459 0.2027 -0.0023 -0.025955 0.606344 12.09 490 900 -0.06 63.27 0.0000 0.0000
2.046 2 2.881748 2.378281 -5.720342 -10.864258 2.700806 -1.838684 -0.75 0.75 -8.9 -8.9 11.3636 13.3888 0.2045 -0.0024 -0.023359 0.705414 10.36 510 840 -0.13 -15.08 0.0000 0.0000
2.053 2 -1.368950 4.456880 -17.690865 -15.869141 -53.993225 -14.442444 -0.67 0.67 2.6 -3.4 -6.1189 3.4148 0.2055 -0.0024 -0.020764 0.640263 11.01 490 890 -0.08 -7.71 -0.0000 -0.0000
2.060 2 5.420659 2.783452 -12.438027 -7.392883 -78.666687 -18.371582 -0.84 0.84 3.1 6.1 -6.8993 -10.9054 0.2043 -0.0024 -0.025955 0.581217 10.63 490 820 -0.05 -4.13 0.0000 0.0000
2.067 2 13.020610 4.509624 -2.217651 -18.020630 9.216309 -10.528564 -0.75 0.75 9.1 9.1 -4.3905 -4.4337 0.2033 -0.0023 -0.023359 0.605030 10.63 490 890 -0.05 78.16 0.0000 0.0000
2.074 2 0.795957 0.515454 -4.682241 -14.320374 20.713806 -16.357422 -0.67 0.67 -7.2 -7.2 10.9054 12.6380 0.2051 -0.0024 -0.020764 0.674801 8.75 490 810 -0.09 -63.88 -0.0000 -0.0000
2.081 2 -0.522646 -1.666235 -15.799267 -18.455505 -42.655945 -20.179749 -0.59 0.59 7.4 7.4 -4.2524 -4.2658 0.2057 -0.0024 -0.018168 0.598041 8.88 510 910 -0.04 13.88 0.0000 0.0000
2.088 2 5.950498 -0.903843 -13.557641 -6.088257 -55.679321 -17.417908 -0.59 0.59 -3.5 -2.0 -10.0916 -11.5579 0.2037 -0.0024 -0.018168 0.544761 10.27 490 830 -0.00 -11.60 0.0000 0.0000
2.095 2 9.726499 1.524785 -1.157974 -15.884399 41.137695 -12.306213 -0.59 0.59 10.5 10.5 -7.5970 -5.2823 0.2021 -0.0023 -0.018168 0.580665 11.96 490 850 -0.03 61.01 0.0000 0.0000
2.102 2 -0.261323 1.589517 -5.152143 -16.670227 43.846130 -25.779724 -0.59 0.59 -8.2 -8.2 12.4061 11.3636 0.2037 -0.0024 -0.018168 0.637237 9.65 490 820 -0.04 -99.00 -0.0000 -0.0000
2.109 2 1.052485 -4.641484 -13.749438 -12.191772 -20.004272 -18.463135 -0.50 0.50 -7.7 -7.7 -3.7356 2.4812 0.2043 -0.0024 -0.015573 0.561184 9.18 490 900 0.01 -21.26 0.0000 0.0000
2.117 2 5.475801 1.543965 -15.849614 -13.229370 -26.504517 -17.837524 -0.67 0.67 6.8 8.6 -13.6593 -15.0252 0.2019 -0.0023 -0.020764 0.515525 12.39 510 840 0.03 5.62 0.0000 0.0000
2.123 2 12.116767 3.845527 -2.570078 -21.415710 58.593750 -1.907349 -0.59 0.59 10.2 10.2 -12.0738 -11.8620 0.1993 -0.0023 -0.018168 0.535795 11.68 490 820 0.01 76.12 0.0000 0.0000
2.130 2 -1.268257 0.431543 -2.584463 -22.209167 89.103699 -6.683350 -0.50 0.50 -6.2 -6.2 4.2524 2.9655 0.1995 -0.0023 -0.015573 0.623563 7.67 490 900 -0.04 -99.00 -0.0000 -0.0000
2.137 2 -3.217392 4.051709 -13.941235 -26.351929 15.159607 -15.197754 -0.50 0.50 -7.5 -7.5 -2.3600 -3.9083 0.1995 -0.0023 -0.015573 0.519538 8.97 490 890 0.04 -34.79 0.0000 0.0000
2.144 2 8.518178 -7.662285 -15.674599 -17.433167 25.947571 -12.359619 -0.59 0.59 -9.8 -7.8 -13.9409 -16.2924 0.1965 -0.0022 -0.018168 0.485663 11.75 490 830 0.05 -21.36 0.0000 0.0000
2.151 2 9.980630 -5.646020 -1.915571 -28.396606 144.683838 -9.201050 -0.59 0.59 7.3 7.3 -11.9670 -11.2689 0.1937 -0.0022 -0.018168 0.533544 8.80 510 850 0.01 68.50 0.0000 0.0000
2.158 2 -2.620425 -3.155058 -1.193936 -31.982422 148.468018 -21.873474 -0.67 0.67 -7.5 -7.5 2.6725 6.0101 0.1935 -0.0022 -0.020764 0.554213 8.99 490 890 0.03 -99.00 0.0000 0.0000
2.165 2 0.549019 -5.562109 -10.088515 -24.139404 67.108154 -18.890381 -0.67 0.67 -8.5 -8.5 -11.9670 -13.3888 0.1923 -0.0021 -0.020764 0.432914 9.98 490 810 0.12 -45.02 -0.0000 -0.0000
2.172 2 8.012314 -6.851943 -16.312325 -21.072388 105.506897 -11.894226 -0.75 0.75 -8.5 -8.5 -15.1940 -12.8788 0.1889 -0.0021 -0.023359 0.432473 10.03 490 810 0.11 -51.82 -0.0000 -0.0000
2.179 2 6.662544 2.239228 -3.198213 -36.231995 221.916199 -13.069153 -0.75 0.75 10.0 10.0 -7.8620 -9.9432 0.1868 -0.0020 -0.023359 0.506877 11.45 490 820 0.05 64.61 0.0000 0.0000
2.186 2 0.755200 2.577271 -3.080737 -37.399292 199.928284 -18.035889 -0.67 0.67 9.2 9.2 3.9196 2.2096 0.1870 -0.0020 -0.020764 0.497796 10.73 510 910 0.09 86.17 0.0000 0.0000
2.193 2 19.639400 -0.198989 -14.478266 -30.456543 120.201111 -23.628235 -0.67 0.67 8.4 8.4 -9.9432 -9.2621 0.1862 -0.0020 -0.020764 0.448429 9.92 490 820 0.11 67.15 0.0000 0.0000
2.200 2 -10.110092 -19.639999 -19.639999 -11.734009 -34.202576 -22.674561 -0.75 0.75 -7.7 -7.7 -3.1375 -4.4777 0.1852 -0.0020 -0.023359 0.475322 9.24 490 880 0.09 -86.66 0.0000 0.0000
2.207 2 8.427075 2.610835 14.952964 11.444092 -190.910339 -13.137817 -0.75 0.75 8.5 8.5 -9.1991 -10.2445 0.1840 -0.0020 -0.023359 0.347206 10.03 490 820 0.21 99.00 0.0000 0.0000
2.215 2 12.893544 -0.203784 -12.227051 -0.663757 44.349670 -5.973816 -0.75 0.75 7.4 7.4 -4.0008 -3.6157 0.1828 -0.0019 -0.023359 0.543868 8.89 490 1150 0.03 11.44 0.0000 0.0000
2.221 2 -4.212339 -9.019248 -16.808598 22.109985 17.417908 -2.334595 -0.67 0.67 -7.0 -7.0 3.0050 4.5226 0.1838 -0.0020 -0.020764 0.490312 8.50 510 900 0.10 -65.29 0.0000 0.0000
2.228 2 6.161474 8.184932 -11.567749 -20.790100 -88.653564 -3.677368 -0.50 0.50 2.2 2.2 -15.9091 -15.0252 0.1814 -0.0019 -0.015573 0.389761 10.05 490 830 0.16 -3.48 -0.0000 -0.0000
2.235 2 12.603452 6.250180 -4.847666 -28.266907 81.665039 7.522583 -0.50 0.50 9.4 9.4 -10.9054 -7.9545 0.1786 -0.0019 -0.015573 0.449447 10.88 490 820 0.11 30.86 0.0000 0.0000
2.242 2 -6.269360 3.910259 0.246938 -22.453308 85.266113 -4.470825 -0.25 0.25 -9.4 -9.4 -2.1096 7.2703 0.1788 -0.0019 -0.007786 0.352800 10.93 490 850 0.23 -99.00 -0.0000 -0.0000
2.249 2 13.912465 3.099917 -19.639999 -26.542664 -15.571594 -12.283325 -0.08 0.08 3.0 3.0 -12.5210 -12.4061 0.1772 -0.0019 -0.002595 0.252294 9.22 490 830 0.30 1.10 0.0000 0.0000
2.256 2 8.136982 7.333833 -18.309408 -13.786316 26.306152 -28.747559 -0.08 0.08 -9.0 -9.0 -9.8706 -8.7810 0.1748 -0.0019 -0.002595 0.308539 10.54 510 850 0.25 -47.09 -0.0000 -0.0000
2.263 2 0.570596 -1.766929 7.046137 -10.116577 -13.526917 2.029419 -0.08 0.08 9.2 9.2 -18.5242 -15.5433 0.1716 -0.0018 -0.002595 0.370310 10.69 490 820 0.17 99.00 0.0000 0.0000
2.270 2 9.474766 -1.124409 -8.755527 -10.421753 2.082825 -7.820129 0.08 -0.08 7.3 7.3 -8.8384 -8.0492 0.1691 -0.0018 0.002595 0.547897 8.76 490 810 0.01 12.55 0.0000 0.0000
2.277 2 3.083135 -0.285298 -14.897821 -19.500732 -20.256042 -13.305664 0.17 -0.17 -10.9 -10.9 -1.6988 2.0582 0.1693 -0.0018 0.005191 0.552815 12.40 490 880 0.03 -40.54 0.0000 0.0000
2.284 2 4.936372 -1.145986 -11.268066 -2.166748 -82.382202 -12.512207 0.08 -0.08 -7.3 -7.3 -12.4061 -12.7573 0.1679 -0.0019 0.002595 0.467810 8.80 490 820 0.08 -27.59 -0.0000 -0.0000
2.291 2 6.895097 13.751836 -11.268066 -18.203735 11.283875 -18.112183 0.08 -0.08 -3.0 -2.7 -9.8706 -11.1758 0.1651 -0.0019 0.002595 0.477629 11.85 510 850 0.07 -10.52 0.0000 0.0000
2.298 2 2.399858 -0.093501 2.188882 -23.979187 82.427979 -19.081116 -0.00 0.00 6.7 6.7 -5.6111 -5.9310 0.1637 -0.0019 -0.000000 0.607500 8.18 490 860 -0.04 99.00 0.0000 0.0000
2.305 2 0.843906 8.223290 -14.408740 -20.118713 6.851196 -4.859924 0.08 -0.08 -10.9 -10.9 2.8172 4.8818 0.1643 -0.0019 0.002595 0.594345 12.37 490 880 -0.00 -60.15 -0.0000 -0.0000
2.312 2 3.387612 2.862568 -19.639999 -4.852295 -68.473816 -14.038086 0.08 -0.08 -9.1 -9.1 -2.8114 -1.4101 0.1639 -0.0019 0.002595 0.548265 10.65 490 890 0.03 -27.90 -0.0000 -0.0000
2.319 2 4.821294 -1.321001 -5.586084 -6.568909 -50.865173 -24.879456 0.08 -0.08 8.3 8.3 -11.5579 -11.0842 0.1619 -0.0019 0.002595 0.537812 9.84 490 820 0.01 12.16 0.0000 0.0000
2.326 2 9.731294 -0.285298 -7.058125 -8.575439 33.477783 -18.745422 0.08 -0.08 10.5 10.5 -2.4722 -2.8172 0.1615 -0.0019 0.002595 0.565421 11.96 510 910 0.01 17.75 0.0000 0.0000
2.333 2 -0.187002 0.923022 -3.366035 -12.512207 26.161194 -23.529053 0.08 -0.08 -10.0 -10.0 1.4355 1.6471 0.1619 -0.0019 0.002595 0.534495 11.50 490 880 0.05 -56.00 -0.0000 -0.0000
2.340 2 7.237934 0.774380 -14.384766 -10.238647 -8.354187 -16.082764 -0.00 0.00 -9.0 -9.0 -13.2575 -13.3888 0.1597 -0.0019 -0.000000 0.467799 10.47 490 780 0.08 -22.25 0.0000 0.0000
2.347 2 19.639400 1.498413 -7.904428 -11.703491 54.924011 2.830505 0.08 -0.08 9.2 9.2 -14.6986 -12.5210 0.1567 -0.0019 0.002595 0.483400 10.73 490 810 0.06 43.41 0.0000 0.0000
2.354 2 -1.421694 -2.092983 -8.942529 -30.616760 44.052124 -18.623352 0.08 -0.08 -6.7 -6.7 -3.3307 -3.8970 0.1555 -0.0019 0.002595 0.534881 8.24 490 880 0.04 -81.69 -0.0000 -0.0000
2.361 2 -0.390786 5.327158 -2.927300 -16.746521 -77.262878 -12.054443 0.17 -0.17 -8.0 -8.0 -7.9080 -8.6684 0.1545 -0.0019 0.005191 0.373576 9.52 510 830 0.19 -99.00 0.0000 0.0000
2.368 2 10.956396 4.298647 -11.620493 -10.002136 -25.596619 0.610352 0.08 -0.08 -6.2 -7.0 -9.0756 -7.7273 0.1518 -0.0019 0.002595 0.417075 10.60 490 820 0.14 -14.79 0.0000 0.0000
2.375 2 9.117543 4.399341 -13.763823 -24.864197 38.421631 -15.495300 0.08 -0.08 -6.1 -6.2 -2.7710 -2.5135 0.1514 -0.0019 0.002595 0.451986 12.06 490 900 0.11 -8.83 0.0000 0.0000
2.382 2 3.243765 1.977905 -3.732846 -17.677307 7.598877 -20.118713 -0.00 0.00 8.8 8.8 -9.6591 -11.4599 0.1496 -0.0019 -0.000000 0.450511 10.30 490 790 0.10 15.80 0.0000 0.0000
2.389 2 10.774189 1.572734 -9.906308 -15.068054 4.188538 -11.566162 0.08 -0.08 2.1 1.9 -5.8540 -4.9353 0.1478 -0.0019 0.002595 0.486674 11.07 490 900 0.07 1.68 0.0000 0.0000
2.396 2 0.323657 -0.393184 -6.360464 -7.896423 -24.208069 -8.682251 0.17 -0.17 -9.1 -9.1 -2.6938 -3.2120 0.1472 -0.0019 0.005191 0.487989 10.62 510 920 0.08 -60.72 0.0000 0.0000
2.403 2 3.425972 -2.941684 -10.819741 -4.035950 -45.539856 -15.373230 0.08 -0.08 -9.4 -9.4 -13.6593 -14.6986 0.1450 -0.0019 0.002595 0.454230 10.85 490 820 0.09 -37.78 -0.0000 -0.0000
2.410 2 18.378935 0.139053 -11.037910 -21.835327 59.875488 -15.129089 0.17 -0.17 10.3 10.3 -10.1674 -9.5230 0.1420 -0.0019 0.005191 0.494156 11.75 490 830 0.05 15.72 0.0000 0.0000
2.418 2 -2.071406 0.719238 -4.365776 -15.892029 40.931702 -12.031555 0.17 -0.17 -11.5 -11.5 5.3449 2.2804 0.1420 -0.0019 0.005191 0.507229 12.96 490 890 0.08 -99.00 0.0000 0.0000
2.424 2 1.181948 8.786695 -8.232881 -4.791260 -90.194702 -17.219543 0.08 -0.08 -6.8 -6.8 -1.8524 -9.7286 0.1414 -0.0019 0.002595 0.345101 8.32 490 860 0.21 -60.56 -0.0000 -0.0000
2.431 2 7.376987 0.831919 -13.809375 -9.819031 -35.308838 -17.051697 0.08 -0.08 -9.9 -9.9 -12.6380 -11.9670 0.1386 -0.0019 0.002595 0.366087 11.37 510 840 0.17 -37.65 -0.0000 -0.0000
2.438 2 11.896201 -1.009331 -3.711269 -16.571045 64.872742 -15.762329 0.17 -0.17 8.4 8.4 -12.1826 -10.5646 0.1364 -0.0019 0.005191 0.417273 9.95 490 810 0.13 77.96 0.0000 0.0000
2.445 2 7.441719 -5.130566 -3.651333 -6.492615 53.695679 -18.394470 0.25 -0.25 -2.8 -3.3 -2.6360 -2.7767 0.1358 -0.0019 0.007786 0.445191 9.21 490 900 0.11 -4.48 0.0000 0.0000
2.452 2 2.155317 0.287695 -9.738486 -3.944397 -50.094604 -20.263672 0.17 -0.17 -9.3 -9.3 -6.7277 -10.0168 0.1343 -0.0020 0.005191 0.446249 10.82 490 850 0.11 -45.36 0.0000 0.0000
2.459 2 2.682759 0.668892 -8.470229 -1.976013 -69.793701 -22.422791 0.25 -0.25 -10.1 -10.1 -16.4911 -17.3368 0.1313 -0.0020 0.007786 0.432870 11.58 490 820 0.10 -29.62 -0.0000 -0.0000
2.466 2 15.449238 0.668892 -9.431611 -11.894226 41.625977 -6.004333 0.25 -0.25 7.4 7.4 -10.9941 -10.0168 0.1285 -0.0020 0.007786 0.480856 8.88 510 850 0.06 24.22 0.0000 0.0000
2.473 2 4.617510 -1.807685 -8.767514 -15.914917 81.817627 -16.044617 0.33 -0.33 -5.7 -6.4 3.1158 2.8895 0.1287 -0.0020 0.010382 0.535403 9.10 490 900 0.04 -6.13 0.0000 0.0000
2.480 2 -4.941167 2.862568 -4.368174 -13.267517 -91.468811 -21.347046 0.33 -0.33 -8.5 -8.5 -8.3473 -7.1929 0.1279 -0.0020 0.010382 0.387225 10.00 490 830 0.16 -99.00 -0.0000 -0.0000
2.487 2 10.246748 6.043999 -13.269946 -19.378662 -51.582336 -19.935608 0.42 -0.42 -1.5 -4.0 -16.6947 -13.3888 0.1245 -0.0020 0.012977 0.382875 10.66 490 820 0.14 -11.83 0.0000 0.0000
2.494 2 9.400444 6.051191 -9.290161 -26.115417 74.310303 -11.825562 0.50 -0.50 8.9 8.9 -8.8384 -9.6591 0.1227 -0.0021 0.015573 0.440652 10.44 490 810 0.10 42.96 0.0000 0.0000
2.501 2 2.452602 2.419038 -6.271758 -18.218994 29.983521 -10.566711 0.59 -0.59 -8.8 -8.8 -4.1228 -2.3436 0.1221 -0.0021 0.018168 0.457257 10.35 510 910 0.09 -23.99 -0.0000 -0.0000
2.508 2 6.688916 -2.021060 -8.614077 -1.922607 -65.513611 -17.738342 0.59 -0.59 2.4 1.5 -18.7815 -18.2739 0.1189 -0.0021 0.018168 0.399531 10.09 490 820 0.12 -6.94 0.0000 0.0000
2.516 2 12.936699 0.846304 -7.002983 -7.957458 -10.772705 -21.133423 0.50 -0.50 8.8 8.8 -13.1288 -13.0026 0.1154 -0.0022 0.015573 0.435441 10.31 490 1090 0.09 22.10 0.0000 0.0000
2.522 2 9.860757 2.932095 -9.386059 -19.981384 62.095642 -15.556335 0.50 -0.50 -8.6 -4.5 5.8037 -3.2429 0.1146 -0.0022 0.015573 0.503740 12.02 490 900 0.05 -8.08 0.0000 0.0000
2.529 2 -6.688916 -2.335127 -6.552260 -7.080078 -38.330078 -11.993408 0.50 -0.50 -10.4 -10.4 -1.9799 -1.9485 0.1142 -0.0022 0.015573 0.452422 11.88 490 890 0.09 -99.00 0.0000 0.0000
2.536 2 4.253096 6.185449 -14.782743 -5.142212 -78.979492 -17.875671 0.50 -0.50 -2.6 -2.5 -17.3368 -18.5242 0.1114 -0.0023 0.015573 0.371366 11.60 510 850 0.14 -12.23 -0.0000 -0.0000
2.543 2 8.398305 -1.826865 -10.841318 -11.550903 22.537231 -8.300781 0.50 -0.50 -11.0 -11.0 -13.0026 -12.8788 0.1078 -0.0023 0.015573 0.388217 12.47 490 820 0.13 -27.48 0.0000 0.0000
2.550 2 3.102314 -0.067129 -5.367915 -25.482178 85.823059 -20.080566 0.42 -0.42 9.4 9.4 -9.5230 -7.6399 0.1052 -0.0023 0.012977 0.486326 10.95 490 820 0.04 7.20 0.0000 0.0000
2.557 2 2.963262 -2.759477 -6.506709 -8.750916 -5.340576 -15.968323 0.50 -0.50 1.8 -2.4 -6.5013 -2.5088 0.1046 -0.0023 0.015573 0.431415 12.69 490 900 0.11 0.11 0.0000 0.0000
2.564 2 4.864448 2.982441 -14.636498 6.622314 -73.364258 -9.864807 0.42 -0.42 -5.9 -5.3 -9.1991 -11.6575 0.1032 -0.0024 0.012977 0.417425 10.09 490 820 0.11 -12.07 0.0000 0.0000
2.571 2 7.798940 2.996826 -9.995014 -7.164001 -45.669556 -18.257141 0.33 -0.33 8.9 8.9 -19.3181 -20.8041 0.0993 -0.0024 0.010382 0.404401 10.44 510 830 0.09 10.11 0.0000 0.0000
2.578 2 12.375693 4.301045 -4.888422 -27.618408 60.089111 -16.189575 0.17 -0.17 9.4 9.4 -13.0026 -12.4061 0.0965 -0.0024 0.005191 0.454987 10.87 490 820 0.06 77.65 0.0000 0.0000
2.585 2 0.421953 0.474697 -3.593794 -22.056580 68.191528 -1.258850 0.17 -0.17 -6.6 -6.6 -4.8995 -4.5685 0.0953 -0.0024 0.005191 0.501586 8.05 490 890 0.03 -20.83 -0.0000 -0.0000
2.592 2 2.361499 -0.429145 -16.520903 -23.651123 -58.341980 -1.640320 0.08 -0.08 -7.7 -7.7 -12.6380 -13.1288 0.0939 -0.0024 0.002595 0.445514 9.19 490 820 0.07 -29.09 0.0000 0.0000
2.599 2 3.366035 1.913174 -10.913241 -20.462036 -67.222595 -15.472412 0.08 -0.08 -10.2 -10.2 -15.3667 -16.0984 0.0903 -0.0024 0.002595 0.417599 11.66 490 820 0.08 -56.37 -0.0000 -0.0000
2.606 2 12.946289 5.931318 -2.932095 -26.054382 55.831909 -8.621216 0.00 -0.00 6.4 6.4 -7.5126 -7.9545 0.0877 -0.0025 -0.000000 0.501435 7.86 510 840 0.01 74.32 0.0000 0.0000
2.614 2 6.676929 1.733364 -9.644985 -23.551941 62.240601 1.083374 0.08 -0.08 11.3 11.3 3.3807 3.0944 0.0879 -0.0024 -0.000000 0.523665 12.75 490 1130 0.01 19.80 0.0000 0.0000
2.620 2 0.815137 2.677964 -12.821621 -9.262085 -92.010498 0.183105 0.08 -0.08 -9.4 -9.4 -7.1929 -9.1991 0.0871 -0.0025 0.002595 0.425820 10.85 490 820 0.09 -59.17 0.0000 0.0000
2.627 2 8.865810 5.264824 -12.490771 -23.773193 -54.481506 -16.265869 0.17 -0.17 11.1 11.1 -20.8041 -21.8108 0.0833 -0.0025 0.005191 0.395900 12.56 490 800 0.08 27.45 0.0000 0.0000
2.634 2 11.711596 2.920107 -3.387612 -28.053284 68.588257 -3.875732 0.00 -0.00 10.1 10.1 -7.2703 -8.1462 0.0808 -0.0025 -0.000000 0.446570 11.61 490 820 0.06 52.25 0.0000 0.0000
2.641 2 -4.653471 0.709648 -6.036807 -24.917603 40.588379 -3.608704 -0.00 0.00 -9.4 -9.4 -2.6156 -4.7953 0.0800 -0.0025 -0.000000 0.485323 10.93 510 890 0.03 -97.21 0.0000 0.0000
2.648 2 7.463295 1.249077 -11.375952 -19.615173 -51.605225 -3.639221 0.25 -0.25 -0.9 -2.2 -13.9409 -11.9670 0.0782 -0.0025 0.007786 0.379682 9.92 490 830 0.11 -5.19 -0.0000 -0.0000
2.655 2 5.466211 -5.535737 -15.540341 -22.079468 -12.863159 -22.872925 0.17 -0.17 -8.9 -8.9 -8.6132 -10.5646 0.0752 -0.0025 0.005191 0.402034 10.43 490 800 0.09 -50.24 0.0000 0.0000
2.662 2 3.857515 0.465107 -1.810083 -16.441345 22.857666 -22.308350 0.08 -0.08 8.9 8.9 -10.4827 -15.5433 0.0726 -0.0025 0.002595 0.416269 10.36 490 820 0.07 28.52 0.0000 0.0000
2.669 2 5.643623 0.707251 -11.435888 -12.718201 37.605286 -10.627747 -0.08 0.08 -3.1 -2.1 4.5996 3.4585 0.0726 -0.0025 -0.002595 0.528870 8.34 490 890 -0.00 -4.46 0.0000 0.0000
2.676 2 -5.260029 0.222964 -9.736089 -10.116577 -52.513123 -14.556885 -0.08 0.08 -8.1 -8.1 -4.7615 -4.0008 0.0730 -0.0025 -0.002595 0.476742 9.62 510 920 0.03 -30.35 -0.0000 -0.0000
2.683 2 7.285883 4.375366 -13.116508 -17.944336 -82.862854 -17.807007 -0.08 0.08 8.3 8.3 -17.1173 -18.5242 0.0702 -0.0025 -0.002595 0.406328 9.84 490 820 0.07 8.76 0.0000 0.0000
2.690 2 6.216616 4.663061 -13.737451 -19.989014 26.161194 -16.654968 -0.08 0.08 -3.3 -2.2 -9.0756 -8.8384 0.0678 -0.0025 -0.002595 0.419951 8.57 490 820 0.07 -6.31 0.0000 0.0000
2.697 2 1.074062 -0.021577 2.658784 -13.999939 70.823669 -19.737244 -0.00 0.00 6.4 6.4 -5.3449 -4.2391 0.0664 -0.0025 -0.000000 0.560413 7.89 490 850 -0.06 99.00 0.0000 0.0000
2.704 2 -1.745352 -5.367915 -13.771015 3.265381 10.154724 -21.858215 0.08 -0.08 -9.0 -9.0 -1.6471 -1.3271 0.0662 -0.0025 0.002595 0.452481 10.46 490 890 0.05 -83.47 -0.0000 -0.0000
2.711 2 2.795439 -0.409966 -19.028646 -9.819031 -35.408020 -16.471863 0.08 -0.08 -8.9 -8.9 -11.4599 -10.5646 0.0637 -0.0025 0.002595 0.439334 10.36 510 830 0.04 -45.66 -0.0000 -0.0000
2.718 2 4.979526 1.745352 -6.736865 -1.403809 -32.791138 -16.532898 0.08 -0.08 8.3 8.3 -15.7241 -15.5433 0.0613 -0.0025 0.002595 0.421627 9.79 490 820 0.05 30.65 0.0000 0.0000
2.725 2 4.262685 -4.229121 -3.286919 -0.740051 32.096863 -24.597168 0.08 -0.08 11.4 11.4 -8.7243 -8.8384 0.0593 -0.0025 0.002595 0.469048 12.89 490 820 0.01 54.49 0.0000 0.0000
2.732 2 4.341802 -2.996826 -11.618095 -17.349243 38.322449 -26.039124 0.08 -0.08 -2.7 -1.8 4.9173 2.4278 0.0597 -0.0025 0.002595 0.500626 11.52 490 900 0.01 -5.26 -0.0000 -0.0000
2.739 2 -4.020542 5.969677 -14.459086 -0.732422 -68.847656 -17.715454 0.25 -0.25 -10.3 -10.3 -8.4517 -6.5964 0.0589 -0.0025 0.007786 0.428713 11.83 490 850 0.05 -79.37 0.0000 0.0000
2.746 2 7.372192 -0.069526 -10.366621 -11.306763 -42.900085 -31.707764 0.17 -0.17 9.1 9.1 -18.2739 -19.8863 0.0555 -0.0025 0.005191 0.404284 10.60 510 840 0.05 29.55 0.0000 0.0000
2.753 2 11.668442 8.959311 -5.135361 -23.506165 68.840027 -24.444580 0.17 -0.17 10.1 10.1 -4.8643 -5.8287 0.0539 -0.0026 0.005191 0.452410 11.64 490 890 0.03 56.93 0.0000 0.0000
2.760 2 0.340439 0.477095 -7.458501 -15.205383 38.055420 -20.950317 0.17 -0.17 -7.2 -7.2 7.7717 6.5013 0.0547 -0.0025 0.005191 0.521101 8.69 490 860 -0.01 -49.09 -0.0000 -0.0000
2.767 2 4.372969 7.578374 -15.799267 -6.881714 -77.980042 -22.026062 0.17 -0.17 -9.5 -9.5 -2.7654 -5.9571 0.0547 -0.0025 0.005191 0.439880 10.98 490 890 0.04 -29.25 0.0000 0.0000
2.774 2 11.081064 -0.357222 -12.495566 -16.326904 -51.010132 -19.874573 0.17 -0.17 6.5 7.1 -7.9545 -9.0756 0.0531 -0.0026 0.005191 0.442111 11.15 490 810 0.03 3.28 0.0000 0.0000
2.781 2 7.566387 1.575132 -11.642070 -0.968933 1.434326 -13.839722 0.17 -0.17 -10.9 -10.9 -1.5508 6.5013 0.0531 -0.0026 0.005191 0.476131 12.36 510 920 0.02 -19.01 -0.0000 -0.0000
2.788 2 -1.385732 -3.879092 -3.183828 7.301331 -81.680298 -22.430420 0.08 -0.08 -10.3 -10.3 -0.9950 -5.2414 0.0525 -0.0026 0.002595 0.447804 11.82 490 890 0.03 -48.71 0.0000 0.0000
2.795 2 10.659111 -1.910776 -11.531787 -4.493713 -110.816956 -25.550842 0.08 -0.08 8.2 8.2 -15.1940 -15.3667 0.0497 -0.0026 0.002595 0.404217 9.67 490 820 0.05 35.33 0.0000 0.0000
2.802 2 13.938837 1.208320 -5.516557 -1.113892 -10.231018 -6.156921 0.08 -0.08 9.1 9.1 -4.5685 -3.9425 0.0485 -0.0026 0.002595 0.451270 10.63 490 890 0.03 44.92 0.0000 0.0000
2.809 2 4.991514 -0.023975 -6.950239 -16.708374 0.511169 -22.056580 0.17 -0.17 -8.9 -9.5 5.7789 7.2314 0.0495 -0.0026 0.005191 0.501603 12.53 490 850 0.00 -9.65 -0.0000 -0.0000
2.817 2 -1.596709 -0.628135 -10.728638 0.015259 -117.645264 -17.700195 0.17 -0.17 -7.2 -7.2 -2.5276 -2.3355 0.0495 -0.0026 0.005191 0.396632 8.75 500 910 0.07 -32.27 -0.0000 -0.0000
2.823 2 10.488892 -5.111387 -11.220117 -5.912781 -85.617065 -22.315979 0.17 -0.17 10.3 10.3 -15.7241 -16.4911 0.0462 -0.0026 0.005191 0.382900 11.79 490 820 0.06 13.25 0.0000 0.0000
2.830 2 9.810410 -0.076719 -3.071147 -18.920898 2.906799 -7.713318 0.17 -0.17 9.5 9.5 -6.1467 -5.2617 0.0446 -0.0026 0.005191 0.438284 11.03 490 890 0.03 49.79 0.0000 0.0000
2.837 2 3.049570 1.323398 -4.672651 -19.653320 23.727417 -13.481140 0.25 -0.25 -8.5 -10.4 5.5421 8.5048 0.0456 -0.0026 0.007786 0.496038 11.90 490 860 0.00 -11.05 -0.0000 -0.0000
2.844 2 -3.272534 2.548501 -12.488374 -4.287720 -67.855835 -21.217346 0.33 -0.33 -9.0 -9.0 -3.0525 -4.9534 0.0458 -0.0026 0.010382 0.403338 10.50 490 880 0.06 -38.34 -0.0000 -0.0000
2.851 2 7.283486 -2.884145 -16.151693 -9.483337 -73.196411 -19.302368 0.25 -0.25 10.5 10.5 -19.0460 -20.1831 0.0424 -0.0026 0.007786 0.359431 11.98 510 830 0.07 9.58 0.0000 0.0000
2.858 2 10.522456 1.958726 -2.455000 -18.325806 19.493103 -7.080078 0.25 -0.25 10.0 10.0 -11.7589 -12.2934 0.0396 -0.0026 0.007786 0.389407 11.50 490 810 0.05 62.05 0.0000 0.0000
2.865 2 -0.146245 -1.023716 -2.174497 -18.699646 74.813843 -12.123108 0.33 -0.33 -7.9 -7.9 -5.9051 -3.6847 0.0382 -0.0026 0.010382 0.493697 9.38 490 880 -0.03 -56.08 0.0000 0.0000
2.872 2 -0.481890 3.449946 -11.898599 -7.141113 24.246216 -24.940491 0.42 -0.42 -9.3 -9.3 -10.4827 -8.1462 0.0376 -0.0027 0.012977 0.420234 10.79 490 810 0.03 -39.37 -0.0000 -0.0000
2.879 2 5.612456 4.063696 -16.520903 -18.463135 -0.885010 -28.434753 0.50 -0.50 8.8 8.2 -19.5981 -20.8041 0.0342 -0.0027 0.015573 0.370956 10.27 490 810 0.05 -1.88 0.0000 0.0000
2.886 2 8.146572 6.753647 -4.205146 -29.548645 94.062805 -23.986816 0.33 -0.33 8.8 8.8 -10.2445 -14.2344 0.0314 -0.0027 0.010382 0.405440 10.31 510 840 0.03 73.79 0.0000 0.0000
2.893 2 -0.105488 5.499775 -3.198213 -25.337219 142.486572 -22.056580 0.17 -0.17 -7.0 -4.6 4.4192 -3.0525 0.0310 -0.0027 0.005191 0.517493 8.51 490 880 -0.05 -16.27 0.0000 0.0000
2.900 2 -4.749370 10.757407 -14.243315 -26.679993 53.169250 -17.578125 0.00 -0.00 -9.9 -9.9 -6.2896 -1.2452 0.0310 -0.0027 -0.000000 0.424118 11.39 490 890 0.02 -29.50 -0.0000 -0.0000
2.907 2 7.614336 -0.707251 -17.079512 -30.212402 37.246704 -17.120361 -0.00 0.00 4.1 4.1 -16.4911 -15.5433 0.0277 -0.0027 -0.000000 0.386679 11.61 490 800 0.03 -8.65 -0.0000 -0.0000
2.915 2 9.726499 3.684897 -10.361826 -32.447815 137.283325 -15.090942 -0.00 0.00 3.3 4.6 -4.2793 -5.5421 0.0261 -0.0027 -0.000000 0.423895 11.30 490 1100 0.02 1.91 0.0000 0.0000
2.921 2 2.457397 7.563989 -9.611421 -23.361206 103.080750 -31.181335 0.08 -0.08 -11.3 -11.3 1.5143 3.7356 0.0267 -0.0027 0.002595 0.467808 12.77 510 900 -0.00 -47.12 -0.0000 -0.0000
2.928 2 -3.814360 7.182793 -18.738554 -7.995605 -97.396851 -17.250061 0.17 -0.17 -8.9 -8.9 2.8172 4.4337 0.0273 -0.0027 0.005191 0.434425 10.44 490 880 0.02 -46.49 0.0000 0.0000
2.935 2 6.247783 3.639346 2.148125 -9.719849 -89.683533 -18.272400 0.25 -0.25 7.7 7.7 -10.4021 -9.0151 0.0259 -0.0027 0.007786 0.466111 9.21 490 810 -0.04 99.00 0.0000 0.0000
2.942 2 6.183052 7.671875 -19.639999 -5.607605 24.978638 -12.161255 0.50 -0.50 -7.3 -7.5 2.0213 9.7286 0.0265 -0.0027 0.015573 0.569596 9.00 490 850 -0.11 -14.95 0.0000 0.0000
2.949 2 -5.569302 10.973178 -16.827778 -12.763977 0.251770 -37.399292 0.67 -0.67 3.2 -2.9 -2.6831 3.4585 0.0269 -0.0027 0.020764 0.517069 11.18 490 890 -0.07 -6.90 0.0000 0.0000
2.956 2 2.076201 10.090913 -6.662544 -14.114380 -95.329285 -24.085999 0.50 -0.50 -8.0 -8.0 -13.2575 -15.1940 0.0249 -0.0028 0.015573 0.331950 9.52 510 840 0.08 -58.37 -0.0000 -0.0000
2.963 2 7.774966 0.774380 -9.294956 -17.776489 1.548767 -1.937866 0.59 -0.59 11.5 11.5 -12.4061 -10.0916 0.0219 -0.0028 0.018168 0.356537 12.96 490 820 0.06 20.01 0.0000 0.0000
2.970 2 3.231777 -3.776001 -0.872676 -19.851685 88.806152 -8.140564 0.59 -0.59 7.4 7.4 -2.7485 -2.8409 0.0211 -0.0028 0.018168 0.478451 8.88 490 880 -0.04 90.79 0.0000 0.0000
2.977 2 -1.740557 -6.434785 -13.977197 -13.740540 37.918091 -5.867004 0.67 -0.67 -7.0 -8.1 3.8308 4.0609 0.0221 -0.0028 0.020764 0.433691 9.95 490 880 0.01 -10.90 -0.0000 -0.0000
2.984 2 0.654507 8.542153 -10.726240 -17.181396 1.525879 -4.783630 0.67 -0.67 9.8 9.8 -12.2934 -13.1288 0.0201 -0.0029 0.020764 0.399071 11.33 490 810 0.01 16.04 0.0000 0.0000
2.991 2 8.769912 2.694746 -16.525698 -20.492554 42.152405 -12.130737 0.59 -0.59 -11.3 -11.3 6.4702 -2.9984 0.0195 -0.0029 0.018168 0.433746 12.78 510 910 0.01 -29.82 -0.0000 -0.0000
2.998 2 -4.152402 1.105229 -1.332988 -0.457764 -20.561218 -16.372681 0.59 -0.59 -9.7 -9.7 2.6258 -2.2315 0.0195 -0.0029 0.018168 0.380162 11.17 490 890 0.05 -99.00 -0.0000 -0.0000
3.005 2 7.516040 -2.941684 -10.563212 -8.857727 -49.415588 -13.893127 0.59 -0.59 7.8 7.8 -14.8601 -16.4911 0.0171 -0.0029 0.018168 0.299656 9.29 490 820 0.10 24.38 0.0000 0.0000
3.012 2 16.717495 10.232363 -13.504897 -33.096313 44.197083 -16.647339 0.59 -0.59 9.1 9.1 -8.0492 -7.1549 0.0155 -0.0029 0.018168 0.345394 10.63 490 810 0.06 42.56 0.0000 0.0000
3.019 2 -3.241367 -2.121753 -6.060781 -17.593384 41.366577 -13.488770 0.50 -0.50 -8.5 -8.5 11.1758 9.7286 0.0165 -0.0029 0.015573 0.388967 9.97 490 830 0.06 -99.00 0.0000 0.0000
3.026 2 3.308496 -11.181758 -3.629756 -6.988525 -72.898865 -13.755798 0.50 -0.50 -2.9 0.1 2.2842 -4.0487 0.0169 -0.0029 0.015573 0.279415 9.32 510 910 0.14 2.61 0.0000 0.0000
3.033 2 7.453706 0.175015 -12.862377 -8.178711 -27.038574 -19.859314 0.42 -0.42 6.7 7.0 -5.2617 -6.0369 0.0155 -0.0029 0.012977 0.325269 9.33 490 890 0.09 8.89 0.0000 0.0000
3.040 2 2.191279 4.411328 -12.224653 -14.457703 30.555725 -4.150391 0.34 -0.34 -5.3 -4.2 -1.9373 -4.6311 0.0149 -0.0029 0.010382 0.342483 10.85 490 890 0.07 -7.31 0.0000 0.0000
3.047 2 1.256269 1.671030 -6.274155 -21.453857 14.030457 -8.438110 0.42 -0.42 -9.1 -9.1 -8.5048 -6.3190 0.0135 -0.0030 0.012977 0.334055 10.58 490 860 0.07 -20.58 -0.0000 -0.0000
3.054 2 13.569629 2.004277 -7.875659 -24.009705 23.223877 -21.583557 0.34 -0.34 9.5 9.5 -6.5327 -8.2961 0.0112 -0.0030 0.010382 0.388138 10.96 490 860 0.01 43.51 0.0000 0.0000
3.061 2 1.213115 -3.092725 -9.848769 -10.925293 -7.926941 -12.641907 0.25 -0.25 -10.3 -10.3 3.9656 -1.9127 0.0114 -0.0030 0.007786 0.412126 11.75 510 910 0.01 -37.05 -0.0000 -0.0000
3.068 2 4.154799 -2.301562 -5.622046 -4.478455 -79.986572 5.264282 0.25 -0.25 7.4 7.4 -11.1758 -10.4021 0.0102 -0.0030 0.007786 0.348201 8.91 490 820 0.05 19.89 0.0000 0.0000
3.075 2 13.293921 -2.982441 -13.624770 -10.261536 10.826111 -1.342773 0.33 -0.33 5.7 5.8 -4.0854 -3.6947 0.0088 -0.0030 0.010382 0.370834 10.00 490 890 0.03 4.28 0.0000 0.0000
3.082 2 3.049570 -1.062075 -3.752026 -27.999878 82.778931 -20.195007 0.25 -0.25 9.2 9.2 7.8166 5.2823 0.0094 -0.0030 0.007786 0.431791 10.69 490 850 -0.00 24.44 0.0000 0.0000
3.089 2 -8.283227 4.145210 -13.207612 -17.333984 -43.045044 -7.354736 0.33 -0.33 -9.7 -9.7 10.4021 10.9941 0.0116 -0.0030 0.010382 0.379042 11.15 490 830 0.06 -99.00 -0.0000 -0.0000
3.096 2 1.460054 0.225361 -12.812031 -7.987976 -67.283630 1.838684 0.42 -0.42 -9.1 -10.2 -2.6725 2.7209 0.0119 -0.0030 0.012977 0.354907 11.68 510 910 0.06 -10.44 0.0000 0.0000
3.103 2 5.655610 -0.242144 -12.752094 -13.954163 -9.239197 -25.497437 0.33 -0.33 -1.7 -1.5 -2.7654 -4.1354 0.0112 -0.0030 0.010382 0.370569 12.23 490 890 0.03 1.59 0.0000 0.0000
3.110 2 0.393184 1.992290 -7.293076 -10.818481 -9.986877 -19.638062 0.25 -0.25 -8.8 -8.8 -1.3284 -5.4970 0.0106 -0.0030 0.007786 0.345992 10.35 490 890 0.05 -29.41 0.0000 0.0000
3.117 2 2.368691 -0.213374 -3.982183 -14.770508 -14.373779 -7.858276 0.17 -0.17 7.9 8.3 -11.3636 -12.4061 0.0080 -0.0030 0.005191 0.326879 10.60 490 830 0.05 11.14 0.0000 0.0000
3.124 2 9.122338 -2.318345 -5.854599 -20.904541 62.957764 -16.090393 0.08 -0.08 7.5 7.5 -4.6791 -3.8747 0.0066 -0.0030 0.002595 0.384985 9.00 490 890 0.01 16.60 0.0000 0.0000
3.131 2 14.636498 12.972661 -18.513193 -62.004089 96.046448 -19.454956 -0.00 0.00 8.6 8.6 13.0026 11.7589 0.0084 -0.0030 -0.000000 0.454981 10.11 510 810 -0.02 25.37 0.0000 0.0000
3.138 2 -3.253354 -5.245645 -7.134843 -5.706787 -109.123230 -17.219543 -0.00 0.00 -8.2 -8.2 7.3096 8.9554 0.0112 -0.0030 -0.000000 0.357970 9.68 490 790 0.07 -99.00 -0.0000 -0.0000
3.145 2 10.222774 1.476836 -7.985942 -21.652222 -77.629089 -11.650085 0.08 -0.08 7.6 7.6 -6.0913 -2.9786 0.0106 -0.0030 0.002595 0.371956 9.14 490 890 0.03 28.54 0.0000 0.0000
3.152 2 6.060781 3.337265 -17.947392 -11.207581 43.441772 -17.341614 0.08 -0.08 -9.8 -9.8 9.5906 7.9545 0.0119 -0.0030 0.002595 0.417310 11.31 490 810 0.01 -15.60 0.0000 0.0000
3.159 2 -9.112749 3.497895 -3.390010 7.965088 -56.243896 -12.306213 0.08 -0.08 -9.2 -9.2 -8.8965 -7.7273 0.0110 -0.0030 0.002595 0.311634 10.68 490 820 0.07 -99.00 0.0000 0.0000
3.166 2 7.959570 0.793560 -9.498740 -7.637024 -54.916382 -32.554626 -0.00 0.00 11.1 11.1 -18.0303 -18.5242 0.0076 -0.0030 -0.000000 0.243440 12.58 510 820 0.11 42.72 0.0000 0.0000
3.173 2 9.755268 1.009331 -1.795698 -18.684387 115.013123 -17.356873 0.08 -0.08 6.3 6.3 -5.4527 -5.7300 0.0054 -0.0030 0.002595 0.360959 7.83 490 890 0.02 91.48 0.0000 0.0000
3.180 2 -2.745093 -0.608955 -9.386059 -18.943787 73.562622 -15.419006 0.08 -0.08 -7.9 -7.9 5.1613 4.5685 0.0062 -0.0030 0.002595 0.335561 9.43 490 890 0.07 -95.54 0.0000 0.0000
3.187 2 13.159662 -6.732070 -19.639999 -11.177063 -3.517151 -4.768372 0.17 -0.17 11.1 11.1 -3.4674 -2.7485 0.0056 -0.0030 0.005191 0.356267 12.61 490 900 0.03 31.22 0.0000 0.0000
3.194 2 -1.675825 -2.349512 -4.624702 1.213074 -59.829712 -14.923096 0.17 -0.17 -10.7 -10.7 -1.8704 -1.1345 0.0056 -0.0030 0.005191 0.350684 12.20 490 880 0.04 -68.44 0.0000 0.0000
3.201 2 6.041601 -4.291455 -1.867622 -4.112244 -37.078857 -24.070740 0.17 -0.17 8.5 8.5 -7.8166 -9.3908 0.0044 -0.0030 0.005191 0.405151 10.00 510 840 -0.04 99.00 0.0000 0.0000
3.208 2 7.501655 -0.781572 -15.561918 -12.420654 31.265259 -32.867432 0.00 -0.00 1.8 2.6 5.1029 3.8200 0.0048 -0.0030 -0.000000 0.418107 11.20 490 890 -0.02 2.67 0.0000 0.0000
