%  1    time 0.004 sec
%  2    mission (2) state 2
%  3  4  5 Acc x,y,z: 4.272275 0.151040 -8.906568
%  6  7  8 Gyro x,y,z: -1.213074 24.528503 4.127502
%  9 10 Motor velocity ref left, right: -0.00 0.00
% 11 12 Motor voltage [V] left, right: 8.0 8.0
% 13 14 Wheel velocity [r/s] left, right: 0.0151 0.0075
% 15 16 17 18 Pose x,y,h,tilt [m,m,rad,rad]: 0.0004 -0.0000 0.000000 0.520862
% 19    Battery voltage [V]: 9.48
% 20 21 Get data time [us]: 490 +ctrl 880
% 22 23 24 25 Extra pt.: balE[0], balU[0], balUI[0], balUI[1]: -0.44 70.0000 0.0000 0.0000
0.011 2 4.610317 -3.874297 -10.493686 3.089905 23.376465 19.226074 0.08 -0.08 7.7 7.7 13.0026 14.0861 0.0026 0.0000 0.002595 0.522901 9.16 490 810 -0.44 70.00 0.0000 0.0000
0.018 2 1.040498 -5.408672 -12.761684 9.109497 -32.287598 -2.578735 0.08 -0.08 8.2 8.2 17.1173 17.3368 0.0062 0.0000 0.002595 0.458740 9.65 510 820 -0.38 31.91 0.0000 0.0000
0.025 2 1.227500 -12.423642 -19.170097 9.552002 -84.838867 1.724243 0.17 -0.17 8.4 8.4 18.5242 18.0303 0.0101 0.0000 0.005191 0.400291 10.09 490 810 -0.32 24.61 0.0000 0.0000
0.032 2 2.239228 -5.607661 -12.701748 21.095276 -121.818542 3.730774 0.08 -0.08 8.0 8.0 18.2739 16.4911 0.0135 0.0000 0.002595 0.346448 9.48 480 800 -0.27 24.51 0.0000 0.0000
0.039 2 1.328193 -0.951792 -9.369277 23.628235 -156.784058 0.022888 0.08 -0.08 -2.5 -1.4 15.0252 13.2575 0.0167 0.0000 0.002595 0.291389 11.09 480 800 -0.21 2.55 0.0000 0.0000
0.046 2 3.404394 0.812739 -7.935596 17.089844 -152.297974 2.365112 0.08 -0.08 8.7 8.7 15.0252 15.5433 0.0195 0.0001 0.002595 0.266485 10.24 490 800 -0.19 41.01 0.0000 0.0000
0.053 2 3.030391 4.751768 -10.975575 24.955750 -124.588013 6.042480 0.08 -0.08 8.6 8.6 24.1477 24.1477 0.0239 0.0001 0.002595 0.276109 10.08 510 800 -0.20 34.53 0.0000 0.0000
0.060 2 -2.318345 -1.287436 -13.380229 28.381348 -179.740906 -1.281738 0.08 -0.08 -8.1 -8.1 16.4911 17.5619 0.0284 0.0001 0.002595 0.220498 9.59 480 800 -0.14 -27.98 -0.0000 -0.0000
0.067 2 3.344458 -1.644658 -8.937734 22.453308 -216.407776 -6.652832 0.08 -0.08 7.1 7.1 2.9270 4.1866 0.0296 0.0001 0.002595 0.169355 8.64 490 880 -0.09 22.33 0.0000 0.0000
0.074 2 9.911103 1.759736 -2.390269 23.406982 -81.474304 15.022278 0.08 -0.08 7.0 7.0 12.0738 11.5579 0.0308 0.0001 0.002595 0.233547 8.48 490 810 -0.15 70.00 0.0000 0.0000
0.081 2 -3.622563 -1.289834 -3.732846 11.077881 -57.624817 4.203796 0.00 -0.00 -8.7 -8.7 23.7240 23.7240 0.0350 0.0001 -0.000000 0.274167 10.17 490 780 -0.19 -60.77 -0.0000 -0.0000
0.088 2 -1.519990 9.875141 -15.967090 17.189026 -134.757996 16.609192 0.00 -0.00 -7.2 -7.2 7.0066 7.7273 0.0378 0.0001 -0.000000 0.175384 8.73 510 820 -0.10 -10.18 0.0000 0.0000
0.095 2 11.526992 8.333574 -15.597880 24.017334 -79.597473 6.668091 0.17 -0.17 8.9 8.9 6.7953 2.0093 0.0382 0.0001 0.005191 0.177900 10.38 480 840 -0.10 57.69 0.0000 0.0000
0.102 2 6.950239 7.707837 -3.502690 4.432678 37.452698 8.247375 0.25 -0.25 7.1 7.1 15.7241 18.5242 0.0408 0.0001 0.007786 0.273533 8.57 480 810 -0.19 70.00 0.0000 0.0000
0.109 2 -4.346597 2.584463 -9.563472 23.200989 -9.262085 5.149841 0.25 -0.25 -9.4 -9.4 19.5981 20.4889 0.0457 0.0002 0.007786 0.243946 10.92 490 800 -0.16 -51.98 -0.0000 -0.0000
0.116 2 0.618545 3.068750 -13.605591 18.486023 -88.584900 5.432129 0.25 -0.25 -2.9 -3.0 4.6954 4.3481 0.0473 0.0002 0.007786 0.163653 8.34 490 870 -0.08 3.61 0.0000 0.0000
0.123 2 8.304805 6.655351 -13.334678 -1.457214 -12.512207 -12.191772 0.25 -0.25 7.3 7.3 1.4101 1.4747 0.0477 0.0002 0.007786 0.185291 8.80 510 910 -0.11 70.00 0.0000 0.0000
0.130 2 4.226724 10.558417 -6.228603 -7.247925 85.220337 1.571655 0.25 -0.25 8.7 8.7 20.1831 20.1831 0.0513 0.0002 0.007786 0.260466 10.16 480 790 -0.18 70.00 0.0000 0.0000
0.137 2 -8.386318 -2.299165 -7.959570 1.388550 -0.335693 6.706238 0.33 -0.33 -8.6 -8.6 24.1477 23.3150 0.0563 0.0003 0.010382 0.198285 10.14 490 780 -0.12 -70.00 -0.0000 -0.0000
0.144 2 3.764014 4.058901 -16.667149 16.578674 -57.884216 2.395630 0.33 -0.33 -1.9 -3.1 6.7613 6.8643 0.0583 0.0003 0.010382 0.136950 8.72 480 830 -0.06 10.73 0.0000 0.0000
0.151 2 11.725981 4.607920 -14.327226 16.014099 9.124756 -6.851196 0.33 -0.33 8.4 8.4 3.5680 2.9590 0.0583 0.0003 0.010382 0.164688 9.92 480 890 -0.08 66.88 0.0000 0.0000
0.158 2 4.677446 -0.074321 -4.063696 -1.205444 85.632324 3.875732 0.33 -0.33 8.0 8.0 19.5981 19.3181 0.0616 0.0003 0.010382 0.236574 9.49 510 840 -0.16 70.00 0.0000 0.0000
0.165 2 -5.984062 -7.146831 -8.968901 -4.020691 28.343201 8.796692 0.33 -0.33 -10.3 -10.3 24.5867 24.1477 0.0664 0.0003 0.010382 0.208152 11.79 490 790 -0.13 -59.80 0.0000 0.0000
0.172 2 2.133740 0.184604 -16.055796 12.565613 -44.212341 3.303528 0.33 -0.33 -3.2 -3.5 5.2010 4.6311 0.0684 0.0004 0.010382 0.150962 7.66 480 870 -0.07 1.63 0.0000 0.0000
0.179 2 11.795507 1.932353 -14.310444 12.680054 6.599426 -3.562927 0.33 -0.33 7.2 7.2 1.4086 4.7783 0.0684 0.0004 0.010382 0.173645 8.67 480 880 -0.09 65.93 0.0000 0.0000
0.186 2 6.283745 -0.397979 -3.624961 -6.088257 100.830078 3.059387 0.25 -0.25 8.4 8.4 19.0460 17.1173 0.0714 0.0004 0.007786 0.266367 9.94 490 800 -0.19 70.00 0.0000 0.0000
0.193 2 -9.225430 8.590102 -11.354375 -5.836487 55.046082 9.590149 0.25 -0.25 -9.2 -9.2 25.0420 25.0420 0.0762 0.0004 0.007786 0.249687 10.66 510 800 -0.17 -52.76 -0.0000 -0.0000
0.200 2 1.853237 -8.628462 -13.943632 3.036499 -36.170959 12.847900 0.25 -0.25 -6.1 -6.8 6.0101 7.5126 0.0786 0.0004 0.007786 0.179299 8.26 480 830 -0.10 -3.78 0.0000 0.0000
0.207 2 5.085014 -2.349512 -13.497705 4.524231 -2.212524 6.134033 0.08 -0.08 9.8 9.8 1.9684 6.2605 0.0791 0.0004 0.002595 0.192606 11.28 490 880 -0.11 46.10 0.0000 0.0000
0.214 2 5.578891 -1.946738 -2.594053 -10.444641 83.702087 21.774292 0.00 -0.00 8.6 8.6 19.0460 18.2739 0.0821 0.0005 -0.000000 0.272300 10.08 490 810 -0.19 70.00 0.0000 0.0000
0.221 2 -8.110610 11.119424 -9.585049 -7.781982 33.546448 27.191162 0.08 -0.08 -8.6 -8.6 26.5151 25.0420 0.0871 0.0005 0.002595 0.268468 10.06 490 780 -0.19 -62.29 0.0000 0.0000
0.228 2 -0.541826 0.345234 -12.682568 4.798889 -52.352905 30.471802 -0.00 0.00 -7.6 -7.6 8.6132 6.5644 0.0897 0.0005 -0.000000 0.189716 9.14 510 860 -0.11 -5.12 -0.0000 -0.0000
0.235 2 3.915054 -3.598589 -13.006226 7.514954 -1.968384 20.622253 -0.00 0.00 8.5 8.5 1.5853 -3.3307 0.0897 0.0005 -0.000000 0.200207 10.05 490 880 -0.12 47.62 0.0000 0.0000
0.242 2 6.432387 -4.030132 -3.970195 -5.264282 90.354919 32.142639 0.08 -0.08 7.8 7.8 15.5433 17.7930 0.0923 0.0005 0.002595 0.271486 9.25 490 810 -0.19 70.00 0.0000 0.0000
0.249 2 -1.627876 2.862568 -8.005122 -0.198364 44.372559 22.315979 0.08 -0.08 -10.3 -10.3 24.5867 24.1477 0.0972 0.0005 0.002595 0.273369 11.83 490 780 -0.19 -16.41 0.0000 0.0000
0.256 2 1.697402 -6.353271 -13.413794 9.429932 -34.675598 30.021667 -0.08 0.08 -0.9 0.8 7.4711 6.0640 0.0996 0.0005 -0.002595 0.196709 7.78 490 830 -0.12 10.99 0.0000 0.0000
0.263 2 4.185966 -0.623340 -15.101606 -0.473022 11.184692 26.138306 -0.08 0.08 7.1 7.1 1.6988 1.6552 0.1000 0.0005 -0.002595 0.205321 8.61 510 900 -0.13 49.98 0.0000 0.0000
0.270 2 6.343681 0.143848 -3.222188 -11.268616 96.931458 16.571045 0.00 -0.00 7.9 7.9 18.5242 19.5981 0.1030 0.0005 -0.000000 0.270505 9.40 490 810 -0.19 70.00 0.0000 0.0000
0.277 2 -4.243506 -7.587964 -5.526147 6.118774 47.439575 10.330200 0.00 -0.00 -8.7 -8.7 24.1477 24.1477 0.1078 0.0005 -0.000000 0.276944 10.22 490 780 -0.20 -4.62 0.0000 0.0000
0.284 2 2.591655 0.177412 -14.751576 -5.622864 -26.481628 16.960144 0.00 -0.00 1.1 0.8 5.3875 6.5013 0.1102 0.0005 -0.000000 0.186141 9.00 480 870 -0.11 12.10 0.0000 0.0000
0.291 2 4.981924 3.579409 -17.489477 -6.408691 29.090881 15.678406 -0.08 0.08 9.2 9.2 2.0836 1.4893 0.1104 0.0005 -0.002595 0.197669 10.74 490 880 -0.12 42.13 0.0000 0.0000
0.298 2 5.907343 0.846304 -2.821811 -10.459900 117.485046 19.561768 -0.08 0.08 8.5 8.5 21.1292 19.0460 0.1141 0.0005 -0.002595 0.268451 10.00 510 810 -0.19 70.00 0.0000 0.0000
0.305 2 -6.187847 7.115664 -6.676929 -16.525269 53.184509 23.391724 -0.17 0.17 -8.2 -8.2 27.0454 25.5145 0.1191 0.0004 -0.005191 0.279629 9.71 490 780 -0.20 -40.49 0.0000 0.0000
0.312 2 0.227759 1.970713 -14.986527 -4.699707 -17.189026 25.306702 -0.17 0.17 -6.7 -6.7 8.3473 6.0101 0.1219 0.0004 -0.005191 0.190157 8.21 490 840 -0.11 -6.29 -0.0000 -0.0000
0.319 2 4.495239 -1.891597 -16.794214 1.777649 33.012390 28.579712 -0.25 0.25 8.0 8.0 6.5964 1.9655 0.1225 0.0004 -0.007786 0.200944 9.48 490 880 -0.12 42.22 0.0000 0.0000
0.326 2 5.713149 -1.920366 -2.771465 -15.464783 105.834961 16.525269 -0.17 0.17 7.7 7.7 20.8041 21.1292 0.1259 0.0004 -0.005191 0.257786 9.16 490 780 -0.18 70.00 0.0000 0.0000
0.333 2 -8.319189 5.295991 -3.900669 -22.140503 48.408508 16.967773 -0.25 0.25 -7.8 -7.8 25.0420 24.5867 0.1309 0.0004 -0.007786 0.217079 9.27 510 810 -0.14 -70.00 -0.0000 -0.0000
0.340 2 4.082876 11.881816 -17.897045 -14.884949 -4.264832 10.734558 -0.33 0.33 1.5 2.9 5.4527 4.3204 0.1332 0.0003 -0.010382 0.140600 8.50 490 870 -0.06 16.41 0.0000 0.0000
0.347 2 6.803994 4.823691 -18.793695 -10.765076 50.430298 16.189575 -0.33 0.33 10.6 10.6 1.6118 1.4619 0.1336 0.0003 -0.010382 0.156712 12.09 480 870 -0.08 32.33 0.0000 0.0000
0.354 2 3.099917 10.390595 -2.992031 -28.541565 141.616821 12.176514 -0.33 0.33 8.4 8.4 19.5981 19.3181 0.1368 0.0003 -0.010382 0.253313 9.92 490 800 -0.17 70.00 0.0000 0.0000
0.361 2 -3.488306 4.181172 -5.125772 -16.273499 83.801270 4.692078 -0.33 0.33 -8.5 -8.5 27.5973 26.0052 0.1420 0.0002 -0.010382 0.294491 10.01 480 780 -0.21 -64.69 -0.0000 -0.0000
0.368 2 2.162510 7.786953 -18.659437 -7.705688 7.804871 15.029907 -0.42 0.42 -2.1 -0.8 9.8706 7.1929 0.1450 0.0002 -0.012977 0.211711 8.78 510 820 -0.13 11.74 0.0000 0.0000
0.375 2 6.952637 -2.924902 -15.729741 -4.196167 45.867920 1.152039 -0.42 0.42 7.9 7.9 10.0916 7.4301 0.1462 0.0002 -0.012977 0.226016 9.43 490 810 -0.15 57.52 0.0000 0.0000
0.382 2 6.307720 -1.867622 -3.346855 -8.537292 92.079163 10.543823 -0.33 0.33 8.1 8.1 21.8108 20.8041 0.1501 0.0002 -0.010382 0.278440 9.57 480 780 -0.20 70.00 0.0000 0.0000
0.389 2 -2.481372 -3.912656 -3.521870 -5.661011 24.200439 7.919312 -0.25 0.25 -9.9 -9.9 26.0052 27.5973 0.1555 0.0001 -0.007786 0.265477 11.44 490 780 -0.19 -66.29 0.0000 0.0000
0.396 2 3.392407 -5.113784 -16.350683 0.831604 -29.815674 7.469177 -0.17 0.17 6.7 6.7 6.8993 8.6684 0.1585 0.0001 -0.005191 0.224397 8.21 490 800 -0.14 27.84 0.0000 0.0000
0.403 2 9.877539 -3.342060 -15.391699 5.302429 4.341125 7.263184 -0.17 0.17 8.4 8.4 16.2924 15.1940 0.1609 0.0001 -0.005191 0.241160 9.89 500 830 -0.16 66.47 0.0000 0.0000
0.410 2 5.396684 -2.315947 -5.459018 -1.098633 48.622131 -5.081177 -0.17 0.17 8.6 8.6 25.0420 25.5145 0.1657 0.0000 -0.005191 0.308647 10.09 480 770 -0.23 70.00 0.0000 0.0000
0.417 2 -4.449687 -0.748008 -4.109248 5.867004 -55.221558 11.894226 -0.08 0.08 -8.7 -8.7 25.5145 24.5867 0.1712 0.0000 -0.002595 0.223570 10.22 480 790 -0.14 -70.00 -0.0000 -0.0000
0.424 2 5.185708 0.234951 -17.000395 7.217407 -107.543945 6.210327 -0.17 0.17 1.6 1.6 6.2896 6.4702 0.1734 0.0000 -0.005191 0.170263 9.10 480 870 -0.09 16.52 0.0000 0.0000
0.431 2 11.351977 4.612715 -10.558417 -0.869751 -6.439209 -11.772156 -0.08 0.08 8.3 8.3 12.1826 11.2689 0.1748 0.0000 -0.002595 0.212997 9.84 490 810 -0.13 70.00 0.0000 0.0000
0.438 2 1.882007 2.162510 -2.517334 -9.658813 59.646606 -3.883362 -0.00 0.00 8.6 8.6 25.5145 27.0454 0.1794 -0.0000 -0.000000 0.345332 10.11 510 760 -0.27 70.00 0.0000 0.0000
0.445 2 -2.109766 -8.098622 -7.448911 8.277893 -49.743652 4.394531 0.08 -0.08 -10.3 -10.3 23.7240 26.5151 0.1849 0.0000 0.002595 0.270588 11.77 490 770 -0.19 -37.64 0.0000 0.0000
0.452 2 5.152143 -2.303960 -18.891991 12.062073 -104.278564 -10.421753 0.17 -0.17 6.5 6.5 5.5649 6.2896 0.1871 0.0000 0.005191 0.220546 7.99 490 880 -0.14 28.42 0.0000 0.0000
0.459 2 11.960932 7.024560 -13.699091 12.695312 -35.987854 -18.898010 0.17 -0.17 7.7 7.7 14.8601 14.3858 0.1891 0.0000 0.005191 0.241256 9.21 490 810 -0.16 70.00 0.0000 0.0000
0.466 2 6.005640 -2.234433 -1.989892 6.134033 23.300171 -10.101318 0.17 -0.17 8.5 8.5 26.5151 26.5151 0.1939 0.0000 0.005191 0.346193 10.05 480 770 -0.27 70.00 0.0000 0.0000
0.473 2 -3.279727 -2.862568 -8.436665 13.404846 -82.405090 -10.925293 0.17 -0.17 -7.2 -7.2 24.1477 26.0052 0.1995 0.0001 0.005191 0.286243 8.67 510 810 -0.21 -24.24 -0.0000 -0.0000
0.480 2 4.068491 5.276811 -18.285435 -0.175476 -148.773193 -7.049561 0.25 -0.25 0.8 -0.8 5.1811 6.1189 0.2017 0.0001 0.007786 0.211447 8.95 490 880 -0.13 12.55 0.0000 0.0000
0.487 2 7.513642 10.165234 -12.500360 2.700806 -50.003052 -9.147644 0.25 -0.25 8.9 8.9 11.8620 12.8788 0.2030 0.0001 0.007786 0.232022 10.39 480 800 -0.15 70.00 0.0000 0.0000
0.494 2 2.069009 3.936631 -2.987236 -1.419067 21.850586 -6.187439 0.33 -0.33 8.4 8.4 24.1477 26.0052 0.2072 0.0001 0.010382 0.325269 9.92 490 770 -0.25 70.00 0.0000 0.0000
0.501 2 -8.192123 11.227309 -11.335195 0.473022 -70.816040 -0.205994 0.42 -0.42 -9.3 -9.3 25.5145 26.0052 0.2126 0.0002 0.012977 0.260325 10.76 480 780 -0.18 -55.58 0.0000 0.0000
0.508 2 5.334351 -2.443013 -17.225756 12.916565 -135.192871 5.180359 0.50 -0.50 -2.1 -4.4 6.2031 7.6399 0.2152 0.0002 0.015573 0.192777 8.83 510 860 -0.11 6.52 0.0000 0.0000
0.515 2 9.568266 7.014970 -13.818964 10.017395 -88.951111 -4.539490 0.42 -0.42 8.7 8.7 4.8995 1.8575 0.2158 0.0002 0.012977 0.194398 10.19 480 880 -0.11 53.44 0.0000 0.0000
0.522 2 9.486753 -4.310635 -2.006675 10.986328 3.837585 11.329651 0.33 -0.33 7.9 7.9 21.8108 19.5981 0.2192 0.0003 0.010382 0.282456 9.40 490 800 -0.20 70.00 0.0000 0.0000
0.529 2 -5.353530 -2.282383 -7.614336 19.943237 -47.584534 25.825500 0.33 -0.33 -8.9 -8.9 28.7717 27.0454 0.2249 0.0003 0.010382 0.294646 10.38 490 780 -0.21 -17.55 0.0000 0.0000
0.536 2 1.666235 -0.059937 -13.548051 20.751953 -141.784668 20.408630 0.33 -0.33 -7.0 -7.0 15.9091 12.4061 0.2293 0.0004 0.010382 0.205566 8.46 490 800 -0.13 -1.50 -0.0000 -0.0000
0.543 2 3.461933 -0.338042 -14.718012 12.908936 -134.925842 2.830505 0.17 -0.17 7.9 8.3 3.4322 2.5709 0.2301 0.0004 0.005191 0.184090 10.49 510 900 -0.10 23.09 0.0000 0.0000
0.550 2 7.667080 -0.671289 -4.348994 8.949280 -45.509338 30.685425 0.17 -0.17 7.9 7.9 14.0861 13.3888 0.2321 0.0004 0.005191 0.216749 9.41 480 810 -0.14 70.00 0.0000 0.0000
0.557 2 -1.217910 -1.074062 -5.849804 -0.053406 -34.393311 27.870178 0.17 -0.17 -8.5 -8.5 25.0420 25.5145 0.2369 0.0004 0.005191 0.254165 10.05 490 780 -0.17 -20.85 -0.0000 -0.0000
0.564 2 -8.103417 -1.292231 -10.965986 9.132385 -123.283386 20.492554 0.17 -0.17 -7.1 -7.1 10.4827 8.8384 0.2402 0.0004 0.005191 0.161840 8.59 490 810 -0.08 -70.00 0.0000 0.0000
0.571 2 1.680620 -1.706992 -14.327226 10.231018 -110.366821 16.326904 0.17 -0.17 -3.9 -6.2 -3.2902 2.0244 0.2402 0.0004 0.005191 0.118890 9.11 480 880 -0.04 -4.54 -0.0000 -0.0000
0.578 2 8.856220 0.855894 -8.652436 -5.310059 33.279419 32.157898 0.25 -0.25 6.3 6.3 3.3307 2.4321 0.2404 0.0004 0.007786 0.169421 7.85 510 890 -0.09 70.00 0.0000 0.0000
0.585 2 -4.130825 1.184346 -6.010434 -8.415222 49.156189 22.895813 0.25 -0.25 -8.7 -8.7 20.1831 21.8108 0.2440 0.0005 0.007786 0.188008 10.16 490 790 -0.11 -45.76 -0.0000 -0.0000
0.592 2 -8.731552 6.053589 -14.214545 -1.609802 -35.186768 17.837524 0.25 -0.25 -7.3 -7.3 7.6399 6.7277 0.2464 0.0005 0.007786 0.101256 8.84 490 840 -0.02 -59.38 0.0000 0.0000
0.599 2 1.181948 -2.279985 -13.332280 8.224487 -24.436951 28.144836 0.25 -0.25 -1.9 -2.3 -2.6778 -2.7485 0.2460 0.0005 0.007786 0.087501 11.42 480 870 -0.01 1.43 0.0000 0.0000
0.606 2 5.063437 -2.315947 -9.131928 -8.590698 78.002930 21.034241 0.25 -0.25 8.1 8.1 9.5906 8.7810 0.2468 0.0005 0.007786 0.140229 9.60 490 810 -0.06 69.58 0.0000 0.0000
0.613 2 0.040757 -2.361499 -6.187847 -9.605408 93.460083 11.100769 0.17 -0.17 6.5 6.1 20.4889 21.1292 0.2506 0.0005 0.005191 0.181879 10.27 500 770 -0.10 24.98 0.0000 0.0000
0.620 2 -2.033047 -4.545586 -8.532563 8.872986 -11.428833 16.960144 0.17 -0.17 -7.4 -7.4 9.4564 12.7573 0.2542 0.0005 0.005191 0.102411 8.88 490 800 -0.02 -63.15 -0.0000 -0.0000
0.627 2 1.112422 -1.963520 -12.574682 -0.656128 -39.543152 14.480591 0.17 -0.17 -2.3 -2.0 -2.5323 -7.0431 0.2538 0.0005 0.005191 0.073362 8.92 490 840 0.01 -1.56 0.0000 0.0000
0.634 2 10.124477 4.030132 -11.054692 -9.132385 47.378540 4.180908 0.17 -0.17 6.7 6.7 -2.9917 -2.9917 0.2530 0.0005 0.005191 0.108917 8.23 490 880 -0.03 65.33 0.0000 0.0000
0.641 2 -0.074321 3.296509 -7.077304 -17.868042 106.323242 11.619568 0.08 -0.08 7.9 7.9 16.6947 16.6947 0.2557 0.0005 0.002595 0.185308 9.37 490 780 -0.11 29.84 0.0000 0.0000
0.648 2 -9.400444 4.265083 -13.327485 -11.428833 34.439087 25.428772 0.17 -0.17 -8.6 -8.6 18.0303 18.5242 0.2599 0.0006 0.005191 0.152862 10.12 510 830 -0.07 -66.18 -0.0000 -0.0000
0.655 2 -1.179551 -1.987495 -11.435888 13.305664 -42.495728 19.424438 0.17 -0.17 -7.2 -7.2 -5.2211 2.7541 0.2607 0.0006 0.005191 0.085157 8.72 480 880 -0.01 -35.71 0.0000 0.0000
0.662 2 8.980888 0.978164 -13.440166 6.530762 0.923157 5.989075 -0.00 0.00 9.3 9.3 -6.5644 -9.6591 0.2591 0.0006 -0.000000 0.093375 10.77 490 810 -0.01 46.96 0.0000 0.0000
0.669 2 9.199058 -7.151626 -4.325019 4.524231 105.003357 13.587952 -0.08 0.08 7.8 7.8 11.3636 9.2621 0.2601 0.0006 -0.002595 0.184791 9.25 490 810 -0.10 70.00 0.0000 0.0000
0.676 2 -0.009590 -3.447549 -11.411914 -10.482788 80.368042 25.283813 -0.17 0.17 -8.3 -8.3 20.1831 20.4889 0.2639 0.0005 -0.005191 0.188490 9.78 490 760 -0.11 -5.60 -0.0000 -0.0000
0.683 2 -2.275190 -14.945771 -7.705439 12.283325 -10.803223 23.200989 -0.25 0.25 -6.6 -6.6 5.6580 4.6311 0.2657 0.0005 -0.007786 0.122373 8.08 510 890 -0.04 -42.97 -0.0000 -0.0000
0.690 2 0.980561 -9.891924 -11.917778 1.762390 -23.002625 21.034241 -0.33 0.33 -4.3 -2.8 -8.0016 -9.1991 0.2643 0.0005 -0.010382 0.096352 11.22 490 800 -0.02 -10.83 -0.0000 -0.0000
0.697 2 5.955293 5.375107 -7.528027 -15.220642 88.470459 27.870178 -0.33 0.33 8.2 8.2 5.2414 5.0270 0.2639 0.0005 -0.010382 0.165591 9.67 490 870 -0.09 70.00 0.0000 0.0000
0.704 2 -0.510659 0.409966 -8.422280 -21.759033 117.546082 24.490356 -0.42 0.42 0.8 1.6 18.5242 17.7930 0.2669 0.0005 -0.012977 0.219472 9.41 490 810 -0.14 11.09 0.0000 0.0000
0.711 2 -10.800561 7.053330 -12.135947 -12.672424 23.361206 24.345398 -0.42 0.42 -9.9 -9.9 9.7991 10.5646 0.2697 0.0005 -0.012977 0.158595 11.44 480 800 -0.08 -65.84 -0.0000 -0.0000
0.718 2 3.315688 8.237676 -14.269687 -8.842468 -15.037537 20.225525 -0.50 0.50 7.7 9.8 1.7700 -7.9545 0.2691 0.0005 -0.015573 0.120667 11.28 510 870 -0.04 15.80 0.0000 0.0000
0.725 2 5.885767 4.722998 -10.182016 -5.935669 56.518555 26.062012 -0.67 0.67 7.7 7.7 2.1063 3.3891 0.2691 0.0005 -0.020764 0.149115 9.22 480 890 -0.07 55.14 0.0000 0.0000
0.732 2 1.448066 -0.875073 -6.446772 -11.131287 105.842590 18.142700 -0.59 0.59 7.7 7.7 19.3181 18.0303 0.2726 0.0004 -0.018168 0.231637 9.19 490 800 -0.15 59.30 0.0000 0.0000
0.739 2 -4.032529 -8.671616 -10.026181 2.532959 1.724243 18.623352 -0.67 0.67 -8.3 -8.3 18.5242 15.1940 0.2764 0.0003 -0.020764 0.178155 9.81 490 800 -0.10 -53.33 -0.0000 -0.0000
0.746 2 2.160112 -1.229897 -11.642070 4.737854 -77.407837 26.245117 -0.67 0.67 -6.7 -6.1 -3.1448 -3.4322 0.2768 0.0003 -0.020764 0.119537 8.24 490 880 -0.04 -13.38 0.0000 0.0000
0.753 2 7.815722 4.696626 -11.428696 -5.577087 -10.986328 14.823914 -0.75 0.75 6.4 6.4 -2.4453 -3.0117 0.2762 0.0004 -0.023359 0.154887 7.88 510 900 -0.07 70.00 0.0000 0.0000
0.760 2 3.042378 8.316792 -8.055469 -7.797241 45.875549 17.669678 -0.75 0.75 8.6 8.6 18.0303 16.4911 0.2790 0.0003 -0.023359 0.230831 10.14 480 800 -0.15 69.05 0.0000 0.0000
0.767 2 -5.799458 11.515004 -14.988925 -3.257751 -28.625488 21.430969 -0.75 0.75 -9.0 -9.0 21.1292 21.4646 0.2834 0.0002 -0.023359 0.199632 10.50 480 760 -0.12 -28.51 0.0000 0.0000
0.774 2 -1.654248 -0.011987 -10.632739 12.199402 -111.854553 33.233643 -0.75 0.75 -7.7 -7.7 4.3622 3.8200 0.2850 0.0002 -0.023359 0.135080 9.19 490 870 -0.06 -38.78 -0.0000 -0.0000
0.781 2 9.808012 3.982183 -13.097329 16.021729 -73.112488 15.708923 -0.84 0.84 9.2 9.2 2.1636 -2.1671 0.2848 0.0002 -0.025955 0.139047 10.71 490 880 -0.06 54.46 0.0000 0.0000
0.788 2 6.106333 0.661699 -7.010176 7.049561 15.762329 19.218445 -0.84 0.84 7.9 7.9 17.3368 16.9034 0.2872 0.0001 -0.025955 0.203640 9.44 510 830 -0.12 70.00 0.0000 0.0000
0.795 2 -4.099658 -6.657749 -10.563212 21.369934 -31.547546 28.533936 -0.92 0.92 -10.0 -10.0 20.4889 20.4889 0.2919 -0.0000 -0.028550 0.182070 11.47 490 770 -0.10 -55.87 -0.0000 -0.0000
0.802 2 -4.766152 5.020283 -11.318413 16.059875 -143.928528 30.990601 -1.00 1.00 -6.8 -6.8 4.7783 3.3977 0.2933 -0.0001 -0.031146 0.081646 8.32 480 870 -0.00 -63.34 0.0000 0.0000
0.809 2 6.957431 2.891338 -13.320292 11.085510 -91.606140 23.139954 -1.00 1.00 8.8 8.8 -8.6684 -8.9554 0.2921 -0.0000 -0.031146 0.079904 10.28 490 800 0.00 47.34 0.0000 0.0000
0.816 2 9.659369 1.340181 -7.559194 2.716064 27.984619 23.284912 -1.09 1.09 7.0 7.0 9.3908 6.5327 0.2923 -0.0001 -0.033741 0.163104 8.54 490 840 -0.08 70.00 0.0000 0.0000
0.823 2 -1.738159 -0.146245 -8.913759 -1.159668 -6.164551 29.212952 -1.09 1.09 -8.0 -8.0 15.3667 15.7241 0.2955 -0.0002 -0.033741 0.140208 9.49 510 820 -0.06 -45.09 0.0000 0.0000
0.830 2 -0.673687 -1.587119 -10.112490 9.346008 -75.950623 16.014099 -1.09 1.09 -7.5 -7.5 -2.4148 -5.7543 0.2955 -0.0002 -0.033741 0.090067 9.02 490 880 -0.01 -40.23 -0.0000 -0.0000
0.837 2 4.435303 -2.124150 -12.277397 0.823975 -41.893005 13.031006 -1.00 1.00 8.6 9.7 -6.1747 -6.5327 0.2941 -0.0001 -0.031146 0.089176 11.25 480 880 -0.01 17.05 0.0000 0.0000
0.844 2 5.876176 0.803149 -9.093569 -11.177063 80.039978 13.839722 -1.09 1.09 7.8 7.8 10.3227 8.6684 0.2951 -0.0001 -0.033741 0.177321 9.29 490 810 -0.10 70.00 0.0000 0.0000
0.851 2 -7.842094 1.687812 -11.093051 -2.685547 23.887634 8.216858 -1.09 1.09 -10.6 -10.6 15.5433 15.3667 0.2983 -0.0003 -0.033741 0.149814 12.07 480 810 -0.07 -53.89 -0.0000 -0.0000
0.858 2 -1.776518 -3.150264 -8.940131 24.627686 -76.332092 6.050110 -1.00 1.00 -8.2 -8.2 -2.1465 -4.6630 0.2985 -0.0003 -0.031146 0.045739 9.73 510 900 0.03 -48.11 0.0000 0.0000
0.865 2 7.468091 1.608696 -13.401806 9.185791 -15.548706 0.411987 -1.00 1.00 10.0 10.0 -10.4021 -9.1991 0.2965 -0.0002 -0.031146 0.062958 11.53 480 810 0.02 57.04 0.0000 0.0000
0.872 2 5.984062 2.416641 -9.889526 -6.126404 91.415405 -3.227234 -1.00 1.00 6.5 6.5 6.7953 8.0492 0.2969 -0.0002 -0.031146 0.138325 8.01 480 810 -0.06 70.00 0.0000 0.0000
0.879 2 -8.081841 2.886543 -9.551484 -3.486633 32.333374 -4.562378 -0.92 0.92 -7.9 -7.9 8.1956 8.0016 0.2991 -0.0003 -0.028550 0.095739 9.37 490 800 -0.02 -70.00 -0.0000 -0.0000
0.886 2 -1.896392 7.537617 -9.541894 1.853943 -48.362732 2.609253 -0.92 0.92 -7.7 -6.4 -11.8620 -12.1826 0.2979 -0.0002 -0.028550 0.031367 9.16 490 800 0.05 -16.81 0.0000 0.0000
0.893 2 8.120200 1.675825 -12.605849 -5.775452 25.062561 -3.700256 -0.92 0.92 7.9 7.9 -10.1674 -11.8620 0.2951 -0.0002 -0.028550 0.053685 9.40 510 830 0.03 43.68 0.0000 0.0000
0.900 2 -0.031167 -1.047690 -9.836782 -20.484924 127.014160 -10.490417 -1.00 1.00 7.2 7.2 9.0151 6.6614 0.2957 -0.0002 -0.031146 0.134183 8.65 490 830 -0.05 30.16 0.0000 0.0000
0.907 2 -4.991514 -5.288799 -8.988081 -1.968384 49.491882 -10.749817 -1.00 1.00 -10.2 -10.2 8.6132 8.1462 0.2981 -0.0003 -0.031146 0.091552 11.72 490 810 -0.01 -70.00 0.0000 0.0000
0.914 2 1.122012 0.992549 -9.270981 6.629944 -36.682129 -2.510071 -1.00 1.00 -8.0 -8.0 -8.0492 -8.8965 0.2973 -0.0002 -0.031146 0.005936 9.54 490 800 0.07 -25.84 -0.0000 -0.0000
0.921 2 4.986719 3.320483 -13.823759 -4.722595 35.293579 -5.172729 -0.92 0.92 8.9 8.9 -6.8993 -6.3487 0.2955 -0.0002 -0.028550 0.047473 10.43 480 830 0.03 43.70 0.0000 0.0000
0.928 2 2.047431 0.350029 -9.585049 -16.494751 97.190857 -13.107300 -0.92 0.92 5.3 6.4 13.5227 13.7987 0.2975 -0.0002 -0.028550 0.100760 10.08 510 820 -0.02 20.73 0.0000 0.0000
0.935 2 -10.186811 -3.567422 -7.355410 -0.030518 -8.377075 -10.787964 -0.84 0.84 -8.3 -8.3 8.7243 6.5964 0.2997 -0.0003 -0.025955 0.041895 9.79 490 840 0.04 -70.00 -0.0000 -0.0000
0.942 2 1.517593 1.977905 -10.436147 3.936768 -68.260193 -8.789062 -0.59 0.59 -3.6 -5.9 -13.3888 -5.4308 0.2987 -0.0003 -0.018168 -0.026172 8.92 490 840 0.11 -10.16 0.0000 0.0000
0.949 2 3.481113 0.997344 -12.531528 -4.364014 19.386292 -15.716553 -0.59 0.59 7.3 7.3 -5.0084 -4.3481 0.2971 -0.0002 -0.018168 0.025153 8.76 490 870 0.05 23.66 0.0000 0.0000
0.956 2 -2.155317 0.261323 -9.534702 -14.495850 68.817139 -16.532898 -0.50 0.50 -4.6 -5.6 12.5210 14.8601 0.2989 -0.0003 -0.015573 0.074758 9.13 490 800 0.01 0.97 0.0000 0.0000
0.963 2 -8.791489 -1.107627 -8.333574 2.357483 -25.535583 -18.394470 -0.42 0.42 -7.1 -7.1 3.4409 3.8858 0.3003 -0.0003 -0.012977 0.015922 8.56 510 900 0.06 -70.00 0.0000 0.0000
0.970 2 -1.944341 0.501069 -10.500878 10.383606 -66.726685 -13.481140 -0.33 0.33 -8.1 -8.1 -12.6380 -11.8620 0.2985 -0.0003 -0.010382 -0.033248 9.60 490 800 0.11 -32.35 -0.0000 -0.0000
0.977 2 10.520059 2.246421 -12.658593 -2.624512 42.106628 -12.153625 -0.25 0.25 11.0 11.0 -5.9051 -8.6684 0.2963 -0.0002 -0.007786 0.027264 12.48 490 840 0.05 70.00 0.0000 0.0000
0.984 2 -0.858291 1.599106 -10.357031 -16.441345 88.645935 -17.936707 -0.25 0.25 -8.3 -8.3 12.5210 13.0026 0.2979 -0.0003 -0.007786 0.069813 9.79 490 800 0.01 -19.03 -0.0000 -0.0000
0.991 2 -11.407119 -1.975508 -8.158559 0.640869 -17.402649 -22.880554 -0.25 0.25 -7.7 -7.7 3.8308 3.3472 0.2991 -0.0003 -0.007786 0.007780 9.16 490 880 0.07 -70.00 0.0000 0.0000
0.998 2 3.644140 -4.711010 -10.107695 11.367798 -48.858643 -14.511108 -0.17 0.17 6.2 5.9 -12.7573 -11.9670 0.2973 -0.0003 -0.005191 -0.028021 10.31 510 830 0.11 7.97 0.0000 0.0000
1.005 2 8.194521 -2.162510 -12.004086 2.700806 43.090820 -8.277893 -0.17 0.17 6.9 6.9 -4.8295 -4.5685 0.2957 -0.0002 -0.005191 0.028895 8.43 490 880 0.05 44.39 0.0000 0.0000
1.012 2 -0.254131 -0.378799 -9.179877 -2.426147 69.404602 -14.450073 -0.00 0.00 -8.1 -8.1 11.4599 14.3858 0.2977 -0.0002 -0.000000 0.060133 9.62 490 770 0.02 -27.03 -0.0000 -0.0000
1.019 2 -6.650557 -4.301045 -7.041343 14.144897 -38.322449 -24.467468 0.25 -0.25 -7.2 -7.2 -2.5611 3.7563 0.2983 -0.0002 0.007786 -0.011901 8.69 490 880 0.09 -70.00 0.0000 0.0000
1.026 2 4.761357 -5.073027 -10.402583 5.844116 -58.181763 -19.622803 0.33 -0.33 -8.1 -8.2 -13.7987 -12.4061 0.2961 -0.0003 0.010382 -0.040968 9.68 490 810 0.12 -19.93 -0.0000 -0.0000
1.033 2 6.856738 -2.586860 -12.368501 -5.706787 57.754517 -28.305054 0.42 -0.42 5.3 5.3 -7.8620 -6.9347 0.2939 -0.0003 0.012977 0.031530 6.80 510 820 0.05 52.50 0.0000 0.0000
1.040 2 -4.133223 -0.035962 -9.472368 -15.434265 78.559875 -30.242920 0.50 -0.50 -8.6 -8.6 8.6684 12.2934 0.2953 -0.0003 0.015573 0.056071 10.14 490 800 0.02 -38.86 0.0000 0.0000
1.047 2 -7.158818 -4.996308 -7.024560 4.776001 -22.277832 -32.455444 0.59 -0.59 -7.5 -7.5 -2.2132 -2.7882 0.2951 -0.0003 0.018168 -0.014273 9.03 490 870 0.09 -70.00 -0.0000 -0.0000
1.054 2 7.173203 4.286660 -13.528872 1.594543 -24.391174 -23.506165 0.59 -0.59 6.4 5.5 -16.2924 -15.9091 0.2919 -0.0003 0.018168 -0.028703 10.20 490 820 0.11 4.18 0.0000 0.0000
1.061 2 7.700644 -0.064731 -12.394873 -7.843018 90.744019 -30.288696 0.59 -0.59 7.0 7.0 -6.4702 -5.3449 0.2898 -0.0004 0.018168 0.047935 8.54 490 880 0.03 48.74 0.0000 0.0000
1.068 2 -4.392148 -3.390010 -8.913759 -10.429382 96.855164 -17.494202 0.50 -0.50 -9.3 -9.3 8.5048 8.0974 0.2912 -0.0003 0.015573 0.065047 10.82 510 820 0.01 -40.93 0.0000 0.0000
1.075 2 -6.504311 8.599692 -7.134843 -0.366211 -19.660950 -18.890381 0.50 -0.50 -7.2 -7.2 -2.0740 -7.5126 0.2908 -0.0004 0.015573 -0.024114 8.70 490 840 0.10 -70.00 -0.0000 -0.0000
1.082 2 5.892959 7.861274 -13.876504 -5.256653 -5.104065 -17.219543 0.34 -0.34 8.8 8.8 -15.7241 -16.6947 0.2880 -0.0004 0.010382 -0.019913 10.27 490 810 0.10 22.25 0.0000 0.0000
1.089 2 5.660405 5.264824 -12.517143 -10.948181 87.051392 -4.432678 0.42 -0.42 6.9 6.9 -4.2658 -4.0487 0.2866 -0.0004 0.012977 0.044684 8.35 490 870 0.04 47.90 0.0000 0.0000
1.096 2 -4.030132 1.678223 -11.023525 -8.865356 79.772949 2.670288 0.42 -0.42 -10.1 -10.1 7.8620 7.8620 0.2882 -0.0004 0.012977 0.056823 11.63 490 790 0.02 -20.25 -0.0000 -0.0000
1.103 2 -3.073545 -4.751768 -5.789868 8.407593 -40.122986 -2.349854 0.42 -0.42 -9.0 -9.0 -7.6833 -8.0492 0.2874 -0.0004 0.012977 -0.037746 10.52 510 830 0.12 -70.00 0.0000 0.0000
1.110 2 10.659111 -5.097002 -12.167114 5.790710 -13.656616 -1.312256 0.42 -0.42 10.9 10.9 -14.6986 -15.1940 0.2842 -0.0004 0.012977 -0.024725 12.42 490 800 0.10 24.51 0.0000 0.0000
1.117 2 3.167046 -3.517075 -10.977973 -0.442505 88.607788 -0.160217 0.42 -0.42 6.6 6.6 5.9310 2.7154 0.2838 -0.0004 0.012977 0.045431 8.10 490 880 0.03 35.36 0.0000 0.0000
1.124 2 -7.786953 -5.969677 -8.755527 4.730225 46.554565 7.339478 0.42 -0.42 -8.5 -8.5 5.9310 6.1189 0.2854 -0.0004 0.012977 0.032073 10.03 480 870 0.05 -70.00 0.0000 0.0000
1.131 2 -3.231777 3.718462 -7.801338 16.174316 -66.787720 4.379272 0.42 -0.42 -7.6 -7.6 -9.1991 -9.1370 0.2838 -0.0004 0.012977 -0.067028 9.10 490 800 0.15 -70.00 -0.0000 -0.0000
1.138 2 8.606885 7.556797 -13.569629 3.562927 -3.158569 -2.357483 0.42 -0.42 8.3 8.3 -11.9670 -11.5579 0.2814 -0.0005 0.012977 -0.021378 9.76 510 820 0.10 52.32 0.0000 0.0000
1.145 2 3.761616 3.167046 -11.996894 -7.942200 74.104309 -3.585815 0.42 -0.42 3.9 3.4 2.7710 2.2575 0.2814 -0.0005 0.012977 0.038195 8.54 490 880 0.04 10.53 0.0000 0.0000
1.152 2 -9.270981 3.852720 -10.421762 7.781982 0.144958 4.661560 0.42 -0.42 -10.9 -10.9 3.8417 5.8037 0.2826 -0.0005 0.012977 0.001271 12.43 490 880 0.08 -70.00 -0.0000 -0.0000
1.159 2 1.575132 2.570078 -8.410293 10.826111 -78.018188 7.125854 0.42 -0.42 -8.9 -8.9 -13.7987 -13.1288 0.2806 -0.0005 0.012977 -0.068296 10.44 490 800 0.15 -26.20 0.0000 0.0000
1.166 2 5.926523 -1.735762 -11.620493 -4.837036 -1.121521 5.371094 0.33 -0.33 10.0 10.0 -12.1826 -15.1940 0.2772 -0.0005 0.010382 -0.016648 11.49 490 790 0.10 24.31 0.0000 0.0000
1.173 2 1.790903 2.833799 -11.903393 -11.581421 72.090149 -3.860474 0.33 -0.33 8.0 8.0 3.0050 2.3155 0.2772 -0.0005 0.010382 0.052078 9.48 510 900 0.03 33.53 0.0000 0.0000
1.180 2 -7.453706 -2.500552 -12.236640 7.873535 1.838684 -1.579285 0.42 -0.42 -7.9 -7.9 3.0594 4.7282 0.2782 -0.0005 0.012977 0.018475 9.40 490 880 0.06 -70.00 0.0000 0.0000
1.187 2 -2.783452 0.127065 -6.415605 8.186340 -78.872681 4.730225 0.42 -0.42 -7.9 -7.9 -12.7573 -12.8788 0.2762 -0.0005 0.012977 -0.059157 9.41 480 810 0.14 -70.00 -0.0000 -0.0000
1.194 2 4.761357 6.070371 -12.586670 -4.608154 -15.953064 -5.828857 0.42 -0.42 10.3 10.3 -15.7241 -15.3667 0.2729 -0.0006 0.012977 -0.021093 11.75 480 800 0.10 37.78 0.0000 0.0000
1.201 2 5.375107 3.169443 -11.493427 -7.171631 58.296204 -3.593445 0.42 -0.42 6.1 6.1 2.2998 4.2793 0.2729 -0.0006 0.012977 0.038846 7.64 490 880 0.04 31.83 0.0000 0.0000
1.208 2 -8.235278 -6.473145 -11.455068 7.934570 -6.523132 9.468079 0.42 -0.42 -7.3 -7.3 6.5327 7.1172 0.2746 -0.0005 0.012977 0.020513 8.78 510 860 0.06 -70.00 -0.0000 -0.0000
1.215 2 -4.742177 4.420918 -6.950239 10.894775 -105.392456 3.288269 0.42 -0.42 -8.2 -8.2 -11.6575 -12.5210 0.2725 -0.0006 0.012977 -0.077717 9.75 490 810 0.16 -70.00 0.0000 0.0000
1.222 2 6.765635 10.042964 -12.207870 -1.998901 -41.717529 -7.690430 0.34 -0.34 8.2 8.2 -15.9091 -16.0984 0.2691 -0.0006 0.010382 -0.050432 9.68 480 810 0.13 46.51 0.0000 0.0000
1.229 2 5.178515 1.623081 -11.570147 -0.404358 42.793274 -2.349854 0.42 -0.42 7.0 7.0 -3.6847 -4.8295 0.2681 -0.0006 0.012977 0.015477 8.51 480 890 0.06 22.76 0.0000 0.0000
1.236 2 -3.541050 -4.593535 -12.620234 3.471375 -0.213623 8.949280 0.42 -0.42 -9.5 -9.5 3.6548 4.7615 0.2689 -0.0006 0.012977 0.003887 10.98 490 870 0.08 -55.13 -0.0000 -0.0000
1.243 2 -1.337783 -2.330332 -4.751768 13.710022 -79.299927 8.819580 0.50 -0.50 -8.8 -8.8 -13.5227 -11.1758 0.2671 -0.0006 0.015573 -0.062191 10.27 510 810 0.14 -70.00 0.0000 0.0000
1.250 2 3.682500 2.704336 -10.750215 0.534058 -44.075012 -7.102966 0.42 -0.42 8.7 8.7 -19.5981 -19.5981 0.2633 -0.0007 0.012977 -0.054704 10.16 490 800 0.13 19.77 0.0000 0.0000
1.257 2 5.089809 -1.635068 -11.112231 -4.882812 48.660278 -1.472473 0.50 -0.50 6.8 6.8 -4.1737 -3.3977 0.2619 -0.0007 0.015573 0.013230 8.27 490 870 0.07 34.68 0.0000 0.0000
1.264 2 -2.080996 -2.258408 -13.579218 3.654480 20.652771 3.768921 0.59 -0.59 -8.5 -8.5 5.6345 5.6345 0.2629 -0.0007 0.018168 0.014461 9.98 490 870 0.07 -44.23 0.0000 0.0000
1.271 2 -3.586601 -1.692607 -3.399600 11.993408 -90.850830 -7.843018 0.59 -0.59 -8.2 -8.2 -13.5227 -13.3888 0.2609 -0.0007 0.018168 -0.075177 9.67 490 800 0.16 -70.00 -0.0000 -0.0000
1.278 2 9.462778 0.285298 -9.855962 1.358032 -50.827026 -17.356873 0.50 -0.50 10.9 10.9 -20.8041 -21.4646 0.2571 -0.0008 0.015573 -0.083444 12.42 510 810 0.16 47.28 0.0000 0.0000
1.285 2 2.838594 -0.443530 -11.912983 -0.656128 49.720764 0.869751 0.59 -0.59 5.9 5.9 -6.8643 -6.6614 0.2548 -0.0008 0.018168 -0.010932 7.42 490 830 0.09 15.39 0.0000 0.0000
1.292 2 -2.591655 -5.051450 -11.790712 0.892639 19.279480 -6.103516 0.59 -0.59 -9.1 -9.1 5.5195 4.3905 0.2556 -0.0008 0.018168 -0.015722 10.55 490 870 0.10 -54.81 0.0000 0.0000
1.299 2 -4.910000 0.980561 -5.209682 6.507874 -80.039978 -4.699707 0.67 -0.67 -8.5 -8.5 -12.8788 -13.1288 0.2538 -0.0009 0.020764 -0.088687 10.05 480 800 0.17 -70.00 -0.0000 -0.0000
1.306 2 8.856220 1.582324 -8.949721 -1.045227 -49.263000 -16.593933 0.67 -0.67 8.6 8.6 -22.1684 -21.1292 0.2498 -0.0010 0.020764 -0.090792 10.11 490 770 0.17 36.43 0.0000 0.0000
1.313 2 4.615112 -0.608955 -12.162319 0.289917 40.245056 -0.038147 0.67 -0.67 6.5 6.5 -6.2896 -7.6399 0.2470 -0.0010 0.020764 -0.022877 8.04 510 850 0.10 8.07 0.0000 0.0000
1.320 2 -3.742436 -4.574355 -13.200419 -1.327515 29.167175 1.953125 0.67 -0.67 -9.2 -9.2 2.0998 2.0965 0.2474 -0.0010 0.020764 -0.012568 10.68 480 870 0.09 -41.35 0.0000 0.0000
1.327 2 -6.813584 2.433423 -5.420659 1.640320 -75.454712 -3.158569 0.67 -0.67 -7.5 -7.5 -13.3888 -14.5405 0.2454 -0.0011 0.020764 -0.084489 8.97 490 810 0.16 -70.00 -0.0000 -0.0000
1.334 2 8.427075 4.883628 -9.270981 -3.181458 -58.746338 -1.510620 0.67 -0.67 8.9 8.9 -22.1684 -22.1684 0.2410 -0.0011 0.020764 -0.124917 10.38 480 790 0.20 27.98 0.0000 0.0000
1.341 2 3.478716 0.975767 -11.785917 -7.759094 46.295166 4.234314 0.59 -0.59 6.8 6.8 -10.6478 -8.5587 0.2375 -0.0012 0.018168 -0.039693 8.31 480 800 0.12 19.25 0.0000 0.0000
1.348 2 -7.132446 -2.534116 -12.895942 -3.082275 24.833679 -1.373291 0.67 -0.67 -8.4 -8.4 -1.6967 2.8589 0.2378 -0.0012 0.020764 -0.036641 9.86 510 900 0.12 -65.50 0.0000 0.0000
1.355 2 -5.017886 1.752544 -6.166269 -4.791260 -28.701782 1.319885 0.59 -0.59 -8.4 -8.4 -14.5405 -15.1940 0.2355 -0.0012 0.018168 -0.101209 9.92 490 810 0.18 -70.00 -0.0000 -0.0000
1.362 2 3.342060 4.085273 -11.795507 -2.029419 -17.967224 5.706787 0.50 -0.50 -8.6 -8.6 -22.5378 -22.5378 0.2309 -0.0013 0.015573 -0.165071 10.06 490 770 0.25 -31.85 0.0000 0.0000
1.369 2 6.065576 2.644399 -17.062729 -9.277344 101.280212 9.506226 0.59 -0.59 8.0 6.7 -18.5242 -17.5619 0.2267 -0.0014 0.018168 -0.126001 10.09 490 800 0.21 2.64 0.0000 0.0000
1.376 2 -1.999482 0.290093 -14.893027 -26.824951 181.831360 -5.134583 0.67 -0.67 -6.4 -7.8 -5.0458 -3.2120 0.2253 -0.0014 0.020764 -0.073724 9.27 490 870 0.15 -13.30 0.0000 0.0000
1.383 2 -11.083462 4.504829 -1.380937 -14.427185 81.367493 -5.195618 0.50 -0.50 -7.7 -7.7 -12.4061 -12.7573 0.2237 -0.0014 0.015573 -0.152556 9.22 510 830 0.23 -70.00 -0.0000 -0.0000
1.390 2 -0.676084 -2.956069 -8.597295 -8.621216 73.371887 -2.090454 0.34 -0.34 -8.6 -8.6 -24.5867 -27.0454 0.2188 -0.0015 0.010382 -0.272085 10.12 490 780 0.35 -60.44 0.0000 0.0000
1.397 2 1.162768 0.385991 -16.794214 -16.769409 168.968201 -1.502991 0.34 -0.34 -6.1 -6.5 -22.1684 -22.1684 0.2136 -0.0016 0.010382 -0.211963 10.33 490 780 0.29 -25.63 0.0000 0.0000
1.404 2 -0.100693 -1.769326 -15.070439 -29.083252 -242.126465 -8.438110 0.33 -0.33 -6.1 -6.1 -9.9432 -9.7991 0.2108 -0.0016 0.010382 -0.143636 7.63 480 780 0.22 -46.72 -0.0000 -0.0000
1.411 2 -10.357031 4.485649 -4.265083 -29.861450 200.035095 -5.310059 0.42 -0.42 -8.7 -8.7 -15.1940 -13.2575 0.2086 -0.0016 0.012977 -0.174452 10.24 490 810 0.25 -70.00 0.0000 0.0000
1.418 2 -2.102573 3.092725 -5.691572 -18.676758 133.148193 -2.304077 0.33 -0.33 -9.0 -9.0 -27.5973 -28.1723 0.2036 -0.0017 0.010382 -0.317301 10.52 510 790 0.40 -70.00 -0.0000 -0.0000
1.425 2 1.193936 -1.347373 -14.051518 -27.145386 222.198486 -11.795044 0.33 -0.33 10.3 10.3 -22.9198 -23.3150 0.1975 -0.0017 0.010382 -0.223609 11.75 490 770 0.30 2.16 0.0000 0.0000
1.432 2 2.555693 -0.285298 -13.389819 -38.566589 -226.181030 -10.673523 0.33 -0.33 -6.2 -6.2 -7.7717 -6.6944 0.1951 -0.0018 0.010382 -0.162992 7.72 490 830 0.24 -31.29 0.0000 0.0000
1.439 2 -12.399668 -4.989116 -3.363638 -21.057129 203.445435 -5.386353 0.42 -0.42 -8.6 -8.6 -20.1831 -19.0460 0.1921 -0.0018 0.012977 -0.215048 10.06 480 790 0.30 -70.00 -0.0000 -0.0000
1.446 2 5.432646 -3.967798 -6.681724 -15.045166 156.730652 -4.653931 0.42 -0.42 8.6 8.6 -31.4481 -31.4481 0.1861 -0.0019 0.012977 -0.282145 10.14 490 780 0.36 0.82 0.0000 0.0000
1.453 2 10.668701 2.999223 -12.119164 -23.231506 -226.181030 -22.087097 0.42 -0.42 6.1 6.1 -18.2739 -14.5405 0.1808 -0.0020 0.012977 -0.168307 7.64 510 830 0.25 12.56 0.0000 0.0000
1.460 2 3.792783 2.514936 -12.416450 -38.429260 -226.181030 -14.137268 0.59 -0.59 -11.3 -11.3 -6.9347 -4.2929 0.1792 -0.0020 0.018168 -0.125527 12.83 490 840 0.21 -41.64 0.0000 0.0000
1.467 2 -7.626323 -3.102314 -6.000844 -14.762878 150.611877 1.113892 0.67 -0.67 -7.7 -7.7 -22.9198 -20.1831 0.1758 -0.0020 0.020764 -0.200065 9.16 490 790 0.28 -70.00 -0.0000 -0.0000
1.474 2 5.200093 -4.605522 -9.239814 -11.299133 156.410217 3.517151 0.59 -0.59 8.3 8.3 -26.5151 -27.5973 0.1700 -0.0022 0.018168 -0.149409 9.79 490 780 0.23 36.30 0.0000 0.0000
1.481 2 10.220376 -3.684897 -10.225170 -18.791199 -227.203369 -1.792908 0.59 -0.59 6.5 6.5 -7.5546 -9.3908 0.1672 -0.0022 0.018168 -0.030310 8.01 490 800 0.11 42.67 0.0000 0.0000
1.488 2 -8.781899 5.307978 -8.352754 -24.528503 200.241089 4.570007 0.50 -0.50 -11.3 -11.3 -1.8474 -2.6412 0.1670 -0.0022 0.015573 -0.030247 12.75 510 890 0.11 -70.00 -0.0000 -0.0000
1.495 2 -0.980561 5.104194 -13.284330 -6.446838 60.562134 7.453918 0.50 -0.50 -6.9 -6.9 -14.0861 -13.9409 0.1653 -0.0022 0.015573 -0.111165 8.35 480 800 0.19 -70.00 0.0000 0.0000
1.502 2 7.000586 0.194194 -12.047241 -12.298584 105.873108 3.684998 0.50 -0.50 10.9 10.9 -15.9091 -17.1173 0.1617 -0.0023 0.015573 -0.049113 12.39 480 810 0.13 44.27 0.0000 0.0000
1.509 2 0.134258 -2.536514 -9.304545 -10.299683 134.117126 6.805420 0.42 -0.42 7.6 7.6 -2.9397 -3.6847 0.1607 -0.0023 0.012977 0.020705 9.07 490 860 0.06 6.03 0.0000 0.0000
1.516 2 -3.315688 -3.428369 -8.374331 -0.503540 57.502747 9.590149 0.50 -0.50 -11.3 -11.3 1.7654 4.9534 0.1613 -0.0023 0.015573 -0.002729 12.83 490 870 0.08 -68.01 0.0000 0.0000
1.523 2 0.755200 1.004536 -14.291265 -4.226685 3.158569 17.951965 0.50 -0.50 -2.7 -4.1 -16.6947 -15.9091 0.1589 -0.0023 0.015573 -0.026228 10.52 510 830 0.11 -16.69 -0.0000 -0.0000
1.530 2 7.472886 8.772309 -13.250766 -7.957458 49.163818 5.310059 0.42 -0.42 7.3 7.3 -9.2621 -11.5579 0.1559 -0.0024 0.012977 0.014026 8.84 490 800 0.07 43.61 0.0000 0.0000
1.537 2 3.864707 -2.234433 -7.587964 -13.160706 117.919922 11.077881 0.33 -0.33 6.9 6.9 7.2703 5.0837 0.1565 -0.0024 0.010382 0.102203 8.35 490 830 -0.02 55.08 0.0000 0.0000
1.544 2 -9.354893 -9.700127 -6.252578 3.486633 36.521912 16.197205 0.25 -0.25 -8.8 -8.8 10.0168 10.6478 0.1587 -0.0023 0.007786 0.071671 10.28 490 800 0.01 -70.00 -0.0000 -0.0000
1.551 2 2.244023 -1.050088 -16.643173 10.551453 -47.821045 20.637512 0.17 -0.17 -7.6 -7.4 -2.2538 -9.7286 0.1581 -0.0023 0.005191 0.012682 9.13 490 840 0.07 -14.08 0.0000 0.0000
1.558 2 3.951015 2.241626 -14.118647 5.241394 -6.675720 14.060974 0.08 -0.08 7.1 7.1 -10.8182 -12.8788 0.1551 -0.0024 0.002595 0.040108 8.56 510 810 0.04 18.34 0.0000 0.0000
1.565 2 4.372969 5.394287 -4.408930 -9.719849 62.477112 13.389587 0.08 -0.08 7.4 7.4 4.4048 2.4950 0.1551 -0.0024 0.002595 0.118863 8.88 490 870 -0.04 70.00 0.0000 0.0000
1.572 2 0.019180 -3.958208 -6.137500 4.280090 37.986755 16.212463 0.08 -0.08 -7.6 -7.6 15.0252 15.1940 0.1579 -0.0023 0.002595 0.138177 9.08 480 790 -0.06 -34.58 -0.0000 -0.0000
1.579 2 -3.092725 4.646279 -16.537685 -3.601074 -69.732666 26.458740 0.17 -0.17 -7.3 -7.3 -5.0458 3.0594 0.1589 -0.0023 0.005191 0.065114 8.80 490 880 0.01 -55.84 0.0000 0.0000
1.586 2 3.195815 -1.203525 -15.461226 6.782532 -61.111450 14.595032 -0.00 0.00 8.8 8.8 -12.6380 -15.3667 0.1565 -0.0023 -0.000000 0.065224 10.35 490 760 0.01 10.31 0.0000 0.0000
1.593 2 11.881816 -2.143330 -4.070889 -1.220703 23.841858 16.265869 -0.08 0.08 6.4 6.4 5.8287 7.5546 0.1559 -0.0023 -0.002595 0.111382 7.94 510 870 -0.03 70.00 0.0000 0.0000
1.600 2 0.203784 -1.071665 -4.430508 -15.037537 33.195496 27.908325 -0.25 0.25 -3.6 -2.8 14.2344 13.2575 0.1583 -0.0024 -0.007786 0.191187 10.47 490 800 -0.11 -0.93 -0.0000 -0.0000
1.607 2 -4.135620 -6.024819 -12.246230 -4.112244 -65.444946 18.020630 -0.25 0.25 -9.6 -9.6 4.2258 4.5076 0.1599 -0.0024 -0.007786 0.116938 11.12 490 860 -0.04 -53.91 -0.0000 -0.0000
1.614 2 4.696626 -4.617510 -17.717236 7.942200 -77.980042 21.659851 -0.33 0.33 11.0 11.0 -13.3888 -13.9409 0.1581 -0.0024 -0.010382 0.094171 12.50 490 800 -0.01 12.20 0.0000 0.0000
1.621 2 8.400702 2.181690 -8.113008 -2.067566 3.814697 19.859314 -0.42 0.42 8.9 8.9 3.1375 -2.6463 0.1575 -0.0023 -0.012977 0.117001 10.38 480 880 -0.04 54.65 0.0000 0.0000
1.628 2 -0.997344 2.493359 -0.678481 -16.540527 41.358948 17.539978 -0.50 0.50 -9.7 -9.7 14.8601 13.5227 0.1597 -0.0024 -0.015573 0.199463 11.17 510 810 -0.12 -70.00 0.0000 0.0000
1.635 2 -3.023198 -8.539756 -11.270464 8.842468 -49.346924 9.300232 -0.50 0.50 -8.4 -8.4 6.2317 8.2455 0.1621 -0.0024 -0.015573 0.114345 9.86 490 840 -0.03 -55.25 0.0000 0.0000
1.642 2 2.944082 -3.358843 -16.554468 4.554749 -80.741882 16.921997 -0.42 0.42 3.5 2.7 -12.4061 -10.0916 0.1607 -0.0024 -0.012977 0.079647 9.08 490 810 0.00 3.60 0.0000 0.0000
1.649 2 2.399858 2.795439 -11.845854 -5.447388 -4.295349 11.550903 -0.42 0.42 7.2 7.2 6.4394 -2.9333 0.1595 -0.0024 -0.012977 0.104001 8.65 490 880 -0.02 27.12 0.0000 0.0000
1.656 2 1.184346 -1.505605 -0.438735 -2.212524 53.764343 11.650085 -0.33 0.33 8.1 8.1 12.6380 12.7573 0.1613 -0.0024 -0.010382 0.230103 9.57 480 800 -0.15 70.00 0.0000 0.0000
1.663 2 -8.441460 -4.912397 -9.410034 -2.433777 -43.846130 10.200500 -0.25 0.25 -7.4 -7.4 12.7573 16.9034 0.1647 -0.0024 -0.007786 0.162968 8.89 510 820 -0.08 -70.00 0.0000 0.0000
1.670 2 -0.469902 5.914536 -17.722031 3.906250 -86.479187 6.759644 -0.17 0.17 1.6 0.8 -6.8296 -2.4904 0.1645 -0.0024 -0.005191 0.115851 9.21 480 840 -0.04 3.34 0.0000 0.0000
1.677 2 6.154282 8.283227 -15.957500 3.761292 -43.434143 5.950928 -0.17 0.17 9.1 9.1 -4.3204 -4.0731 0.1633 -0.0024 -0.005191 0.117811 10.63 490 870 -0.04 29.33 0.0000 0.0000
1.684 2 2.023457 4.123633 -2.785850 -2.319336 14.549255 2.288818 -0.25 0.25 7.6 7.6 10.9054 11.6575 0.1647 -0.0024 -0.007786 0.182133 9.07 490 800 -0.10 70.00 0.0000 0.0000
1.691 2 -6.115922 10.426558 -8.618872 -0.122070 -22.338867 -4.776001 -0.17 0.17 -10.2 -10.2 17.5619 17.1173 0.1682 -0.0025 -0.005191 0.169784 11.66 490 810 -0.09 -70.00 -0.0000 -0.0000
1.698 2 -0.489082 -0.158232 -16.698315 14.556885 -108.474731 9.330750 -0.08 0.08 -7.6 -7.6 2.9081 5.8540 0.1696 -0.0025 -0.002595 0.092082 9.11 510 890 -0.01 -43.60 0.0000 0.0000
1.705 2 -0.069526 0.282900 -15.012900 14.419556 -107.437134 8.163452 -0.00 0.00 -7.7 -8.2 -12.0738 -10.6478 0.1678 -0.0025 -0.000000 0.072192 9.71 480 790 0.01 -17.60 -0.0000 -0.0000
1.712 2 8.463037 -3.416382 -4.871641 15.007019 4.760742 -7.423401 -0.08 0.08 9.0 9.0 -3.6548 -5.7300 0.1664 -0.0025 -0.002595 0.134132 10.52 490 870 -0.05 70.00 0.0000 0.0000
1.719 2 -1.110024 -1.558350 -4.533598 1.350403 13.114929 -6.134033 -0.17 0.17 -11.0 -11.0 11.8620 9.5906 0.1678 -0.0025 -0.005191 0.165347 12.48 490 800 -0.09 -45.29 0.0000 0.0000
1.726 2 -3.473921 -1.970713 -13.315497 4.966736 -54.763794 15.983582 -0.17 0.17 -6.5 -6.5 -2.4498 -2.3766 0.1678 -0.0025 -0.005191 0.090662 7.99 490 870 -0.01 -42.02 -0.0000 -0.0000
1.733 2 6.686518 -0.131860 -17.861084 2.014160 -22.224426 10.055542 -0.17 0.17 9.5 9.5 -10.9054 -8.8965 0.1657 -0.0025 -0.005191 0.083916 11.03 510 830 -0.00 22.27 0.0000 0.0000
1.740 2 8.916157 -2.116958 -5.852202 -9.384155 91.690063 -6.706238 -0.17 0.17 6.6 6.6 8.9554 7.1549 0.1661 -0.0025 -0.005191 0.159544 8.12 490 790 -0.08 70.00 0.0000 0.0000
1.747 2 -8.558935 -7.300268 -5.770689 7.789612 53.291321 12.741089 -0.17 0.17 -8.8 -8.8 11.8620 12.1826 0.1686 -0.0025 -0.005191 0.146088 10.30 490 800 -0.07 -70.00 -0.0000 -0.0000
1.754 2 -3.325278 8.134584 -12.764082 5.989075 -56.739807 8.079529 -0.25 0.25 -7.5 -7.5 -4.4337 -6.4702 0.1688 -0.0025 -0.007786 0.041766 9.03 480 880 0.04 -51.05 0.0000 0.0000
1.761 2 5.307978 1.527183 -17.647709 5.378723 -16.189575 -4.577637 -0.25 0.25 2.2 3.7 -10.3227 -12.1826 0.1664 -0.0024 -0.007786 0.050837 12.37 490 800 0.03 0.53 0.0000 0.0000
1.768 2 4.488047 -0.944600 -6.163872 -3.890991 74.737549 -2.830505 -0.25 0.25 7.3 7.3 2.6309 2.9019 0.1664 -0.0024 -0.007786 0.116009 8.78 510 900 -0.04 70.00 0.0000 0.0000
1.775 2 -6.782417 -10.661509 -6.034409 10.780334 55.397034 6.584167 -0.25 0.25 -11.1 -11.1 11.9670 12.5210 0.1692 -0.0025 -0.007786 0.127662 12.56 490 800 -0.05 -30.77 0.0000 0.0000
1.782 2 -6.043999 0.529839 -11.236899 11.741638 -56.335449 3.135681 -0.17 0.17 -7.6 -7.6 -5.2010 2.9720 0.1698 -0.0025 -0.005191 0.033337 9.11 490 880 0.05 -70.00 -0.0000 -0.0000
1.789 2 2.992031 1.721377 -14.367983 3.570557 -40.710449 -5.790710 -0.08 0.08 8.8 8.4 -12.7573 -12.1826 0.1676 -0.0025 -0.002595 0.033113 11.85 490 800 0.05 11.51 0.0000 0.0000
1.796 2 7.822915 3.126289 -8.077045 -4.425049 42.930603 -16.105652 -0.08 0.08 7.1 7.1 -2.9207 -2.4904 0.1672 -0.0025 -0.002595 0.079014 8.59 480 880 0.00 70.00 0.0000 0.0000
1.803 2 2.932095 -0.417158 -7.283486 -9.803772 53.077698 -15.090942 0.08 -0.08 -3.1 -5.0 13.1288 15.5433 0.1696 -0.0025 0.002595 0.121735 12.17 510 820 -0.04 1.38 0.0000 0.0000
1.810 2 -5.679585 5.660405 -12.452412 -2.632141 -46.028137 -14.236450 0.08 -0.08 -7.8 -7.8 6.4702 4.5226 0.1712 -0.0025 0.002595 0.053966 9.32 490 880 0.03 -69.10 -0.0000 -0.0000
1.817 2 1.735762 -4.298647 -12.423642 4.981995 -79.498291 -9.445190 -0.00 0.00 -6.4 -5.4 -11.5579 -13.3888 0.1694 -0.0025 -0.000000 0.022943 9.78 480 760 0.06 -14.22 0.0000 0.0000
1.824 2 8.002725 -3.701679 -8.096226 -4.249573 1.075745 -3.044128 0.08 -0.08 7.6 7.6 -7.2703 -6.0640 0.1672 -0.0025 0.002595 0.059505 9.14 490 830 0.02 58.75 0.0000 0.0000
1.831 2 -0.019180 -3.951015 -5.154541 0.083923 67.489624 -6.927490 0.17 -0.17 4.4 1.8 6.3190 12.7573 0.1682 -0.0025 0.005191 0.145271 8.99 490 830 -0.07 8.50 0.0000 0.0000
1.838 2 -3.262944 -3.931836 -10.927627 7.499695 -2.090454 -31.860352 0.33 -0.33 -7.2 -7.2 3.9083 7.3895 0.1698 -0.0024 0.010382 0.089733 8.70 510 850 -0.01 -63.27 0.0000 0.0000
1.845 2 -1.949136 2.210459 -13.284330 3.883362 -57.235718 -16.578674 0.42 -0.42 -8.1 -8.1 -13.3888 -12.1826 0.1680 -0.0025 0.012977 0.042994 9.56 490 800 0.04 -33.44 -0.0000 -0.0000
1.852 2 9.515522 1.397720 -12.785659 -4.272461 27.687073 -22.880554 0.34 -0.34 10.9 10.9 -6.4394 -7.1929 0.1657 -0.0025 0.010382 0.071984 12.45 490 840 0.01 43.77 0.0000 0.0000
1.859 2 -1.217910 -0.381196 -4.799716 -13.229370 101.737976 -24.681091 0.33 -0.33 -0.9 -0.8 11.6575 9.0151 0.1670 -0.0025 0.010382 0.157705 9.68 490 800 -0.08 0.40 0.0000 0.0000
1.866 2 -7.729414 -4.720601 -9.249404 3.875732 -2.983093 -14.450073 0.33 -0.33 -8.4 -8.4 5.1417 5.0837 0.1686 -0.0025 0.010382 0.080921 9.86 480 870 -0.00 -70.00 0.0000 0.0000
1.873 2 3.440356 4.480855 -14.389560 6.767273 -51.300049 -6.004333 0.33 -0.33 -5.3 -5.0 -9.8706 -11.0842 0.1674 -0.0025 0.010382 0.031050 10.14 510 820 0.05 -10.76 -0.0000 -0.0000
1.880 2 1.177153 4.998706 -14.204956 -7.476807 24.101257 -18.615723 0.33 -0.33 10.6 10.6 -4.2127 -7.1549 0.1657 -0.0025 0.010382 0.064907 12.10 480 830 0.02 22.89 0.0000 0.0000
1.887 2 1.330591 2.781054 -4.818896 -13.320923 71.136475 -21.415710 0.33 -0.33 8.7 8.7 12.8788 10.9054 0.1674 -0.0025 0.010382 0.118673 10.19 490 800 -0.04 30.13 0.0000 0.0000
1.894 2 -3.308496 -4.782934 -9.748075 5.310059 -5.126953 -10.177612 0.42 -0.42 -7.7 -7.7 8.3992 9.7286 0.1696 -0.0025 0.012977 0.065334 9.22 490 790 0.01 -68.98 -0.0000 -0.0000
1.901 2 3.224585 -0.045552 -12.634619 11.627197 -67.787170 -4.684448 0.42 -0.42 -7.4 -7.7 -10.6478 -10.4021 0.1684 -0.0025 0.012977 0.009293 9.24 490 800 0.07 -15.60 0.0000 0.0000
1.908 2 4.552778 -0.865483 -13.826157 -0.442505 -1.098633 -15.548706 0.42 -0.42 8.3 8.3 -8.8384 -9.2621 0.1664 -0.0025 0.012977 0.035785 9.82 510 810 0.04 20.54 0.0000 0.0000
1.915 2 2.162510 2.057021 -5.233657 -8.811951 82.618713 -22.575378 0.42 -0.42 7.1 7.1 10.0916 9.6591 0.1672 -0.0025 0.012977 0.117203 8.59 480 800 -0.04 70.00 0.0000 0.0000
1.922 2 -11.886611 4.363379 -10.268325 -8.529663 4.478455 -6.698608 0.50 -0.50 -10.6 -10.6 8.2961 8.2961 0.1698 -0.0024 0.015573 0.075587 12.12 490 800 0.00 -70.00 0.0000 0.0000
1.929 2 -1.150781 -0.501069 -11.618095 13.442993 -73.738098 -1.152039 0.50 -0.50 -8.1 -8.1 -10.0168 -11.2689 0.1686 -0.0025 0.015573 0.001675 9.62 490 800 0.08 -32.94 -0.0000 -0.0000
1.936 2 5.590879 -0.944600 -14.480663 1.472473 0.579834 -9.017944 0.42 -0.42 9.5 9.5 -8.9554 -7.2314 0.1664 -0.0025 0.012977 0.030714 11.00 490 800 0.05 30.79 0.0000 0.0000
1.943 2 1.817275 3.066352 -5.986460 -10.124207 83.229065 -21.018982 0.42 -0.42 7.9 7.9 12.2934 10.4827 0.1676 -0.0025 0.012977 0.105094 9.38 510 820 -0.03 48.89 0.0000 0.0000
1.950 2 -11.824277 -0.539429 -9.091171 -10.375977 -2.525330 -9.323120 0.50 -0.50 -8.6 -8.6 6.9705 8.8965 0.1698 -0.0025 0.015573 0.050702 10.12 490 800 0.03 -70.00 -0.0000 -0.0000
1.957 2 0.352427 -2.421435 -10.951601 7.499695 -76.705933 2.922058 0.50 -0.50 -7.4 -7.4 -10.9941 -11.6575 0.1686 -0.0025 0.015573 -0.016468 8.89 480 800 0.10 -32.87 0.0000 0.0000
1.964 2 5.403877 -2.553296 -14.389560 -2.899170 12.214661 -6.370544 0.42 -0.42 8.6 8.6 -7.8620 -7.4711 0.1664 -0.0025 0.012977 0.022474 10.14 490 800 0.06 19.32 0.0000 0.0000
1.971 2 -0.057539 -1.237090 -5.904946 -12.351990 86.067200 -14.953613 0.42 -0.42 7.1 7.1 13.3888 12.0738 0.1680 -0.0025 0.012977 0.089921 8.59 490 790 -0.01 23.57 0.0000 0.0000
1.978 2 -6.775224 -10.460122 -7.777363 4.348755 -14.945984 -7.324219 0.50 -0.50 -6.8 -6.8 6.2605 6.9705 0.1698 -0.0025 0.015573 0.020844 8.31 510 860 0.06 -70.00 0.0000 0.0000
1.985 2 4.715806 -3.401997 -11.162578 14.198303 -70.388794 -2.441406 0.50 -0.50 1.2 1.0 -11.8620 -12.5210 0.1682 -0.0025 0.015573 -0.031844 9.78 480 800 0.11 -0.76 -0.0000 -0.0000
1.992 2 3.752026 1.392925 -13.878901 -4.692078 21.202087 -6.332397 0.50 -0.50 10.6 9.8 -5.4091 -4.7117 0.1666 -0.0025 0.015573 0.014232 12.09 480 860 0.07 20.44 0.0000 0.0000
1.999 2 -0.937407 -2.107368 -6.648159 -9.399414 77.888489 -12.664795 0.50 -0.50 -8.0 -8.0 13.5227 13.7987 0.1682 -0.0025 0.015573 0.067472 9.54 490 790 0.01 -4.96 0.0000 0.0000
2.006 2 -7.089292 2.383076 -9.208647 7.400513 -31.623840 -12.130737 0.50 -0.50 -7.7 -7.7 4.8995 5.2414 0.1698 -0.0025 0.015573 -0.006762 9.21 480 870 0.09 -70.00 -0.0000 -0.0000
2.013 2 4.166787 2.586860 -11.682827 9.109497 -64.338684 -4.653931 0.42 -0.42 6.1 6.2 -12.4061 -13.3888 0.1676 -0.0025 0.012977 -0.040907 11.49 510 820 0.12 7.54 0.0000 0.0000
2.020 2 10.253941 0.196592 -12.850390 -1.861572 39.237976 -11.749268 0.42 -0.42 8.3 8.3 -4.6470 -6.8296 0.1659 -0.0025 0.012977 0.012444 9.81 490 840 0.07 43.28 0.0000 0.0000
2.027 2 -2.733105 -1.340181 -8.103417 -6.271362 75.477600 -8.506775 0.50 -0.50 -7.1 -7.1 12.5210 14.3858 0.1678 -0.0025 0.015573 0.056183 8.62 490 810 0.02 -36.77 -0.0000 -0.0000
2.034 2 -3.888681 3.023198 -9.985424 7.019043 -34.553528 -10.482788 0.50 -0.50 -7.2 -7.2 2.9081 -6.7953 0.1686 -0.0025 0.015573 -0.014407 8.67 490 840 0.09 -70.00 0.0000 0.0000
2.041 2 3.047173 3.140674 -11.558159 6.881714 -55.625916 -10.482788 0.67 -0.67 4.8 3.3 -14.5405 -13.1288 0.1666 -0.0025 0.020764 -0.037785 9.78 490 800 0.12 2.74 0.0000 0.0000
2.048 2 9.012055 4.396943 -12.310962 -6.500244 33.149719 -23.872375 0.67 -0.67 7.2 7.2 -7.9545 -7.6833 0.1645 -0.0026 0.020764 0.012223 8.75 510 820 0.07 41.22 0.0000 0.0000
2.055 2 -4.046914 0.400376 -9.659369 -12.939453 67.367554 -12.168884 0.50 -0.50 -7.9 -7.9 11.2689 7.5546 0.1657 -0.0025 0.015573 0.056778 9.43 490 800 0.02 -35.58 -0.0000 -0.0000
2.062 2 -4.442495 3.104712 -10.395391 5.989075 -21.347046 3.295898 0.59 -0.59 -8.0 -8.0 -4.9534 2.5611 0.1664 -0.0025 0.018168 -0.005874 9.54 480 870 0.09 -70.00 0.0000 0.0000
2.069 2 -0.400376 0.635327 -12.001689 11.573792 -39.466858 -1.304626 0.50 -0.50 -10.4 -10.4 -14.2344 -13.9409 0.1637 -0.0026 0.015573 -0.027265 11.90 480 800 0.11 -30.33 -0.0000 -0.0000
2.076 2 8.880195 4.209941 -11.598916 -3.242493 58.227539 -6.759644 0.50 -0.50 8.4 8.4 -8.2455 -6.9347 0.1613 -0.0026 0.015573 0.033029 9.87 490 810 0.05 70.00 0.0000 0.0000
2.083 2 -2.725913 3.107109 -10.227568 -12.481689 95.520020 -1.373291 0.50 -0.50 -11.0 -11.0 9.8706 9.0151 0.1625 -0.0026 0.015573 0.074816 12.55 510 820 0.01 -25.43 -0.0000 -0.0000
2.090 2 -3.346855 -3.879092 -8.743540 6.446838 -8.941650 0.122070 0.50 -0.50 -6.8 -6.8 -3.0874 -2.5563 0.1625 -0.0026 0.015573 0.002656 8.27 490 880 0.08 -70.00 0.0000 0.0000
2.097 2 3.138276 -3.385215 -11.515004 9.330750 -24.955750 -2.731323 0.42 -0.42 4.3 3.8 -15.5433 -15.5433 0.1599 -0.0026 0.012977 -0.015944 10.35 490 810 0.10 0.72 0.0000 0.0000
2.104 2 9.968642 1.122012 -10.872485 4.661560 65.063477 0.167847 0.50 -0.50 6.6 6.6 -6.7613 -5.0458 0.1581 -0.0026 0.015573 0.037194 8.05 490 870 0.04 65.82 0.0000 0.0000
2.111 2 -3.039980 3.169443 -9.860757 -8.300781 89.981079 -1.213074 0.50 -0.50 -7.8 -7.8 9.1991 9.1991 0.1593 -0.0026 0.015573 0.071558 9.25 490 800 0.01 -26.93 -0.0000 -0.0000
2.118 2 -6.477939 6.552260 -9.589844 1.930237 -18.341064 -1.411438 0.50 -0.50 -7.8 -7.8 -2.2500 -3.1087 0.1593 -0.0026 0.015573 -0.000432 9.29 510 910 0.08 -70.00 0.0000 0.0000
2.125 2 2.864966 0.628135 -11.680429 4.928589 -32.226562 2.975464 0.50 -0.50 3.6 3.0 -16.2924 -16.2924 0.1565 -0.0027 0.015573 -0.030674 10.16 490 800 0.11 -1.28 -0.0000 -0.0000
2.132 2 9.848769 1.659043 -12.931904 -7.537842 75.782776 -9.483337 0.50 -0.50 10.4 10.4 -8.2455 -6.0913 0.1541 -0.0027 0.015573 0.022196 11.94 480 840 0.06 57.30 0.0000 0.0000
2.139 2 -2.975249 0.709648 -9.407637 -12.855530 98.762512 -6.248474 0.50 -0.50 -8.1 -8.1 10.1674 10.8182 0.1553 -0.0027 0.015573 0.069642 9.57 480 800 0.01 -25.43 -0.0000 -0.0000
2.146 2 -3.600986 -7.715029 -7.266704 10.383606 -6.645203 -5.538940 0.42 -0.42 -7.5 -7.5 2.6567 -6.4394 0.1559 -0.0027 0.012977 -0.002053 9.05 490 870 0.08 -70.00 0.0000 0.0000
2.153 2 4.857256 -3.970195 -10.932422 10.131836 -25.634766 -0.770569 0.42 -0.42 3.9 3.7 -14.6986 -15.1940 0.1535 -0.0027 0.012977 -0.035828 9.90 510 840 0.12 1.41 0.0000 0.0000
2.160 2 3.466728 -0.508262 -12.462002 -2.746582 61.294556 -0.534058 0.42 -0.42 8.6 8.1 -6.4089 -5.5421 0.1515 -0.0027 0.012977 0.008683 10.11 490 870 0.07 15.41 0.0000 0.0000
2.167 2 -4.576753 -3.893476 -9.256597 -7.499695 91.102600 -3.128052 0.42 -0.42 -7.0 -7.0 9.1991 11.0842 0.1527 -0.0027 0.012977 0.048071 8.51 490 800 0.03 -40.96 -0.0000 -0.0000
2.174 2 -0.644917 -9.781640 -3.212598 3.868103 42.793274 -3.707886 0.42 -0.42 -7.5 -7.5 -3.4322 -2.5419 0.1527 -0.0027 0.012977 -0.013215 9.03 490 880 0.09 -57.81 0.0000 0.0000
2.181 2 -1.354565 0.345234 -13.526474 -2.868652 18.997192 3.578186 0.42 -0.42 -8.8 -8.8 -16.6947 -16.9034 0.1499 -0.0028 0.012977 -0.067441 10.27 490 800 0.15 -49.97 -0.0000 -0.0000
2.188 2 6.310117 -3.838335 -16.106142 -4.730225 99.342346 2.128601 0.50 -0.50 4.2 3.3 -17.1173 -16.4911 0.1460 -0.0028 0.015573 -0.060081 10.36 510 830 0.14 -0.60 0.0000 0.0000
2.195 2 2.893735 -0.525044 -9.872744 -22.689819 208.030701 -3.005981 0.50 -0.50 6.5 6.5 -6.1747 -4.4926 0.1444 -0.0028 0.015573 0.027538 8.04 490 870 0.05 42.07 0.0000 0.0000
2.202 2 -8.884990 -5.341543 -4.684639 -12.718201 197.799683 4.516602 0.42 -0.42 -5.4 -5.6 8.9554 8.0492 0.1458 -0.0028 0.012977 0.071994 9.27 490 810 0.01 -10.57 0.0000 0.0000
2.209 2 -3.059160 -10.606367 -6.219014 3.906250 104.560852 2.006531 0.42 -0.42 -7.1 -7.1 -4.3342 2.3037 0.1462 -0.0028 0.012977 -0.031102 8.57 490 880 0.11 -59.88 -0.0000 -0.0000
2.216 2 2.440615 -5.334351 -14.710820 -8.308411 94.573975 6.034851 0.33 -0.33 -3.6 -3.1 -15.1940 -16.6947 0.1436 -0.0028 0.010382 -0.029993 10.25 480 800 0.11 -13.03 0.0000 0.0000
2.223 2 0.733623 0.148643 -12.776069 -13.801575 109.237671 8.972168 0.25 -0.25 10.2 9.0 -10.8182 -9.0151 0.1406 -0.0029 0.007786 -0.003938 12.01 510 820 0.08 14.66 0.0000 0.0000
2.230 2 6.063179 3.764014 -5.413466 -20.202637 170.173645 -0.877380 0.25 -0.25 8.3 8.3 -5.2823 -5.6580 0.1394 -0.0029 0.007786 0.069272 9.81 490 870 0.01 70.00 0.0000 0.0000
2.237 2 -0.438735 3.512280 -8.170547 -28.907776 165.046692 6.095886 0.25 -0.25 7.1 7.1 6.4394 4.0246 0.1402 -0.0029 0.007786 0.129969 8.62 480 870 -0.05 35.09 0.0000 0.0000
2.244 2 -8.393511 0.100693 -12.809633 -0.549316 59.776306 4.104614 0.08 -0.08 -7.8 -7.8 3.5033 -3.3063 0.1406 -0.0029 0.002595 0.068401 9.25 480 890 0.01 -55.40 0.0000 0.0000
2.251 2 3.267739 -1.683017 -15.569111 0.251770 27.084351 6.225586 0.08 -0.08 8.7 8.7 -16.9034 -17.7930 0.1378 -0.0029 0.002595 0.045691 10.16 490 800 0.03 7.19 0.0000 0.0000
2.258 2 5.010693 -0.671289 -7.350615 -10.795593 102.500916 5.050659 -0.00 0.00 7.4 7.4 -4.1737 -6.1189 0.1360 -0.0029 -0.000000 0.087877 8.88 510 870 -0.01 52.28 0.0000 0.0000
2.265 2 -0.330850 2.900928 -4.138018 -23.414612 140.693665 5.561829 -0.08 0.08 7.6 7.6 12.4061 9.2621 0.1378 -0.0029 -0.002595 0.178389 9.07 490 800 -0.10 34.24 0.0000 0.0000
2.272 2 -5.171323 7.523232 -10.999551 -5.287170 28.739929 2.014160 -0.08 0.08 -10.3 -10.3 8.5587 6.3786 0.1402 -0.0029 -0.002595 0.100583 11.80 490 850 -0.02 -70.00 0.0000 0.0000
2.279 2 0.419556 -2.299165 -17.662094 3.883362 -18.852234 8.247375 -0.17 0.17 -3.4 -2.3 -11.6575 -13.1288 0.1388 -0.0029 -0.005191 0.065051 9.95 490 800 0.01 -10.87 -0.0000 -0.0000
2.286 2 3.274931 -2.155317 -10.891665 -3.517151 37.391663 10.711670 -0.17 0.17 7.7 7.7 -6.7953 -5.1811 0.1368 -0.0029 -0.005191 0.086106 9.22 490 830 -0.01 42.01 0.0000 0.0000
2.293 2 5.785073 -3.569819 -1.855635 -8.193970 110.778809 5.874634 -0.17 0.17 8.1 8.1 11.4599 11.8620 0.1380 -0.0029 -0.005191 0.194718 9.63 510 830 -0.11 70.00 0.0000 0.0000
2.300 2 -11.061885 5.331953 -10.527250 -10.787964 33.866882 7.690430 -0.25 0.25 -8.6 -8.6 13.5227 15.7241 0.1410 -0.0029 -0.007786 0.162074 10.14 490 800 -0.08 -69.89 0.0000 0.0000
2.307 2 1.071665 -6.252578 -16.873329 12.504578 -43.540955 7.621765 -0.25 0.25 -7.0 -6.5 -3.7356 -3.5033 0.1414 -0.0029 -0.007786 0.091704 9.00 490 880 -0.01 -11.71 -0.0000 -0.0000
2.314 2 0.956587 -0.827124 -15.593085 5.577087 -27.023315 9.788513 -0.33 0.33 1.8 2.2 -9.5906 -8.8965 0.1396 -0.0029 -0.010382 0.088270 10.62 480 800 -0.01 0.40 0.0000 0.0000
2.321 2 5.447031 3.771206 -3.334868 -1.701355 50.895691 6.164551 -0.25 0.25 7.9 7.9 7.5126 9.0756 0.1402 -0.0029 -0.007786 0.158909 9.44 490 810 -0.08 70.00 0.0000 0.0000
2.328 2 -3.198213 2.848183 -6.943047 -6.698608 37.231445 6.042480 -0.17 0.17 4.5 3.4 15.3667 17.7930 0.1432 -0.0029 -0.005191 0.216434 10.14 510 830 -0.14 14.60 0.0000 0.0000
2.335 2 -8.657231 -2.543706 -14.058710 11.054993 -57.678223 12.321472 -0.17 0.17 -7.4 -7.4 6.3786 5.3239 0.1456 -0.0029 -0.005191 0.137094 8.86 480 870 -0.06 -60.54 0.0000 0.0000
2.342 2 2.121753 1.718979 -17.774775 9.651184 -86.059570 6.317139 -0.25 0.25 6.0 6.8 -10.9941 -11.6575 0.1442 -0.0029 -0.007786 0.104313 9.38 490 800 -0.02 5.83 0.0000 0.0000
2.349 2 8.211304 -0.407568 -5.562109 10.627747 1.991272 6.072998 -0.25 0.25 8.2 8.2 -4.7783 -6.0369 0.1430 -0.0029 -0.007786 0.131342 9.71 480 860 -0.05 70.00 0.0000 0.0000
2.356 2 -1.606299 -4.166787 -1.095640 1.037598 46.463013 12.771606 -0.25 0.25 -7.3 -7.3 12.8788 13.5227 0.1450 -0.0029 -0.007786 0.240104 8.81 490 790 -0.16 -36.15 0.0000 0.0000
2.363 2 -8.184932 4.627100 -12.533925 -2.433777 -32.905579 7.896423 -0.17 0.17 -7.2 -7.2 3.5774 5.5195 0.1464 -0.0029 -0.005191 0.145295 8.67 510 900 -0.07 -59.57 -0.0000 -0.0000
2.370 2 0.405171 -2.620425 -18.546757 11.749268 -53.321838 10.490417 -0.17 0.17 0.8 0.8 -12.0738 -12.7573 0.1444 -0.0029 -0.005191 0.107735 9.82 480 800 -0.03 -4.81 0.0000 0.0000
2.377 2 12.035254 -0.491479 -8.031494 -4.028320 85.556030 7.728577 -0.25 0.25 9.1 9.1 -2.8833 -3.9890 0.1434 -0.0029 -0.007786 0.155869 10.58 480 870 -0.08 70.00 0.0000 0.0000
2.384 2 -3.306098 -0.436338 -2.186484 -15.701294 93.864441 5.706787 -0.25 0.25 -8.5 -8.5 13.3888 13.1288 0.1458 -0.0029 -0.007786 0.192278 10.03 490 790 -0.11 -70.00 -0.0000 -0.0000
2.391 2 -6.897495 5.952895 -10.776587 -1.777649 -20.416260 -0.015259 -0.25 0.25 -7.4 -7.4 -5.1811 2.9019 0.1466 -0.0029 -0.007786 0.063621 8.94 490 880 0.02 -70.00 0.0000 0.0000
2.398 2 3.898271 1.512798 -19.088583 -0.488281 7.209778 5.859375 -0.33 0.33 8.6 8.6 -10.5646 -10.9941 0.1444 -0.0029 -0.010382 0.066816 10.06 500 810 0.01 19.38 0.0000 0.0000
2.405 2 6.465952 4.224326 -9.400444 -16.921997 106.094360 4.478455 -0.34 0.34 7.3 7.3 5.0270 6.0640 0.1448 -0.0029 -0.010382 0.118376 8.76 490 880 -0.04 70.00 0.0000 0.0000
2.412 2 -8.026699 -4.761357 -2.944082 -0.968933 84.274292 13.404846 -0.42 0.42 -8.1 -8.1 15.0252 14.0861 0.1474 -0.0030 -0.012977 0.161323 9.60 480 800 -0.08 -13.05 0.0000 0.0000
2.419 2 1.050088 -9.975835 -10.618354 16.181946 -9.902954 2.998352 -0.50 0.50 -7.0 -7.0 3.8970 3.1303 0.1489 -0.0030 -0.015573 0.052631 8.50 480 870 0.03 -21.64 -0.0000 -0.0000
2.426 2 4.852461 -4.435303 -15.089619 4.646301 11.276245 2.120972 -0.42 0.42 9.5 9.5 -12.1826 -9.6591 0.1470 -0.0029 -0.012977 0.062323 11.01 490 790 0.02 28.14 0.0000 0.0000
2.433 2 7.724619 0.958984 -10.776587 -5.722046 77.270508 -6.248474 -0.25 0.25 8.6 8.6 2.5660 8.4517 0.1474 -0.0030 -0.007786 0.096296 10.06 510 860 -0.02 55.52 0.0000 0.0000
2.440 2 -1.321001 2.399858 -5.037066 -9.353638 70.198059 -11.459351 -0.25 0.25 -7.9 -7.9 15.7241 16.9034 0.1503 -0.0030 -0.007786 0.136222 9.37 480 800 -0.06 -56.89 0.0000 0.0000
2.447 2 -4.615112 -6.506709 -10.196401 7.736206 -21.102905 -5.073547 -0.25 0.25 -8.0 -8.0 4.7783 4.7615 0.1523 -0.0030 -0.007786 0.057642 9.48 480 870 0.02 -63.94 -0.0000 -0.0000
2.454 2 4.114043 -3.617769 -14.593345 5.706787 -23.048401 -4.669189 -0.25 0.25 10.0 10.0 -12.8788 -12.0738 0.1507 -0.0030 -0.007786 0.049226 11.53 490 800 0.03 15.14 0.0000 0.0000
2.461 2 10.189209 -1.004536 -9.369277 -1.480103 62.263489 -4.341125 -0.25 0.25 8.7 8.7 -2.6258 -2.8231 0.1499 -0.0030 -0.007786 0.086925 10.22 480 880 -0.01 65.56 0.0000 0.0000
2.468 2 -0.565801 -1.697402 -3.454741 -14.175415 98.693848 -7.080078 -0.17 0.17 -5.0 -5.4 13.2575 14.6986 0.1525 -0.0030 -0.005191 0.160765 9.78 510 820 -0.08 -3.70 0.0000 0.0000
2.475 2 -7.930800 5.406274 -10.532045 -8.491516 -4.150391 -6.782532 -0.17 0.17 -8.5 -8.5 9.7991 10.3227 0.1553 -0.0030 -0.005191 0.079560 9.98 490 800 0.00 -65.39 0.0000 0.0000
2.482 2 2.299165 8.892182 -17.772377 -4.508972 -32.356262 -2.876282 -0.17 0.17 0.9 1.4 -8.1462 -8.7243 0.1545 -0.0030 -0.005191 0.049290 8.95 490 800 0.03 2.84 0.0000 0.0000
2.489 2 2.411846 5.221670 -13.881298 -7.003784 33.752441 3.890991 -0.17 0.17 8.8 8.8 -3.6061 -3.2351 0.1533 -0.0030 -0.005191 0.075954 10.30 490 870 0.00 22.80 0.0000 0.0000
2.496 2 1.237090 1.517593 -2.416641 -13.237000 92.353821 -3.501892 -0.25 0.25 7.7 7.7 12.8788 13.3888 0.1551 -0.0030 -0.007786 0.179034 9.22 480 800 -0.10 70.00 0.0000 0.0000
2.503 2 -3.951015 -7.590361 -9.314136 1.121521 12.756348 -0.877380 -0.25 0.25 -7.3 -7.3 11.5579 12.6380 0.1583 -0.0030 -0.007786 0.117616 8.83 510 820 -0.04 -69.45 -0.0000 -0.0000
2.510 2 1.531978 -9.597035 -13.761425 19.973755 -43.190002 7.934570 -0.25 0.25 -8.0 -8.0 -2.0804 -7.3895 0.1579 -0.0030 -0.007786 0.065577 9.46 490 840 0.01 -13.25 0.0000 0.0000
2.517 2 5.840215 -1.436079 -14.794731 7.087708 20.294189 -3.021240 -0.25 0.25 9.4 9.4 -6.3786 -5.9571 0.1563 -0.0030 -0.007786 0.087654 10.92 480 870 -0.01 43.20 0.0000 0.0000
2.524 2 5.324760 -0.450723 -2.642002 -7.987976 103.378296 -8.590698 -0.33 0.33 8.8 8.8 11.8620 11.0842 0.1581 -0.0030 -0.010382 0.185811 10.33 480 810 -0.11 70.00 0.0000 0.0000
2.531 2 -10.107695 13.464140 -11.404721 -13.366699 21.873474 -0.091553 -0.17 0.17 -9.0 -9.0 11.6575 11.2689 0.1609 -0.0031 -0.005191 0.123004 10.49 490 810 -0.04 -70.00 0.0000 0.0000
2.538 2 2.092983 -1.400117 -14.101865 7.972717 -50.132751 9.124756 -0.25 0.25 -8.1 -7.9 -2.3155 -7.5970 0.1607 -0.0031 -0.007786 0.062091 9.59 510 860 0.02 -13.17 -0.0000 -0.0000
2.545 2 9.095966 1.603901 -15.734535 1.068115 21.682739 -0.358582 -0.25 0.25 8.0 8.0 -4.0127 -4.3905 0.1595 -0.0031 -0.007786 0.090540 9.49 490 870 -0.01 46.67 0.0000 0.0000
2.552 2 1.848442 -2.186484 -3.315688 -8.369446 93.429565 -5.065918 -0.25 0.25 7.7 7.7 13.6593 13.2575 0.1615 -0.0031 -0.007786 0.162765 9.21 480 810 -0.08 70.00 0.0000 0.0000
2.559 2 -10.078925 1.953931 -9.165493 -6.439209 12.031555 3.707886 -0.25 0.25 -9.0 -9.0 10.8182 11.7589 0.1647 -0.0031 -0.007786 0.105093 10.50 490 800 -0.03 -70.00 0.0000 0.0000
2.566 2 0.738418 -5.281606 -13.689502 12.336731 -52.658081 14.625549 -0.25 0.25 -7.2 -7.2 -2.2998 -5.3875 0.1643 -0.0031 -0.007786 0.048669 8.73 480 880 0.03 -22.61 -0.0000 -0.0000
2.573 2 6.827969 3.984580 -14.236122 1.190186 22.689819 -7.011414 -0.17 0.17 8.1 8.1 -6.4089 -3.7459 0.1629 -0.0031 -0.005191 0.080316 9.59 510 900 -0.00 50.74 0.0000 0.0000
2.580 2 4.325019 1.356963 -5.044258 -11.375427 100.059509 -8.972168 -0.25 0.25 8.5 8.5 13.5227 12.2934 0.1647 -0.0031 -0.007786 0.161546 10.05 490 800 -0.08 70.00 0.0000 0.0000
2.587 2 -9.678550 11.570147 -10.591982 -9.109497 22.697449 -1.937866 -0.17 0.17 -10.8 -10.8 12.5210 13.3888 0.1678 -0.0031 -0.005191 0.108587 12.34 490 810 -0.03 -70.00 0.0000 0.0000
2.594 2 0.318862 -1.054883 -14.370380 7.446289 -48.965454 5.432129 -0.25 0.25 -7.8 -7.8 -2.6938 -6.2896 0.1676 -0.0031 -0.007786 0.047530 9.33 490 880 0.03 -28.83 -0.0000 -0.0000
2.601 2 7.026958 3.385215 -14.080288 -3.791809 20.980835 -4.676819 -0.25 0.25 8.8 8.8 -6.0640 -6.1189 0.1660 -0.0031 -0.007786 0.074168 10.25 480 860 0.01 52.99 0.0000 0.0000
2.608 2 5.168926 -0.433940 -4.502431 -10.177612 105.140686 -7.865906 -0.25 0.25 8.9 8.9 11.8620 13.0026 0.1676 -0.0031 -0.007786 0.163122 10.39 510 820 -0.08 70.00 0.0000 0.0000
2.615 2 -8.657231 2.824209 -9.033632 2.159119 37.384033 2.960205 -0.25 0.25 -8.9 -8.9 12.8788 12.7573 0.1704 -0.0031 -0.000000 0.127181 10.38 490 810 -0.05 -70.00 -0.0000 -0.0000
2.622 2 -1.268257 4.641484 -14.485458 6.530762 -39.459229 0.205994 -0.25 0.25 -7.4 -7.4 -2.8589 2.3892 0.1708 -0.0031 -0.007786 0.061747 8.94 480 880 0.02 -24.56 0.0000 0.0000
2.629 2 11.009140 2.474180 -16.499325 5.241394 8.049011 -9.643555 -0.25 0.25 9.4 9.4 -6.3487 -5.1811 0.1692 -0.0031 -0.007786 0.076279 10.93 490 880 0.00 33.38 0.0000 0.0000
2.636 2 3.023198 -0.664097 -3.138276 -4.524231 96.908569 -8.552551 -0.25 0.25 6.9 6.9 11.3636 10.8182 0.1708 -0.0031 -0.007786 0.163584 8.45 490 800 -0.08 70.00 0.0000 0.0000
2.643 2 -7.942788 -11.205732 -6.581030 15.724182 54.725647 -0.625610 -0.17 0.17 -10.7 -10.7 12.7573 15.3667 0.1738 -0.0032 -0.005191 0.151889 12.17 510 830 -0.07 -69.62 0.0000 0.0000
2.650 2 -5.087412 4.080478 -14.219340 7.545471 -43.624878 0.793457 -0.08 0.08 -6.8 -6.8 -3.1230 2.8650 0.1744 -0.0032 -0.002595 0.075661 8.29 490 880 0.00 -41.42 -0.0000 -0.0000
2.657 2 11.268066 0.155835 -15.907153 9.132385 0.198364 -12.252808 -0.25 0.25 10.4 10.4 -4.8643 -6.5327 0.1728 -0.0032 -0.007786 0.086450 11.94 480 880 -0.01 29.95 0.0000 0.0000
2.664 2 2.850581 1.591914 -4.675049 -5.783081 96.641541 -1.129150 -0.25 0.25 8.3 8.3 10.5646 9.5906 0.1740 -0.0032 -0.007786 0.163554 9.81 480 790 -0.08 70.00 0.0000 0.0000
2.671 2 -6.043999 -2.752285 -6.636172 2.868652 55.419922 10.650635 -0.25 0.25 -9.9 -9.9 16.4911 15.1940 0.1772 -0.0032 -0.007786 0.149132 11.37 480 810 -0.07 -46.97 -0.0000 -0.0000
2.678 2 1.714185 -0.237349 -15.139965 9.544373 -34.164429 -0.572205 -0.25 0.25 -8.1 -8.1 -3.5869 -4.2127 0.1776 -0.0032 -0.007786 0.076796 9.57 510 890 0.00 -16.67 0.0000 0.0000
2.685 2 12.052035 1.311411 -14.816308 8.186340 11.734009 -8.361816 -0.25 0.25 9.2 9.2 -7.8166 -6.0640 0.1760 -0.0032 -0.007786 0.091176 10.71 490 840 -0.01 48.92 0.0000 0.0000
2.692 2 4.931577 -1.488823 -4.389751 -2.929688 111.984253 1.716614 -0.25 0.25 6.9 6.9 10.4021 10.2445 0.1772 -0.0032 -0.007786 0.179823 8.45 480 800 -0.10 70.00 0.0000 0.0000
2.699 2 -9.040825 -7.777363 -6.856738 11.680603 56.304932 4.005432 -0.17 0.17 -10.9 -10.9 11.8620 13.3888 0.1802 -0.0032 -0.005191 0.149594 12.45 480 800 -0.07 -70.00 -0.0000 -0.0000
2.706 2 -2.677964 2.416641 -15.015297 7.484436 -34.461975 1.068115 -0.17 0.17 -6.7 -6.7 2.3315 2.5419 0.1806 -0.0032 -0.005191 0.078211 8.16 490 880 0.00 -26.77 0.0000 0.0000
2.713 2 11.577338 4.567163 -15.724946 7.522583 16.891479 -6.675720 -0.25 0.25 8.7 8.7 -3.9540 -7.8166 0.1792 -0.0032 -0.007786 0.093655 10.17 510 860 -0.01 41.70 0.0000 0.0000
2.720 2 2.431025 2.632412 -5.243247 -8.529663 105.987549 1.602173 -0.25 0.25 8.0 8.0 11.3636 9.3260 0.1804 -0.0032 -0.007786 0.172658 9.52 490 810 -0.09 70.00 0.0000 0.0000
2.727 2 -12.735312 6.708096 -9.033632 -3.875732 49.461365 14.205933 -0.25 0.25 -7.8 -7.8 15.0252 15.9091 0.1837 -0.0032 -0.007786 0.152618 9.35 490 810 -0.07 -57.80 -0.0000 -0.0000
2.734 2 -0.064731 -2.327935 -13.236382 8.926392 -31.211853 7.438660 -0.25 0.25 -7.5 -7.6 -5.9310 -4.7282 0.1837 -0.0032 -0.007786 0.083542 9.10 480 860 -0.00 -16.88 0.0000 0.0000
2.741 2 11.124218 6.497119 -15.269428 -1.632690 31.280518 -9.216309 -0.33 0.33 8.8 8.8 -5.9571 -6.1747 0.1822 -0.0032 -0.010382 0.105893 10.30 490 870 -0.03 64.96 0.0000 0.0000
2.748 2 4.535996 0.858291 -5.178515 -8.270264 117.469788 7.423401 -0.25 0.25 8.4 8.4 11.8620 12.6380 0.1841 -0.0033 -0.007786 0.186239 9.95 510 830 -0.11 70.00 0.0000 0.0000
2.755 2 -7.803735 9.028837 -10.680688 -3.868103 46.272278 10.154724 -0.17 0.17 -10.6 -10.6 14.6986 16.9034 0.1871 -0.0033 -0.005191 0.139346 12.07 490 800 -0.06 -70.00 -0.0000 -0.0000
2.762 2 0.306875 1.848442 -14.794731 -0.953674 -33.897400 7.675171 -0.17 0.17 -6.8 -6.8 -2.7045 -3.1743 0.1875 -0.0033 -0.005191 0.077493 8.27 490 870 0.00 -19.40 0.0000 0.0000
2.769 2 9.738486 5.070630 -13.190829 2.647400 22.903442 -4.798889 -0.25 0.25 7.5 7.5 -4.5685 -6.7953 0.1861 -0.0033 -0.007786 0.104382 9.02 480 840 -0.02 55.32 0.0000 0.0000
2.776 2 4.696626 1.949136 -5.636430 -7.293701 109.535217 11.825562 -0.25 0.25 8.4 8.4 10.7323 10.2445 0.1873 -0.0033 -0.007786 0.186751 9.95 480 800 -0.11 70.00 0.0000 0.0000
2.783 2 -9.930283 5.526147 -10.263530 -0.816345 55.252075 17.097473 -0.25 0.25 -9.8 -9.8 14.8601 14.2344 0.1905 -0.0033 -0.007786 0.160905 11.28 510 830 -0.08 -70.00 -0.0000 -0.0000
2.790 2 -1.174756 1.596709 -13.756631 3.097534 -29.426575 12.969971 -0.17 0.17 -7.0 -7.0 -2.9655 2.3477 0.1911 -0.0033 -0.005191 0.096665 8.50 480 880 -0.02 -16.73 0.0000 0.0000
2.797 2 11.802700 4.533598 -14.152211 2.197266 20.172119 0.434875 -0.25 0.25 11.1 11.1 -5.5421 -6.5327 0.1893 -0.0033 -0.007786 0.110969 12.61 480 880 -0.03 60.53 0.0000 0.0000
2.804 2 5.705957 0.011987 -4.974731 -9.391785 119.827271 12.634277 -0.25 0.25 8.0 8.0 12.1826 12.4061 0.1909 -0.0033 -0.007786 0.203508 9.48 490 800 -0.12 70.00 0.0000 0.0000
2.811 2 -10.138862 7.012573 -10.426558 -4.035950 59.547424 17.997742 -0.17 0.17 -10.2 -10.2 15.5433 16.0984 0.1943 -0.0033 -0.005191 0.174835 11.66 490 810 -0.09 -70.00 -0.0000 -0.0000
2.818 2 -1.328193 -0.402773 -13.816567 -2.136230 -39.062500 15.678406 -0.25 0.25 -7.8 -7.8 3.0594 2.8114 0.1953 -0.0033 -0.007786 0.100773 9.32 510 890 -0.02 -29.29 0.0000 0.0000
2.825 2 8.568525 -5.564507 -12.603452 5.973816 12.512207 4.455566 -0.25 0.25 8.5 8.5 -4.7282 -4.0731 0.1941 -0.0033 -0.007786 0.119855 10.01 480 880 -0.04 40.23 0.0000 0.0000
2.832 2 2.606040 -2.596450 -4.598330 -5.226135 101.936340 14.938354 -0.25 0.25 7.2 7.2 14.8601 14.8601 0.1961 -0.0033 -0.007786 0.198257 8.73 490 800 -0.12 70.00 0.0000 0.0000
2.839 2 -9.949463 2.651592 -10.570405 -6.431580 32.096863 14.877319 -0.25 0.25 -10.1 -10.1 19.8863 21.1292 0.2001 -0.0034 -0.007786 0.162000 11.61 490 790 -0.08 -70.00 0.0000 0.0000
2.846 2 -0.100693 -2.428628 -14.053916 5.439758 -55.152893 16.197205 -0.17 0.17 -6.6 -6.6 3.8417 2.9720 0.2012 -0.0034 -0.005191 0.089253 8.05 480 870 -0.01 -19.63 -0.0000 -0.0000
2.853 2 9.484355 -3.449946 -13.783003 13.435364 -0.534058 3.990173 -0.25 0.25 8.1 8.1 -3.9890 -5.5649 0.2001 -0.0034 -0.007786 0.108876 9.63 510 900 -0.03 32.22 0.0000 0.0000
2.860 2 2.567681 -2.464590 -3.929438 2.563477 91.171265 16.853333 -0.25 0.25 7.6 7.6 13.7987 13.3888 0.2018 -0.0034 -0.007786 0.189635 9.13 490 810 -0.11 70.00 0.0000 0.0000
2.867 2 -4.382558 4.161992 -10.102901 6.286621 39.680481 15.266418 -0.25 0.25 -8.7 -8.7 19.3181 19.8863 0.2058 -0.0034 -0.007786 0.167763 10.19 490 800 -0.09 -62.74 -0.0000 -0.0000
2.874 2 -0.803149 3.742436 -14.116249 5.294800 -53.848267 12.733459 -0.25 0.25 -7.2 -7.2 4.0609 3.3722 0.2074 -0.0034 -0.007786 0.091455 8.72 490 870 -0.01 -27.02 0.0000 0.0000
2.881 2 9.616216 -1.474438 -14.394355 7.453918 -13.275146 6.019592 -0.25 0.25 10.5 10.5 -6.5644 -6.6614 0.2062 -0.0034 -0.007786 0.102310 12.01 480 880 -0.02 27.92 0.0000 0.0000
2.888 2 3.931836 -0.851099 -4.044517 -2.220154 89.622498 15.716553 -0.33 0.33 8.1 8.1 13.9409 12.8788 0.2080 -0.0034 -0.010382 0.188985 9.56 510 820 -0.11 70.00 0.0000 0.0000
2.895 2 -6.171064 2.294370 -9.189467 12.687683 48.210144 19.821167 -0.25 0.25 -10.7 -10.7 19.0460 18.7815 0.2118 -0.0035 -0.007786 0.175894 12.20 480 810 -0.10 -70.00 -0.0000 -0.0000
2.902 2 -2.176894 2.431025 -14.113853 2.388000 -57.762146 18.684387 -0.25 0.25 -6.8 -6.8 3.5493 3.6449 0.2134 -0.0035 -0.007786 0.095108 8.27 490 870 -0.02 -34.50 0.0000 0.0000
2.909 2 7.314653 -0.925420 -14.272084 12.222290 -12.466431 3.585815 -0.33 0.33 8.7 8.7 -4.1102 -5.3030 0.2124 -0.0035 -0.010382 0.108062 10.20 490 870 -0.03 37.76 0.0000 0.0000
2.916 2 4.267480 0.261323 -3.831142 -6.378174 89.378357 14.617920 -0.25 0.25 7.2 7.2 14.0861 14.0861 0.2142 -0.0035 -0.007786 0.195847 8.65 490 800 -0.12 70.00 0.0000 0.0000
2.923 2 -11.220117 4.408930 -9.088774 10.948181 42.480469 20.362854 -0.33 0.33 -9.7 -9.7 16.2924 16.4911 0.2180 -0.0035 -0.010382 0.172441 11.23 510 830 -0.09 -70.00 -0.0000 -0.0000
2.930 2 0.045552 6.763237 -14.243315 -1.022339 -45.860291 7.888794 -0.33 0.33 -6.9 -6.9 3.9425 4.2258 0.2193 -0.0035 -0.010382 0.099278 8.45 480 850 -0.02 -18.01 0.0000 0.0000
2.937 2 11.124218 4.804512 -15.703368 3.067017 8.872986 0.473022 -0.33 0.33 10.9 10.9 -3.5680 -3.2351 0.2184 -0.0035 -0.010382 0.118518 12.45 480 870 -0.04 53.53 0.0000 0.0000
2.944 2 3.809565 2.001880 -4.902807 -4.737854 98.426819 13.374329 -0.33 0.33 8.4 8.4 14.0861 14.3858 0.2205 -0.0035 -0.010382 0.191689 9.92 490 810 -0.11 70.00 0.0000 0.0000
2.951 2 -10.850908 14.130634 -11.342387 0.968933 41.122437 17.288208 -0.33 0.33 -11.0 -11.0 18.2739 18.5242 0.2245 -0.0036 -0.010382 0.159095 12.51 480 810 -0.08 -70.00 -0.0000 -0.0000
2.958 2 -0.438735 1.081255 -14.473472 3.738403 -45.188904 12.802124 -0.33 0.33 -7.9 -7.9 3.2902 2.8772 0.2257 -0.0036 -0.010382 0.089325 9.41 510 890 -0.01 -26.44 0.0000 0.0000
2.965 2 10.886869 3.986977 -14.720409 4.013062 6.408691 0.701904 -0.33 0.33 8.8 8.8 -3.7356 -4.0366 0.2249 -0.0036 -0.010382 0.110400 10.25 490 870 -0.03 49.91 0.0000 0.0000
2.972 2 5.753906 2.232036 -4.768549 -4.119873 101.463318 15.792847 -0.33 0.33 7.2 7.2 13.1288 11.4599 0.2265 -0.0036 -0.010382 0.192874 8.65 490 810 -0.11 70.00 0.0000 0.0000
2.979 2 -9.791230 4.360981 -10.450532 13.740540 56.304932 23.933411 -0.42 0.42 -11.3 -11.3 15.0252 16.2924 0.2303 -0.0037 -0.012977 0.174093 12.81 490 810 -0.09 -64.15 -0.0000 -0.0000
2.986 2 -1.819673 7.839697 -14.097070 4.890442 -32.775879 13.122559 -0.50 0.50 -6.6 -5.5 5.3661 -4.2524 0.2313 -0.0037 -0.015573 0.106839 8.15 480 880 -0.03 -12.37 0.0000 0.0000
2.993 2 13.320292 2.380679 -15.835229 -0.106812 14.152527 9.643555 -0.50 0.50 8.3 8.3 -3.7253 -4.3204 0.2305 -0.0037 -0.015573 0.118418 9.84 510 900 -0.04 50.22 0.0000 0.0000
3.000 2 3.723257 1.294629 -4.989116 -6.332397 109.191895 13.839722 -0.50 0.50 7.6 7.6 14.3858 13.6593 0.2325 -0.0037 -0.015573 0.198662 9.08 490 810 -0.12 70.00 0.0000 0.0000
3.007 2 -6.422798 2.565283 -11.474248 7.514954 60.325623 13.656616 -0.50 0.50 -8.8 -8.8 17.7930 19.3181 0.2366 -0.0037 -0.015573 0.180711 10.30 490 800 -0.10 -41.92 -0.0000 -0.0000
3.014 2 -1.299424 2.210459 -12.150331 12.039185 -41.725159 0.564575 -0.59 0.59 -7.5 -7.5 3.4409 -5.9051 0.2376 -0.0038 -0.018168 0.100282 9.05 480 870 -0.02 -21.89 0.0000 0.0000
3.021 2 11.996894 2.893735 -15.324570 -7.835388 21.484375 9.391785 -0.67 0.67 9.4 9.4 -4.7448 -4.6311 0.2366 -0.0037 -0.020764 0.125952 10.85 490 880 -0.05 66.53 0.0000 0.0000
3.028 2 4.713408 3.004019 -5.998447 -15.754700 123.504639 14.572144 -0.67 0.67 8.7 8.7 14.6986 16.0984 0.2390 -0.0038 -0.020764 0.204399 10.17 510 830 -0.12 70.00 0.0000 0.0000
3.035 2 -10.982768 6.516299 -11.337592 -1.388550 60.066223 8.285522 -0.59 0.59 -10.7 -10.7 18.2739 19.5981 0.2432 -0.0039 -0.018168 0.172758 12.17 480 810 -0.09 -58.16 0.0000 0.0000
3.042 2 3.246162 -0.014385 -13.303511 2.517700 -29.373169 2.243042 -0.67 0.67 -3.4 1.1 3.2429 -3.9656 0.2442 -0.0039 -0.020764 0.096188 8.02 490 880 -0.02 2.70 0.0000 0.0000
3.049 2 12.128755 0.731226 -15.590688 0.694275 28.778076 11.070251 -0.67 0.67 7.7 7.7 -4.4777 8.3992 0.2438 -0.0039 -0.020764 0.122402 9.18 490 840 -0.04 47.01 0.0000 0.0000
3.056 2 3.989375 0.206182 -5.564507 -5.310059 111.640930 9.719849 -0.59 0.59 7.7 7.7 15.5433 16.0984 0.2460 -0.0039 -0.018168 0.193003 9.16 480 810 -0.11 70.00 0.0000 0.0000
3.063 2 -12.428437 5.638828 -11.392734 -7.377625 49.453735 4.943848 -0.59 0.59 -8.4 -8.4 20.8041 20.4889 0.2504 -0.0040 -0.018168 0.167162 9.95 510 800 -0.09 -65.95 0.0000 0.0000
3.070 2 -1.078857 1.145986 -12.203075 6.271362 -39.505005 11.505127 -0.50 0.50 -7.5 -7.5 -6.2317 5.2414 0.2518 -0.0040 -0.015573 0.091286 8.97 480 880 -0.01 -21.43 -0.0000 -0.0000
3.077 2 7.420141 -5.698764 -12.728120 12.054443 10.574341 -2.326965 -0.42 0.42 10.6 10.6 -5.2010 -4.4629 0.2508 -0.0040 -0.012977 0.109745 12.13 490 880 -0.03 43.56 0.0000 0.0000
3.084 2 5.650815 -0.817534 -4.845268 -4.806519 108.497620 6.416321 -0.59 0.59 8.3 8.3 13.6593 12.6380 0.2528 -0.0040 -0.018168 0.191048 9.79 490 810 -0.11 70.00 0.0000 0.0000
3.091 2 -1.893994 -13.696694 -7.317050 14.175415 74.417114 13.969421 -0.59 0.59 -3.1 -1.8 22.9198 21.8108 0.2569 -0.0041 -0.018168 0.210159 10.39 490 780 -0.13 8.64 0.0000 0.0000
3.098 2 -2.663579 -0.671289 -12.951083 9.735107 -29.769897 5.538940 -0.59 0.59 -7.1 -7.1 7.1549 8.9554 0.2601 -0.0042 -0.018168 0.130659 8.64 510 820 -0.05 -26.87 0.0000 0.0000
3.105 2 6.557055 -0.980561 -14.212148 0.572205 -24.002075 1.571655 -0.67 0.67 10.7 10.7 -2.9786 -7.4711 0.2595 -0.0042 -0.020764 0.119386 12.15 490 840 -0.04 31.33 0.0000 0.0000
3.112 2 11.639672 4.758960 -6.751250 -10.742188 64.544678 9.628296 -0.67 0.67 10.3 10.3 11.5579 13.2575 0.2607 -0.0042 -0.020764 0.165150 11.85 490 800 -0.09 70.00 0.0000 0.0000
3.119 2 0.803149 2.289575 -6.348476 -16.769409 85.990906 8.460999 -0.67 0.67 -2.7 -2.6 21.1292 22.1684 0.2647 -0.0043 -0.020764 0.240497 10.25 490 770 -0.16 7.51 0.0000 0.0000
3.126 2 -6.717685 4.715806 -14.013159 -1.533508 -23.078918 4.333496 -0.59 0.59 -9.6 -9.6 13.2575 17.1173 0.2685 -0.0043 -0.018168 0.173140 11.12 480 810 -0.09 -54.07 0.0000 0.0000
3.133 2 1.587119 1.119614 -15.149555 -4.867554 -62.805176 5.172729 -0.75 0.75 -2.6 1.5 2.7209 -2.3275 0.2689 -0.0043 -0.023359 0.129935 11.74 510 900 -0.05 1.81 0.0000 0.0000
3.140 2 3.361240 3.529062 -9.366879 -7.125854 22.994995 20.225525 -0.75 0.75 8.6 8.6 3.6847 2.6884 0.2689 -0.0044 -0.023359 0.157285 10.09 490 880 -0.08 48.04 0.0000 0.0000
3.147 2 0.364414 3.366035 -3.502690 -9.719849 79.460144 10.665894 -0.75 0.75 7.5 7.5 19.8863 20.8041 0.2721 -0.0044 -0.023359 0.274241 9.00 490 780 -0.19 70.00 0.0000 0.0000
3.154 2 -7.312256 12.596259 -16.796610 -10.231018 -1.846313 6.217957 -0.75 0.75 -9.1 -9.1 15.5433 16.6947 0.2762 -0.0045 -0.023359 0.221822 10.62 480 800 -0.14 -27.44 0.0000 0.0000
3.161 2 2.112163 -3.553037 -12.644209 5.699158 -61.767578 11.878967 -0.75 0.75 1.1 2.4 -2.3396 -2.4234 0.2762 -0.0045 -0.023359 0.155988 8.72 490 870 -0.08 -1.17 -0.0000 -0.0000
3.168 2 5.806650 -0.311670 -11.373554 -2.868652 27.130127 19.744873 -0.84 0.84 7.2 7.2 3.7668 -2.3155 0.2760 -0.0045 -0.025955 0.175206 8.73 510 890 -0.10 51.34 0.0000 0.0000
3.175 2 1.208320 1.879609 -2.855376 -8.445740 106.788635 8.697510 -0.84 0.84 8.6 8.6 19.3181 18.7815 0.2792 -0.0046 -0.025955 0.282775 10.08 490 800 -0.20 70.00 0.0000 0.0000
3.182 2 -11.702006 11.795507 -13.109316 -9.002686 -2.677917 9.445190 -0.75 0.75 -8.8 -8.8 12.7573 11.6575 0.2830 -0.0047 -0.023359 0.194180 10.35 490 810 -0.11 -68.56 -0.0000 -0.0000
3.189 2 1.304219 -2.284780 -14.840282 -3.929138 -42.953491 19.660950 -0.84 0.84 -3.6 -1.6 -5.2211 -5.9051 0.2828 -0.0047 -0.025955 0.137030 11.56 490 870 -0.06 -3.84 0.0000 0.0000
3.196 2 9.218237 1.481631 -12.243833 -2.540588 74.562073 29.983521 -0.75 0.75 7.8 7.8 4.2391 3.9310 0.2830 -0.0047 -0.023359 0.174127 9.27 480 890 -0.09 68.67 0.0000 0.0000
3.203 2 -1.395322 -1.426489 -2.222446 -17.570496 131.095886 14.579773 -0.84 0.84 5.8 7.3 20.1831 19.0460 0.2864 -0.0048 -0.025955 0.259537 10.08 510 820 -0.18 22.48 0.0000 0.0000
3.210 2 -10.481699 -1.637466 -9.743281 -3.509521 10.169983 18.356323 -0.84 0.84 -8.9 -8.9 17.5619 16.4911 0.2904 -0.0049 -0.025955 0.177706 10.36 490 810 -0.10 -70.00 0.0000 0.0000
