%  1    time 0.006 sec
%  2    mission (2) state 2
%  3  4  5 Acc x,y,z: 0.304478 -0.028770 -10.189209
%  6  7  8 Gyro x,y,z: 2.258301 -7.759094 4.684448
%  9 10 Motor velocity ref left, right: 0.08 -0.08
% 11 12 Motor voltage [V] left, right: -8.0 -8.0
% 13 14 Wheel velocity [r/s] left, right: -6.7613 0.0000
% 15 16 17 18 Pose x,y,h,tilt [m,m,rad,rad]: -0.0006 -0.0000 0.002595 -0.041514% 19    Battery voltage [V]: 9.46
% 20 21 Get data time [us]: 490 +ctrl 800
% 22 23 24 25 Extra pt.: balE[0], balU[0], balUI[0], balUI[1]: 0.04 -99.0000 0.0000 0.0000
0.013 2 0.539429 0.865483 -10.591982 1.106262 -8.110046 4.760742 0.17 -0.17 -8.0 -8.0 -18.5242 -17.5619 -0.0036 -0.0000 0.005191 -0.042180 9.52 510 830 0.04 -99.00 -0.0000 -0.0000
0.020 2 0.091104 0.246938 -10.467314 1.007080 -7.774353 4.638672 0.08 -0.08 -8.7 -8.7 -28.7717 -28.7717 -0.0091 -0.0000 0.002595 -0.041639 10.24 490 770 0.04 -99.00 0.0000 0.0000
0.027 2 0.613750 -0.544224 -10.301889 0.686646 -9.010315 6.271362 0.08 -0.08 -9.2 -9.2 -37.5630 -39.7726 -0.0163 -0.0001 0.002595 -0.039454 10.71 490 780 0.04 -99.00 -0.0000 -0.0000
0.034 2 0.285298 -0.517852 -10.462520 0.892639 -8.491516 3.501892 0.08 -0.08 -9.3 -9.3 -46.6300 -48.2953 -0.0251 -0.0001 0.002595 -0.036229 10.76 490 780 0.04 -99.00 0.0000 0.0000
0.041 2 0.021577 0.812739 -10.100503 -0.091553 -9.727478 1.609802 0.00 -0.00 -9.3 -9.3 -52.0104 -54.0908 -0.0354 -0.0001 0.000000 -0.035323 10.79 490 730 0.04 -99.00 -0.0000 -0.0000
0.048 2 0.124668 1.131602 -10.539238 1.510620 -9.750366 -0.091553 -0.08 0.08 -9.4 -9.4 -56.3446 -61.4668 -0.0469 -0.0001 -0.002595 -0.035620 10.95 510 790 0.04 -99.00 0.0000 0.0000
0.055 2 0.081514 -1.383335 -10.100503 1.258850 -10.383606 0.885010 -0.17 0.17 -9.5 -9.5 -64.3938 -64.3938 -0.0591 -0.0000 -0.005191 -0.032969 11.01 490 770 0.03 -99.00 -0.0000 -0.0000
0.062 2 -0.002397 0.362017 -10.666304 1.029968 -11.611938 -0.114441 -0.33 0.33 -9.5 -9.5 -67.6135 -71.1721 -0.0724 0.0000 -0.010382 -0.031794 11.03 490 780 0.03 -99.00 0.0000 0.0000
0.069 2 0.107886 -2.267998 -10.810151 2.014160 -11.726379 4.356384 -0.42 0.42 -9.6 -9.6 -71.1721 -75.1261 -0.0863 0.0002 -0.012977 -0.028437 11.07 490 770 0.03 -99.00 -0.0000 -0.0000
0.076 2 0.314067 -0.397979 -9.628202 -0.373840 -12.886047 5.126953 -0.59 0.59 -9.6 -9.6 -75.1261 -75.1261 -0.1008 0.0004 -0.018168 -0.031182 11.11 490 790 0.03 -99.00 0.0000 0.0000
0.083 2 0.163027 1.764531 -10.639932 -0.343323 -13.969421 0.762939 -0.75 0.75 -9.7 -9.7 -75.1261 -79.5453 -0.1161 0.0007 -0.023359 -0.032260 11.17 510 810 0.03 -99.00 -0.0000 -0.0000
0.090 2 0.141450 1.407310 -11.141001 1.213074 -13.809204 3.250122 -1.00 1.00 -9.7 -9.7 -79.5453 -84.5168 -0.1311 0.0011 -0.031146 -0.028960 11.15 490 780 0.03 -99.00 0.0000 0.0000
0.097 2 0.664097 -0.738418 -10.251543 2.883911 -14.511108 4.722595 -1.09 1.09 -9.7 -9.7 -79.5453 -84.5168 -0.1470 0.0017 -0.033741 -0.028207 11.22 490 780 0.03 -99.00 -0.0000 -0.0000
0.104 2 0.000000 -1.718979 -10.469711 1.586914 -15.609741 4.814148 -1.42 1.42 -9.8 -9.8 -79.5453 -84.5168 -0.1631 0.0023 -0.044123 -0.029628 11.28 490 760 0.03 -99.00 0.0000 0.0000
0.111 2 -0.649712 -0.294888 -10.539238 -2.204895 -15.747070 4.768372 -1.59 1.59 -9.8 -9.6 -84.5168 -90.1513 -0.1796 0.0031 -0.049314 -0.030279 11.31 490 780 0.03 -99.00 -0.0000 -0.0000
0.118 2 0.474697 2.929697 -10.570405 -2.761841 -14.877319 5.859375 -1.84 1.84 -9.8 -9.5 -84.5168 -90.1513 -0.1962 0.0039 -0.057101 -0.029695 11.34 510 810 0.03 -99.00 0.0000 0.0000
0.125 2 -0.083911 4.449687 -10.623149 0.900269 -15.571594 9.201050 -2.01 2.01 -9.8 -9.4 -79.5453 -90.1513 -0.2131 0.0049 -0.062292 -0.030165 11.26 490 780 0.03 -99.00 -0.0000 -0.0000
0.132 2 0.599365 1.702197 -10.222774 5.439758 -16.189575 7.072449 -2.18 2.18 -9.9 -9.3 -84.5168 -90.1513 -0.2300 0.0061 -0.067483 -0.029722 11.39 490 780 0.03 -99.00 0.0000 0.0000
0.139 2 0.716841 -1.157974 -9.834385 7.965088 -17.395020 3.265381 -2.43 2.43 -9.8 -9.2 -90.1513 -90.1513 -0.2470 0.0073 -0.075269 -0.030199 11.30 490 790 0.03 -99.00 -0.0000 -0.0000
0.146 2 0.098296 -3.092725 -9.649780 7.377625 -18.203735 -0.572205 -2.60 2.60 -9.9 -9.1 -90.1513 -90.1513 -0.2643 0.0086 -0.080460 -0.026814 11.41 490 780 0.03 -99.00 0.0000 0.0000
0.153 2 0.467505 -2.498154 -10.529648 5.043030 -18.684387 3.204346 -2.68 2.68 -9.8 -9.1 -90.1513 -90.1513 -0.2817 0.0101 -0.083056 -0.024976 11.33 500 800 0.02 -99.00 -0.0000 -0.0000
0.160 2 -0.021577 -0.846304 -10.249146 3.334045 -18.867493 7.553101 -2.85 2.85 -9.9 -5.5 -90.1513 -96.5907 -0.2990 0.0115 -0.088246 -0.026909 11.44 490 780 0.03 -99.00 0.0000 0.0000
0.167 2 -0.256528 1.088447 -11.188950 4.821777 -18.730164 9.681702 -2.85 2.85 -10.1 -9.0 -90.1513 -90.1513 -0.3162 0.0130 -0.088246 -0.028575 11.58 490 790 0.03 -99.00 -0.0000 -0.0000
0.174 2 -0.923022 0.532236 -10.472109 5.096436 -19.691467 7.545471 -2.85 2.85 -10.0 -9.0 -90.1513 -90.1513 -0.3334 0.0146 -0.088246 -0.023155 11.55 490 780 0.02 -99.00 0.0000 0.0000
0.181 2 -0.568198 0.889458 -10.666304 7.331848 -19.203186 3.982544 -2.85 2.85 -10.1 -9.0 -90.1513 -90.1513 -0.3506 0.0161 -0.088246 -0.021316 11.58 490 780 0.02 -99.00 -0.0000 -0.0000
0.188 2 0.453120 0.565801 -10.177221 8.354187 -19.126892 2.349854 -2.85 2.85 -10.0 -9.0 -90.1513 -90.1513 -0.3679 0.0176 -0.088246 -0.024221 11.47 510 810 0.02 -99.00 0.0000 0.0000
0.195 2 -0.215771 -0.201387 -9.985424 9.796143 -19.760132 3.616333 -2.85 2.85 -9.8 -9.0 -90.1513 -90.1513 -0.3851 0.0191 -0.088246 -0.023864 11.31 490 790 0.02 -99.00 -0.0000 -0.0000
0.202 2 0.378799 -1.114819 -9.736089 10.398865 -20.133972 3.532410 -2.76 2.76 -9.8 -9.8 -90.1513 -84.5168 -0.4021 0.0206 -0.085651 -0.016776 11.31 490 780 0.02 -99.00 0.0000 0.0000
0.209 2 0.671289 -2.404653 -9.932680 10.223389 -20.004272 5.149841 -2.68 2.68 -9.9 -9.1 -90.1513 -90.1513 -0.4196 0.0221 -0.083056 -0.012467 11.36 490 790 0.01 -99.00 -0.0000 -0.0000
0.216 2 0.074321 -2.584463 -9.561074 9.368896 -21.110535 8.918762 -2.68 2.68 -9.9 -9.1 -90.1513 -90.1513 -0.4368 0.0235 -0.083056 -0.011242 11.44 490 770 0.01 -99.00 0.0000 0.0000
0.223 2 -0.441133 -2.133740 -9.661767 7.987976 -20.881653 11.596680 -2.68 2.68 -9.8 -9.1 -90.1513 -90.1513 -0.4545 0.0250 -0.083056 -0.010886 11.28 510 810 0.01 -99.00 -0.0000 -0.0000
0.230 2 -0.285298 -0.903843 -10.309082 6.210327 -21.186829 13.511658 -2.68 2.68 -10.0 -9.1 -90.1513 -90.1513 -0.4717 0.0265 -0.083056 -0.008333 11.49 490 790 0.01 -99.00 0.0000 0.0000
0.237 2 -0.937407 0.887061 -10.611162 6.172180 -20.545959 14.068604 -2.68 2.68 -9.9 -9.1 -90.1513 -90.1513 -0.4889 0.0279 -0.083056 -0.005914 11.39 490 790 0.01 -99.00 -0.0000 -0.0000
0.244 2 -1.040498 0.050347 -10.088515 5.981445 -19.897461 13.549805 -2.68 2.68 -10.0 -9.1 -90.1513 -90.1513 -0.5066 0.0294 -0.083056 -0.004262 11.53 490 780 0.00 -99.00 0.0000 0.0000
0.251 2 -0.700059 0.803149 -10.596777 6.340027 -19.645691 12.130737 -2.68 2.68 -9.9 -9.1 -90.1513 -90.1513 -0.5238 0.0308 -0.083056 -0.002196 11.37 490 780 0.00 -99.00 -0.0000 -0.0000
0.258 2 -0.858291 1.726172 -10.407377 6.660461 -19.248962 11.474609 -2.68 2.68 -9.9 -9.1 -90.1513 -90.1513 -0.5415 0.0323 -0.083056 -0.000274 11.42 510 810 0.00 -99.00 0.0000 0.0000
0.265 2 -0.124668 1.512798 -10.229965 9.078979 -19.721985 9.033203 -2.76 2.76 -9.8 -5.6 -90.1513 -96.5907 -0.5589 0.0337 -0.085651 0.003692 11.34 490 780 -0.00 -99.00 -0.0000 -0.0000
0.272 2 -0.172617 -0.170220 -10.297094 10.032654 -19.821167 7.820129 -2.68 2.68 -9.8 -9.1 -90.1513 -90.1513 -0.5763 0.0352 -0.083056 0.008402 11.26 490 790 -0.01 -99.00 0.0000 0.0000
0.279 2 -0.023975 -1.380937 -10.059746 9.674072 -20.233154 6.164551 -2.60 2.60 -9.7 -9.1 -90.1513 -90.1513 -0.5938 0.0367 -0.080460 0.012707 11.18 480 780 -0.01 -99.00 -0.0000 -0.0000
0.286 2 0.167822 -2.320742 -10.052553 7.835388 -19.973755 6.561279 -2.68 2.68 -8.5 -9.8 -96.5907 -84.5168 -0.6112 0.0381 -0.083056 0.014342 11.33 490 790 -0.01 -99.00 0.0000 0.0000
0.293 2 -0.055142 -3.150264 -9.913501 6.347656 -20.019531 8.483887 -2.60 2.60 -10.1 -9.1 -90.1513 -90.1513 -0.6287 0.0395 -0.080460 0.015968 11.60 510 800 -0.02 -99.00 -0.0000 -0.0000
0.300 2 -0.736021 -1.939546 -10.196401 2.792358 -19.020081 12.626648 -2.76 2.76 -10.0 -10.0 -90.1513 -84.5168 -0.6459 0.0410 -0.085651 0.020091 11.50 490 790 -0.02 -99.00 0.0000 0.0000
0.307 2 -1.117217 1.668633 -10.462520 -0.167847 -18.211365 12.619019 -2.76 2.76 -9.9 -9.0 -90.1513 -90.1513 -0.6631 0.0424 -0.085651 0.022504 11.41 490 780 -0.02 -99.00 -0.0000 -0.0000
0.314 2 -0.829521 2.965659 -10.520059 -1.998901 -16.899109 12.962341 -2.85 2.85 -10.1 -5.5 -90.1513 -96.5907 -0.6806 0.0440 -0.088246 0.020648 11.61 490 780 -0.02 -99.00 0.0000 0.0000
0.321 2 -0.851099 1.953931 -10.436147 -0.450134 -16.227722 11.886597 -2.85 2.85 -9.9 -9.0 -90.1513 -90.1513 -0.6978 0.0455 -0.088246 0.021513 11.41 490 780 -0.02 -99.00 -0.0000 -0.0000
0.328 2 -0.486685 1.174756 -10.083720 1.419067 -15.830994 7.507324 -2.85 2.85 -10.1 -9.0 -90.1513 -90.1513 -0.7150 0.0470 -0.088246 0.026027 11.63 510 810 -0.03 -99.00 0.0000 0.0000
0.335 2 0.091104 -0.748008 -10.134068 3.341675 -15.563965 2.151489 -2.85 2.85 -9.9 -9.0 -90.1513 -90.1513 -0.7323 0.0485 -0.088246 0.027606 11.37 490 770 -0.03 -99.00 -0.0000 -0.0000
0.342 2 0.182207 -2.335127 -10.316274 3.776550 -15.182495 -2.441406 -2.76 2.76 -10.0 -9.0 -90.1513 -90.1513 -0.7497 0.0501 -0.085651 0.026106 11.45 490 790 -0.03 -99.00 0.0000 0.0000
0.349 2 -0.105488 -2.080996 -10.241953 2.693176 -15.327454 -3.967285 -2.76 2.76 -8.5 -9.0 -96.5907 -90.1513 -0.7669 0.0515 -0.085651 0.028671 11.61 490 780 -0.03 -99.00 -0.0000 -0.0000
0.356 2 -0.330850 -3.217392 -10.527250 1.792908 -14.862061 -2.624512 -2.85 2.85 -8.6 -9.0 -96.5907 -90.1513 -0.7844 0.0530 -0.088246 0.032337 11.60 490 790 -0.03 -99.00 0.0000 0.0000
0.363 2 -0.326055 -1.834058 -10.594379 -1.945496 -13.679504 -0.137329 -2.85 2.85 -10.0 -9.0 -90.1513 -90.1513 -0.8016 0.0545 -0.088246 0.033950 11.53 510 810 -0.03 -99.00 -0.0000 -0.0000
0.370 2 -0.680879 0.493877 -10.738227 -5.699158 -12.718201 3.623962 -2.93 2.93 -10.0 -8.9 -90.1513 -90.1513 -0.8186 0.0561 -0.090842 0.030741 11.55 490 790 -0.03 -99.00 0.0000 0.0000
0.377 2 -0.932612 3.099917 -11.090654 -8.148193 -10.566711 8.300781 -3.01 3.01 -10.1 -8.9 -90.1513 -90.1513 -0.8361 0.0577 -0.093437 0.027980 11.56 490 790 -0.03 -99.00 -0.0000 -0.0000
0.384 2 -1.038101 3.437959 -10.776587 -7.270813 -8.728027 7.781982 -3.01 3.01 -10.1 -8.9 -90.1513 -90.1513 -0.8533 0.0593 -0.093437 0.029079 11.63 490 790 -0.03 -99.00 0.0000 0.0000
0.391 2 -0.491479 1.764531 -10.059746 -5.119324 -6.752014 6.393433 -3.10 3.10 -10.1 -8.8 -90.1513 -90.1513 -0.8707 0.0610 -0.096033 0.030379 11.63 490 790 -0.03 -99.00 -0.0000 -0.0000
0.398 2 0.095898 -0.613750 -9.736089 -2.639771 -5.004883 2.868652 -3.18 3.18 -10.2 -8.8 -90.1513 -90.1513 -0.8881 0.0627 -0.098628 0.028042 11.68 510 800 -0.03 -99.00 0.0000 0.0000
0.405 2 0.244541 -2.184087 -10.004604 -0.846863 -4.280090 -1.205444 -3.10 3.10 -8.7 -8.8 -96.5907 -90.1513 -0.9055 0.0643 -0.096033 0.025761 11.74 490 800 -0.03 -99.00 -0.0000 -0.0000
0.412 2 0.143848 -2.318345 -9.925488 -1.167297 -2.754211 -1.403809 -3.10 3.10 -8.7 -8.8 -96.5907 -90.1513 -0.9228 0.0660 -0.096033 0.026494 11.66 490 790 -0.03 -99.00 0.0000 0.0000
0.419 2 -0.019180 -2.562886 -9.827192 -1.098633 -1.907349 0.114441 -3.10 3.10 -10.1 -8.8 -90.1513 -90.1513 -0.9400 0.0676 -0.096033 0.028944 11.56 490 780 -0.03 -99.00 -0.0000 -0.0000
0.426 2 -0.198989 -2.481372 -10.400186 -2.349854 -0.770569 2.960205 -3.10 3.10 -10.1 -8.8 -90.1513 -90.1513 -0.9572 0.0693 -0.096033 0.030302 11.56 490 790 -0.03 -99.00 0.0000 0.0000
0.433 2 -0.436338 -0.412363 -10.455327 -4.653931 0.907898 5.126953 -3.10 3.10 -10.0 -8.8 -90.1513 -90.1513 -0.9744 0.0709 -0.096033 0.030555 11.49 510 810 -0.03 -99.00 -0.0000 -0.0000
0.440 2 -0.709648 0.546621 -10.397788 -4.699707 2.838135 7.698059 -3.01 3.01 -10.0 -8.9 -90.1513 -90.1513 -0.9918 0.0725 -0.093437 0.028151 11.53 490 780 -0.03 -99.00 0.0000 0.0000
0.447 2 -1.217910 1.344976 -10.807754 -4.302979 4.562378 8.651733 -2.93 2.93 -10.1 -8.9 -90.1513 -90.1513 -1.0093 0.0742 -0.090842 0.030035 11.58 490 790 -0.03 -99.00 -0.0000 -0.0000
0.454 2 -0.889458 1.843647 -10.855702 -3.486633 8.064270 8.987427 -2.85 2.85 -10.1 -9.0 -90.1513 -90.1513 -1.0267 0.0757 -0.088246 0.030612 11.56 490 790 -0.03 -99.00 0.0000 0.0000
0.461 2 -0.457915 1.371348 -10.639932 -2.243042 10.681152 6.141663 -2.68 2.68 -8.5 -9.1 -96.5907 -90.1513 -1.0443 0.0773 -0.083056 0.029624 11.53 490 800 -0.03 -99.00 -0.0000 -0.0000
0.468 2 -0.256528 0.906240 -10.814946 -0.106812 14.038086 5.043030 -2.68 2.68 -8.5 -9.1 -96.5907 -90.1513 -1.0620 0.0787 -0.083056 0.028836 11.55 510 820 -0.03 -99.00 0.0000 0.0000
0.475 2 0.091104 -0.362017 -9.841577 2.738953 17.082214 2.906799 -2.60 2.60 -8.4 -9.1 -96.5907 -90.1513 -1.0794 0.0802 -0.080460 0.029792 11.69 490 780 -0.03 -99.00 -0.0000 -0.0000
0.482 2 -0.148643 -1.961123 -10.078925 4.669189 19.332886 1.052856 -2.60 2.60 -8.4 -9.1 -96.5907 -90.1513 -1.0967 0.0815 -0.080460 0.034591 11.61 490 780 -0.03 -99.00 0.0000 0.0000
0.489 2 0.047949 -1.831660 -9.925488 4.722595 22.705078 -0.617981 -2.68 2.68 -10.1 -9.1 -90.1513 -90.1513 -1.1141 0.0830 -0.083056 0.039876 11.61 490 780 -0.04 -99.00 -0.0000 -0.0000
0.496 2 0.189399 -2.351909 -9.913501 4.257202 25.184631 -2.037048 -2.85 2.85 -9.9 -9.0 -90.1513 -90.1513 -1.1313 0.0844 -0.088246 0.041810 11.41 490 790 -0.04 -99.00 0.0000 0.0000
0.503 2 -0.043154 -1.714185 -9.992617 2.876282 27.763367 -1.792908 -2.85 2.85 -10.0 -9.0 -90.1513 -90.1513 -1.1486 0.0859 -0.088246 0.042456 11.50 510 800 -0.04 -99.00 -0.0000 -0.0000
0.510 2 -0.819932 -0.872676 -10.850908 0.984192 30.258179 -1.228333 -2.93 2.93 -10.0 -8.9 -90.1513 -90.1513 -1.1660 0.0875 -0.090842 0.048313 11.45 490 790 -0.05 -99.00 0.0000 0.0000
0.517 2 -0.913433 1.078857 -10.800561 -0.099182 32.318115 -1.220703 -3.01 3.01 -8.7 -8.9 -96.5907 -90.1513 -1.1834 0.0891 -0.093437 0.051401 11.49 490 790 -0.05 -99.00 -0.0000 -0.0000
0.524 2 -0.877471 1.814878 -10.973178 -0.999451 34.828186 -0.198364 -2.93 2.93 -10.2 -8.9 -90.1513 -90.1513 -1.2009 0.0907 -0.090842 0.052716 11.68 490 780 -0.05 -99.00 0.0000 0.0000
0.531 2 -0.618545 2.006675 -11.097846 0.106812 37.818909 -0.984192 -2.93 2.93 -10.2 -8.9 -90.1513 -90.1513 -1.2181 0.0923 -0.090842 0.052707 11.68 490 790 -0.05 -99.00 -0.0000 -0.0000
0.538 2 -0.426748 0.956587 -10.714252 2.700806 40.054321 -6.607056 -3.01 3.01 -10.1 -8.9 -90.1513 -90.1513 -1.2351 0.0939 -0.093437 0.051630 11.64 510 810 -0.05 -99.00 0.0000 0.0000
0.545 2 -0.117476 1.553555 -10.908447 3.883362 41.000366 -7.713318 -3.01 3.01 -10.1 -8.9 -90.1513 -90.1513 -1.2523 0.0955 -0.093437 0.054012 11.63 490 780 -0.05 -99.00 -0.0000 -0.0000
0.552 2 0.035962 -1.289834 -10.472109 6.034851 43.022156 -8.049011 -2.93 2.93 -8.6 -8.9 -96.5907 -90.1513 -1.2698 0.0971 -0.090842 0.057251 11.58 490 780 -0.06 -99.00 0.0000 0.0000
0.559 2 0.414761 -2.876953 -10.409775 6.385803 44.593811 -8.392334 -2.93 2.93 -10.1 -8.9 -90.1513 -90.1513 -1.2870 0.0986 -0.090842 0.058850 11.63 490 790 -0.06 -99.00 -0.0000 -0.0000
0.566 2 0.352427 -2.591655 -10.591982 3.562927 46.371460 -6.965637 -3.01 3.01 -10.1 -8.9 -90.1513 -90.1513 -1.3044 0.1003 -0.093437 0.058007 11.63 490 790 -0.06 -99.00 0.0000 0.0000
0.573 2 -0.448325 -0.942202 -10.615956 0.091553 47.912598 -0.724792 -2.93 2.93 -10.0 -8.9 -90.1513 -90.1513 -1.3218 0.1018 -0.090842 0.058839 11.55 510 810 -0.06 -99.00 -0.0000 -0.0000
0.580 2 -0.740815 -0.654507 -10.416967 -2.029419 49.491882 3.746033 -2.85 2.85 -10.1 -9.0 -90.1513 -90.1513 -1.3393 0.1034 -0.088246 0.061842 11.60 490 790 -0.06 -99.00 0.0000 0.0000
0.587 2 -0.709648 1.220308 -10.877280 -3.372192 50.666809 5.218506 -2.68 2.68 -8.5 -9.1 -96.5907 -90.1513 -1.3569 0.1049 -0.083056 0.062322 11.75 490 790 -0.06 -99.00 -0.0000 -0.0000
0.594 2 -0.474697 1.066870 -10.599174 -5.081177 52.062988 5.348206 -2.68 2.68 -8.5 -9.1 -96.5907 -90.1513 -1.3745 0.1064 -0.083056 0.060898 11.72 490 790 -0.06 -99.00 0.0000 0.0000
0.601 2 -0.151040 1.766929 -11.085859 -5.584717 54.229736 3.234863 -2.60 2.60 -8.4 -9.1 -96.5907 -90.1513 -1.3920 0.1078 -0.080460 0.058025 11.72 490 790 -0.06 -99.00 -0.0000 -0.0000
0.608 2 -0.170220 2.574873 -10.735829 -4.127502 54.634094 -2.174377 -2.68 2.68 -8.5 -9.1 -96.5907 -90.1513 -1.4094 0.1093 -0.083056 0.052939 11.75 510 820 -0.05 -99.00 0.0000 0.0000
0.615 2 -0.215771 2.375884 -10.877280 -2.143860 54.832458 -6.996155 -2.93 2.93 -8.6 -8.9 -96.5907 -90.1513 -1.4265 0.1107 -0.090842 0.052414 11.75 490 800 -0.05 -99.00 -0.0000 -0.0000
0.622 2 0.865483 0.311670 -10.316274 0.244141 56.129456 -12.695312 -3.10 3.10 -10.1 -8.8 -90.1513 -90.1513 -1.4437 0.1123 -0.096033 0.052686 11.64 490 790 -0.05 -99.00 0.0000 0.0000
0.629 2 0.709648 -1.733364 -9.961450 1.167297 55.740356 -19.142151 -3.18 3.18 -10.0 -8.8 -90.1513 -90.1513 -1.4611 0.1140 -0.098628 0.049553 11.55 490 790 -0.05 -99.00 -0.0000 -0.0000
0.636 2 0.676084 -1.817275 -10.124477 0.190735 55.320740 -24.848938 -3.18 3.18 -10.0 -8.8 -90.1513 -90.1513 -1.4783 0.1157 -0.098628 0.043946 11.55 490 790 -0.04 -99.00 0.0000 0.0000
0.643 2 -0.074321 -1.817275 -10.301889 -2.494812 55.603027 -26.611328 -3.18 3.18 -8.8 -8.8 -96.5907 -90.1513 -1.4959 0.1174 -0.098628 0.044810 11.41 510 800 -0.04 -99.00 -0.0000 -0.0000
0.650 2 0.335645 -1.191538 -10.162837 -3.799438 55.145264 -26.924133 -3.27 3.27 -8.8 -8.7 -96.5907 -90.1513 -1.5133 0.1192 -0.101224 0.046908 11.20 490 800 -0.05 -99.00 0.0000 0.0000
0.657 2 -0.103091 -0.254131 -10.517661 -5.050659 55.915833 -24.589539 -3.18 3.18 -8.8 -8.8 -96.5907 -90.1513 -1.5308 0.1209 -0.098628 0.044843 11.23 490 790 -0.04 -99.00 -0.0000 -0.0000
0.664 2 0.153437 1.498413 -10.558417 -5.523682 54.733276 -25.886536 -3.27 3.27 -9.7 -8.7 -90.1513 -90.1513 -1.5478 0.1226 -0.101224 0.038096 11.22 480 780 -0.04 -99.00 0.0000 0.0000
0.671 2 -0.067129 1.201128 -10.666304 -4.524231 55.175781 -26.763916 -3.27 3.27 -9.7 -8.7 -90.1513 -90.1513 -1.5650 0.1244 -0.101224 0.032156 11.15 490 780 -0.03 -99.00 -0.0000 -0.0000
0.678 2 0.407568 -0.165425 -10.457725 -3.211975 55.557251 -24.818420 -3.43 3.43 -9.9 -8.7 -90.1513 -90.1513 -1.5822 0.1262 -0.106415 0.028628 11.42 510 820 -0.03 -99.00 0.0000 0.0000
0.685 2 0.568198 -0.841509 -10.237158 -2.075195 54.679871 -25.489807 -3.52 3.52 -9.9 -8.6 -90.1513 -90.1513 -1.5992 0.1280 -0.109010 0.024749 11.36 490 790 -0.02 -99.00 -0.0000 -0.0000
0.692 2 1.424092 -1.956328 -9.434009 -3.005981 54.412842 -23.536682 -3.43 3.43 -9.7 -9.7 -90.1513 -84.5168 -1.6162 0.1298 -0.106415 0.018651 11.15 490 780 -0.02 -99.00 0.0000 0.0000
0.699 2 1.141191 -2.241626 -9.925488 -3.875732 53.871155 -22.521973 -3.43 3.43 -9.7 -8.7 -84.5168 -90.1513 -1.6334 0.1317 -0.106415 0.013503 11.22 490 780 -0.01 -99.00 -0.0000 -0.0000
0.706 2 1.038101 -1.002139 -10.095708 -5.607605 52.719116 -19.554138 -3.52 3.52 -9.7 -8.6 -90.1513 -90.1513 -1.6504 0.1335 -0.109010 0.009418 11.20 490 790 -0.01 -99.00 0.0000 0.0000
0.713 2 0.433940 -0.390786 -10.093310 -6.820679 51.193237 -14.961243 -3.52 3.52 -9.6 -8.6 -90.1513 -90.1513 -1.6676 0.1354 -0.109010 0.005156 11.11 510 810 -0.01 -99.00 -0.0000 -0.0000
0.720 2 0.671289 0.580186 -10.431353 -7.232666 49.697876 -14.114380 -3.43 3.43 -9.8 -8.7 -90.1513 -90.1513 -1.6846 0.1372 -0.106415 0.000660 11.31 490 790 -0.00 -99.00 0.0000 0.0000
0.727 2 0.443530 1.289834 -10.556020 -6.484985 48.683167 -12.802124 -3.43 3.43 -9.9 -8.7 -90.1513 -90.1513 -1.7018 0.1391 -0.106415 -0.006346 11.42 490 780 0.01 -99.00 -0.0000 -0.0000
0.734 2 0.678481 1.599106 -10.244350 -5.050659 47.111511 -12.062073 -3.35 3.35 -10.0 -8.7 -90.1513 -90.1513 -1.7188 0.1409 -0.103819 -0.012717 11.52 490 790 0.01 -99.00 0.0000 0.0000
0.741 2 0.805547 1.287436 -10.462520 -3.524780 45.425415 -12.504578 -3.27 3.27 -9.8 -8.7 -84.5168 -90.1513 -1.7362 0.1427 -0.101224 -0.019765 11.34 490 790 0.02 -99.00 -0.0000 -0.0000
0.748 2 0.851099 1.390527 -10.124477 -1.724243 44.387817 -12.611389 -3.10 3.10 -9.8 -8.8 -90.1513 -90.1513 -1.7534 0.1444 -0.096033 -0.026211 11.30 510 820 0.03 -99.00 0.0000 0.0000
0.755 2 1.802891 -0.479492 -9.457983 -0.160217 43.434143 -14.251709 -3.01 3.01 -9.6 -8.9 -90.1513 -90.1513 -1.7708 0.1461 -0.093437 -0.032238 11.14 490 790 0.03 -99.00 -0.0000 -0.0000
0.762 2 1.577529 -1.704595 -9.666562 1.426697 42.213440 -13.374329 -2.93 2.93 -8.6 -8.9 -96.5907 -90.1513 -1.7883 0.1477 -0.090842 -0.036389 11.22 490 790 0.04 -99.00 0.0000 0.0000
0.769 2 1.882007 -1.486426 -9.716908 0.991821 40.252686 -12.268066 -2.76 2.76 -8.5 -9.0 -96.5907 -90.1513 -1.8059 0.1492 -0.085651 -0.041196 11.49 490 790 0.04 -99.00 -0.0000 -0.0000
0.776 2 1.759736 -1.335386 -9.757666 1.853943 38.055420 -10.177612 -2.76 2.76 -10.0 -9.0 -90.1513 -90.1513 -1.8231 0.1507 -0.085651 -0.046914 11.50 490 790 0.05 -99.00 0.0000 0.0000
0.783 2 1.474438 -1.407310 -9.963847 2.647400 35.339355 -9.506226 -2.68 2.68 -9.8 -9.1 -90.1513 -90.1513 -1.8406 0.1522 -0.083056 -0.053763 11.30 510 810 0.05 -99.00 -0.0000 -0.0000
0.790 2 0.848701 -1.469643 -10.177221 3.196716 32.806396 -9.117126 -2.68 2.68 -9.8 -9.1 -90.1513 -90.1513 -1.8582 0.1536 -0.083056 -0.057901 11.31 480 790 0.06 -99.00 0.0000 0.0000
0.797 2 0.522646 -1.114819 -9.793628 2.593994 31.112671 -8.262634 -2.60 2.60 -9.9 -9.1 -90.1513 -90.1513 -1.8756 0.1551 -0.080460 -0.062655 11.37 490 790 0.06 -99.00 -0.0000 -0.0000
0.804 2 0.697661 -0.031167 -10.078925 2.304077 28.587341 -7.705688 -2.51 2.51 -10.1 -9.2 -90.1513 -90.1513 -1.8935 0.1565 -0.077865 -0.068309 11.56 490 790 0.07 -99.00 0.0000 0.0000
0.811 2 0.647314 1.623081 -10.028579 2.899170 27.328491 -4.608154 -2.60 2.60 -8.4 -9.1 -96.5907 -90.1513 -1.9109 0.1579 -0.080460 -0.075644 11.56 490 790 0.08 -99.00 -0.0000 -0.0000
0.818 2 0.839111 1.457656 -9.764858 4.814148 25.199890 -4.287720 -2.60 2.60 -8.4 -9.1 -96.5907 -90.1513 -1.9286 0.1593 -0.080460 -0.082178 11.26 510 810 0.08 -99.00 0.0000 0.0000
0.825 2 1.802891 1.143589 -9.930283 6.614685 23.918152 -7.003784 -2.68 2.68 -9.9 -9.1 -90.1513 -90.1513 -1.9460 0.1607 -0.083056 -0.088821 11.41 490 780 0.09 -99.00 -0.0000 -0.0000
0.832 2 2.208061 0.568198 -9.822397 9.445190 22.109985 -7.019043 -2.76 2.76 -9.8 -9.0 -90.1513 -90.1513 -1.9635 0.1622 -0.085651 -0.098014 11.33 490 790 0.10 -99.00 0.0000 0.0000
0.839 2 2.059419 -1.253872 -9.445995 10.643005 20.126343 -5.043030 -2.85 2.85 -9.9 -9.0 -90.1513 -90.1513 -1.9809 0.1637 -0.088246 -0.103251 11.42 490 790 0.10 -99.00 -0.0000 -0.0000
0.846 2 2.045034 -3.234175 -9.716908 9.963989 18.882751 -3.097534 -2.76 2.76 -9.8 -9.0 -90.1513 -90.1513 -1.9983 0.1652 -0.085651 -0.105268 11.33 490 790 0.11 -99.00 0.0000 0.0000
0.853 2 2.291973 -3.004019 -9.616216 8.224487 17.089844 0.205994 -2.76 2.76 -9.9 -9.0 -90.1513 -90.1513 -2.0160 0.1667 -0.085651 -0.112517 11.37 510 820 0.11 -99.00 -0.0000 -0.0000
0.860 2 1.917969 -1.611094 -9.553882 6.408691 15.090942 4.180908 -2.68 2.68 -10.0 -9.1 -90.1513 -90.1513 -2.0334 0.1682 -0.083056 -0.121411 11.55 490 790 0.12 -99.00 0.0000 0.0000
0.867 2 1.129204 -0.704853 -9.930283 6.202698 12.481689 8.377075 -2.51 2.51 -8.4 -9.2 -96.5907 -90.1513 -2.0510 0.1697 -0.077865 -0.125530 11.28 490 800 0.13 -99.00 -0.0000 -0.0000
0.874 2 1.093242 -0.608955 -9.764858 5.081177 11.100769 8.460999 -2.51 2.51 -8.4 -9.2 -96.5907 -90.1513 -2.0687 0.1711 -0.077865 -0.126791 11.36 490 790 0.13 -99.00 0.0000 0.0000
0.881 2 1.433682 -0.047949 -10.229965 4.447937 10.719299 7.453918 -2.43 2.43 -8.3 -9.2 -96.5907 -90.1513 -2.0861 0.1724 -0.075269 -0.132309 11.42 490 790 0.13 -99.00 -0.0000 -0.0000
0.888 2 1.153179 1.543965 -9.858359 3.913879 9.300232 6.240845 -2.51 2.51 -8.4 -9.2 -96.5907 -90.1513 -2.1036 0.1738 -0.077865 -0.139100 11.34 510 810 0.14 -99.00 0.0000 0.0000
0.895 2 1.738159 1.553555 -10.436147 5.729675 7.972717 3.715515 -2.60 2.60 -10.0 -9.1 -90.1513 -90.1513 -2.1210 0.1751 -0.080460 -0.146790 11.53 490 790 0.15 -99.00 -0.0000 -0.0000
0.902 2 2.092983 3.085532 -10.778984 5.783081 6.927490 3.211975 -2.76 2.76 -9.8 -9.0 -90.1513 -90.1513 -2.1383 0.1766 -0.085651 -0.152765 11.31 490 790 0.15 -99.00 0.0000 0.0000
0.909 2 2.725913 1.891597 -10.016591 9.277344 6.355286 -0.213623 -2.85 2.85 -9.8 -9.0 -90.1513 -90.1513 -2.1557 0.1781 -0.088246 -0.155683 11.28 490 790 0.16 -99.00 -0.0000 -0.0000
0.916 2 3.099917 -0.510659 -9.762461 11.596680 4.089355 -2.235413 -2.93 2.93 -9.8 -8.9 -90.1513 -90.1513 -2.1731 0.1797 -0.090842 -0.159098 11.30 490 790 0.16 -99.00 0.0000 0.0000
0.923 2 2.951274 -1.932353 -10.071733 11.344910 3.265381 -4.837036 -3.10 3.10 -10.2 -5.4 -90.1513 -96.5907 -2.1908 0.1813 -0.096033 -0.165195 11.71 510 820 0.17 -99.00 -0.0000 -0.0000
0.930 2 2.270396 -2.428628 -9.745678 8.972168 2.334595 -3.486633 -3.10 3.10 -9.8 -8.8 -90.1513 -90.1513 -2.2080 0.1829 -0.096033 -0.169992 11.31 490 790 0.17 -99.00 0.0000 0.0000
0.937 2 1.989892 -0.160630 -10.030976 7.377625 1.716614 0.282288 -3.01 3.01 -8.7 -8.9 -96.5907 -90.1513 -2.2254 0.1846 -0.093437 -0.172093 11.34 490 800 0.17 -99.00 -0.0000 -0.0000
0.944 2 1.860430 -2.150522 -9.949463 7.377625 0.137329 0.679016 -2.93 2.93 -8.6 -8.9 -96.5907 -90.1513 -2.2428 0.1862 -0.090842 -0.173738 11.60 490 790 0.17 -99.00 0.0000 0.0000
0.951 2 1.620684 -1.599106 -10.330659 4.280090 -0.083923 3.395081 -2.85 2.85 -8.6 -9.0 -96.5907 -90.1513 -2.2603 0.1878 -0.088246 -0.178447 11.44 490 790 0.18 -99.00 -0.0000 -0.0000
0.958 2 1.534375 1.649453 -10.064541 1.106262 1.182556 5.172729 -2.85 2.85 -9.9 -9.0 -90.1513 -90.1513 -2.2775 0.1893 -0.088246 -0.182639 11.41 510 810 0.18 -99.00 0.0000 0.0000
0.965 2 1.402515 2.287178 -9.954258 2.571106 -0.160217 5.462646 -2.85 2.85 -9.8 -9.0 -90.1513 -90.1513 -2.2947 0.1908 -0.088246 -0.187490 11.26 490 790 0.19 -99.00 -0.0000 -0.0000
0.972 2 1.965918 1.671030 -10.378608 2.815247 0.045776 4.318237 -2.93 2.93 -9.6 -8.9 -90.1513 -90.1513 -2.3121 0.1924 -0.090842 -0.191665 11.11 490 790 0.19 -99.00 0.0000 0.0000
0.979 2 2.541308 1.122012 -10.114887 4.875183 0.106812 -0.175476 -2.93 2.93 -9.9 -8.9 -90.1513 -90.1513 -2.3294 0.1939 -0.090842 -0.194245 11.37 490 790 0.19 -99.00 -0.0000 -0.0000
0.986 2 3.143071 -0.978164 -10.150849 6.248474 0.862122 -2.563477 -2.93 2.93 -9.7 -8.9 -90.1513 -90.1513 -2.3470 0.1955 -0.090842 -0.198436 11.22 490 790 0.20 -99.00 0.0000 0.0000
0.993 2 2.888940 -1.992290 -9.863154 6.431580 0.694275 -4.058838 -2.93 2.93 -9.9 -8.9 -90.1513 -90.1513 -2.3646 0.1971 -0.090842 -0.199425 11.42 510 810 0.20 -99.00 -0.0000 -0.0000
1.000 2 2.661181 -0.640122 -10.323466 5.989075 0.526428 -1.419067 -2.85 2.85 -8.6 -9.0 -96.5907 -90.1513 -2.3821 0.1987 -0.088246 -0.201218 11.31 490 800 0.20 -99.00 0.0000 0.0000
1.007 2 2.946479 -2.155317 -9.342905 6.072998 0.152588 -0.175476 -2.85 2.85 -8.6 -9.0 -96.5907 -90.1513 -2.3997 0.2003 -0.088246 -0.204889 11.82 490 790 0.20 -99.00 -0.0000 -0.0000
1.014 2 2.265600 -2.078598 -9.901513 4.325867 0.488281 1.869202 -2.76 2.76 -8.5 -9.0 -96.5907 -90.1513 -2.4167 0.2018 -0.085651 -0.205538 11.28 490 790 0.21 -99.00 0.0000 0.0000
1.021 2 1.841250 -2.663579 -9.786435 2.265930 1.869202 3.288269 -2.85 2.85 -8.6 -9.0 -96.5907 -90.1513 -2.4342 0.2033 -0.088246 -0.207150 11.58 490 800 0.21 -99.00 -0.0000 -0.0000
1.028 2 1.620684 0.496274 -10.062143 0.442505 2.471924 5.058289 -2.85 2.85 -9.7 -9.0 -84.5168 -90.1513 -2.4514 0.2048 -0.088246 -0.211059 11.20 510 800 0.21 -99.00 0.0000 0.0000
1.035 2 1.752544 0.551416 -9.592241 1.083374 3.135681 4.470825 -2.93 2.93 -9.8 -8.9 -90.1513 -90.1513 -2.4684 0.2064 -0.090842 -0.216275 11.28 490 790 0.22 -99.00 -0.0000 -0.0000
1.042 2 1.558350 -0.352427 -10.347441 3.387451 3.517151 3.707886 -2.93 2.93 -9.7 -8.9 -90.1513 -90.1513 -2.4856 0.2079 -0.090842 -0.214298 11.23 490 790 0.21 -99.00 0.0000 0.0000
1.049 2 2.709131 0.836714 -10.153247 6.607056 4.127502 -1.098633 -3.01 3.01 -9.8 -8.9 -90.1513 -90.1513 -2.5031 0.2095 -0.093437 -0.216686 11.33 490 790 0.22 -99.00 -0.0000 -0.0000
1.056 2 3.080737 -0.323657 -9.203853 8.560181 3.890991 -6.805420 -2.93 2.93 -9.8 -8.9 -90.1513 -90.1513 -2.5205 0.2111 -0.090842 -0.218995 11.26 490 790 0.22 -99.00 0.0000 0.0000
1.063 2 3.303701 -2.088188 -9.800820 9.071350 3.829956 -8.689880 -2.93 2.93 -10.1 -8.9 -84.5168 -90.1513 -2.5381 0.2128 -0.090842 -0.220480 11.56 510 810 0.22 -99.00 -0.0000 -0.0000
1.070 2 2.857773 -0.596968 -10.311480 7.316589 3.273010 -8.255005 -2.93 2.93 -8.6 -8.9 -96.5907 -90.1513 -2.5554 0.2143 -0.090842 -0.220561 11.61 490 790 0.22 -99.00 0.0000 0.0000
1.077 2 2.150522 -1.793301 -9.316533 6.835938 3.288269 -7.469177 -3.01 3.01 -8.7 -8.9 -96.5907 -90.1513 -2.5728 0.2159 -0.093437 -0.216791 11.64 490 790 0.22 -99.00 -0.0000 -0.0000
1.084 2 2.275190 -1.999482 -9.925488 5.699158 2.769470 -7.186890 -3.01 3.01 -9.9 -8.9 -90.1513 -90.1513 -2.5900 0.2176 -0.093437 -0.213565 11.41 490 780 0.21 -99.00 0.0000 0.0000
1.091 2 2.140933 -0.901445 -10.325864 3.173828 2.037048 -6.195068 -3.10 3.10 -10.0 -10.0 -90.1513 -84.5168 -2.6074 0.2192 -0.096033 -0.214465 11.45 490 780 0.21 -99.00 -0.0000 -0.0000
1.098 2 1.858032 -0.124668 -10.021386 1.716614 1.693726 -5.149841 -3.10 3.10 -9.8 -8.8 -84.5168 -90.1513 -2.6246 0.2209 -0.096033 -0.219538 11.34 510 810 0.22 -99.00 0.0000 0.0000
1.105 2 1.177153 -0.112681 -9.721704 2.174377 0.488281 -3.761292 -3.18 3.18 -9.8 -8.8 -90.1513 -90.1513 -2.6421 0.2226 -0.098628 -0.215772 11.31 490 790 0.22 -99.00 -0.0000 -0.0000
1.112 2 1.141191 -0.702456 -10.345043 3.250122 0.068665 -5.081177 -3.18 3.18 -9.8 -8.8 -90.1513 -90.1513 -2.6593 0.2243 -0.098628 -0.212934 11.34 490 790 0.21 -99.00 0.0000 0.0000
1.119 2 2.416641 -0.371606 -9.853564 2.693176 -1.403809 -6.027222 -3.18 3.18 -10.0 -8.8 -90.1513 -90.1513 -2.6769 0.2260 -0.098628 -0.214244 11.45 490 790 0.21 -99.00 -0.0000 -0.0000
1.126 2 3.099917 0.491479 -10.189209 1.586914 -1.808167 -2.769470 -3.10 3.10 -9.9 -8.8 -90.1513 -90.1513 -2.6947 0.2277 -0.096033 -0.218950 11.42 490 790 0.22 -99.00 0.0000 0.0000
1.133 2 3.413984 -0.448325 -9.659369 1.426697 -2.922058 -1.792908 -2.93 2.93 -8.6 -8.9 -96.5907 -90.1513 -2.7123 0.2294 -0.090842 -0.222356 11.63 510 820 0.22 -99.00 -0.0000 -0.0000
1.140 2 2.469385 -1.078857 -9.865551 0.564575 -4.486084 1.426697 -2.85 2.85 -8.6 -9.0 -96.5907 -90.1513 -2.7298 0.2310 -0.088246 -0.219766 11.50 490 790 0.22 -99.00 0.0000 0.0000
1.147 2 2.706733 -2.256011 -9.347700 -0.747681 -5.897522 2.357483 -2.93 2.93 -10.0 -8.9 -90.1513 -90.1513 -2.7472 0.2325 -0.090842 -0.217974 11.55 490 790 0.22 -99.00 -0.0000 -0.0000
1.154 2 2.874556 -1.553555 -9.623408 -3.273010 -8.239746 4.631042 -2.85 2.85 -9.7 -9.0 -90.1513 -90.1513 -2.7646 0.2341 -0.088246 -0.221592 11.20 490 790 0.22 -99.00 0.0000 0.0000
1.161 2 2.301562 -1.481631 -9.412432 -5.638123 -10.650635 5.096436 -2.93 2.93 -9.9 -8.9 -90.1513 -90.1513 -2.7821 0.2357 -0.090842 -0.227117 11.36 490 790 0.23 -99.00 -0.0000 -0.0000
1.168 2 1.579927 -0.098296 -10.088515 -8.247375 -14.472961 6.439209 -2.85 2.85 -9.9 -9.0 -90.1513 -90.1513 -2.7995 0.2372 -0.088246 -0.224664 11.42 510 810 0.22 -99.00 0.0000 0.0000
1.175 2 0.994946 -0.776777 -10.064541 -10.749817 -16.525269 7.698059 -2.68 2.68 -9.8 -9.1 -90.1513 -90.1513 -2.8171 0.2387 -0.083056 -0.216779 11.33 490 790 0.22 -99.00 -0.0000 -0.0000
1.182 2 1.680620 0.690469 -10.428955 -11.611938 -18.997192 5.081177 -2.60 2.60 -8.4 -9.1 -96.5907 -90.1513 -2.8346 0.2402 -0.080460 -0.220132 11.53 490 790 0.22 -99.00 0.0000 0.0000
1.189 2 1.589517 1.366553 -10.146054 -11.741638 -23.246765 2.738953 -2.60 2.60 -10.1 -9.1 -90.1513 -90.1513 -2.8522 0.2416 -0.080460 -0.226042 11.64 490 790 0.23 -99.00 -0.0000 -0.0000
1.196 2 1.244282 2.567681 -10.817344 -10.749817 -27.366638 -3.173828 -2.68 2.68 -8.5 -9.1 -96.5907 -90.1513 -2.8696 0.2430 -0.083056 -0.224945 11.58 490 790 0.22 -99.00 0.0000 0.0000
1.203 2 1.603901 1.742954 -10.136464 -9.323120 -30.006409 -6.553650 -2.76 2.76 -9.9 -5.6 -90.1513 -96.5907 -2.8871 0.2445 -0.085651 -0.218172 11.37 510 820 0.22 -99.00 -0.0000 -0.0000
1.210 2 2.781054 0.189399 -10.196401 -9.338379 -33.576965 -8.636475 -2.76 2.76 -10.0 -9.0 -90.1513 -90.1513 -2.9043 0.2460 -0.085651 -0.214933 11.47 490 780 0.21 -99.00 0.0000 0.0000
1.217 2 2.745093 -1.239487 -10.213183 -8.682251 -36.651611 -8.438110 -2.68 2.68 -9.9 -9.1 -90.1513 -90.1513 -2.9218 0.2475 -0.083056 -0.218011 11.42 490 790 0.22 -99.00 -0.0000 -0.0000
1.224 2 2.308755 -2.102573 -9.728896 -9.719849 -41.442871 -8.903503 -2.68 2.68 -8.5 -9.1 -96.5907 -90.1513 -2.9390 0.2489 -0.083056 -0.219482 11.56 490 790 0.22 -99.00 0.0000 0.0000
1.231 2 1.491221 -2.157715 -9.894321 -11.054993 -45.417786 -7.453918 -2.68 2.68 -10.1 -9.1 -90.1513 -90.1513 -2.9566 0.2504 -0.083056 -0.218709 11.64 490 790 0.22 -99.00 -0.0000 -0.0000
1.238 2 1.824468 -1.668633 -10.026181 -11.611938 -48.843384 -2.571106 -2.68 2.68 -8.5 -9.1 -96.5907 -90.1513 -2.9743 0.2518 -0.083056 -0.213695 11.52 510 820 0.21 -99.00 0.0000 0.0000
1.245 2 1.476836 -1.685415 -10.076528 -13.824463 -53.199768 2.159119 -2.60 2.60 -8.4 -9.1 -96.5907 -90.1513 -2.9917 0.2532 -0.080460 -0.213699 11.64 490 790 0.21 -99.00 -0.0000 -0.0000
1.252 2 0.980561 -0.357222 -9.884731 -13.656616 -56.304932 2.624512 -2.60 2.60 -10.2 -5.6 -90.1513 -96.5907 -3.0094 0.2547 -0.080460 -0.218062 11.66 490 800 0.22 -99.00 0.0000 0.0000
1.259 2 0.903843 0.364414 -10.404980 -12.794495 -58.593750 5.615234 -2.68 2.68 -8.5 -9.1 -96.5907 -90.1513 -3.0268 0.2561 -0.083056 -0.219496 11.68 490 790 0.22 -99.00 -0.0000 -0.0000
1.266 2 0.304478 2.018662 -10.591982 -10.704041 -62.103271 7.095337 -2.76 2.76 -10.0 -9.0 -90.1513 -90.1513 -3.0438 0.2576 -0.085651 -0.214888 11.49 490 790 0.21 -99.00 0.0000 0.0000
1.273 2 1.316206 1.841250 -10.404980 -7.186890 -63.903809 7.804871 -2.76 2.76 -10.3 -5.6 -90.1513 -96.5907 -3.0615 0.2591 -0.085651 -0.214978 11.83 510 820 0.21 -99.00 -0.0000 -0.0000
1.280 2 2.200869 1.280244 -10.078925 -4.066467 -66.864014 11.497498 -2.76 2.76 -10.1 -9.0 -90.1513 -90.1513 -3.0787 0.2606 -0.085651 -0.218683 11.56 490 790 0.22 -99.00 0.0000 0.0000
1.287 2 2.517334 -0.577788 -9.704922 -3.440857 -68.466187 14.762878 -2.68 2.68 -10.1 -9.1 -90.1513 -90.1513 -3.0961 0.2620 -0.083056 -0.217613 11.56 490 790 0.22 -99.00 -0.0000 -0.0000
1.294 2 2.267998 -1.160371 -10.021386 -3.631592 -69.694519 20.202637 -2.51 2.51 -8.4 -9.2 -96.5907 -90.1513 -3.1138 0.2635 -0.077865 -0.214620 11.66 490 790 0.21 -99.00 0.0000 0.0000
1.301 2 1.956328 -1.639863 -9.505932 -3.440857 -71.434021 26.809692 -2.51 2.51 -8.4 -9.2 -96.5907 -90.1513 -3.1314 0.2649 -0.077865 -0.211566 11.55 490 790 0.21 -99.00 -0.0000 -0.0000
1.308 2 0.704853 -2.435820 -9.517920 -3.074646 -73.158264 31.677246 -2.51 2.51 -8.4 -5.7 -96.5907 -96.5907 -3.1491 0.2662 -0.077865 -0.207383 11.63 510 810 0.21 -99.00 0.0000 0.0000
1.315 2 0.704853 -1.944341 -9.517920 -4.264832 -74.607849 34.233093 -2.60 2.60 -8.4 -9.1 -96.5907 -90.1513 -3.1665 0.2676 -0.080460 -0.204294 11.72 490 800 0.20 -99.00 -0.0000 -0.0000
1.322 2 0.680879 -1.313809 -9.767256 -5.447388 -75.431824 33.515930 -2.60 2.60 -8.4 -5.6 -96.5907 -96.5907 -3.1838 0.2690 -0.080460 -0.201688 11.68 490 790 0.20 -99.00 0.0000 0.0000
1.329 2 0.115078 0.201387 -10.011797 -6.942749 -75.355530 34.645081 -2.60 2.60 -10.2 -9.1 -90.1513 -90.1513 -3.2010 0.2704 -0.080460 -0.198141 11.68 490 780 0.20 -99.00 -0.0000 -0.0000
1.336 2 -0.023975 1.496016 -10.210786 -7.064819 -75.920105 32.806396 -2.51 2.51 -10.1 -9.2 -90.1513 -90.1513 -3.2185 0.2718 -0.077865 -0.190951 11.63 490 780 0.19 -99.00 0.0000 0.0000
1.343 2 0.728828 1.896392 -10.318671 -6.408691 -75.561523 29.388428 -2.60 2.60 -10.1 -9.1 -90.1513 -90.1513 -3.2359 0.2731 -0.080460 -0.185836 11.60 510 820 0.19 -99.00 -0.0000 -0.0000
1.350 2 0.932612 0.712046 -9.855962 -4.096985 -76.026917 24.726868 -2.51 2.51 -8.4 -5.7 -96.5907 -96.5907 -3.2534 0.2745 -0.077865 -0.179676 11.74 490 790 0.18 -99.00 0.0000 0.0000
1.357 2 0.800752 -0.004795 -9.810410 -2.082825 -75.363159 20.591736 -2.43 2.43 -8.3 -9.2 -96.5907 -90.1513 -3.2708 0.2758 -0.075269 -0.169986 11.77 490 790 0.17 -99.00 -0.0000 -0.0000
1.364 2 1.229897 -1.426489 -9.906308 -0.740051 -75.263977 15.319824 -2.51 2.51 -8.4 -9.2 -96.5907 -90.1513 -3.2883 0.2772 -0.077865 -0.163619 11.77 490 790 0.16 -99.00 0.0000 0.0000
1.371 2 1.002139 -2.349512 -9.851167 0.106812 -75.187683 12.992859 -2.60 2.60 -8.4 -9.1 -96.5907 -90.1513 -3.3057 0.2785 -0.080460 -0.158627 11.71 490 790 0.16 -99.00 -0.0000 -0.0000
1.378 2 0.290093 -2.632412 -10.112490 -0.068665 -75.569153 14.595032 -2.85 2.85 -10.2 -5.5 -90.1513 -96.5907 -3.3231 0.2800 -0.088246 -0.147655 11.66 510 820 0.15 -99.00 0.0000 0.0000
1.385 2 -0.076719 -1.757339 -10.709457 -1.831055 -74.256897 19.073486 -2.93 2.93 -10.1 -8.9 -90.1513 -90.1513 -3.3406 0.2816 -0.090842 -0.136266 11.64 490 770 0.14 -99.00 -0.0000 -0.0000
1.392 2 -0.268516 0.692866 -10.611162 -3.074646 -73.547363 20.919800 -3.01 3.01 -10.1 -5.4 -90.1513 -96.5907 -3.3580 0.2832 -0.093437 -0.129325 11.61 490 800 0.13 -99.00 0.0000 0.0000
1.399 2 0.004795 0.920625 -10.659111 -4.524231 -73.387146 23.429871 -3.01 3.01 -10.1 -8.9 -90.1513 -90.1513 -3.3752 0.2848 -0.093437 -0.125883 11.60 490 780 0.13 -99.00 -0.0000 -0.0000
1.406 2 -0.721636 2.080996 -11.354375 -5.203247 -70.556641 26.832581 -3.01 3.01 -10.1 -8.9 -90.1513 -90.1513 -3.3928 0.2865 -0.093437 -0.118259 11.60 490 790 0.12 -99.00 0.0000 0.0000
1.413 2 -0.481890 2.797837 -10.436147 -5.485535 -68.687439 26.817322 -2.93 2.93 -8.6 -8.9 -96.5907 -90.1513 -3.4107 0.2881 -0.090842 -0.106823 11.80 510 810 0.11 -99.00 -0.0000 -0.0000
1.420 2 -0.158232 3.174238 -10.568007 -4.592896 -66.818237 26.924133 -2.76 2.76 -8.5 -9.0 -96.5907 -90.1513 -3.4283 0.2897 -0.085651 -0.096646 11.77 490 790 0.10 -99.00 0.0000 0.0000
1.427 2 0.424351 -0.537031 -9.772051 -1.899719 -63.552856 22.727966 -2.76 2.76 -8.5 -9.0 -96.5907 -90.1513 -3.4459 0.2912 -0.085651 -0.087385 11.69 490 790 0.09 -99.00 -0.0000 -0.0000
1.434 2 0.899048 -1.812480 -10.225170 0.267029 -61.859131 13.740540 -2.76 2.76 -10.3 -9.0 -84.5168 -90.1513 -3.4636 0.2927 -0.085651 -0.082451 11.79 490 780 0.08 -99.00 0.0000 0.0000
1.441 2 -0.275708 -2.332729 -10.345043 1.159668 -60.943604 9.864807 -2.85 2.85 -8.6 -9.0 -96.5907 -90.1513 -3.4810 0.2943 -0.088246 -0.073873 11.77 490 790 0.07 -99.00 -0.0000 -0.0000
1.448 2 -0.321260 -2.419038 -10.261132 0.923157 -58.868408 6.607056 -2.93 2.93 -10.1 -8.9 -90.1513 -90.1513 -3.4984 0.2958 -0.090842 -0.061273 11.61 510 810 0.06 -99.00 0.0000 0.0000
1.455 2 -0.160630 -2.682759 -10.182016 0.892639 -57.312012 5.187988 -2.93 2.93 -10.2 -8.9 -90.1513 -90.1513 -3.5157 0.2974 -0.090842 -0.050756 11.69 490 790 0.05 -99.00 -0.0000 -0.0000
1.462 2 -0.244541 -1.095640 -10.328261 -1.495361 -55.763245 4.211426 -3.01 3.01 -10.3 -10.3 -90.1513 -79.5453 -3.5331 0.2990 -0.093437 -0.046522 11.85 490 800 0.05 -99.00 0.0000 0.0000
1.469 2 -0.668892 1.261064 -10.913241 -4.127502 -54.061890 7.110596 -2.85 2.85 -10.2 -9.0 -90.1513 -90.1513 -3.5507 0.3006 -0.088246 -0.041183 11.69 490 790 0.04 -99.00 -0.0000 -0.0000
1.476 2 -1.783711 1.201128 -10.165234 -4.325867 -52.459717 9.399414 -2.76 2.76 -8.5 -9.0 -96.5907 -90.1513 -3.5681 0.3021 -0.085651 -0.028607 11.64 490 790 0.03 -99.00 0.0000 0.0000
1.483 2 -1.683017 2.107368 -10.743022 -4.730225 -49.873352 12.573242 -2.68 2.68 -8.5 -9.1 -96.5907 -90.1513 -3.5860 0.3036 -0.083056 -0.016136 11.68 510 820 0.02 -99.00 -0.0000 -0.0000
1.490 2 -1.534375 1.886802 -9.836782 -4.165649 -46.920776 15.441895 -2.60 2.60 -8.4 -9.1 -96.5907 -90.1513 -3.6034 0.3050 -0.080460 -0.011677 11.71 490 790 0.01 -99.00 0.0000 0.0000
1.497 2 -0.558608 1.493618 -10.045361 -2.479553 -45.089722 16.510010 -2.60 2.60 -8.4 -5.6 -96.5907 -96.5907 -3.6211 0.3065 -0.080460 -0.009316 11.71 490 790 0.01 -99.00 -0.0000 -0.0000
1.504 2 -0.944600 1.086050 -10.141259 -2.067566 -42.282104 17.791748 -2.60 2.60 -8.4 -9.1 -96.5907 -90.1513 -3.6387 0.3079 -0.080460 -0.001098 11.69 490 790 0.00 -99.00 0.0000 0.0000
1.511 2 -0.517852 0.565801 -9.903911 -1.655579 -39.520264 18.074036 -2.68 2.68 -8.5 -9.1 -96.5907 -90.1513 -3.6562 0.3093 -0.083056 0.010382 11.79 490 800 -0.01 -99.00 -0.0000 -0.0000
1.518 2 -0.508262 -1.220308 -9.666562 -0.885010 -36.918640 19.088745 -2.68 2.68 -8.5 -9.1 -96.5907 -90.1513 -3.6734 0.3107 -0.083056 0.018462 11.75 510 810 -0.02 -99.00 0.0000 0.0000
1.525 2 -0.520249 -2.608438 -9.628202 -1.647949 -34.896851 17.875671 -2.76 2.76 -10.2 -9.0 -90.1513 -90.1513 -3.6904 0.3121 -0.085651 0.025977 11.68 490 790 -0.03 -99.00 -0.0000 -0.0000
1.532 2 -0.894253 -2.603642 -9.781640 -3.623962 -33.187866 14.938354 -2.85 2.85 -10.2 -9.0 -90.1513 -90.1513 -3.7079 0.3136 -0.088246 0.034924 11.71 490 790 -0.03 -99.00 0.0000 0.0000
1.539 2 -1.469643 -1.318604 -10.551226 -7.133484 -31.707764 13.175964 -2.85 2.85 -10.1 -9.0 -90.1513 -90.1513 -3.7255 0.3152 -0.088246 0.042999 11.63 490 780 -0.04 -99.00 -0.0000 -0.0000
1.546 2 -1.891597 1.644658 -10.738227 -9.140015 -30.609131 10.726929 -2.85 2.85 -10.1 -9.0 -90.1513 -90.1513 -3.7431 0.3168 -0.088246 0.052929 11.63 490 790 -0.05 -99.00 0.0000 0.0000
1.553 2 -2.277588 0.611353 -10.903652 -9.056091 -28.884888 6.477356 -2.85 2.85 -10.1 -9.0 -90.1513 -90.1513 -3.7608 0.3183 -0.088246 0.060140 11.63 510 820 -0.06 -99.00 -0.0000 -0.0000
1.560 2 -1.999482 2.186484 -11.069077 -10.643005 -25.756836 3.578186 -2.76 2.76 -8.5 -9.0 -96.5907 -90.1513 -3.7786 0.3199 -0.085651 0.065329 11.82 490 800 -0.07 -99.00 0.0000 0.0000
1.567 2 -1.944341 1.867622 -10.249146 -9.468079 -23.803711 -2.319336 -2.68 2.68 -10.3 -9.1 -84.5168 -90.1513 -3.7964 0.3214 -0.083056 0.069570 11.77 490 790 -0.07 -99.00 -0.0000 -0.0000
1.574 2 -1.764531 0.851099 -10.505673 -7.308960 -22.087097 -5.531311 -2.68 2.68 -8.5 -9.1 -96.5907 -90.1513 -3.8141 0.3229 -0.083056 0.076708 11.80 490 790 -0.08 -99.00 0.0000 0.0000
1.581 2 -1.428887 0.388389 -10.086118 -5.813599 -19.653320 -6.477356 -2.76 2.76 -8.5 -9.0 -96.5907 -90.1513 -3.8319 0.3244 -0.085651 0.081111 11.79 490 790 -0.08 -99.00 -0.0000 -0.0000
1.588 2 -1.522388 0.122271 -10.179619 -4.867554 -17.486572 -5.943298 -2.93 2.93 -8.6 -8.9 -96.5907 -90.1513 -3.8495 0.3259 -0.090842 0.086626 11.77 510 820 -0.09 -99.00 0.0000 0.0000
1.595 2 -0.906240 -0.565801 -9.781640 -2.685547 -15.464783 -5.004883 -3.01 3.01 -8.7 -8.9 -96.5907 -90.1513 -3.8670 0.3275 -0.093437 0.093081 11.88 490 790 -0.09 -99.00 -0.0000 -0.0000
1.602 2 -1.143589 -1.246680 -10.095708 -1.571655 -14.381409 -1.228333 -3.10 3.10 -10.3 -8.8 -90.1513 -90.1513 -3.8844 0.3292 -0.096033 0.098760 11.80 490 790 -0.10 -99.00 0.0000 0.0000
1.609 2 -1.131602 -1.615889 -9.990219 -2.235413 -13.587952 2.853394 -3.10 3.10 -8.7 -8.8 -96.5907 -90.1513 -3.9016 0.3308 -0.096033 0.103841 11.69 490 790 -0.10 -99.00 -0.0000 -0.0000
1.616 2 -1.436079 -1.086050 -10.222774 -3.341675 -12.962341 6.996155 -3.10 3.10 -8.7 -5.4 -96.5907 -96.5907 -3.9188 0.3325 -0.096033 0.110098 11.64 490 790 -0.11 -99.00 0.0000 0.0000
1.623 2 -1.822070 -0.321260 -10.412172 -4.394531 -12.413025 10.932922 -3.18 3.18 -8.8 -8.8 -96.5907 -90.1513 -3.9363 0.3342 -0.098628 0.115437 11.74 510 820 -0.12 -99.00 -0.0000 -0.0000
1.630 2 -2.092983 0.340439 -10.752612 -5.676270 -11.001587 14.259338 -3.10 3.10 -10.3 -10.3 -90.1513 -84.5168 -3.9533 0.3358 -0.096033 0.121157 11.77 490 780 -0.12 -99.00 0.0000 0.0000
1.637 2 -2.131343 1.515195 -10.838921 -5.531311 -9.941101 16.250610 -3.27 3.27 -10.2 -8.7 -90.1513 -90.1513 -3.9705 0.3375 -0.101224 0.124379 11.68 490 790 -0.12 -99.00 -0.0000 -0.0000
1.644 2 -2.157715 1.481631 -10.261132 -4.295349 -9.101868 16.075134 -3.18 3.18 -10.2 -8.8 -90.1513 -90.1513 -3.9879 0.3393 -0.098628 0.127335 11.71 490 790 -0.13 -99.00 0.0000 0.0000
1.651 2 -1.939546 1.227500 -10.651918 -4.272461 -7.743835 12.702942 -3.10 3.10 -10.2 -8.8 -90.1513 -90.1513 -4.0053 0.3410 -0.096033 0.131762 11.69 490 790 -0.13 -99.00 -0.0000 -0.0000
1.658 2 -2.011470 0.023975 -10.309082 -3.074646 -6.034851 5.912781 -3.01 3.01 -8.7 -8.9 -96.5907 -90.1513 -4.0231 0.3427 -0.093437 0.135785 11.77 510 820 -0.14 -99.00 0.0000 0.0000
1.665 2 -1.359360 -0.544224 -10.038169 -1.197815 -5.401611 0.076294 -2.93 2.93 -8.6 -8.9 -96.5907 -90.1513 -4.0406 0.3443 -0.090842 0.140683 11.72 490 790 -0.14 -99.00 -0.0000 -0.0000
1.672 2 -0.767187 -1.189141 -10.304287 -0.175476 -4.737854 -3.890991 -2.93 2.93 -8.6 -8.9 -96.5907 -90.1513 -4.0582 0.3459 -0.090842 0.144503 11.60 490 790 -0.14 -99.00 0.0000 0.0000
1.679 2 -0.935010 -2.927300 -9.625805 -0.068665 -4.112244 -7.431030 -2.93 2.93 -10.2 -8.9 -90.1513 -90.1513 -4.0758 0.3475 -0.090842 0.145667 11.66 480 790 -0.15 -99.00 -0.0000 -0.0000
1.686 2 -1.222705 -2.793042 -10.311480 -1.853943 -4.737854 -7.125854 -2.93 2.93 -10.2 -8.9 -90.1513 -90.1513 -4.0934 0.3491 -0.090842 0.151682 11.66 490 800 -0.15 -99.00 0.0000 0.0000
1.693 2 -2.045034 -1.793301 -10.414570 -5.287170 -3.852844 -6.790161 -2.85 2.85 -8.6 -5.5 -96.5907 -96.5907 -4.1113 0.3507 -0.088246 0.158726 11.79 510 820 -0.16 -99.00 -0.0000 -0.0000
1.700 2 -1.759736 -0.630532 -10.062143 -6.492615 -3.585815 -4.585266 -2.60 2.60 -8.4 -9.1 -96.5907 -90.1513 -4.1287 0.3522 -0.080460 0.161603 11.75 490 790 -0.16 -99.00 0.0000 0.0000
1.707 2 -1.997085 1.239487 -10.755010 -7.713318 -3.234863 -0.755310 -2.43 2.43 -8.3 -9.2 -96.5907 -90.1513 -4.1464 0.3535 -0.075269 0.164126 11.72 490 800 -0.16 -99.00 -0.0000 -0.0000
1.714 2 -2.668374 2.493359 -10.522456 -7.522583 -3.486633 -1.243591 -2.43 2.43 -8.3 -9.2 -96.5907 -90.1513 -4.1640 0.3549 -0.075269 0.164774 11.74 490 800 -0.16 -99.00 0.0000 0.0000
1.721 2 -2.438218 1.778916 -10.556020 -6.050110 -2.380371 -2.891541 -2.43 2.43 -8.3 -9.2 -96.5907 -90.1513 -4.1813 0.3562 -0.075269 0.167370 11.79 490 790 -0.17 -99.00 -0.0000 -0.0000
1.728 2 -2.217651 1.738159 -10.131670 -4.722595 -1.770020 -4.859924 -2.51 2.51 -8.4 -9.2 -96.5907 -90.1513 -4.1987 0.3575 -0.077865 0.168455 11.77 510 810 -0.17 -99.00 0.0000 0.0000
1.735 2 -1.999482 1.575132 -10.210786 -3.845215 -1.220703 -2.113342 -2.60 2.60 -10.1 -5.6 -84.5168 -96.5907 -4.2162 0.3589 -0.080460 0.170164 11.61 490 790 -0.17 -99.00 -0.0000 -0.0000
1.742 2 -0.949395 1.987495 -10.373814 -3.707886 -0.373840 2.090454 -2.68 2.68 -10.3 -9.1 -90.1513 -90.1513 -4.2336 0.3604 -0.083056 0.168917 11.82 490 790 -0.17 -99.00 0.0000 0.0000
1.749 2 -1.438477 0.426748 -9.841577 -1.876831 -0.061035 1.914978 -2.68 2.68 -10.2 -9.1 -90.1513 -90.1513 -4.2508 0.3618 -0.083056 0.169385 11.66 490 790 -0.17 -99.00 -0.0000 -0.0000
1.756 2 -1.378540 -0.889458 -9.537099 -0.564575 0.213623 2.227783 -2.60 2.60 -10.1 -9.1 -90.1513 -90.1513 -4.2687 0.3633 -0.080460 0.172828 11.64 490 790 -0.17 -99.00 0.0000 0.0000
1.763 2 -1.213115 -1.193936 -9.479560 -0.617981 0.259399 1.632690 -2.51 2.51 -8.4 -5.7 -96.5907 -96.5907 -4.2865 0.3647 -0.077865 0.173814 11.98 510 810 -0.17 -99.00 -0.0000 -0.0000
1.770 2 -1.390527 -1.723774 -9.525112 -0.328064 0.564575 1.831055 -2.43 2.43 -8.3 -9.2 -96.5907 -90.1513 -4.3040 0.3660 -0.075269 0.176111 11.75 490 790 -0.18 -99.00 0.0000 0.0000
1.777 2 -1.786108 -2.582065 -9.582651 -0.900269 1.014709 2.403259 -2.43 2.43 -8.3 -10.3 -96.5907 -84.5168 -4.3216 0.3674 -0.075269 0.180007 11.77 490 790 -0.18 -99.00 -0.0000 -0.0000
1.784 2 -1.989892 -0.462710 -9.697729 -2.799988 1.197815 1.068115 -2.43 2.43 -10.3 -9.2 -90.1513 -90.1513 -4.3389 0.3687 -0.075269 0.180558 11.75 490 790 -0.18 -99.00 0.0000 0.0000
1.791 2 -2.459795 -0.052744 -10.117285 -3.974915 1.037598 1.129150 -2.60 2.60 -10.2 -9.1 -90.1513 -90.1513 -4.3565 0.3700 -0.080460 0.180436 11.69 490 790 -0.18 -99.00 -0.0000 -0.0000
1.798 2 -2.728310 3.505088 -10.953999 -7.019043 2.403259 4.035950 -2.60 2.60 -10.1 -9.1 -90.1513 -90.1513 -4.3742 0.3715 -0.080460 0.181994 11.64 510 810 -0.18 -99.00 0.0000 0.0000
1.805 2 -2.455000 4.145210 -10.436147 -4.295349 2.601624 1.693726 -2.68 2.68 -8.5 -9.1 -96.5907 -90.1513 -4.3920 0.3729 -0.083056 0.182554 11.75 490 800 -0.18 -99.00 -0.0000 -0.0000
1.812 2 -2.217651 2.646797 -10.174824 -1.892090 1.541138 0.213623 -2.68 2.68 -8.5 -9.1 -96.5907 -90.1513 -4.4097 0.3744 -0.083056 0.181117 11.75 490 790 -0.18 -99.00 0.0000 0.0000
1.819 2 -1.822070 1.778916 -10.436147 0.152588 2.212524 -2.372742 -2.85 2.85 -10.2 -9.0 -90.1513 -90.1513 -4.4273 0.3759 -0.088246 0.179912 11.74 490 790 -0.18 -99.00 -0.0000 -0.0000
1.826 2 -1.543965 0.714443 -10.018989 1.335144 2.609253 -2.975464 -2.76 2.76 -10.2 -9.0 -84.5168 -90.1513 -4.4451 0.3774 -0.085651 0.179595 11.68 490 790 -0.18 -99.00 0.0000 0.0000
1.833 2 -1.325796 -1.414502 -9.623408 2.571106 3.021240 -1.487732 -2.76 2.76 -8.5 -5.6 -96.5907 -96.5907 -4.4632 0.3790 -0.085651 0.180031 11.74 510 810 -0.18 -99.00 -0.0000 -0.0000
1.840 2 -1.189141 -3.071147 -9.796025 4.074097 2.830505 -0.473022 -2.68 2.68 -8.5 -9.1 -96.5907 -90.1513 -4.4806 0.3805 -0.083056 0.181001 11.83 490 790 -0.18 -99.00 0.0000 0.0000
1.847 2 -1.440874 -3.059160 -9.731294 2.990723 3.013611 1.556396 -2.68 2.68 -8.5 -9.1 -96.5907 -90.1513 -4.4982 0.3820 -0.083056 0.184582 11.74 490 800 -0.18 -99.00 -0.0000 -0.0000
1.854 2 -1.189141 -1.388130 -9.935078 1.213074 3.875732 6.629944 -2.60 2.60 -8.4 -9.1 -96.5907 -90.1513 -4.5157 0.3834 -0.080460 0.185873 11.77 490 790 -0.19 -99.00 0.0000 0.0000
1.861 2 -1.234692 -0.477095 -10.392993 0.503540 4.997253 9.803772 -2.68 2.68 -8.5 -9.1 -96.5907 -90.1513 -4.5331 0.3848 -0.083056 0.181140 11.77 490 780 -0.18 -99.00 -0.0000 -0.0000
1.868 2 -2.037842 0.050347 -10.428955 1.548767 6.774902 11.207581 -2.76 2.76 -8.5 -9.0 -96.5907 -90.1513 -4.5506 0.3863 -0.085651 0.177960 11.79 510 810 -0.18 -99.00 0.0000 0.0000
1.875 2 -2.773862 0.258926 -10.409775 1.266479 9.330750 10.925293 -2.85 2.85 -10.3 -9.0 -90.1513 -90.1513 -4.5680 0.3879 -0.088246 0.179453 11.83 490 790 -0.18 -99.00 -0.0000 -0.0000
1.882 2 -2.438218 1.287436 -10.251543 2.990723 12.825012 8.468628 -2.93 2.93 -10.2 -8.9 -90.1513 -90.1513 -4.5854 0.3894 -0.090842 0.179427 11.71 490 790 -0.18 -99.00 0.0000 0.0000
1.889 2 -1.711787 0.246938 -9.949463 4.081726 15.457153 6.362915 -2.93 2.93 -8.6 -8.9 -96.5907 -90.1513 -4.6031 0.3910 -0.090842 0.176696 11.75 490 790 -0.18 -99.00 -0.0000 -0.0000
1.896 2 -1.740557 0.409966 -10.244350 6.271362 17.158508 3.746033 -2.93 2.93 -8.6 -5.5 -96.5907 -96.5907 -4.6207 0.3926 -0.090842 0.172461 11.79 490 790 -0.17 -99.00 0.0000 0.0000
1.903 2 -1.567939 0.824727 -10.196401 6.988525 20.019531 1.152039 -2.85 2.85 -8.6 -9.0 -96.5907 -90.1513 -4.6381 0.3942 -0.088246 0.172754 11.75 510 820 -0.17 -99.00 -0.0000 -0.0000
1.910 2 -1.457656 0.630532 -9.683345 9.208679 21.583557 -2.670288 -2.85 2.85 -10.2 -9.0 -90.1513 -90.1513 -4.6553 0.3957 -0.088246 0.176922 11.68 480 780 -0.18 -99.00 0.0000 0.0000
1.917 2 -1.057280 -1.421694 -9.995014 9.857178 23.246765 -5.363464 -2.85 2.85 -8.6 -9.0 -96.5907 -90.1513 -4.6726 0.3972 -0.088246 0.178737 11.68 490 790 -0.18 -99.00 -0.0000 -0.0000
1.924 2 -0.889458 -1.519990 -9.954258 8.377075 24.887085 -6.729126 -2.85 2.85 -10.3 -9.0 -90.1513 -90.1513 -4.6902 0.3988 -0.088246 0.174705 11.75 490 780 -0.17 -99.00 0.0000 0.0000
1.931 2 -1.018921 -1.332988 -10.282710 7.423401 26.306152 -3.410339 -2.85 2.85 -10.3 -9.0 -90.1513 -90.1513 -4.7074 0.4003 -0.088246 0.173551 11.77 490 790 -0.17 -99.00 -0.0000 -0.0000
1.938 2 -1.879609 -0.352427 -10.225170 6.011963 28.335571 -1.640320 -2.93 2.93 -10.1 -8.9 -90.1513 -90.1513 -4.7249 0.4019 -0.090842 0.177253 11.60 510 810 -0.18 -99.00 0.0000 0.0000
1.945 2 -1.757339 1.560747 -10.759805 4.791260 31.364441 -0.656128 -2.93 2.93 -10.2 -8.9 -90.1513 -90.1513 -4.7425 0.4036 -0.090842 0.178021 11.68 490 790 -0.18 -99.00 -0.0000 -0.0000
1.952 2 -1.793301 1.438477 -10.544033 4.875183 34.301758 -0.152588 -2.93 2.93 -10.2 -8.9 -90.1513 -90.1513 -4.7601 0.4052 -0.090842 0.173130 11.68 490 790 -0.17 -99.00 0.0000 0.0000
1.959 2 -1.534375 2.802632 -11.078667 4.203796 37.788391 1.541138 -2.93 2.93 -8.6 -8.9 -96.5907 -90.1513 -4.7781 0.4068 -0.090842 0.166646 11.80 490 800 -0.17 -99.00 -0.0000 -0.0000
1.966 2 -2.100176 2.941684 -10.666304 5.912781 40.924072 0.389099 -2.85 2.85 -8.6 -9.0 -96.5907 -90.1513 -4.7956 0.4084 -0.088246 0.165985 11.91 490 790 -0.17 -99.00 0.0000 0.0000
1.973 2 -2.069009 1.939546 -10.685483 6.996155 44.570923 0.953674 -2.68 2.68 -10.3 -9.1 -90.1513 -90.1513 -4.8132 0.4099 -0.083056 0.167365 11.75 510 820 -0.17 -99.00 -0.0000 -0.0000
1.980 2 -0.836714 0.326055 -10.177221 8.155823 49.293518 -2.593994 -2.76 2.76 -8.5 -9.0 -96.5907 -90.1513 -4.8306 0.4114 -0.085651 0.165172 11.68 490 800 -0.17 -99.00 0.0000 0.0000
1.987 2 -0.982959 -0.690469 -10.237158 8.872986 52.207947 -5.287170 -2.76 2.76 -8.5 -5.6 -96.5907 -96.5907 -4.8483 0.4129 -0.085651 0.160352 11.75 490 790 -0.16 -99.00 -0.0000 -0.0000
1.994 2 -0.935010 -2.021060 -10.047758 9.162903 53.695679 -4.394531 -2.76 2.76 -8.5 -9.0 -96.5907 -90.1513 -4.8655 0.4143 -0.085651 0.161939 11.74 490 790 -0.16 -99.00 0.0000 0.0000
2.001 2 -1.203525 -1.812480 -9.999809 7.301331 56.579590 -8.735657 -2.76 2.76 -10.2 -9.0 -90.1513 -90.1513 -4.8828 0.4158 -0.085651 0.168845 11.68 490 780 -0.17 -99.00 -0.0000 -0.0000
2.008 2 -0.721636 -1.848442 -9.779243 5.958557 58.380127 -12.153625 -2.76 2.76 -10.2 -9.0 -90.1513 -90.1513 -4.9000 0.4173 -0.085651 0.166761 11.66 510 810 -0.17 -99.00 0.0000 0.0000
2.015 2 -0.851099 -1.251475 -10.462520 2.975464 59.661865 -14.114380 -2.76 2.76 -8.5 -9.0 -96.5907 -90.1513 -4.9176 0.4188 -0.085651 0.160980 11.71 490 790 -0.16 -99.00 -0.0000 -0.0000
2.022 2 -1.304219 -0.913433 -10.829330 -0.320435 62.179565 -12.451172 -2.76 2.76 -8.5 -9.0 -96.5907 -90.1513 -4.9353 0.4203 -0.085651 0.160154 11.74 490 790 -0.16 -99.00 0.0000 0.0000
2.029 2 -2.320742 0.865483 -10.908447 -2.777100 62.896729 -14.274597 -2.76 2.76 -10.3 -9.0 -90.1513 -90.1513 -4.9529 0.4218 -0.085651 0.165672 11.77 490 790 -0.17 -99.00 -0.0000 -0.0000
2.036 2 -1.493618 3.183828 -11.505415 -3.120422 64.826965 -14.877319 -2.76 2.76 -10.2 -9.0 -90.1513 -90.1513 -4.9705 0.4234 -0.085651 0.164734 11.66 490 790 -0.16 -99.00 0.0000 0.0000
2.043 2 -1.273052 2.917710 -10.635137 -1.670837 65.490723 -15.937805 -2.85 2.85 -8.6 -5.5 -96.5907 -96.5907 -4.9884 0.4249 -0.088246 0.156470 11.91 520 810 -0.16 -99.00 -0.0000 -0.0000
2.050 2 -1.577529 1.299424 -10.848511 -0.595093 65.895081 -15.922546 -2.76 2.76 -10.4 -9.0 -84.5168 -90.1513 -5.0058 0.4265 -0.085651 0.154733 11.88 490 790 -0.15 -99.00 0.0000 0.0000
2.057 2 -1.496016 2.663579 -11.198540 -2.883911 67.924500 -15.365601 -2.68 2.68 -8.5 -10.2 -96.5907 -84.5168 -5.0228 0.4279 -0.083056 0.159920 11.74 490 790 -0.16 -99.00 -0.0000 -0.0000
2.064 2 -0.002397 0.719238 -10.062143 -4.417419 69.046021 -13.305664 -2.68 2.68 -8.5 -9.1 -96.5907 -90.1513 -5.0405 0.4294 -0.083056 0.159511 11.77 490 780 -0.16 -99.00 0.0000 0.0000
2.071 2 0.059937 -0.843906 -10.443339 -4.768372 69.641113 -11.604309 -2.68 2.68 -10.2 -9.1 -90.1513 -90.1513 -5.0577 0.4308 -0.083056 0.151270 11.69 490 780 -0.15 -99.00 -0.0000 -0.0000
2.078 2 0.122271 -1.380937 -10.551226 -6.004333 70.182800 -8.323669 -2.68 2.68 -8.5 -9.1 -96.5907 -90.1513 -5.0754 0.4323 -0.083056 0.144275 11.77 510 800 -0.14 -99.00 0.0000 0.0000
2.085 2 -0.309272 -0.323657 -10.977973 -9.010315 71.144104 -4.402161 -2.68 2.68 -8.5 -9.1 -96.5907 -90.1513 -5.0926 0.4337 -0.083056 0.143713 11.68 490 790 -0.14 -99.00 -0.0000 -0.0000
2.092 2 -0.232554 -1.306616 -9.889526 -9.147644 72.441101 -6.027222 -2.68 2.68 -10.3 -9.1 -84.5168 -90.1513 -5.1102 0.4352 -0.083056 0.141135 11.80 490 780 -0.14 -99.00 0.0000 0.0000
2.099 2 0.043154 -2.049829 -9.947065 -10.772705 74.096680 -7.942200 -2.76 2.76 -10.3 -9.0 -84.5168 -90.1513 -5.1277 0.4367 -0.085651 0.132291 11.77 490 770 -0.13 -99.00 -0.0000 -0.0000
2.106 2 -0.491479 0.572993 -10.798163 -12.763977 75.469971 -12.596130 -3.01 3.01 -10.3 -10.3 -90.1513 -79.5453 -5.1451 0.4382 -0.093437 0.120705 11.77 490 800 -0.12 -99.00 0.0000 0.0000
2.113 2 -0.889458 0.371606 -10.268325 -12.504578 77.507019 -16.151428 -3.10 3.10 -10.2 -8.8 -90.1513 -90.1513 -5.1625 0.4399 -0.096033 0.112623 11.69 510 810 -0.11 -99.00 -0.0000 -0.0000
2.120 2 -0.680879 -0.263721 -9.891924 -10.658264 77.476501 -20.477295 -3.18 3.18 -10.1 -8.8 -90.1513 -90.1513 -5.1804 0.4416 -0.098628 0.108236 11.63 490 790 -0.11 -99.00 0.0000 0.0000
2.127 2 -0.421953 0.059937 -10.817344 -9.689331 78.651428 -24.017334 -3.10 3.10 -10.3 -8.8 -84.5168 -90.1513 -5.1978 0.4433 -0.096033 0.101885 11.77 490 790 -0.10 -99.00 -0.0000 -0.0000
2.134 2 0.510659 -0.177412 -10.313877 -9.140015 79.986572 -26.557922 -3.10 3.10 -10.0 -8.8 -90.1513 -90.1513 -5.2154 0.4450 -0.096033 0.091561 11.45 490 780 -0.09 -99.00 0.0000 0.0000
2.141 2 0.431543 -0.822329 -10.306684 -7.469177 79.032898 -28.862000 -3.01 3.01 -8.7 -5.4 -96.5907 -96.5907 -5.2332 0.4467 -0.093437 0.084657 11.39 490 790 -0.08 -99.00 -0.0000 -0.0000
2.148 2 0.858291 -2.498154 -10.138862 -6.759644 79.704285 -28.366089 -2.85 2.85 -8.6 -9.0 -96.5907 -90.1513 -5.2508 0.4483 -0.088246 0.079035 11.18 510 810 -0.08 -99.00 0.0000 0.0000
2.155 2 0.920625 -1.819673 -10.105297 -9.140015 79.864502 -26.626587 -2.68 2.68 -8.5 -9.6 -96.5907 -84.5168 -5.2681 0.4498 -0.083056 0.075446 11.09 490 780 -0.08 -99.00 -0.0000 -0.0000
2.162 2 1.563144 -2.057021 -10.028579 -10.337830 79.795837 -21.263123 -2.68 2.68 -8.5 -9.1 -96.5907 -90.1513 -5.2857 0.4513 -0.083056 0.067366 11.17 490 800 -0.07 -99.00 0.0000 0.0000
2.169 2 1.234692 -1.126807 -10.316274 -12.535095 80.711365 -17.616272 -2.68 2.68 -9.6 -9.1 -90.1513 -90.1513 -5.3030 0.4527 -0.083056 0.056284 11.11 490 790 -0.06 -99.00 -0.0000 -0.0000
2.176 2 0.867881 0.520249 -10.687881 -13.916016 80.429077 -11.955261 -2.85 2.85 -9.6 -9.0 -90.1513 -90.1513 -5.3202 0.4542 -0.088246 0.047616 11.11 490 790 -0.05 -99.00 0.0000 0.0000
2.183 2 0.340439 2.066611 -10.213183 -13.610840 80.329895 -10.055542 -2.93 2.93 -9.6 -8.9 -90.1513 -90.1513 -5.3376 0.4558 -0.090842 0.041915 11.06 510 820 -0.04 -99.00 -0.0000 -0.0000
2.190 2 0.625737 1.567939 -10.342647 -12.100220 81.123352 -10.879517 -3.01 3.01 -10.0 -8.9 -90.1513 -90.1513 -5.3550 0.4574 -0.093437 0.030319 11.49 490 790 -0.03 -99.00 0.0000 0.0000
2.197 2 0.810342 1.553555 -10.759805 -10.475159 79.917908 -11.375427 -3.01 3.01 -9.8 -5.4 -90.1513 -96.5907 -5.3723 0.4590 -0.093437 0.018263 11.33 490 800 -0.02 -99.00 -0.0000 -0.0000
2.204 2 0.882266 2.138535 -10.428955 -9.414673 79.986572 -9.490967 -3.01 3.01 -9.9 -8.9 -90.1513 -90.1513 -5.3895 0.4607 -0.093437 0.007066 11.36 490 790 -0.01 -99.00 0.0000 0.0000
2.211 2 1.114819 2.181690 -10.570405 -6.927490 78.849792 -6.484985 -2.93 2.93 -9.8 -8.9 -90.1513 -90.1513 -5.4069 0.4623 -0.090842 0.002127 11.31 490 790 -0.00 -99.00 -0.0000 -0.0000
2.218 2 1.929956 1.359360 -10.241953 -2.838135 77.911377 -5.973816 -2.85 2.85 -8.6 -9.0 -96.5907 -90.1513 -5.4247 0.4639 -0.088246 -0.005246 11.52 510 810 0.01 -99.00 0.0000 0.0000
2.225 2 2.677964 -0.803149 -9.719306 -2.426147 76.332092 -5.584717 -2.76 2.76 -8.5 -9.0 -96.5907 -90.1513 -5.4422 0.4654 -0.085651 -0.014951 11.60 490 790 0.01 -99.00 -0.0000 -0.0000
2.232 2 1.661440 -1.817275 -9.820000 -3.585815 74.806213 -1.960754 -2.76 2.76 -8.5 -9.0 -96.5907 -90.1513 -5.4598 0.4669 -0.085651 -0.024387 11.60 490 790 0.02 -99.00 0.0000 0.0000
2.239 2 1.973110 -1.649453 -9.937475 -5.996704 74.356079 2.685547 -2.76 2.76 -8.5 -9.0 -96.5907 -90.1513 -5.4774 0.4684 -0.085651 -0.031056 11.49 490 790 0.03 -99.00 -0.0000 -0.0000
2.246 2 2.198472 -1.287436 -10.131670 -5.401611 73.348999 7.743835 -2.93 2.93 -8.6 -5.5 -96.5907 -96.5907 -5.4951 0.4700 -0.090842 -0.038855 11.61 490 790 0.04 -99.00 0.0000 0.0000
2.253 2 1.428887 -0.899048 -10.093310 -6.278992 70.999146 10.261536 -2.93 2.93 -8.6 -8.9 -96.5907 -90.1513 -5.5123 0.4716 -0.090842 -0.047494 11.66 510 810 0.05 -99.00 -0.0000 -0.0000
2.260 2 1.491221 0.623340 -10.625546 -5.996704 70.419312 10.414124 -3.01 3.01 -8.7 -8.9 -96.5907 -90.1513 -5.5297 0.4732 -0.093437 -0.056521 11.71 490 790 0.06 -99.00 0.0000 0.0000
2.267 2 1.570337 1.431284 -10.297094 -2.944946 69.427490 7.057190 -3.18 3.18 -10.2 -8.8 -90.1513 -90.1513 -5.5470 0.4748 -0.098628 -0.070367 11.66 490 790 0.07 -99.00 -0.0000 -0.0000
2.274 2 1.654248 1.484028 -10.215581 -1.731873 67.314148 4.837036 -3.27 3.27 -9.9 -8.7 -90.1513 -90.1513 -5.5644 0.4766 -0.101224 -0.082441 11.36 490 780 0.08 -99.00 0.0000 0.0000
2.281 2 1.762134 3.260547 -10.038169 -0.709534 65.040588 0.427246 -3.35 3.35 -9.9 -8.7 -90.1513 -90.1513 -5.5818 0.4784 -0.103819 -0.087551 11.39 490 790 0.09 -99.00 -0.0000 -0.0000
2.288 2 2.001880 0.474697 -9.623408 2.182007 64.056396 -6.332397 -3.43 3.43 -10.0 -8.7 -90.1513 -90.1513 -5.5992 0.4802 -0.106415 -0.089226 11.50 510 810 0.09 -99.00 0.0000 0.0000
2.295 2 2.387871 -1.730967 -8.894580 4.417419 62.362671 -13.320923 -3.35 3.35 -10.0 -5.2 -90.1513 -96.5907 -5.6166 0.4820 -0.103819 -0.098897 11.52 490 790 0.10 -99.00 -0.0000 -0.0000
2.302 2 3.176636 -0.769585 -9.424418 3.913879 59.509277 -17.738342 -3.27 3.27 -8.8 -8.7 -96.5907 -90.1513 -5.6344 0.4839 -0.101224 -0.113178 11.82 490 790 0.11 -99.00 0.0000 0.0000
2.309 2 2.097778 -0.668892 -9.383662 4.028320 57.334900 -21.362305 -3.10 3.10 -8.7 -8.8 -96.5907 -90.1513 -5.6516 0.4856 -0.096033 -0.121361 11.58 490 790 0.12 -99.00 -0.0000 -0.0000
2.316 2 2.294370 -0.831919 -9.604228 4.432678 54.588318 -21.705627 -2.93 2.93 -8.6 -8.9 -96.5907 -90.1513 -5.6692 0.4872 -0.090842 -0.126622 11.39 490 800 0.13 -99.00 0.0000 0.0000
2.323 2 2.330332 0.258926 -9.944668 3.952026 52.360535 -19.668579 -2.93 2.93 -10.1 -8.9 -90.1513 -90.1513 -5.6869 0.4889 -0.090842 -0.136141 11.61 510 820 0.14 -99.00 -0.0000 -0.0000
2.330 2 2.591655 2.057021 -9.841577 3.341675 49.629211 -17.723083 -2.93 2.93 -8.6 -8.9 -96.5907 -90.1513 -5.7041 0.4904 -0.090842 -0.151747 11.63 490 790 0.15 -99.00 0.0000 0.0000
2.337 2 1.488823 2.759477 -9.932680 4.035950 48.171997 -14.450073 -2.93 2.93 -10.0 -8.9 -84.5168 -90.1513 -5.7217 0.4921 -0.090842 -0.161782 11.53 490 790 0.16 -99.00 -0.0000 -0.0000
2.344 2 2.018662 1.579927 -9.944668 5.516052 47.088623 -13.122559 -3.01 3.01 -8.7 -8.9 -96.5907 -90.1513 -5.7391 0.4937 -0.093437 -0.167345 11.61 490 790 0.17 -99.00 0.0000 0.0000
2.351 2 2.958467 0.369209 -9.565868 7.896423 44.570923 -13.694763 -3.10 3.10 -8.7 -8.8 -96.5907 -90.1513 -5.7566 0.4953 -0.096033 -0.175438 11.69 490 790 0.18 -99.00 -0.0000 -0.0000
2.358 2 3.454741 -0.640122 -9.235020 9.094238 42.961121 -11.001587 -3.18 3.18 -10.0 -8.8 -90.1513 -90.1513 -5.7740 0.4970 -0.098628 -0.186777 11.49 510 810 0.19 -99.00 0.0000 0.0000
2.365 2 3.229380 -1.251475 -9.292559 9.590149 41.099548 -9.307861 -3.18 3.18 -9.9 -5.3 -79.5453 -96.5907 -5.7912 0.4987 -0.098628 -0.192028 11.41 490 790 0.19 -99.00 -0.0000 -0.0000
2.372 2 3.370830 -1.397720 -9.088774 8.827209 39.283752 -6.805420 -3.18 3.18 -10.2 -8.8 -90.1513 -90.1513 -5.8084 0.5005 -0.098628 -0.197149 11.72 490 790 0.20 -99.00 0.0000 0.0000
2.379 2 3.279727 -0.843906 -9.268583 7.171631 37.414551 -5.195618 -3.01 3.01 -8.7 -8.9 -96.5907 -90.1513 -5.8260 0.5022 -0.093437 -0.205551 11.60 490 790 0.21 -99.00 -0.0000 -0.0000
2.386 2 2.958467 -0.721636 -9.275776 6.446838 34.790039 -4.539490 -2.93 2.93 -10.2 -8.9 -84.5168 -90.1513 -5.8434 0.5038 -0.090842 -0.214534 11.66 490 790 0.21 -99.00 0.0000 0.0000
2.393 2 2.802632 -0.306875 -9.318931 6.736755 32.630920 -4.478455 -2.93 2.93 -8.6 -8.9 -96.5907 -90.1513 -5.8611 0.5054 -0.090842 -0.222955 11.55 510 810 0.22 -99.00 -0.0000 -0.0000
2.400 2 3.095122 -0.330850 -9.146314 7.568359 29.876709 -5.348206 -2.93 2.93 -10.4 -8.9 -90.1513 -90.1513 -5.8783 0.5070 -0.090842 -0.230990 11.90 490 790 0.23 -99.00 0.0000 0.0000
2.407 2 2.721118 0.071924 -9.923091 6.904602 27.336121 -5.355835 -2.85 2.85 -10.0 -9.0 -90.1513 -90.1513 -5.8957 0.5085 -0.088246 -0.240923 11.55 490 790 0.24 -99.00 -0.0000 -0.0000
2.414 2 2.210459 1.138794 -9.959052 6.965637 26.123047 -5.432129 -2.76 2.76 -10.0 -9.0 -90.1513 -90.1513 -5.9132 0.5101 -0.085651 -0.250400 11.49 490 790 0.25 -99.00 0.0000 0.0000
2.421 2 2.737900 1.661440 -9.592241 7.949829 24.230957 -6.019592 -2.68 2.68 -8.5 -9.1 -96.5907 -90.1513 -5.9310 0.5116 -0.083056 -0.256194 11.66 490 790 0.26 -99.00 -0.0000 -0.0000
2.428 2 3.658525 1.347373 -10.023784 8.895874 22.026062 -5.302429 -2.68 2.68 -8.5 -9.1 -96.5907 -90.1513 -5.9486 0.5130 -0.083056 -0.264105 11.61 510 810 0.26 -99.00 0.0000 0.0000
2.435 2 3.692090 1.733364 -8.884990 10.848999 20.088196 -7.774353 -2.68 2.68 -10.1 -9.1 -90.1513 -90.1513 -5.9663 0.5145 -0.083056 -0.271551 11.64 490 790 0.27 -99.00 -0.0000 -0.0000
2.442 2 3.874297 -0.520249 -8.906568 14.137268 17.837524 -9.857178 -2.51 2.51 -9.9 -9.2 -84.5168 -90.1513 -5.9839 0.5160 -0.077865 -0.275309 11.44 490 790 0.28 -99.00 0.0000 0.0000
2.449 2 4.274673 -2.191279 -9.321328 15.167236 15.510559 -10.101318 -2.51 2.51 -8.4 -9.2 -96.5907 -90.1513 -6.0016 0.5173 -0.077865 -0.282129 11.66 490 790 0.28 -99.00 -0.0000 -0.0000
2.456 2 4.627100 -1.963520 -9.170288 14.427185 13.801575 -9.521484 -2.51 2.51 -8.4 -9.2 -96.5907 -90.1513 -6.0192 0.5187 -0.077865 -0.290281 11.66 490 790 0.29 -99.00 0.0000 0.0000
2.463 2 4.034926 -1.718979 -9.359687 14.099121 11.131287 -6.683350 -2.51 2.51 -10.1 -9.2 -90.1513 -90.1513 -6.0369 0.5200 -0.077865 -0.294451 11.60 510 810 0.29 -99.00 -0.0000 -0.0000
2.470 2 3.778398 -1.709390 -9.894321 13.977051 9.262085 -3.150940 -2.60 2.60 -10.0 -9.1 -90.1513 -90.1513 -6.0543 0.5214 -0.080460 -0.299046 11.49 490 780 0.30 -99.00 0.0000 0.0000
2.477 2 3.356445 1.275449 -10.241953 11.054993 7.049561 1.708984 -2.51 2.51 -10.2 -9.2 -84.5168 -90.1513 -6.0722 0.5229 -0.077865 -0.307826 11.71 490 790 0.31 -99.00 -0.0000 -0.0000
2.484 2 2.644399 0.532236 -9.465176 9.971619 6.340027 6.370544 -2.51 2.51 -8.4 -9.2 -96.5907 -90.1513 -6.0898 0.5243 -0.077865 -0.310426 11.66 490 790 0.31 -99.00 0.0000 0.0000
2.491 2 2.860171 1.632671 -9.951860 8.804321 5.668640 10.665894 -2.51 2.51 -8.4 -5.7 -96.5907 -96.5907 -6.1075 0.5257 -0.077865 -0.312362 11.68 490 780 0.31 -99.00 -0.0000 -0.0000
2.498 2 2.951274 1.390527 -10.208388 8.209229 5.050659 12.779236 -2.51 2.51 -8.4 -9.2 -96.5907 -90.1513 -6.1251 0.5270 -0.077865 -0.320422 11.61 510 810 0.32 -99.00 0.0000 0.0000
2.505 2 3.306098 1.615889 -9.434009 7.942200 4.493713 13.732910 -2.51 2.51 -8.4 -9.2 -96.5907 -90.1513 -6.1424 0.5284 -0.077865 -0.325957 11.61 490 790 0.33 -99.00 -0.0000 -0.0000
2.512 2 3.493100 1.052485 -9.748075 9.071350 4.295349 13.328552 -2.60 2.60 -10.0 -9.1 -90.1513 -90.1513 -6.1598 0.5297 -0.080460 -0.329186 11.45 490 790 0.33 -99.00 0.0000 0.0000
2.519 2 3.948618 0.412363 -9.541894 9.918213 3.425598 10.505676 -2.60 2.60 -10.0 -5.6 -90.1513 -96.5907 -6.1774 0.5312 -0.080460 -0.331881 11.52 490 790 0.33 -99.00 -0.0000 -0.0000
2.526 2 4.289057 0.968574 -9.436406 10.665894 2.571106 7.598877 -2.51 2.51 -8.4 -9.2 -96.5907 -90.1513 -6.1949 0.5325 -0.077865 -0.337050 11.61 490 800 0.34 -99.00 0.0000 0.0000
2.533 2 4.337007 -0.781572 -9.146314 12.237549 0.244141 2.723694 -2.51 2.51 -8.4 -9.2 -96.5907 -90.1513 -6.2125 0.5339 -0.077865 -0.339939 11.68 510 830 0.34 -99.00 -0.0000 -0.0000
2.540 2 4.344199 -2.754683 -8.928144 13.511658 -0.900269 -3.959656 -2.43 2.43 -10.3 -9.2 -90.1513 -90.1513 -6.2300 0.5353 -0.075269 -0.342188 11.77 490 790 0.34 -99.00 0.0000 0.0000
2.547 2 4.193159 -2.543706 -9.527510 11.955261 -2.182007 -6.980896 -2.43 2.43 -10.1 -9.2 -90.1513 -90.1513 -6.2472 0.5366 -0.075269 -0.346846 11.63 490 790 0.35 -99.00 -0.0000 -0.0000
2.554 2 3.927041 -0.767187 -9.712114 8.796692 -3.021240 -4.165649 -2.34 2.34 -9.9 -9.2 -90.1513 -90.1513 -6.2647 0.5379 -0.072674 -0.351438 11.42 490 790 0.35 -99.00 0.0000 0.0000
2.561 2 2.500552 0.421953 -9.218237 7.835388 -3.952026 -1.708984 -2.34 2.34 -9.9 -9.2 -90.1513 -90.1513 -6.2823 0.5392 -0.072674 -0.353352 11.44 490 790 0.35 -99.00 -0.0000 -0.0000
2.568 2 3.243765 1.282642 -9.697729 6.103516 -5.538940 -1.564026 -2.34 2.34 -8.3 -9.2 -96.5907 -90.1513 -6.3004 0.5405 -0.072674 -0.353638 11.44 510 810 0.35 -99.00 0.0000 0.0000
2.575 2 2.685156 0.342837 -8.911362 5.950928 -5.630493 -0.495911 -2.34 2.34 -8.3 -9.2 -96.5907 -90.1513 -6.3181 0.5418 -0.072674 -0.358902 11.63 490 790 0.36 -99.00 -0.0000 -0.0000
2.582 2 2.956069 3.330073 -9.623408 5.470276 -7.156372 0.190735 -2.34 2.34 -8.3 -5.8 -96.5907 -96.5907 -6.3357 0.5431 -0.072674 -0.359908 11.85 490 780 0.36 -99.00 0.0000 0.0000
2.589 2 3.207803 2.946479 -9.297353 5.867004 -7.095337 0.686646 -2.34 2.34 -8.3 -9.2 -96.5907 -90.1513 -6.3534 0.5443 -0.072674 -0.355082 11.64 490 790 0.36 -99.00 -0.0000 -0.0000
2.596 2 3.725654 1.536772 -9.760063 6.912231 -6.500244 -0.198364 -2.26 2.26 -10.0 -9.3 -84.5168 -90.1513 -6.3708 0.5456 -0.070078 -0.356645 11.52 490 790 0.36 -99.00 0.0000 0.0000
2.603 2 3.574614 2.078598 -11.076269 6.896973 -8.064270 1.411438 -2.26 2.26 -8.3 -9.3 -96.5907 -90.1513 -6.3885 0.5469 -0.070078 -0.361218 11.56 510 820 0.36 -99.00 -0.0000 -0.0000
2.610 2 3.557832 -0.611353 -12.282192 6.851196 -7.926941 2.433777 -2.43 2.43 -8.3 -5.7 -96.5907 -96.5907 -6.4061 0.5481 -0.075269 -0.359682 11.49 490 790 0.36 -99.00 0.0000 0.0000
2.617 2 3.512280 -0.568198 -9.865551 8.300781 -7.385254 1.609802 -2.43 2.43 -8.3 -9.2 -96.5907 -90.1513 -6.4238 0.5495 -0.075269 -0.000000 11.55 490 790 0.36 -99.00 -0.0000 -0.0000
2.624 2 4.989116 -2.749888 -8.791489 7.057190 -8.766174 2.456665 -2.51 2.51 -10.0 -9.2 -90.1513 -90.1513 -6.4412 0.5508 -0.077865 -0.358115 11.47 490 790 0.36 -99.00 0.0000 0.0000
2.631 2 3.569819 -3.298906 -9.457983 5.935669 -9.765625 2.388000 -2.60 2.60 -10.0 -9.1 -90.1513 -90.1513 -6.4587 0.5522 -0.080460 -0.358820 11.50 490 790 0.36 -99.00 -0.0000 -0.0000
2.638 2 3.308496 -1.546362 -9.328520 4.089355 -9.735107 0.915527 -2.60 2.60 -8.4 -9.1 -96.5907 -90.1513 -6.4763 0.5536 -0.080460 -0.359742 11.52 510 810 0.36 -99.00 0.0000 0.0000
2.645 2 3.543447 -1.836455 -9.474766 1.731873 -10.345459 3.097534 -2.68 2.68 -8.5 -10.1 -96.5907 -84.5168 -6.4942 0.5551 -0.083056 -0.360670 11.61 490 790 0.36 -99.00 -0.0000 -0.0000
2.652 2 2.538911 1.874814 -9.539496 -0.076294 -10.620117 1.831055 -2.76 2.76 -8.5 -9.0 -96.5907 -90.1513 -6.5116 0.5565 -0.085651 -0.360366 11.64 490 790 0.36 -99.00 0.0000 0.0000
2.659 2 2.215254 1.515195 -8.172944 -0.892639 -10.124207 1.304626 -2.93 2.93 -10.0 -8.9 -90.1513 -90.1513 -6.5292 0.5581 -0.090842 -0.358632 11.47 490 790 0.36 -99.00 -0.0000 -0.0000
2.666 2 3.711269 1.145986 -9.800820 0.572205 -9.933472 0.617981 -3.01 3.01 -10.0 -10.0 -90.1513 -84.5168 -6.5471 0.5597 -0.093437 -0.364182 11.45 490 790 0.36 -99.00 0.0000 0.0000
2.673 2 3.056763 1.071665 -10.301889 2.929688 -11.672974 0.549316 -3.10 3.10 -10.2 -8.8 -90.1513 -90.1513 -6.5649 0.5614 -0.096033 -0.369355 11.66 510 810 0.37 -99.00 -0.0000 -0.0000
2.680 2 2.996826 -0.642520 -10.671099 3.517151 -11.795044 1.136780 -3.01 3.01 -8.7 -10.1 -96.5907 -84.5168 -6.5827 0.5630 -0.093437 -0.365840 11.63 490 790 0.37 -99.00 0.0000 0.0000
2.687 2 3.725654 -0.023975 -9.779243 3.494263 -11.428833 2.799988 -2.85 2.85 -8.6 -9.0 -96.5907 -90.1513 -6.6003 0.5647 -0.088246 -0.362165 11.87 490 790 0.36 -99.00 -0.0000 -0.0000
2.694 2 5.037066 -0.980561 -9.465176 2.792358 -11.840820 5.317688 -2.85 2.85 -8.6 -9.0 -96.5907 -90.1513 -6.6180 0.5662 -0.088246 -0.362151 11.64 490 800 0.36 -99.00 0.0000 0.0000
2.701 2 4.627100 -0.985356 -9.690536 2.136230 -11.695862 7.499695 -2.76 2.76 -8.5 -9.0 -96.5907 -90.1513 -6.6354 0.5677 -0.085651 -0.364526 11.53 490 800 0.36 -99.00 -0.0000 -0.0000
2.708 2 3.759219 -0.853496 -9.208647 1.770020 -12.657166 12.657166 -2.76 2.76 -10.1 -9.0 -90.1513 -90.1513 -6.6530 0.5693 -0.085651 -0.358593 11.58 500 810 0.36 -99.00 0.0000 0.0000
2.715 2 3.764014 -1.133999 -9.383662 0.495911 -12.870789 14.564514 -2.85 2.85 -8.6 -9.0 -96.5907 -90.1513 -6.6705 0.5708 -0.088246 -0.354617 11.56 490 790 0.35 -99.00 -0.0000 -0.0000
2.722 2 3.879092 -1.112422 -9.489150 -0.923157 -13.412476 15.594482 -3.01 3.01 -8.7 -8.9 -96.5907 -90.1513 -6.6881 0.5724 -0.093437 -0.356019 11.71 490 790 0.36 -99.00 0.0000 0.0000
2.729 2 2.790644 0.285298 -9.000068 -3.814697 -13.092041 14.862061 -3.10 3.10 -10.1 -5.4 -90.1513 -96.5907 -6.7055 0.5740 -0.096033 -0.358635 11.64 490 800 0.36 -99.00 -0.0000 -0.0000
2.736 2 2.361499 0.951792 -8.889785 -4.898071 -13.366699 14.411926 -3.18 3.18 -10.0 -8.8 -90.1513 -90.1513 -6.7229 0.5757 -0.098628 -0.354880 11.47 480 790 0.35 -99.00 0.0000 0.0000
2.743 2 2.531719 1.862827 -9.314136 -5.706787 -13.603210 10.810852 -3.10 3.10 -10.0 -10.0 -90.1513 -84.5168 -6.7404 0.5774 -0.096033 -0.352337 11.47 510 810 0.35 -99.00 -0.0000 -0.0000
2.750 2 2.776260 2.275190 -10.390595 -4.325867 -14.389038 5.950928 -3.10 3.10 -8.7 -8.8 -96.5907 -90.1513 -6.7580 0.5792 -0.096033 -0.355692 11.53 490 790 0.36 -99.00 0.0000 0.0000
2.757 2 3.246162 -0.402773 -8.995274 -3.227234 -14.427185 -0.144958 -3.10 3.10 -8.7 -8.8 -96.5907 -90.1513 -6.7756 0.5809 -0.096033 -0.356618 11.66 490 790 0.36 -99.00 -0.0000 -0.0000
2.764 2 3.246162 -1.311411 -9.839179 -2.304077 -15.472412 -4.501343 -3.01 3.01 -8.7 -8.9 -96.5907 -90.1513 -6.7934 0.5826 -0.093437 -0.348890 11.64 490 800 0.35 -99.00 0.0000 0.0000
2.771 2 3.819155 -0.004795 -9.549087 -3.082275 -16.876221 -8.613586 -3.01 3.01 -8.7 -8.9 -96.5907 -90.1513 -6.8110 0.5843 -0.093437 -0.341830 11.58 490 790 0.34 -99.00 -0.0000 -0.0000
2.778 2 3.716064 -1.181948 -9.285366 -2.136230 -18.974304 -10.719299 -3.18 3.18 -8.8 -8.8 -96.5907 -90.1513 -6.8287 0.5860 -0.098628 -0.339986 11.66 510 820 0.34 -99.00 0.0000 0.0000
2.785 2 3.423574 -2.869761 -9.453188 -1.853943 -21.392822 -13.923645 -3.27 3.27 -8.8 -8.7 -96.5907 -90.1513 -6.8461 0.5877 -0.101224 -0.338626 11.68 490 790 0.34 -99.00 -0.0000 -0.0000
2.792 2 2.867363 -2.241626 -9.841577 -3.128052 -24.116516 -13.435364 -3.35 3.35 -10.1 -8.7 -90.1513 -90.1513 -6.8635 0.5895 -0.103819 -0.332657 11.61 490 790 0.33 -99.00 0.0000 0.0000
2.799 2 2.793042 -2.080996 -9.843974 -4.844666 -26.283264 -8.346558 -3.43 3.43 -10.1 -10.1 -90.1513 -84.5168 -6.8813 0.5913 -0.106415 -0.326698 11.58 490 790 0.33 -99.00 -0.0000 -0.0000
2.806 2 2.490962 0.781572 -9.851167 -7.049561 -28.961182 -3.494263 -3.43 3.43 -10.0 -8.7 -90.1513 -90.1513 -6.8989 0.5932 -0.106415 -0.321656 11.55 490 780 0.32 -99.00 0.0000 0.0000
2.813 2 2.363896 4.025337 -10.428955 -6.767273 -32.043457 2.296448 -3.35 3.35 -8.8 -8.7 -96.5907 -90.1513 -6.9167 0.5951 -0.103819 -0.322161 11.75 510 820 0.32 -99.00 -0.0000 -0.0000
2.820 2 2.303960 2.208061 -9.815205 -4.646301 -34.477234 5.905151 -3.27 3.27 -8.8 -8.7 -96.5907 -90.1513 -6.9341 0.5969 -0.101224 -0.320757 11.77 490 790 0.32 -99.00 0.0000 0.0000
2.827 2 2.018662 1.618286 -10.076528 -4.371643 -35.896301 9.864807 -3.10 3.10 -8.7 -8.8 -96.5907 -90.1513 -6.9517 0.5986 -0.096033 -0.318516 11.71 490 800 0.32 -99.00 -0.0000 -0.0000
2.834 2 2.095381 0.040757 -9.565868 -4.730225 -37.445068 10.841370 -3.01 3.01 -10.1 -8.9 -90.1513 -90.1513 -6.9691 0.6003 -0.093437 -0.316816 11.61 490 790 0.32 -99.00 0.0000 0.0000
2.841 2 2.956069 -0.927817 -9.628202 -3.509521 -38.940430 13.244629 -3.01 3.01 -10.1 -8.9 -90.1513 -90.1513 -6.9868 0.6020 -0.093437 -0.319089 11.61 490 790 0.32 -99.00 -0.0000 -0.0000
2.848 2 3.102314 -0.167822 -9.422021 -3.257751 -41.931152 18.180847 -3.10 3.10 -8.7 -8.8 -96.5907 -90.1513 -7.0042 0.6036 -0.096033 -0.319637 11.50 510 820 0.32 -99.00 0.0000 0.0000
2.855 2 3.092725 0.086309 -9.546689 -1.831055 -42.816162 20.736694 -3.10 3.10 -8.7 -5.4 -96.5907 -96.5907 -7.0218 0.6053 -0.096033 -0.314074 11.64 490 790 0.31 -99.00 -0.0000 -0.0000
2.862 2 3.032788 -1.392925 -9.280571 -0.518799 -45.188904 22.239685 -3.10 3.10 -8.7 -8.8 -96.5907 -90.1513 -7.0390 0.6070 -0.096033 -0.309535 11.85 490 790 0.31 -99.00 0.0000 0.0000
2.869 2 2.891338 -1.975508 -9.659369 0.228882 -47.447205 22.483826 -3.01 3.01 -10.0 -8.9 -90.1513 -90.1513 -7.0564 0.6086 -0.093437 -0.308376 11.45 490 780 0.31 -99.00 -0.0000 -0.0000
2.876 2 2.694746 -1.690210 -9.448393 0.480652 -50.018311 23.918152 -3.10 3.10 -9.9 -8.8 -90.1513 -90.1513 -7.0739 0.6103 -0.096033 -0.306504 11.37 490 800 0.31 -99.00 0.0000 0.0000
2.883 2 1.908379 -1.002139 -9.052813 -0.007629 -52.215576 25.413513 -2.93 2.93 -9.9 -8.9 -90.1513 -90.1513 -7.0915 0.6119 -0.090842 -0.303859 11.41 510 810 0.30 -99.00 -0.0000 -0.0000
2.890 2 1.531978 1.263462 -9.457983 0.747681 -54.138184 27.381897 -2.93 2.93 -8.6 -8.9 -96.5907 -90.1513 -7.1091 0.6135 -0.090842 -0.298832 11.55 490 800 0.30 -99.00 0.0000 0.0000
2.897 2 1.035703 -0.671289 -9.748075 2.685547 -56.213379 23.742676 -2.76 2.76 -8.5 -9.0 -96.5907 -90.1513 -7.1268 0.6151 -0.085651 -0.295848 11.52 490 790 0.30 -99.00 -0.0000 -0.0000
2.904 2 1.476836 -0.318862 -9.570663 0.915527 -56.358337 23.498535 -2.76 2.76 -8.5 -9.0 -96.5907 -90.1513 -7.1444 0.6166 -0.085651 -0.293296 11.55 490 790 0.29 -99.00 0.0000 0.0000
2.911 2 1.428887 2.162510 -10.270722 1.708984 -58.212280 19.935608 -2.76 2.76 -8.5 -9.0 -96.5907 -90.1513 -7.1620 0.6181 -0.085651 -0.292331 11.53 490 790 0.29 -99.00 -0.0000 -0.0000
2.918 2 1.941943 0.851099 -10.090913 3.791809 -58.792114 16.166687 -2.85 2.85 -8.6 -5.5 -96.5907 -96.5907 -7.1799 0.6197 -0.088246 -0.290239 11.87 510 810 0.29 -99.00 0.0000 0.0000
2.925 2 1.714185 0.630532 -10.186811 5.485535 -59.410095 14.678955 -2.85 2.85 -8.6 -9.0 -96.5907 -90.1513 -7.1971 0.6212 -0.088246 -0.280339 11.49 490 790 0.28 -99.00 -0.0000 -0.0000
2.932 2 2.457397 0.551416 -10.249146 6.492615 -59.356689 10.398865 -2.93 2.93 -8.6 -8.9 -96.5907 -90.1513 -7.2145 0.6228 -0.090842 -0.271858 11.68 490 790 0.27 -99.00 0.0000 0.0000
2.939 2 2.809824 -1.093242 -9.424418 6.759644 -60.127258 6.668091 -3.10 3.10 -10.1 -8.8 -90.1513 -90.1513 -7.2321 0.6244 -0.096033 -0.272138 11.58 490 790 0.27 -99.00 -0.0000 -0.0000
2.946 2 2.361499 -2.546103 -9.448393 4.936218 -60.585022 4.432678 -3.18 3.18 -10.1 -8.8 -90.1513 -90.1513 -7.2496 0.6261 -0.098628 -0.269921 11.56 490 800 0.27 -99.00 0.0000 0.0000
2.953 2 1.126807 -1.426489 -9.091171 5.104065 -60.920715 3.684998 -3.10 3.10 -8.7 -8.8 -96.5907 -90.1513 -7.2674 0.6278 -0.096033 -0.262996 11.60 510 820 0.26 -99.00 -0.0000 -0.0000
2.960 2 1.457656 -2.800234 -9.285366 3.700256 -62.393188 3.456116 -3.10 3.10 -10.2 -8.8 -79.5453 -90.1513 -7.2850 0.6296 -0.096033 -0.248536 11.72 490 800 0.25 -99.00 0.0000 0.0000
2.967 2 1.558350 -1.229897 -9.211044 -0.762939 -62.408447 3.677368 -3.10 3.10 -8.7 -8.8 -96.5907 -90.1513 -7.3026 0.6313 -0.096033 -0.243581 11.74 490 790 0.24 -99.00 -0.0000 -0.0000
2.974 2 1.611094 0.433940 -10.325864 -2.632141 -62.072754 4.600525 -3.18 3.18 -8.8 -8.8 -96.5907 -90.1513 -7.3204 0.6330 -0.098628 -0.246694 11.93 490 790 0.25 -99.00 0.0000 0.0000
2.981 2 1.038101 1.270654 -10.479301 -2.220154 -62.553406 7.484436 -3.10 3.10 -10.3 -8.8 -90.1513 -90.1513 -7.3379 0.6347 -0.096033 -0.245038 11.79 490 790 0.25 -99.00 -0.0000 -0.0000
2.988 2 0.510659 0.783970 -10.524853 -2.662659 -62.332153 9.170532 -3.18 3.18 -8.8 -8.8 -96.5907 -90.1513 -7.3553 0.6364 -0.098628 -0.235553 11.77 510 810 0.24 -99.00 0.0000 0.0000
2.995 2 0.899048 1.560747 -10.733432 -2.609253 -62.454224 10.025024 -3.27 3.27 -8.8 -8.7 -96.5907 -90.1513 -7.3727 0.6382 -0.101224 -0.228131 11.71 490 790 0.23 -99.00 -0.0000 -0.0000
3.002 2 1.884404 1.572734 -10.558417 -3.494263 -60.935974 11.528015 -3.35 3.35 -10.2 -8.7 -90.1513 -90.1513 -7.3901 0.6399 -0.103819 -0.225697 11.66 490 790 0.23 -99.00 0.0000 0.0000
3.009 2 1.464849 0.153437 -10.141259 -3.906250 -61.813354 12.344360 -3.27 3.27 -8.8 -8.7 -96.5907 -90.1513 -7.4075 0.6417 -0.101224 -0.223369 11.63 490 790 0.22 -99.00 -0.0000 -0.0000
3.016 2 1.953931 -0.527441 -10.457725 -6.225586 -60.760498 11.993408 -3.27 3.27 -8.8 -8.7 -96.5907 -90.1513 -7.4251 0.6435 -0.101224 -0.217709 11.74 490 790 0.22 -99.00 0.0000 0.0000
3.023 2 0.841509 -1.133999 -9.407637 -7.415771 -61.264038 10.131836 -3.43 3.43 -8.9 -8.7 -96.5907 -90.1513 -7.4427 0.6454 -0.106415 -0.206904 11.79 510 820 0.21 -99.00 -0.0000 -0.0000
3.030 2 1.203525 -0.721636 -9.287764 -8.567810 -61.141968 7.545471 -3.43 3.43 -8.9 -8.7 -96.5907 -90.1513 -7.4599 0.6472 -0.106415 -0.197841 11.71 490 790 0.20 -99.00 0.0000 0.0000
3.037 2 1.685415 -0.570596 -10.304287 -11.535645 -61.508179 4.676819 -3.52 3.52 -10.3 -8.6 -90.1513 -90.1513 -7.4773 0.6491 -0.109010 -0.193075 11.82 490 790 0.19 -99.00 -0.0000 -0.0000
3.044 2 0.906240 0.460312 -9.899116 -14.282227 -61.485291 1.884460 -3.52 3.52 -10.1 -8.6 -90.1513 -90.1513 -7.4949 0.6510 -0.109010 -0.189033 11.61 480 790 0.19 -99.00 0.0000 0.0000
3.051 2 0.405171 0.623340 -10.215581 -14.846802 -61.416626 2.006531 -3.52 3.52 -8.9 -8.6 -96.5907 -90.1513 -7.5125 0.6530 -0.109010 -0.182501 11.79 490 790 0.18 -99.00 -0.0000 -0.0000
3.058 2 0.038359 0.098296 -10.512866 -14.739990 -61.080933 -3.753662 -3.43 3.43 -8.9 -8.7 -96.5907 -90.1513 -7.5299 0.6548 -0.106415 -0.171244 11.79 510 800 0.17 -99.00 0.0000 0.0000
3.065 2 0.429145 0.913433 -10.843716 -15.571594 -61.706543 -3.746033 -3.35 3.35 -8.8 -8.7 -96.5907 -90.1513 -7.5477 0.6567 -0.103819 -0.165559 11.71 490 790 0.17 -99.00 -0.0000 -0.0000
3.072 2 0.824727 1.110024 -10.891665 -16.311646 -60.310364 -3.173828 -3.27 3.27 -8.8 -8.7 -96.5907 -90.1513 -7.5651 0.6585 -0.101224 -0.168168 11.79 490 790 0.17 -99.00 0.0000 0.0000
3.079 2 0.196592 2.040239 -10.321069 -15.113831 -59.875488 -1.518250 -3.18 3.18 -10.3 -8.8 -84.5168 -90.1513 -7.5825 0.6603 -0.098628 -0.162524 11.77 490 780 0.16 -99.00 -0.0000 -0.0000
3.086 2 0.280503 1.241885 -10.656713 -15.525818 -59.318542 -0.991821 -3.27 3.27 -8.8 -5.3 -96.5907 -96.5907 -7.5999 0.6620 -0.101224 -0.151581 11.80 490 790 0.15 -99.00 0.0000 0.0000
3.093 2 1.352168 -0.431543 -9.441201 -16.227722 -58.532715 -0.770569 -3.18 3.18 -8.8 -8.8 -96.5907 -90.1513 -7.6174 0.6638 -0.098628 -0.145339 11.68 510 810 0.15 -99.00 -0.0000 -0.0000
3.100 2 0.891855 -1.337783 -9.354893 -17.898560 -58.441162 -1.922607 -3.18 3.18 -10.2 -8.8 -90.1513 -90.1513 -7.6346 0.6655 -0.098628 -0.141038 11.74 490 790 0.14 -99.00 0.0000 0.0000
3.107 2 0.824727 -2.673169 -9.223032 -20.423889 -58.174133 -3.707886 -3.27 3.27 -8.8 -8.7 -96.5907 -90.1513 -7.6520 0.6672 -0.101224 -0.133849 11.64 490 790 0.13 -99.00 -0.0000 -0.0000
3.114 2 0.227759 -2.186484 -9.848769 -24.871826 -57.426453 -2.304077 -3.18 3.18 -10.2 -8.8 -90.1513 -90.1513 -7.6694 0.6690 -0.098628 -0.126281 11.74 490 790 0.13 -99.00 0.0000 0.0000
3.121 2 -0.023975 0.441133 -9.985424 -27.000427 -57.846069 -3.982544 -3.18 3.18 -10.2 -10.2 -90.1513 -79.5453 -7.6870 0.6707 -0.098628 -0.114318 11.69 490 780 0.11 -99.00 -0.0000 -0.0000
3.128 2 0.290093 1.956328 -10.831728 -26.046753 -57.922363 -7.301331 -3.10 3.10 -8.7 -8.8 -96.5907 -90.1513 -7.7044 0.6724 -0.096033 -0.107610 11.69 510 810 0.11 -99.00 0.0000 0.0000
3.135 2 -0.266118 0.728828 -10.692676 -25.878906 -58.311462 -10.124207 -3.01 3.01 -8.7 -8.9 -96.5907 -90.1513 -7.7222 0.6741 -0.093437 -0.102986 11.82 490 790 0.10 -99.00 -0.0000 -0.0000
3.142 2 -0.258926 2.359102 -11.493427 -26.000977 -57.884216 -11.154175 -3.01 3.01 -8.7 -8.9 -96.5907 -90.1513 -7.7399 0.6758 -0.093437 -0.101638 11.93 490 790 0.10 -99.00 0.0000 0.0000
3.149 2 -0.855894 3.047173 -10.721445 -22.758484 -57.220459 -11.276245 -2.93 2.93 -10.3 -8.9 -90.1513 -90.1513 -7.7577 0.6774 -0.090842 -0.098067 11.75 490 790 0.10 -99.00 -0.0000 -0.0000
3.156 2 -0.709648 2.438218 -10.601572 -19.737244 -57.296753 -8.567810 -2.85 2.85 -10.2 -9.0 -90.1513 -90.1513 -7.7751 0.6790 -0.088246 -0.090963 11.74 490 790 0.09 -99.00 0.0000 0.0000
3.163 2 0.127065 1.189141 -10.225170 -17.929077 -56.121826 -5.615234 -2.93 2.93 -8.6 -8.9 -96.5907 -90.1513 -7.7930 0.6806 -0.090842 -0.085188 11.79 510 800 0.09 -99.00 -0.0000 -0.0000
3.170 2 0.081514 1.078857 -10.699868 -17.684937 -54.985046 -1.022339 -3.01 3.01 -8.7 -8.9 -96.5907 -90.1513 -7.8104 0.6822 -0.093437 -0.080543 11.85 490 780 0.08 -99.00 0.0000 0.0000
3.177 2 0.086309 0.028770 -9.829590 -16.433716 -53.977966 2.990723 -3.10 3.10 -8.7 -5.4 -96.5907 -96.5907 -7.8278 0.6838 -0.096033 -0.073712 11.77 490 780 0.07 -99.00 -0.0000 -0.0000
3.184 2 -0.011987 -0.819932 -10.323466 -16.708374 -53.451538 6.622314 -3.18 3.18 -10.3 -8.8 -90.1513 -90.1513 -7.8452 0.6855 -0.098628 -0.063677 11.79 490 780 0.06 -99.00 0.0000 0.0000
3.191 2 0.412363 -1.685415 -10.270722 -16.670227 -51.933289 6.698608 -3.10 3.10 -10.2 -8.8 -90.1513 -90.1513 -7.8626 0.6872 -0.096033 -0.055655 11.74 490 790 0.06 -99.00 -0.0000 -0.0000
3.198 2 0.086309 0.278105 -10.630342 -13.938904 -50.262451 5.088806 -3.10 3.10 -8.7 -8.8 -96.5907 -90.1513 -7.8803 0.6889 -0.096033 -0.054264 11.75 510 800 0.05 -99.00 0.0000 0.0000
3.205 2 -0.762393 -0.798354 -10.270722 -11.024475 -51.422119 3.898621 -3.01 3.01 -8.7 -8.9 -96.5907 -90.1513 -7.8977 0.6906 -0.093437 -0.050986 11.72 480 790 0.05 -99.00 -0.0000 -0.0000
3.212 2 -1.064473 -1.332988 -10.452929 -12.275696 -49.865723 5.599976 -3.01 3.01 -10.2 -8.9 -90.1513 -90.1513 -7.9153 0.6923 -0.093437 -0.042890 11.74 490 790 0.04 -99.00 0.0000 0.0000
