%
M48
M72
T01C0.02165
T02C0.03200
T03C0.03937
T04C0.12598
T05C0.13780
%
T01
X13197Y110414
X17197Y168414
X13197Y213414
X21197Y324414
X12197Y414414
X89197Y298414
X93197Y316414
X97197Y330414
X98197Y286414
X90197Y246414
X95197Y236414
X92197Y223414
X104197Y226414
X114197Y241414
X127197Y206414
X127197Y185414
X119197Y186414
X134197Y162414
X134197Y150414
X140409Y123201
X152197Y103414
X166197Y103414
X167197Y164414
X172197Y176414
X174197Y183414
X174697Y219414
X148197Y215414
X153197Y292414
X160197Y298414
X164197Y303414
X153197Y309414
X136197Y303414
X137197Y334414
X119197Y312414
X119198Y292414
X116197Y356414
X131197Y397414
X143197Y386414
X144197Y395414
X148197Y404414
X156197Y432414
X162197Y360414
X124197Y446414
X96197Y436414
X98197Y170414
X120197Y91414
X111197Y73414
X108197Y88414
X80197Y50414
T02
X44197Y51343
X44197Y61343
X44197Y100556
X44197Y110556
X44197Y149768
X44197Y159768
X44197Y198981
X44197Y208981
X44197Y248193
X44197Y258193
X44197Y297406
X44197Y307406
X44197Y346619
X44197Y356619
X44197Y395831
X44197Y405831
X44197Y445044
X44197Y455044
T03
X84197Y430437
X84197Y420437
X84197Y381225
X84197Y371225
X84197Y332012
X84197Y322012
X84197Y282800
X84197Y272800
X84197Y233587
X84197Y223587
X84197Y184375
X84197Y174375
X84197Y135162
X84197Y125162
X84197Y85949
X84197Y75949
X149197Y151414
X149197Y161414
X149197Y171414
X149197Y181414
X149197Y191414
X159197Y191414
X159197Y181414
X159197Y171414
X159197Y161414
X159197Y151414
X23197Y256414
X23197Y266414
X23197Y276414
X13197Y276414
X13197Y266414
X13197Y256414
T04
X18126Y56343
X18126Y130162
X110197Y130162
X163268Y56343
X106260Y376225
X163268Y450044
X18126Y376225
T05
X18126Y450044
M30
