C31 12.19  6.10   0 1uF 0805
C32 11.68 82.80 270 1uF 0805
C33 47.50 65.79   0 1uF 0805
CBZ 19.81 24.38  90 10uF 1210
CC1 32.77 68.83 270 1uF 0805
CC2 45.21 71.12 270 100nF 0805
CC4 17.53 60.45 270 220nF 0805
CC5 15.75 65.53   0 1uF 0805
CC6 30.73 60.20 270 220nF 0805
CC7 29.21 65.79   0 1uF 0805
CE1 23.37 90.93 180 3.3nF 0805
CE2 27.43 90.93   0 3.3nF 0805
CE3 35.31 90.93   0 3.3nF 0805
CE4 31.24 90.93 180 3.3nF 0805
CI1 88.90 38.61   0 100uF PANASONIC_D_XL
CI2 61.98  4.06 270 100nF 0805
CIC1 74.93 29.97   0 1uF 0805
CIC2 70.36 26.42 180 100nF 0805
CIR 54.86  5.59 270 1uF 0805
CIR1 52.58 22.10 270 3.3nF 0805
CIR2 64.77 22.10 270 3.3nF 0805
CM1 36.58 84.33   0 100nF 0805
CM2 46.23 78.23   0 100nF 0805
CM3 39.37 89.92   0 1uF 0805
CM4 45.97 86.11 270 100uF PANASONIC_D_XL
CQ2A 38.10 23.37 180 10uF 1210
CS1 84.58 93.22 180 100uF PANASONIC_D_XL
CS2 58.67 58.42 270 100nF 0805
CST 32.51 16.51   0 100nF 0805
CV1 75.18 57.66   0 100uF PANASONIC_D_XL
CVB 69.34 23.62 180 100nF 0805
CW1 79.50 63.25   0 1uF 0805
CW2 79.50 69.34 180 1uF 0805
DP 82.04  8.13 180 ES1B SMA-DIODE
FD1  6.86  6.86   0 FIDUCIAL1X2 FIDUCIAL-1X2
FD2  6.86 90.93   0 FIDUCIAL1X2 FIDUCIAL-1X2
FD3 90.93  6.86   0 FIDUCIAL1X2 FIDUCIAL-1X2
IC1 43.18 60.20 270 SN74HC04DR SO14
LED_PWR 52.07  4.06 270 RED LED-1206
LED_STATUS 57.91  4.06 270 GREEN LED-1206
MAIN_FUSE 83.83  3.56   0 SMF_OMNI-BLOK_FUSE_BLOCK SMF_OMNI-BLOK_FUSE_BLOCK
Q1 70.24  5.33  90 IPD80P03P4L D-PAK_TO252AA
Q2 41.40 19.05  90 DMN2029 SO8
QBZ 25.91 24.89 270 BSS138 SOT23
RBZ1 28.96 23.88 270 33R 0805
RBZ2 22.86 24.89  90 47k 0805
RC1 29.85 72.39  90 47k 0805
RC2 30.23 68.83  90 47k 0805
RC3 32.26 62.48   0 47k 0805
RC4 32.77 72.26  90 47k 0805
RC5 18.29 62.99   0 47k 0805
RC6 42.93 69.60  90 47k 0805
REG_3V3 79.50 66.55  90 MCP1700T-3302E/TT SOT95P237X112-3N
RIR1 57.40 22.10 270 6k8 0805
RIR2 59.94 22.10 270 6k8 0805
RIR3 62.48 22.10  90 3k6 0805
RIR4 54.86 22.10  90 3k6 0805
RIR5 47.50 21.59 180 47k 0805
RL1 57.91  8.38 180 330R 0805
RL2 52.83  8.64   0 560R 0805
RM 37.59 87.88 180 1R 0805
RQ1 76.45  5.33  90 220k 0805
RQ2A 47.75 17.53  90 47k 0805
RS1 59.69 92.71  90 1k 0805
RS2 59.69 86.61  90 1k 0805
RS3 59.69 80.52  90 1k 0805
RS4 59.69 74.42  90 1k 0805
RS5 59.69 68.33  90 1k 0805
RST 34.29 19.05 180 47k 0805
RVB1 61.98  7.87 270 15k 0805
RVB2 69.34 20.83   0 1.2k 0805
RX1 54.61 52.07  90 4.7k 0805
RX2 52.07 52.07 270 1k 0805
RX3 57.15 52.07  90 15k 0805
UC1 12.45 61.98 270 ACS712 SO08
UC2 25.65 61.72 270 ACS712 SO08
UC_OP 37.59 70.61   0 MCP6242-E/SN SOIC127P600X175-8N
UM 29.21 82.55 270 TB6612FNG SSOP24
